fractionalTimeIntervalSameOutputUnit,parseTimeInterval,
METHOD_0,METHOD_1,

gateway,SECONDS,timeIntervalValue,outputUnit,
IDENT_0,IDENT_1,IDENT_2,IDENT_3,







"0.8s",
STRING_0,

























