testNullInputAndUnit,parseTimeInterval,
METHOD_0,METHOD_1,

gateway,timeIntervalValue,outputUnit,defaultValue,
IDENT_0,IDENT_1,IDENT_2,IDENT_3,







"seconds",
STRING_0,

























