getIntShouldWorkBigEndianIndex0,allocate,putInt,flip,getInt,
METHOD_0,METHOD_1,METHOD_2,METHOD_3,METHOD_4,

gateway,BIG_ENDIAN,
IDENT_0,IDENT_1,

12345678,
INT_0,































