validMaxPositiveInteger,parsePositiveInteger,allocate,
METHOD_0,METHOD_1,METHOD_2,

gateway,mina,byteaccess,ByteArray,IoBuffer,bb,ba,
IDENT_0,IDENT_1,IDENT_2,IDENT_3,IDENT_4,IDENT_5,IDENT_6,







"bushells",
STRING_0,

























