shouldLoadAndInject,openConnection,getHelper,
METHOD_0,METHOD_1,METHOD_2,

netx,URLConnectionHelper,URLConnectionHelperTest,TestURLConnection,
IDENT_0,IDENT_1,IDENT_2,IDENT_3,







"test://case",
STRING_0,

























