testMixin2,TraceableReq,
METHOD_0,METHOD_1,

TraceableReq,enkan,DefaultHttpRequest,Traceable,t1,
IDENT_0,IDENT_1,IDENT_2,IDENT_3,IDENT_4,

1000000,
INT_0,




"ABC123",
STRING_0,

























