getSourceTypeToken,TestGenericConverter,
METHOD_0,METHOD_1,

beanmother,AbstractGenericConverterTest,TestGenericConverter,TypeToken,
IDENT_0,IDENT_1,IDENT_2,IDENT_3,


































