businessKeyJvm4,
METHOD_0,

testService,boot,autoconfigure,klock,
IDENT_0,IDENT_1,IDENT_2,IDENT_3,

60,
INT_0,




"kl","success",
STRING_0,STRING_1,

























