testConstructor,Constant,Pattern,getElements,
METHOD_0,METHOD_1,METHOD_2,METHOD_3,

kefirsf,bb,Constant,constant,Pattern,
IDENT_0,IDENT_1,IDENT_2,IDENT_3,IDENT_4,


































