limitingNullGivesNull,limit,
METHOD_0,METHOD_1,

khartec,waltz,StringUtilities,howMuch,maxLength,
IDENT_0,IDENT_1,IDENT_2,IDENT_3,IDENT_4,


































