testGetCurrentContentHash,getCurrentContentHash,
METHOD_0,METHOD_1,

actualHash,editor,expectedHash,fakeContent,level,
IDENT_0,IDENT_1,IDENT_2,IDENT_3,IDENT_4,

31,
INT_0,










~,
OP_0,



















