validNameTest,getValidationError,
METHOD_0,METHOD_1,

nameValidator,uberfire,NameValidatorTest,VALID_NAME,
IDENT_0,IDENT_1,IDENT_2,IDENT_3,


































