testGetScrollPanel,getScrollPanel,
METHOD_0,METHOD_1,

gwt,AbsolutePanel,expectedPanel,gridLienzoPanel,actualPanel,gridLienzoScrollHandler,scrollPanel,
IDENT_0,IDENT_1,IDENT_2,IDENT_3,IDENT_4,IDENT_5,IDENT_6,


































