findType,
METHOD_0,

uberfire,social,activities,SocialEventType,dummyType,socialEventTypeRepository,
IDENT_0,IDENT_1,IDENT_2,IDENT_3,IDENT_4,IDENT_5,







"DUMMY_EVENT","dcore",
STRING_0,STRING_1,

























