testSearchMaxItems,searchByName,
METHOD_0,METHOD_1,

guvnor,WorkspaceProject,searchService,fileAttrs,
IDENT_0,IDENT_1,IDENT_2,IDENT_3,







"item",
STRING_0,

























