readTillEnd,BoundedReader,
METHOD_0,METHOD_1,

BoundedReader,mr,sr,currentNumberOfBytes,startOffset,
IDENT_0,IDENT_1,IDENT_2,IDENT_3,IDENT_4,







"No bytes available.",
STRING_0,




--,
OP_0,



















