testAvailableWithoutBOM,BOMInputStream,createUtf8DataStream,available,
METHOD_0,METHOD_1,METHOD_2,METHOD_3,

avail,
IDENT_0,







'A','B','C','D',
STRING_0,STRING_1,STRING_2,STRING_3,

























