testInvalidURIGetPath,failBecauseExceptionWasNotThrown,isEqualTo,
METHOD_0,METHOD_1,METHOD_2,

uberfire,
IDENT_0,







"git:///master@new-get-repo-name/home","Parameter named 'uri' is invalid, missing host repository!",
STRING_0,STRING_1,

























