testEqualsAbstain,DotNamedPermission,implies,
METHOD_0,METHOD_1,METHOD_2,

uberfire,authz,Permission,p1,p2,permissionSet,permission,
IDENT_0,IDENT_1,IDENT_2,IDENT_3,IDENT_4,IDENT_5,IDENT_6,







"resource.read",
STRING_0,

























