testSearchCaseUnsensitive,searchByName,
METHOD_0,METHOD_1,

guvnor,structure,organizationalunit,OrganizationalUnit,searchService,fileAttrs,
IDENT_0,IDENT_1,IDENT_2,IDENT_3,IDENT_4,IDENT_5,







"item",
STRING_0,

























