testKieSession,refresh,getBean,
METHOD_0,METHOD_1,METHOD_2,

StatelessKieSession,ksession,applicationContext,
IDENT_0,IDENT_1,IDENT_2,







"ksession9",
STRING_0,

























