testSizeOfSimpleArrayLiteral,createExpression,MapContext,
METHOD_0,METHOD_1,METHOD_2,

jexl3,JexlExpression,JEXL,JexlContext,jc,
IDENT_0,IDENT_1,IDENT_2,IDENT_3,IDENT_4,







"size([ 'foo' , 'bar' ])",
STRING_0,

























