testLiteralWithStrings,createExpression,MapContext,
METHOD_0,METHOD_1,METHOD_2,

jexl3,JexlExpression,JEXL,JexlContext,jc,check,ArithmeticTest$Var,lhs,rhs,
IDENT_0,IDENT_1,IDENT_2,IDENT_3,IDENT_4,IDENT_5,IDENT_6,IDENT_7,IDENT_8,







"[ 'foo' , 'bar' ]",
STRING_0,

























