testNoChanges,createKieJar,getChanges,
METHOD_0,METHOD_1,METHOD_2,

drl1,drl2,InternalKieModule,kieJar1,kieJar2,KieJarChangeSet,changes,ChangeSetBuilder,
IDENT_0,IDENT_1,IDENT_2,IDENT_3,IDENT_4,IDENT_5,IDENT_6,IDENT_7,







"package org.drools\n","rule R1 when\n"," $m : Message( message == \"Hello World\" )\n","then\n","end\n","rule R2 when\n",
STRING_0,STRING_1,STRING_2,STRING_3,STRING_4,STRING_5,

























