testNotRemoveIdentities,newKnowledgeBase,addPackage,newKieSession,fireAllRules,
METHOD_0,METHOD_1,METHOD_2,METHOD_3,METHOD_4,

InternalKnowledgeBase,kBase,KnowledgeBaseFactory,pkg,ksession,
IDENT_0,IDENT_1,IDENT_2,IDENT_3,IDENT_4,







"F1","F2","F3","F4",
STRING_0,STRING_1,STRING_2,STRING_3,

























