testCollectionOrientedProperties,newAnotherKlass,newSubKlass,links,getLinks,
METHOD_0,METHOD_1,METHOD_2,METHOD_3,METHOD_4,

AnotherKlass,aki0,AnotherKlass_,aki1,aki2,aki3,aki4,initial,SubKlass,ski,SubKlass_,Lit,SET,REMOVE,ADD,
IDENT_0,IDENT_1,IDENT_2,IDENT_3,IDENT_4,IDENT_5,IDENT_6,IDENT_7,IDENT_8,IDENT_9,IDENT_10,IDENT_11,IDENT_12,IDENT_13,IDENT_14,







"000","001","002","003","004","123",
STRING_0,STRING_1,STRING_2,STRING_3,STRING_4,STRING_5,

























