testIterator,Random,nextInt,fastIterator,checkUpperBound,recurse,
METHOD_0,METHOD_1,METHOD_2,METHOD_3,METHOD_4,METHOD_5,

ITEMS,RBTree,Random,FastIterator,fastIterator,lastKey,MIN_VALUE,currentKey,K,V,temp,
IDENT_0,IDENT_1,IDENT_2,IDENT_3,IDENT_4,IDENT_5,IDENT_6,IDENT_7,IDENT_8,IDENT_9,IDENT_10,

10000,
INT_0,




" should be greater than ",
STRING_0,

























