test290b,JexlBuilder,strict,createScript,
METHOD_0,METHOD_1,METHOD_2,METHOD_3,

jexl3,JexlScript,srcs,JexlEngine,jexl,src,introspection,JexlSandbox,Permissions,permissions,sandbox,white,
IDENT_0,IDENT_1,IDENT_2,IDENT_3,IDENT_4,IDENT_5,IDENT_6,IDENT_7,IDENT_8,IDENT_9,IDENT_10,IDENT_11,







"(x)->{ x?.nothing()?.toString() }","(x)->{ x.toString()?.nothing() }","(x)->{ x?.nothing().nothing() }","abc",
STRING_0,STRING_1,STRING_2,STRING_3,

























