test271b,createEngine,createScript,checkCacheVersion,createFrame,createInterpreter,interpret,
METHOD_0,METHOD_1,METHOD_2,METHOD_3,METHOD_4,METHOD_5,METHOD_6,

jexl3,JexlEngine,jexl,JexlScript,JexlContext,Scope,Frame,frame,Interpreter,interpreter,
IDENT_0,IDENT_1,IDENT_2,IDENT_3,IDENT_4,IDENT_5,IDENT_6,IDENT_7,IDENT_8,IDENT_9,







"var base = 2; var sum = (x, y, z)->{ base + x + y + z }; var y = sum.curry(1); y(2,3)",
STRING_0,

























