testNotEmptyPredicate,getCanonicalName,getKieSession,fireAllRules,getObjectsIntoList,
METHOD_0,METHOD_1,METHOD_2,METHOD_3,METHOD_4,

modelcompiler,KieSession,ksession,mario,
IDENT_0,IDENT_1,IDENT_2,IDENT_3,

40,
INT_0,




"import ",";","rule R when\n"," not( Person( ) )\n","then\n"," insert(new Result(\"ok\"));\n","end","Mario",
STRING_0,STRING_1,STRING_2,STRING_3,STRING_4,STRING_5,STRING_6,STRING_7,

























