checkInstanceIdentity,
METHOD_0,

screens,guided,dtable,GuidedDTGraphXMLPersistence,s1,s2,
IDENT_0,IDENT_1,IDENT_2,IDENT_3,IDENT_4,IDENT_5,


































