testBadOperator,setOperator,SimpleSegmentPredicate,getPredicateRule,
METHOD_0,METHOD_1,METHOD_2,METHOD_3,

predicate,pmml,pmml_4_2,mining,SimpleSegmentPredicateTest,BAD_OP,SimpleSegmentPredicate,ssp,alwaysTrue,
IDENT_0,IDENT_1,IDENT_2,IDENT_3,IDENT_4,IDENT_5,IDENT_6,IDENT_7,IDENT_8,







"(1 == 1)","(1 == 0)",
STRING_0,STRING_1,

























