testGetContentSupplier,getContent,getContentSupplier,
METHOD_0,METHOD_1,METHOD_2,

screens,enums,editor,EnumRow,enumRows,Supplier,contentSupplier,presenter,
IDENT_0,IDENT_1,IDENT_2,IDENT_3,IDENT_4,IDENT_5,IDENT_6,IDENT_7,


































