getReader,getAnalysis,isError,
METHOD_0,METHOD_1,METHOD_2,

dmn,DMNMessage,dtanalysis,ANALYZE_DECISION_TABLE,DTAnalysis,
IDENT_0,IDENT_1,IDENT_2,IDENT_3,IDENT_4,







"SomeProblem-ruleOutsideDomain.dmn","_4466518e-6240-46b0-bcb4-c7ddf5560e3a",
STRING_0,STRING_1,

























