testCanSetOperatorWhenEditingColIsNotNull,getFactField,hasFactField,nil,
METHOD_0,METHOD_1,METHOD_2,METHOD_3,










"factField",
STRING_0,

























