testGetRowCount,Spreadsheet,buildSpreadsheet,getRowCount,
METHOD_0,METHOD_1,METHOD_2,METHOD_3,

adobe,acs,Spreadsheet,SpreadsheetTest,workbookData,rowCount,
IDENT_0,IDENT_1,IDENT_2,IDENT_3,IDENT_4,IDENT_5,


































