testIgnoresNulls,AuditLogger,getLog,
METHOD_0,METHOD_1,METHOD_2,

KieSession,ksessions,screens,testscenario,AuditLogger,auditLogger,
IDENT_0,IDENT_1,IDENT_2,IDENT_3,IDENT_4,IDENT_5,


































