testIsEmptyWhenNoItems,setupItems,dayTimeValues,allMatch,
METHOD_0,METHOD_1,METHOD_2,METHOD_3,

presenter,isNone,
IDENT_0,IDENT_1,


































