testGetUUID,getExpression,getUUID,
METHOD_0,METHOD_1,METHOD_2,

dmn,definition,v1_1,Expression,Id,expectedUUID,actualUUID,stunner,
IDENT_0,IDENT_1,IDENT_2,IDENT_3,IDENT_4,IDENT_5,IDENT_6,IDENT_7,







"uuid",
STRING_0,

























