testProbability,probability,
METHOD_0,METHOD_1,

points,density,testDistribution,innerDistribution,
IDENT_0,IDENT_1,IDENT_2,IDENT_3,










3.0,4.0,5.0,6.0,7.0,8.0,0.2,0.5,0.3,
FLOAT_0,FLOAT_1,FLOAT_2,FLOAT_3,FLOAT_4,FLOAT_5,FLOAT_6,FLOAT_7,FLOAT_8,






















