testParseFEELListWithASpecialCharacter,parseFEELList,orElseGet,
METHOD_0,METHOD_1,METHOD_2,

actualList,expectedList,getTextElements,
IDENT_0,IDENT_1,IDENT_2,







"%20C",
STRING_0,

























