testHeaderHeight,getHeaderHeight,getHeaderRowHeightInternal,getHeaderRowCount,
METHOD_0,METHOD_1,METHOD_2,METHOD_3,

gridData,
IDENT_0,


































