testName,IncludedModel,Name,getIndexedImports,
METHOD_0,METHOD_1,METHOD_2,METHOD_3,

dmn,definition,v1_1,Import,import1,import2,import3,imports,editors,included,IncludedModel,modelsIndex,rootPath,
IDENT_0,IDENT_1,IDENT_2,IDENT_3,IDENT_4,IDENT_5,IDENT_6,IDENT_7,IDENT_8,IDENT_9,IDENT_10,IDENT_11,IDENT_12,







"foo bar","bla",
STRING_0,STRING_1,

























