testGetValueWhenCheckBoxIsNotChecked,
METHOD_0,

expectedValue,inputCheckbox,checked,actualValue,selectorInput,
IDENT_0,IDENT_1,IDENT_2,IDENT_3,IDENT_4,


































