testIsDateSetInInputNotATime,isDateSetInInput,getInputBind,
METHOD_0,METHOD_1,METHOD_2,

picker,stunner,
IDENT_0,IDENT_1,







"1234",":",
STRING_0,STRING_1,

























