testPlaceHolder,setPlaceHolder,getPlaceHolder,
METHOD_0,METHOD_1,METHOD_2,

definition,dmn,QNameFieldDefinitionTest,PLACE_HOLDER,placeHolder,
IDENT_0,IDENT_1,IDENT_2,IDENT_3,IDENT_4,


































