testGetNodes,getGraph,getNodes,ifPresent,forEach,
METHOD_0,METHOD_1,METHOD_2,METHOD_3,METHOD_4,

stunner,Graph,node1,node2,Iterable,expectedNodes,notifier,actualNodes,
IDENT_0,IDENT_1,IDENT_2,IDENT_3,IDENT_4,IDENT_5,IDENT_6,IDENT_7,


































