testGetContent,getContent,
METHOD_0,METHOD_1,

forms,editor,FormModelerContent,resContent,formEditorHelper,
IDENT_0,IDENT_1,IDENT_2,IDENT_3,IDENT_4,


































