testGetFormDefinition,getFormDefinition,getDefinition,
METHOD_0,METHOD_1,METHOD_2,

forms,FormDefinition,formDefinition,formEditorHelper,definition,
IDENT_0,IDENT_1,IDENT_2,IDENT_3,IDENT_4,


































