testSimpleNoDecimals,Cartesian3D,FieldPosition,
METHOD_0,METHOD_1,METHOD_2,

euclidean,threed,Cartesian3D,vector3DFormat,Vector,vector,
IDENT_0,IDENT_1,IDENT_2,IDENT_3,IDENT_4,IDENT_5,







"{1; 1; 1}",
STRING_0,

























