testNan,FieldPosition,
METHOD_0,METHOD_1,

euclidean,threed,Cartesian3D,NaN,vector3DFormat,Vector,vector,
IDENT_0,IDENT_1,IDENT_2,IDENT_3,IDENT_4,IDENT_5,IDENT_6,







"{(NaN); (NaN); (NaN)}",
STRING_0,

























