testGrid,setGrid,getGrid,
METHOD_0,METHOD_1,METHOD_2,

stunner,canvas,CanvasGrid,tested,canvasView,
IDENT_0,IDENT_1,IDENT_2,IDENT_3,IDENT_4,


































