testParseNegativeAll,getDecimalCharacter,Cartesian2D,ParsePosition,getIndex,MathParseException,getErrorIndex,
METHOD_0,METHOD_1,METHOD_2,METHOD_3,METHOD_4,METHOD_5,METHOD_6,

euclidean,twod,Vector2D,vector2DFormat,ParsePosition,parsePosition,
IDENT_0,IDENT_1,IDENT_2,IDENT_3,IDENT_4,IDENT_5,







"{-1","2323; -1","4343}",
STRING_0,STRING_1,STRING_2,

1.2323,1.4343,
FLOAT_0,FLOAT_1,






















