testGetBytes,CacheEntry,setData,getData,forName,
METHOD_0,METHOD_1,METHOD_2,METHOD_3,METHOD_4,

adobe,acs,errorpagehandler,CacheEntry,cacheEntry,charset,Charset,
IDENT_0,IDENT_1,IDENT_2,IDENT_3,IDENT_4,IDENT_5,IDENT_6,

11,
INT_0,




"hello world","UTF-8",
STRING_0,STRING_1,

























