provideFiltersCase,testAndGetFormElementFilter,getPredicate,
METHOD_0,METHOD_1,METHOD_2,

forms,adf,FormElementFilter,predicate,
IDENT_0,IDENT_1,IDENT_2,IDENT_3,


































