testInitialize,doNothing,refreshView,initialize,getCard,
METHOD_0,METHOD_1,METHOD_2,METHOD_3,METHOD_4,

cards,CardComponent,card,cardFrame,
IDENT_0,IDENT_1,IDENT_2,IDENT_3,


































