testGetTitle,getTitle,
METHOD_0,METHOD_1,

expectedTitle,titleInput,actualTitle,cardFrameView,
IDENT_0,IDENT_1,IDENT_2,IDENT_3,







"title",
STRING_0,

























