testEquality,NamedDoubleRecord,getSize,
METHOD_0,METHOD_1,METHOD_2,

kieker,opad,NamedDoubleRecord,oneRecord,STRING_VALUES,LONG_VALUES,DOUBLE_VALUES,copiedRecord,points,
IDENT_0,IDENT_1,IDENT_2,IDENT_3,IDENT_4,IDENT_5,IDENT_6,IDENT_7,IDENT_8,













%,
OP_0,



















