testReverseOddLengthArray,reverse,swap,
METHOD_0,METHOD_1,METHOD_2,

killeent,Array,hi,lo,
IDENT_0,IDENT_1,IDENT_2,IDENT_3,







"arr is null","hi < lo",
STRING_0,STRING_1,




--,
OP_0,



















