testHasNext_NotEnoughPayload,allocate,putInt,MessageIterator,
METHOD_0,METHOD_1,METHOD_2,METHOD_3,

MessageUtils,HEADER_LEN,taobao,metamorphosis,
IDENT_0,IDENT_1,IDENT_2,IDENT_3,


































