toStringer,KickCommand,ToStringer,getClient,
METHOD_0,METHOD_1,METHOD_2,METHOD_3,

kitteh,irc,KickCommand,KickCommandTest,CHANNEL,
IDENT_0,IDENT_1,IDENT_2,IDENT_3,IDENT_4,







"client","server","target",
STRING_0,STRING_1,STRING_2,

























