testReadAfterStringByteArrayInt2,readAfterString,readToString,
METHOD_0,METHOD_1,METHOD_2,

nx42,maps4cim,HeaderParser,HeaderParserTest,inputString,off,
IDENT_0,IDENT_1,IDENT_2,IDENT_3,IDENT_4,IDENT_5,

44,
INT_0,































