shouldGenerateContext,generateContext,getContextOpId,peek,getOpId,
METHOD_0,METHOD_1,METHOD_2,METHOD_3,METHOD_4,

operationContext,
IDENT_0,


































