retrieve,readBytes,getRawBytes,getBody,
METHOD_0,METHOD_1,METHOD_2,METHOD_3,

baidu,unbiz,access,Resource,raw,StreamUtil,
IDENT_0,IDENT_1,IDENT_2,IDENT_3,IDENT_4,IDENT_5,







"properties",
STRING_0,

























