testConnectInvalid,DummyServer,stop,
METHOD_0,METHOD_1,METHOD_2,

wpi,rail,jrosbridge,DummyServer,
IDENT_0,IDENT_1,IDENT_2,IDENT_3,

9091,
INT_0,































