testCopyFileToStream,newFolder,ascii,createFile,cp,arraycopy,
METHOD_0,METHOD_1,METHOD_2,METHOD_3,METHOD_4,METHOD_5,

tmp,src,dst,kocakosm,pitaya,XFiles,
IDENT_0,IDENT_1,IDENT_2,IDENT_3,IDENT_4,IDENT_5,







"Hello","hello.txt",
STRING_0,STRING_1,

























