testMarkSupported,LimitInputStream,markSupported,
METHOD_0,METHOD_1,METHOD_2,

kocakosm,pitaya,LimitInputStreamTest,DATA,
IDENT_0,IDENT_1,IDENT_2,IDENT_3,


































