testNewWriterWithUpdateOption,newFolder,createFile,newWriter,flush,
METHOD_0,METHOD_1,METHOD_2,METHOD_3,METHOD_4,

tmp,txt,Writer,kocakosm,pitaya,TextFiles,WriteOption,UPDATE,Reader,
IDENT_0,IDENT_1,IDENT_2,IDENT_3,IDENT_4,IDENT_5,IDENT_6,IDENT_7,IDENT_8,

4096,
INT_0,




"hello.txt","Test","Hello",
STRING_0,STRING_1,STRING_2,

























