testNewOutputStream,newFolder,createFile,ascii,newOutputStream,flush,
METHOD_0,METHOD_1,METHOD_2,METHOD_3,METHOD_4,METHOD_5,

tmp,txt,OutputStream,kocakosm,pitaya,XFiles,charset,ASCII,
IDENT_0,IDENT_1,IDENT_2,IDENT_3,IDENT_4,IDENT_5,IDENT_6,IDENT_7,







"hello.txt","Hello","World",
STRING_0,STRING_1,STRING_2,

























