testEncodeAndDecodeLong,nextLong,decodeLong,
METHOD_0,METHOD_1,METHOD_2,

kocakosm,pitaya,BigEndianTest,RND,BigEndian,
IDENT_0,IDENT_1,IDENT_2,IDENT_3,IDENT_4,

10000,
INT_0,































