testSingleDown,SemiVariance,NullArgumentException,
METHOD_0,METHOD_1,METHOD_2,

stat,descriptive,moment,SemiVariance,sv,singletest,LocalizedFormats,INPUT_ARRAY,
IDENT_0,IDENT_1,IDENT_2,IDENT_3,IDENT_4,IDENT_5,IDENT_6,IDENT_7,










50.0,
FLOAT_0,






















