testGetEstimatedDurationWithNoRuns,createMockProject,getEstimatedDuration,
METHOD_0,METHOD_1,METHOD_2,

SortedMap,SimpleJobTest,TestBuild,runs,TreeMap,Job,
IDENT_0,IDENT_1,IDENT_2,IDENT_3,IDENT_4,IDENT_5,


































