canProcessSuccessfullResuls,PagedList,mkRequest,ifSuccess,getBody,
METHOD_0,METHOD_1,METHOD_2,METHOD_3,METHOD_4,

kong,unirest,PagedList,processed,
IDENT_0,IDENT_1,IDENT_2,IDENT_3,







"baz",
STRING_0,

























