empty_string,ProcessParser,
METHOD_0,METHOD_1,

extensions,quick,ProcessParser,parsar,parsed,
IDENT_0,IDENT_1,IDENT_2,IDENT_3,IDENT_4,


































