testAllTechniques5,reset,getUnivariateStatistic,testAssertMappedValues,getTolerance,NullArgumentException,
METHOD_0,METHOD_1,METHOD_2,METHOD_3,METHOD_4,METHOD_5,

Percentile,EstimationType,LEGACY,stat,descriptive,UnivariateStatistic,percentile,testArray,rank,percentile5,R_1,R_2,R_3,R_4,R_5,R_6,R_7,R_8,R_9,LocalizedFormats,INPUT_ARRAY,
IDENT_0,IDENT_1,IDENT_2,IDENT_3,IDENT_4,IDENT_5,IDENT_6,IDENT_7,IDENT_8,IDENT_9,IDENT_10,IDENT_11,IDENT_12,IDENT_13,IDENT_14,IDENT_15,IDENT_16,IDENT_17,IDENT_18,IDENT_19,IDENT_20,










8.8,8.2,8.26,8.56,8.29,8.81,8.47,8.4925,5.0,
FLOAT_0,FLOAT_1,FLOAT_2,FLOAT_3,FLOAT_4,FLOAT_5,FLOAT_6,FLOAT_7,FLOAT_8,






















