testBigDataSetOverflow,mannWhitneyUTest,ensureDataConformance,mannWhitneyU,calculateAsymptoticPValue,
METHOD_0,METHOD_1,METHOD_2,METHOD_3,METHOD_4,

d1,d2,testStatistic,Umax,Umin,
IDENT_0,IDENT_1,IDENT_2,IDENT_3,IDENT_4,

110000,
INT_0,































