testEqualsNull,
METHOD_0,

aScale,aNumber,teavm,classlib,TParsePosition,currentPosition,errorIndex,
IDENT_0,IDENT_1,IDENT_2,IDENT_3,IDENT_4,IDENT_5,IDENT_6,

24,
INT_0,




"92948782094488478231212478987482988429808779810457634781384756794987",
STRING_0,

























