testIntValueNegative3,intValue,
METHOD_0,METHOD_1,

aBytes,sign,resInt,aNumber,
IDENT_0,IDENT_1,IDENT_2,IDENT_3,

56,76,127,45,91,2133678851,
INT_0,INT_1,INT_2,INT_3,INT_4,INT_5,































