testTestBitNegative3,testBit,ArithmeticException,getFirstNonzeroDigit,
METHOD_0,METHOD_1,METHOD_2,METHOD_3,

aBytes,aSign,number,aNumber,digits,intCount,numberLength,sign,digit,firstNonZeroDigit,
IDENT_0,IDENT_1,IDENT_2,IDENT_3,IDENT_4,IDENT_5,IDENT_6,IDENT_7,IDENT_8,IDENT_9,

128,56,76,89,45,91,35,26,300,31,
INT_0,INT_1,INT_2,INT_3,INT_4,INT_5,INT_6,INT_7,INT_8,INT_9,




"Negative bit address",
STRING_0,




~,
OP_0,



















