lambdaWorks,SuppressWarnings,getComponentType,
METHOD_0,METHOD_1,METHOD_2,

src,teavm,classlib,LambdaTest,LambdaTest$Function,Array,
IDENT_0,IDENT_1,IDENT_2,IDENT_3,IDENT_4,IDENT_5,







"unchecked",
STRING_0,

























