testFindBoundaryCases5,compile,
METHOD_0,METHOD_1,

Pattern,pat,Matcher,mat,
IDENT_0,IDENT_1,IDENT_2,IDENT_3,







".*A.*","\nA\naaa\nA\naaAaa\naaaA\n","A","aaAaa","aaaA",
STRING_0,STRING_1,STRING_2,STRING_3,STRING_4,

























