testAppendSlashes,compile,appendReplacement,appendTail,
METHOD_0,METHOD_1,METHOD_2,METHOD_3,

Pattern,Matcher,currentPosition,errorIndex,
IDENT_0,IDENT_1,IDENT_2,IDENT_3,







"\\\\","one\\cat\\two\\cats\\in\\the\\yard","[index=",", errorIndex=",
STRING_0,STRING_1,STRING_2,STRING_3,

























