putsLong,wrap,requireNonNull,isFull,waitForChange,addImpl,
METHOD_0,METHOD_1,METHOD_2,METHOD_3,METHOD_4,METHOD_5,

LongBuffer,E,Objects,
IDENT_0,IDENT_1,IDENT_2,


































