addWordVerticalSuccesTest,addWord,HAWord,HAEntity,
METHOD_0,METHOD_1,METHOD_2,METHOD_3,

crossword,unima,dws,semanta,words,
IDENT_0,IDENT_1,IDENT_2,IDENT_3,IDENT_4,







"germany",
STRING_0,

























