testIterator,emptyVector,cons,
METHOD_0,METHOD_1,METHOD_2,

krukow,clj_lang,PersistentVector,vec,hs,N,APersistentTrie,
IDENT_0,IDENT_1,IDENT_2,IDENT_3,IDENT_4,IDENT_5,IDENT_6,

32,33,
INT_0,INT_1,































