queryPageRanksTest,queryOrderedPageRanks,
METHOD_0,METHOD_1,

ranks,unima,dws,semanta,SparqlService,words,
IDENT_0,IDENT_1,IDENT_2,IDENT_3,IDENT_4,IDENT_5,

300,
INT_0,




"http://dbpedia.org/resource/Barack_Obama",
STRING_0,

























