testIsArrivalCircleEntered,setArrivalCircleEntered,isArrivalCircleEntered,getCharValue,
METHOD_0,METHOD_1,METHOD_2,METHOD_3,

marineapi,nmea,APBParser,CIRCLE_STATUS,
IDENT_0,IDENT_1,IDENT_2,IDENT_3,







'A',
STRING_0,

























