shouldIndicateActiveAfterStart,RedisServer,stop,isActive,
METHOD_0,METHOD_1,METHOD_2,METHOD_3,

redisServer,embedded,active,
IDENT_0,IDENT_1,IDENT_2,

6379,
INT_0,































