testGetMessageType,getMessageType,getSixbit,getInt,
METHOD_0,METHOD_1,METHOD_2,METHOD_3,

marineapi,ais,AISMessageParser,FROM,MESSAGE_TYPE,TO,
IDENT_0,IDENT_1,IDENT_2,IDENT_3,IDENT_4,IDENT_5,


































