testDistanceTo,Position,distanceTo,haversine,getLatitude,getLongitude,
METHOD_0,METHOD_1,METHOD_2,METHOD_3,METHOD_4,METHOD_5,

marineapi,nmea,Position,origin,destination,distance,
IDENT_0,IDENT_1,IDENT_2,IDENT_3,IDENT_4,IDENT_5,

90,60,
INT_0,INT_1,







0.123,25.0,1852.0,
FLOAT_0,FLOAT_1,FLOAT_2,






















