testPutAll,setManyMixedKeys,putAll,ensureMutable,
METHOD_0,METHOD_1,METHOD_2,METHOD_3,

failedAsExpected,UnsupportedOperationException,
IDENT_0,IDENT_1,







"meaningless",
STRING_0,

























