testEmptyActionItemList,getActionListCustomizations,
METHOD_0,METHOD_1,

kuali,rice,kew,ActionItemCustomization,customizations,mediator,ActionItem,
IDENT_0,IDENT_1,IDENT_2,IDENT_3,IDENT_4,IDENT_5,IDENT_6,







"gilesp",
STRING_0,

























