literalEqualType,createLiteral,
METHOD_0,METHOD_1,

rdf,jsonldjava,JsonLdLiteral,lit1,Types,XSD_INTEGER,lit2,IRI,rdf4jFactory,lexicalForm,dataType,
IDENT_0,IDENT_1,IDENT_2,IDENT_3,IDENT_4,IDENT_5,IDENT_6,IDENT_7,IDENT_8,IDENT_9,IDENT_10,


































