testNullNamespace,loadKubeConfig,StringReader,getNamespace,
METHOD_0,METHOD_1,METHOD_2,METHOD_3,

kubernetes,KubeConfig,KubeConfigTest,GCP_CONFIG,namespace,
IDENT_0,IDENT_1,IDENT_2,IDENT_3,IDENT_4,


































