testIgnoreFooter,SkipFooterLineItemProcessor,
METHOD_0,METHOD_1,

itemProcessor,langmi,spring,readers,footer,
IDENT_0,IDENT_1,IDENT_2,IDENT_3,IDENT_4,







"footer",
STRING_0,

























