testTokenizeUrl,tokenize,
METHOD_0,METHOD_1,

testList,w,languagetool,
IDENT_0,IDENT_1,IDENT_2,







"http://youtube.com:80/herewego?start=11&quality=high%3F",
STRING_0,

























