matMulTest,Matrix,mul,ArithmeticException,
METHOD_0,METHOD_1,METHOD_2,METHOD_3,

languagetool,neuralnetwork,Matrix,rowsA,colsA,rowsB,colsB,
IDENT_0,IDENT_1,IDENT_2,IDENT_3,IDENT_4,IDENT_5,IDENT_6,

11,17,
INT_0,INT_1,




"Matrix with "," columns cannot be multiplied with matrix with "," rows",
STRING_0,STRING_1,STRING_2,

























