shouldReturnNullWithBadUrl,Driver,isNull,getDriver,
METHOD_0,METHOD_1,METHOD_2,METHOD_3,

Driver,Connection,Objects,
IDENT_0,IDENT_1,IDENT_2,







"jdbc:mysql:localhost",
STRING_0,

























