processError,doThrow,anyLong,
METHOD_0,METHOD_1,METHOD_2,

mockDelegate,dbFilePath,recordCount,availableRegionSize,
IDENT_0,IDENT_1,IDENT_2,IDENT_3,

10L,
INT_0,




"myfile","Error post processing file: ",
STRING_0,STRING_1,

























