recordingWithoutRedirectedGidsHasOneGid,getGids,
METHOD_0,METHOD_1,

fm,last,musicbrainz,Recording,recording,ImmutableSet,redirectedGids,gid,
IDENT_0,IDENT_1,IDENT_2,IDENT_3,IDENT_4,IDENT_5,IDENT_6,IDENT_7,


































