test_deleteBy,setTemplateRootDir,deleteBy,processTemplateRootDirs,
METHOD_0,METHOD_1,METHOD_2,METHOD_3,

templateModel,filePathModel,cn,rapid_framework,Generator,
IDENT_0,IDENT_1,IDENT_2,IDENT_3,IDENT_4,







"/not_exist_828282",
STRING_0,

























