shiftByWordSizeBits,bitmapOf,shift,
METHOD_0,METHOD_1,METHOD_2,

positions,javaewah,EWAHCompressedBitmap,bm1,bm2,WORD_IN_BITS,bm3,
IDENT_0,IDENT_1,IDENT_2,IDENT_3,IDENT_4,IDENT_5,IDENT_6,

11,13,
INT_0,INT_1,































