shiftbug001,bitmapOf,shift,or,calculateInitialSize,EWAHCompressedBitmap,orWithContainer,
METHOD_0,METHOD_1,METHOD_2,METHOD_3,METHOD_4,METHOD_5,METHOD_6,

javaewah,EWAHCompressedBitmap,bm1,bm2,bm3,bm4,bitmaps,largestSize,
IDENT_0,IDENT_1,IDENT_2,IDENT_3,IDENT_4,IDENT_5,IDENT_6,IDENT_7,

11,13,14,
INT_0,INT_1,INT_2,







1.5,
FLOAT_0,






















