issue59,bitmapOf,chunkIterator,move,nextLength,
METHOD_0,METHOD_1,METHOD_2,METHOD_3,METHOD_4,

javaewah32,EWAHCompressedBitmap32,bitmap,javaewah,ChunkIterator,iter,
IDENT_0,IDENT_1,IDENT_2,IDENT_3,IDENT_4,IDENT_5,

243,260,245,
INT_0,INT_1,INT_2,































