min_value_hashmap_java8,Framework,
METHOD_0,METHOD_1,

Comparator,valueComparator,entry1,entry2,minValue,mapOfValues,levelup,OptionalExample,Framework,communityUsers,
IDENT_0,IDENT_1,IDENT_2,IDENT_3,IDENT_4,IDENT_5,IDENT_6,IDENT_7,IDENT_8,IDENT_9,

200000,
INT_0,




"Java",
STRING_0,

























