testModelAndView,ModelAndView,getModel,
METHOD_0,METHOD_1,METHOD_2,

blade,mvc,ModelAndView,modelAndView,
IDENT_0,IDENT_1,IDENT_2,IDENT_3,


































