


numbersAsStrings,doubles,Collections2,Function,levelup,guava,
IDENT_0,IDENT_1,IDENT_2,IDENT_3,IDENT_4,IDENT_5,







"3","[unknown]",
STRING_0,STRING_1,

























