find_elements_in_lists_with_guava,
METHOD_0,

numbers,Iterables,Predicate,number,
IDENT_0,IDENT_1,IDENT_2,IDENT_3,







"[unknown]",
STRING_0,

























