test_validWeight,validWeight,
METHOD_0,METHOD_1,

levelup,exercises,beginner,MassAndWeight,weight,
IDENT_0,IDENT_1,IDENT_2,IDENT_3,IDENT_4,

500,
INT_0,




"The object is to heavy","The object is to light",
STRING_0,STRING_1,

























