test_computerChoice,computerChoice,Random,nextInt,getChoice,
METHOD_0,METHOD_1,METHOD_2,METHOD_3,METHOD_4,

Random,rand,num,levelup,exercises,beginner,RockPaperScissorsGame,
IDENT_0,IDENT_1,IDENT_2,IDENT_3,IDENT_4,IDENT_5,IDENT_6,


































