test_calculateStockCost,calculateStockCost,
METHOD_0,METHOD_1,

cost,levelup,exercises,beginner,StockCommission,stockPrice,commission,
IDENT_0,IDENT_1,IDENT_2,IDENT_3,IDENT_4,IDENT_5,IDENT_6,










0.1,
FLOAT_0,






















