map_to_doublestream,mapToDouble,getAsDouble,
METHOD_0,METHOD_1,METHOD_2,

doubles,OptionalDouble,doubleStream,parseDouble,
IDENT_0,IDENT_1,IDENT_2,IDENT_3,







"3",
STRING_0,

























