test_isNotValidChoice,isValidChoice,findAny,isPresent,
METHOD_0,METHOD_1,METHOD_2,METHOD_3,

levelup,exercises,beginner,ESPGame,choices,
IDENT_0,IDENT_1,IDENT_2,IDENT_3,IDENT_4,







"greennn",
STRING_0,

























