testMaxRecommended,setInt,getSize,getPipeline,getConfiguration,getRecommendedPartitions,
METHOD_0,METHOD_1,METHOD_2,METHOD_3,METHOD_4,METHOD_5,

PartitionUtils,MAX_REDUCERS,pcollection,crunch,PCollection,
IDENT_0,IDENT_1,IDENT_2,IDENT_3,IDENT_4,

400,1000L,
INT_0,INT_1,































