canConstructAPersonWithAName,Text,getShell,bot,
METHOD_0,METHOD_1,METHOD_2,METHOD_3,

gradle,ide,swtbot,NAME,
IDENT_0,IDENT_1,IDENT_2,IDENT_3,







"Larry",
STRING_0,

























