testInvalidExpression1,pow,intValue,
METHOD_0,METHOD_1,METHOD_2,

_allFunction,n1,n2,
IDENT_0,IDENT_1,IDENT_2,

11,
INT_0,




"#invalid# > 10",
STRING_0,

























