testReadEntityWithNullOutMessage,readEntity,
METHOD_0,METHOD_1,

INTERNAL_SERVER_ERROR,GenericType,
IDENT_0,IDENT_1,







"ouch",
STRING_0,

























