testFromEncodedDuplicateVar2,fromPath,buildFromEncoded,
METHOD_0,METHOD_1,METHOD_2,

UriBuilder,
IDENT_0,







"http://localhost:8080/xy/%20/%25/xy","http://localhost:8080","/{x}/{y}/{z}/{x}","xy","%",
STRING_0,STRING_1,STRING_2,STRING_3,STRING_4,

























