testSumAggregation,sum,
METHOD_0,METHOD_1,

aggregation,SumAggregation,sumAggregation,aggregations,AggregationsInstantiationTest,_aggregations,
IDENT_0,IDENT_1,IDENT_2,IDENT_3,IDENT_4,IDENT_5,







"field",
STRING_0,

























