testBuilder,idOrCode,language,TransactionConfig,
METHOD_0,METHOD_1,METHOD_2,METHOD_3,

Script,ScriptsInstantiationTest,_scripts,
IDENT_0,IDENT_1,IDENT_2,







"Math.min(1, 1)","painless",
STRING_0,STRING_1,

























