offsetTime,ofHours,getConverter,getAnnotations,fromString,
METHOD_0,METHOD_1,METHOD_2,METHOD_3,METHOD_4,

OffsetTime,ZoneOffset,ParamConverter,
IDENT_0,IDENT_1,IDENT_2,

33,24,
INT_0,INT_1,































