test_i18n_request,whenNew,withParameterTypes,withArguments,i18n,I18n,
METHOD_0,METHOD_1,METHOD_2,METHOD_3,METHOD_4,METHOD_5,

day,cq,i18n,I18n,mocked,powermock,PowerMockito,HttpServletRequest,i18nProvider,
IDENT_0,IDENT_1,IDENT_2,IDENT_3,IDENT_4,IDENT_5,IDENT_6,IDENT_7,IDENT_8,


































