testExistingAsteriscs,getCurrentURI,pop,
METHOD_0,METHOD_1,METHOD_2,

u,WebClient,warnings,
IDENT_0,IDENT_1,IDENT_2,

128,
INT_0,




"http://foo/*","\n Summary: "," Failures: ",", Warnings: ","\n\n <<< ERROR! \n",'\n',"\n <<< WARNING! \n",
STRING_0,STRING_1,STRING_2,STRING_3,STRING_4,STRING_5,STRING_6,

























