testEqualsAddressQuery4,queryBooks,getSize,
METHOD_0,METHOD_1,METHOD_2,

beanPropertiesMap,Book,books,
IDENT_0,IDENT_1,IDENT_2,







"street","address.street","street==Str*t*",
STRING_0,STRING_1,STRING_2,

























