testReplaceCountWithIncorrectAlias,getCountFunction,isUrl,
METHOD_0,METHOD_1,METHOD_2,

Function,transformer,JPQLToHQLTransformerLogic,Validator,
IDENT_0,IDENT_1,IDENT_2,IDENT_3,







"SELECT COUNT(bar) FROM Foo foo",
STRING_0,

























