testNumber2,convertType,intValue,
METHOD_0,METHOD_1,METHOD_2,

Number,negativeNumber,convertedNumber,_converter,ExpandoColumnConstants,NUMBER,_state,
IDENT_0,IDENT_1,IDENT_2,IDENT_3,IDENT_4,IDENT_5,IDENT_6,

345,
INT_0,































