testMarkSupported,UnsyncStringReader,markSupported,
METHOD_0,METHOD_1,METHOD_2,

unsync,UnsyncStringReader,unsyncStringReader,
IDENT_0,IDENT_1,IDENT_2,







"abc",
STRING_0,

























