testWrite3Args,Base64OutputStream,readAllBytes,toURI,
METHOD_0,METHOD_1,METHOD_2,METHOD_3,

byteArrayOutputStream,Base64OutputStream,base64OutputStream,byteArrayInputStream,fileName,Files,Paths,
IDENT_0,IDENT_1,IDENT_2,IDENT_3,IDENT_4,IDENT_5,IDENT_6,







'A','B','C',"UTF-8",
STRING_0,STRING_1,STRING_2,STRING_3,

























