testToLongArray,toLongArray,getLong,getAttributeClass,getTypeClass,
METHOD_0,METHOD_1,METHOD_2,METHOD_3,METHOD_4,

ListUtil,Accessor,GetterUtil,FileShortcut,
IDENT_0,IDENT_1,IDENT_2,IDENT_3,







"3","4",
STRING_0,STRING_1,

























