testEqualsEmptyObjects,EntityVersion,
METHOD_0,METHOD_1,

entityVersion,redhat,lightblue,Value,Objects,
IDENT_0,IDENT_1,IDENT_2,IDENT_3,IDENT_4,


































