matchingPrefix_false_smallerLength,createPath,prefix,numSegments,matchingPrefix,
METHOD_0,METHOD_1,METHOD_2,METHOD_3,METHOD_4,

segments,redhat,lightblue,
IDENT_0,IDENT_1,IDENT_2,







".nope",
STRING_0,

























