testPrettyPrint_JsonNode,prettyPrint,
METHOD_0,METHOD_1,

JsonNode,redhat,lightblue,JsonUtils,bld,
IDENT_0,IDENT_1,IDENT_2,IDENT_3,IDENT_4,







"The test case is a prototype.",
STRING_0,

























