testGetFields,UnsetExpression,getFields,
METHOD_0,METHOD_1,METHOD_2,

redhat,lightblue,EMPTY,UnsetExpression,
IDENT_0,IDENT_1,IDENT_2,IDENT_3,


































