testFromString,fromString,
METHOD_0,METHOD_1,

redhat,lightblue,UpdateOperator,_set,MAP,
IDENT_0,IDENT_1,IDENT_2,IDENT_3,IDENT_4,







"$set",
STRING_0,

























