doc1Test,fromJson,doc1Asserts,
METHOD_0,METHOD_1,METHOD_2,

redhat,lightblue,Projection,JsonUtils,doc1,FieldProjection,
IDENT_0,IDENT_1,IDENT_2,IDENT_3,IDENT_4,IDENT_5,


































