findByIdAndRev,Foo,getRev,
METHOD_0,METHOD_1,METHOD_2,

lightcouch,DocumentsCRUDTest,dbClient,foo,rev,
IDENT_0,IDENT_1,IDENT_2,IDENT_3,IDENT_4,


































