test_getById,saveReleaseEntity,getById,
METHOD_0,METHOD_1,METHOD_2,

releaseEntity,releasing,ReleaseEntity,release,entityManager,
IDENT_0,IDENT_1,IDENT_2,IDENT_3,IDENT_4,


































