testFindContact,Contact,findByMail,getPersistenceId,
METHOD_0,METHOD_1,METHOD_2,METHOD_3,

linagora,linshare,Contact,contact,contactRepository,persistenceId,
IDENT_0,IDENT_1,IDENT_2,IDENT_3,IDENT_4,IDENT_5,







"mail id : ",
STRING_0,

























