testMailLayoutCount,findAll,
METHOD_0,METHOD_1,

linagora,linshare,MailLayout,findAll,mailLayoutRepository,webServiceUserFacade,
IDENT_0,IDENT_1,IDENT_2,IDENT_3,IDENT_4,IDENT_5,


































