testQuoteEmptyStringOnLinux,quote,isWindows,needQuoting,
METHOD_0,METHOD_1,METHOD_2,METHOD_3,

linsolas,casperjsrunner,OSUtils,ArgQuoter,
IDENT_0,IDENT_1,IDENT_2,IDENT_3,







"os.name","Linux","([\\\\]*)\"","$1$1\\\\\"","([\\\\]*)\\z","$1$1","\"",
STRING_0,STRING_1,STRING_2,STRING_3,STRING_4,STRING_5,STRING_6,

























