testAnd,Bits,
METHOD_0,METHOD_1,

ivory,bloomir,Bits,bits1,bits2,lsh,NBitSignature,obb,bits,
IDENT_0,IDENT_1,IDENT_2,IDENT_3,IDENT_4,IDENT_5,IDENT_6,IDENT_7,IDENT_8,













&=,
OP_0,



















