testMockQuery,verifyExecuteMethod,
METHOD_0,METHOD_1,

deleteAll,transactor,IDb,rapleaf,jack,IQuery,
IDENT_0,IDENT_1,IDENT_2,IDENT_3,IDENT_4,IDENT_5,


































