testDeleteWithProxy,deleteBook,
METHOD_0,METHOD_1,

systest,BookStore,bs,JAXRSClientFactory,JAXRSClientServerBookTest,PORT,
IDENT_0,IDENT_1,IDENT_2,IDENT_3,IDENT_4,IDENT_5,







"http://localhost:","123",
STRING_0,STRING_1,

























