testGoalGetCompletedTimeWhenZero,Goal,Duration,getCompletedTimeInMs,getDuration,inMillis,
METHOD_0,METHOD_1,METHOD_2,METHOD_3,METHOD_4,METHOD_5,

lassekoskela,Goal,goal,startTimeInMs,
IDENT_0,IDENT_1,IDENT_2,IDENT_3,







"goal",
STRING_0,

























