testFill,FixedSizeBitSet,fill,unset,byteNum,bitValue,
METHOD_0,METHOD_1,METHOD_2,METHOD_3,METHOD_4,METHOD_5,

liveramp,cascading_ext,FixedSizeBitSet,expectedVal,
IDENT_0,IDENT_1,IDENT_2,IDENT_3,

1099,
INT_0,































