testProxyPipedDispatchPost,convertBook,Book2,
METHOD_0,METHOD_1,METHOD_2,

systest,BookStoreSpring,localProxy,JAXRSClientFactory,Book,
IDENT_0,IDENT_1,IDENT_2,IDENT_3,IDENT_4,

124L,
INT_0,




"local://books","New",
STRING_0,STRING_1,

























