aRequiredParamShouldIdentifyItselfAsSuch,RequiredParam,isRequired,
METHOD_0,METHOD_1,METHOD_2,

lmax,simpledsl,DslParam,
IDENT_0,IDENT_1,IDENT_2,


































