testDoGetAuthorizationInfo,doGetAuthorizationInfo,
METHOD_0,METHOD_1,

sut,testPrincCollection,jsecurity,PrincipalCollection,
IDENT_0,IDENT_1,IDENT_2,IDENT_3,


































