reinsert,Profiles,shortenProfile,getStart,getEnd,arraycopy,
METHOD_0,METHOD_1,METHOD_2,METHOD_3,METHOD_4,METHOD_5,

arr1,lmu,ifi,dbs,jfeaturelib,shapeFeatures,Profiles,arr2,ProfileTuple,t1,oldProfile,newProfileX,
IDENT_0,IDENT_1,IDENT_2,IDENT_3,IDENT_4,IDENT_5,IDENT_6,IDENT_7,IDENT_8,IDENT_9,IDENT_10,IDENT_11,


































