prototypeLayerSync,getLayersInternal,getLegend,getLayer,
METHOD_0,METHOD_1,METHOD_2,METHOD_3,

udig,Layer,layer,LayerLegendItem,
IDENT_0,IDENT_1,IDENT_2,IDENT_3,


































