longAndBytesTest,longToBytes,bytesToLong,
METHOD_0,METHOD_1,METHOD_2,

long1,bytesLong,cn,hutool,Convert,long2,
IDENT_0,IDENT_1,IDENT_2,IDENT_3,IDENT_4,IDENT_5,

2223,
INT_0,










<<=,|=,
OP_0,OP_1,



















