parseTest3,isBlank,
METHOD_0,METHOD_1,

dateStr,cn,hutool,DateUtil,DatePattern,NORM_DATETIME_PATTERN,StrUtil,FastDateFormat,
IDENT_0,IDENT_1,IDENT_2,IDENT_3,IDENT_4,IDENT_5,IDENT_6,IDENT_7,







"2018-10-10 12:11:11",
STRING_0,

























