monthTest,month,getField,
METHOD_0,METHOD_1,METHOD_2,

month,cn,hutool,DateUtil,DateField,MONTH,
IDENT_0,IDENT_1,IDENT_2,IDENT_3,IDENT_4,IDENT_5,







"2017-07-01",
STRING_0,

























