subInput1PositiveZeroOutput0,sub,
METHOD_0,METHOD_1,

retval,cn,hutool,CollUtil,arrayList,
IDENT_0,IDENT_1,IDENT_2,IDENT_3,IDENT_4,


































