testJoin,deleteCharAt,
METHOD_0,METHOD_1,

words,character,retrieval,CollectionUtils,wordList,word,
IDENT_0,IDENT_1,IDENT_2,IDENT_3,IDENT_4,IDENT_5,







"join","bc",",","a,bc",
STRING_0,STRING_1,STRING_2,STRING_3,

























