findIsNullTest,findAll,
METHOD_0,METHOD_1,

cn,hutool,CRUDTest,
IDENT_0,IDENT_1,IDENT_2,







"user","age","is null",
STRING_0,STRING_1,STRING_2,

























