generateKeyPairTest,setUseBouncyCastle,generateKeyPair,
METHOD_0,METHOD_1,METHOD_2,

cn,hutool,GlobalBouncyCastleProvider,KeyPair,pair,KeyUtil,DEFAULT_KEY_SIZE,
IDENT_0,IDENT_1,IDENT_2,IDENT_3,IDENT_4,IDENT_5,IDENT_6,







"SM2",
STRING_0,

























