findLikeTest3,findAll,Condition,
METHOD_0,METHOD_1,METHOD_2,

cn,hutool,CRUDTest,LikeType,Contains,
IDENT_0,IDENT_1,IDENT_2,IDENT_3,IDENT_4,







"user",
STRING_0,

























