convertTest3,isBlank,indexOfIgnoreCase,parseInt,
METHOD_0,METHOD_1,METHOD_2,METHOD_3,

cn,hutool,UnicodeUtil,StrUtil,unicode,StrBuilder,NumberFormatException,
IDENT_0,IDENT_1,IDENT_2,IDENT_3,IDENT_4,IDENT_5,IDENT_6,







"aaa\\u111","\\u",
STRING_0,STRING_1,

























