toUnicodeTest,toUnicode,parseToUnicode,
METHOD_0,METHOD_1,METHOD_2,

emoji,cn,hutool,extra,EmojiUtil,vdurmont,EmojiParser,
IDENT_0,IDENT_1,IDENT_2,IDENT_3,IDENT_4,IDENT_5,IDENT_6,







":smile:",
STRING_0,

























