testParserInvalid2,SimpleXPath,unmodifiableList,
METHOD_0,METHOD_1,METHOD_2,

ltasks,htmlfilteroptions,SimpleXPath,SimpleXPathTest,SIMPLE,ARG,Matcher,REGEX,
IDENT_0,IDENT_1,IDENT_2,IDENT_3,IDENT_4,IDENT_5,IDENT_6,IDENT_7,


































