canInterpretBitfield,allocate,putInt,HaveBitfield,hasPiece,
METHOD_0,METHOD_1,METHOD_2,METHOD_3,METHOD_4,

bitfield,isAvailable,peers,haveBitfield,
IDENT_0,IDENT_1,IDENT_2,IDENT_3,

1333333337,32,
INT_0,INT_1,































