peerReady,MessageHandler,ready,messageComplete,
METHOD_0,METHOD_1,METHOD_2,METHOD_3,

peers,MessageHandler,Peer,peer,
IDENT_0,IDENT_1,IDENT_2,IDENT_3,


































