testWholeWorld,Rectangle,createCrsGeoCodingCoveringWholeWorld,isCrossingMeridianAt180,
METHOD_0,METHOD_1,METHOD_2,METHOD_3,

Rectangle,imageBounds,srcGeoCoding,_cross180,
IDENT_0,IDENT_1,IDENT_2,IDENT_3,


































