testVersionOutput,commandCommonMain,JavaToWS,getStdOut,
METHOD_0,METHOD_1,METHOD_2,METHOD_3,

CommandInterfaceUtils,java2ws,JavaToWS,j2w,stdOut,
IDENT_0,IDENT_1,IDENT_2,IDENT_3,IDENT_4,







"-v","JavaToWS Error: ",
STRING_0,STRING_1,

























