yield_A$Function1,yield,_1,_2,_3,_4,
METHOD_0,METHOD_1,METHOD_2,METHOD_3,METHOD_4,METHOD_5,

m3,scalaflavor4j,CollectionLike,xs1,Seq,xs2,xs3,xs4,Option,For,F1,Tuple4,
IDENT_0,IDENT_1,IDENT_2,IDENT_3,IDENT_4,IDENT_5,IDENT_6,IDENT_7,IDENT_8,IDENT_9,IDENT_10,IDENT_11,

10L,20L,
INT_0,INT_1,































