ignoring_A$ClassArray,ignoring,
METHOD_0,METHOD_1,

m3,scalaflavor4j,ExceptionControl,Catch,ignore,F0,
IDENT_0,IDENT_1,IDENT_2,IDENT_3,IDENT_4,IDENT_5,


































