__A$VoidFunction1_emptyGenerator,CalledCount,
METHOD_0,METHOD_1,

m3,scalaflavor4j,ForComprehension2Test,CalledCount,For,Seq,VoidF1,Tuple2,tpl,T1,T2,T3,Tuple3,_1,_2,_3,
IDENT_0,IDENT_1,IDENT_2,IDENT_3,IDENT_4,IDENT_5,IDENT_6,IDENT_7,IDENT_8,IDENT_9,IDENT_10,IDENT_11,IDENT_12,IDENT_13,IDENT_14,IDENT_15,







"abc","abcd","abcde",
STRING_0,STRING_1,STRING_2,

























