handling_A$ClassArray,handling,by,NullPointerException,MainFunction,foreach,
METHOD_0,METHOD_1,METHOD_2,METHOD_3,METHOD_4,METHOD_5,

m3,scalaflavor4j,NullPointerException,F1,F0,MainFunction,main,print,Seq,VoidF1,arg,
IDENT_0,IDENT_1,IDENT_2,IDENT_3,IDENT_4,IDENT_5,IDENT_6,IDENT_7,IDENT_8,IDENT_9,IDENT_10,


































