find_A$Function1_Nil,isDefined,
METHOD_0,METHOD_1,

m3,scalaflavor4j,Seq,seq,IndexedSeq,F1,Option,
IDENT_0,IDENT_1,IDENT_2,IDENT_3,IDENT_4,IDENT_5,IDENT_6,







"c",
STRING_0,

























