indexOf_A$Object_notExists,
METHOD_0,

m3,scalaflavor4j,Seq,seq,IndexedSeq,elem,
IDENT_0,IDENT_1,IDENT_2,IDENT_3,IDENT_4,IDENT_5,


































