tupled_A$,RichFunction3,tupled,
METHOD_0,METHOD_1,METHOD_2,

m3,scalaflavor4j,Function3,F3,v3,Function1,Tuple3,f2,Tuple,T1,T2,T3,_1,_2,_3,
IDENT_0,IDENT_1,IDENT_2,IDENT_3,IDENT_4,IDENT_5,IDENT_6,IDENT_7,IDENT_8,IDENT_9,IDENT_10,IDENT_11,IDENT_12,IDENT_13,IDENT_14,







"bc","def",
STRING_0,STRING_1,

























