toString_A$,RichFunction5,
METHOD_0,METHOD_1,

m3,scalaflavor4j,RichFunction5,F5,v3,v5,
IDENT_0,IDENT_1,IDENT_2,IDENT_3,IDENT_4,IDENT_5,







"<function5>","SInt(",")",
STRING_0,STRING_1,STRING_2,

























