tupled_A$,RichFunction2,tupled,
METHOD_0,METHOD_1,METHOD_2,

m3,scalaflavor4j,F2,Function1,Tuple2,f2,Tuple,T1,T2,_1,_2,
IDENT_0,IDENT_1,IDENT_2,IDENT_3,IDENT_4,IDENT_5,IDENT_6,IDENT_7,IDENT_8,IDENT_9,IDENT_10,


































