takeWhile_A$Function1,takeWhile,
METHOD_0,METHOD_1,

m3,scalaflavor4j,Nil,nil,F1,Seq,
IDENT_0,IDENT_1,IDENT_2,IDENT_3,IDENT_4,IDENT_5,


































