endsWith_A$Seq,endsWith,
METHOD_0,METHOD_1,

m3,scalaflavor4j,Nil,nil,Seq,
IDENT_0,IDENT_1,IDENT_2,IDENT_3,IDENT_4,







"c",
STRING_0,

























