scanLeft_A$Object$Function2,scanLeft,
METHOD_0,METHOD_1,

m3,scalaflavor4j,Seq,seq,Nil,F2,acm,
IDENT_0,IDENT_1,IDENT_2,IDENT_3,IDENT_4,IDENT_5,IDENT_6,


































