sameElements_A$Seq_containsNull,sameElements,
METHOD_0,METHOD_1,

m3,scalaflavor4j,IndexedSeq,seq,Seq,
IDENT_0,IDENT_1,IDENT_2,IDENT_3,IDENT_4,


































