foreach_A$VoidFunction1,Flag,foreach,toggle,
METHOD_0,METHOD_1,METHOD_2,METHOD_3,

m3,scalaflavor4j,Flag,flag,Some,VoidF1,arg,
IDENT_0,IDENT_1,IDENT_2,IDENT_3,IDENT_4,IDENT_5,IDENT_6,


































