_3_A$,_3,
METHOD_0,METHOD_1,

_1,_2,_3,_4,_5,m3,scalaflavor4j,Tuple5,
IDENT_0,IDENT_1,IDENT_2,IDENT_3,IDENT_4,IDENT_5,IDENT_6,IDENT_7,

123,456L,
INT_0,INT_1,







7.8,
FLOAT_0,






















