fold_A$Object,fold,
METHOD_0,METHOD_1,

m3,scalaflavor4j,Some,opt,ifEmpty,F1,
IDENT_0,IDENT_1,IDENT_2,IDENT_3,IDENT_4,IDENT_5,







"vvv",
STRING_0,

























