__A$Iterator,
METHOD_0,

Character,iter,m3,scalaflavor4j,Seq,seq,
IDENT_0,IDENT_1,IDENT_2,IDENT_3,IDENT_4,IDENT_5,







'a','b','c','d','e',
STRING_0,STRING_1,STRING_2,STRING_3,STRING_4,

























