testMinusYears,minus,getYear,
METHOD_0,METHOD_1,METHOD_2,

mafagafogigante,dungeon,DateTest,MAX_YEAR,DungeonTimeUnit,YEAR,milliseconds,
IDENT_0,IDENT_1,IDENT_2,IDENT_3,IDENT_4,IDENT_5,IDENT_6,













--,
OP_0,



















