testGetAll,getAllCards,Card,setMultiverseid,setCmc,
METHOD_0,METHOD_1,METHOD_2,METHOD_3,METHOD_4,

magicthegathering,javasdk,Card,testCardList,CardAPI,testCard,cmc,
IDENT_0,IDENT_1,IDENT_2,IDENT_3,IDENT_4,IDENT_5,IDENT_6,

94,
INT_0,




"Air Elemental",
STRING_0,

























