entityWithoutExclusion,getContextualReference,
METHOD_0,METHOD_1,

deltaspike,exclude,uc001,Entity1,entity1,BeanProvider,Annotation,qualifiers,
IDENT_0,IDENT_1,IDENT_2,IDENT_3,IDENT_4,IDENT_5,IDENT_6,IDENT_7,


































