testImageFileThree,getBytesFromFileURL,
METHOD_0,METHOD_1,

magja,MagjaFileUtils,imageUrl,mime,
IDENT_0,IDENT_1,IDENT_2,IDENT_3,







"Media [mime=",", name=",
STRING_0,STRING_1,

























