assertOutboundRethrow,ExceptionToCatchEvent,NullPointerException,fireEvent,isHandled,
METHOD_0,METHOD_1,METHOD_2,METHOD_3,METHOD_4,

deltaspike,ExceptionToCatchEvent,bm,handled,
IDENT_0,IDENT_1,IDENT_2,IDENT_3,


































