setContextMapSetsCopy,setContextMap,clear,getCopyOfContextMap,copyOf,
METHOD_0,METHOD_1,METHOD_2,METHOD_3,METHOD_4,

newValues,testMDCAdapter,
IDENT_0,IDENT_1,


































