testEquals,ShardId,
METHOD_0,METHOD_1,

makersoft,shards,ShardId,shardId_a,shardId_b,Pair,second,
IDENT_0,IDENT_1,IDENT_2,IDENT_3,IDENT_4,IDENT_5,IDENT_6,


































