TestLogger,
METHOD_0,

RandomStringUtils,lidalia,slf4jtest,TestLogger,TestLoggerFactory,
IDENT_0,IDENT_1,IDENT_2,IDENT_3,IDENT_4,


































