testShiftRangeNullFloat,shift,swap,
METHOD_0,METHOD_1,METHOD_2,

ArrayUtils,startIndexInclusive,endIndexExclusive,n_offset,
IDENT_0,IDENT_1,IDENT_2,IDENT_3,













%=,-=,
OP_0,OP_1,



















