testNextFloat,nextFloat,isTrue,
METHOD_0,METHOD_1,METHOD_2,

RandomUtils,Validate,endInclusive,startInclusive,RANDOM,
IDENT_0,IDENT_1,IDENT_2,IDENT_3,IDENT_4,







"Start value must be smaller or equal to end value.","Both range values must be non-negative.",
STRING_0,STRING_1,

33.0F,42.0F,
FLOAT_0,FLOAT_1,






















