testLang303,deserialize,
METHOD_0,METHOD_1,

cal,DECEMBER,DatePrinter,FastDatePrinterTest,YYYY_MM_DD,SerializationUtils,Serializable,calendar,mMaxLengthEstimate,
IDENT_0,IDENT_1,IDENT_2,IDENT_3,IDENT_4,IDENT_5,IDENT_6,IDENT_7,IDENT_8,

2004,31,
INT_0,INT_1,































