deserialize_single,registerModule,JCalModule,ICalendar,getProperties,clear,setVersion,setProductId,readValue,ProductId,
METHOD_0,METHOD_1,METHOD_2,METHOD_3,METHOD_4,METHOD_5,METHOD_6,METHOD_7,METHOD_8,METHOD_9,

biweekly,ICalendar,ICalVersion,V2_0,ProductId,prodId,
IDENT_0,IDENT_1,IDENT_2,IDENT_3,IDENT_4,IDENT_5,







"[\"vcalendar\",","[","[\"version\",{},\"text\",\"2.0\"],","[\"prodid\",{},\"text\",\"value1\"]","],","[]","value1",
STRING_0,STRING_1,STRING_2,STRING_3,STRING_4,STRING_5,STRING_6,

























