deserialize_multiple,registerModule,JCalModule,ICalendar,getProperties,clear,setVersion,setProductId,readValue,
METHOD_0,METHOD_1,METHOD_2,METHOD_3,METHOD_4,METHOD_5,METHOD_6,METHOD_7,METHOD_8,

biweekly,ICalendar,ical,ICalVersion,V2_0,TypeReference,ints,iter,IntSet,
IDENT_0,IDENT_1,IDENT_2,IDENT_3,IDENT_4,IDENT_5,IDENT_6,IDENT_7,IDENT_8,







"[","[\"vcalendar\",","[\"version\",{},\"text\",\"2.0\"],","[\"prodid\",{},\"text\",\"value1\"]","],","[]","[\"prodid\",{},\"text\",\"value2\"]","value1","value2",
STRING_0,STRING_1,STRING_2,STRING_3,STRING_4,STRING_5,STRING_6,STRING_7,STRING_8,

























