single_null,single,JsonValue,getValues,
METHOD_0,METHOD_1,METHOD_2,METHOD_3,

biweekly,JCalValue,JsonValue,
IDENT_0,IDENT_1,IDENT_2,


































