structured,JsonValue,getValues,
METHOD_0,METHOD_1,METHOD_2,

biweekly,JCalValue,JsonValue,
IDENT_0,IDENT_1,IDENT_2,

42,
INT_0,




"one","two",
STRING_0,STRING_1,

























