builder_copy,year,month,hour,minute,second,UtcOffset,GeoUri,
METHOD_0,METHOD_1,METHOD_2,METHOD_3,METHOD_4,METHOD_5,METHOD_6,METHOD_7,

ezvcard,PartialDate,orig,copy,
IDENT_0,IDENT_1,IDENT_2,IDENT_3,

2015,
INT_0,































