write_multiple_vcards,JCardWriter,setAddProdId,VCard,setFormattedName,
METHOD_0,METHOD_1,METHOD_2,METHOD_3,METHOD_4,

sw,ezvcard,JCardWriter,VCard,vcard,
IDENT_0,IDENT_1,IDENT_2,IDENT_3,IDENT_4,







"John Doe","Jane Doe","[","[\"vcard\",","[\"version\",{},\"text\",\"4.0\"],","[\"fn\",{},\"text\",\"John Doe\"]","],","[\"fn\",{},\"text\",\"Jane Doe\"]",
STRING_0,STRING_1,STRING_2,STRING_3,STRING_4,STRING_5,STRING_6,STRING_7,

























