toStringValues,VCardPropertyImpl,Related,
METHOD_0,METHOD_1,METHOD_2,

ezvcard,VCardPropertyTest,VCardPropertyImpl,Related,
IDENT_0,IDENT_1,IDENT_2,IDENT_3,


































