uniquify,IntSet,toIntArray,
METHOD_0,METHOD_1,METHOD_2,

ints,biweekly,ical,iter,Util,IntSet,iset,
IDENT_0,IDENT_1,IDENT_2,IDENT_3,IDENT_4,IDENT_5,IDENT_6,


































