different_value_types,JCardRawWriter,writeStartVCard,writeProperty,multi,
METHOD_0,METHOD_1,METHOD_2,METHOD_3,METHOD_4,

sw,ezvcard,JCardRawWriter,VCardDataType,TEXT,JCardValue,
IDENT_0,IDENT_1,IDENT_2,IDENT_3,IDENT_4,IDENT_5,







"prop","text","[\"vcard\",","[","[\"prop\",{},\"text\",false,true,1.1,1,null,\"text\"]",
STRING_0,STRING_1,STRING_2,STRING_3,STRING_4,

1.1,
FLOAT_0,






















