should_remove,createSimple,flush,getEntityManager,
METHOD_0,METHOD_1,METHOD_2,METHOD_3,

deltaspike,Simple,testData,lookup,sessionId,
IDENT_0,IDENT_1,IDENT_2,IDENT_3,IDENT_4,







"testRemove",
STRING_0,

























