createProcedure,getMetaData,getProcedures,findColumn,
METHOD_0,METHOD_1,METHOD_2,METHOD_3,

sharedConnection,columnLabel,
IDENT_0,IDENT_1,







"callabletest1","()\nBEGIN\nSELECT 1;end\n",
STRING_0,STRING_1,

























