should_create_case_insensitive_query_for_equals_comparator,createSimple,findByNameIgnoreCase,
METHOD_0,METHOD_1,METHOD_2,

deltaspike,Simple,
IDENT_0,IDENT_1,







"Should_Create_Case_Insensitive_Query_for_Equals",
STRING_0,

























