testSelectOnFailingMethod,having,on,isFailingYoungerThan,
METHOD_0,METHOD_1,METHOD_2,METHOD_3,

lambdaj,meAndMyFriends,luca,biagio,celestino,youngFriends,innerMap,
IDENT_0,IDENT_1,IDENT_2,IDENT_3,IDENT_4,IDENT_5,IDENT_6,

30,
INT_0,































