canCountConfigs,countConfigs,SuppressWarnings,
METHOD_0,METHOD_1,METHOD_2,

num,marytts,MaryConfig,mc,configLoader,
IDENT_0,IDENT_1,IDENT_2,IDENT_3,IDENT_4,







"unused",
STRING_0,

























