testEventValue,setEventValue,getEventValue,getParameter,
METHOD_0,METHOD_1,METHOD_2,METHOD_3,

Number,piwik,tracking,PiwikRequest,EVENT_VALUE,
IDENT_0,IDENT_1,IDENT_2,IDENT_3,IDENT_4,


































