fillupTest,clear,inKb,capacity,
METHOD_0,METHOD_1,METHOD_2,METHOD_3,

directmemory,memory,MemoryManager,MemoryManagerTest,measures,Ram,howMany,Pointer,
IDENT_0,IDENT_1,IDENT_2,IDENT_3,IDENT_4,IDENT_5,IDENT_6,IDENT_7,

90,
INT_0,




"payload size="," items stored",
STRING_0,STRING_1,

























