countEvenClassesNotResolved,getDit,
METHOD_0,METHOD_1,

mauricioaniche,ck,CKClassResult,metric,DITTest,dit,
IDENT_0,IDENT_1,IDENT_2,IDENT_3,IDENT_4,IDENT_5,







"dit.X",
STRING_0,

























