testSize,BloomFilterAlt,
METHOD_0,METHOD_1,

streaminer,membership,BloomFilterAlt,bitSetSize,
IDENT_0,IDENT_1,IDENT_2,IDENT_3,







"size",
STRING_0,

























