testValueInRange,getX,getY,
METHOD_0,METHOD_1,METHOD_2,

jaitools,numeric,Range,RangeTest,ivalue,Point,
IDENT_0,IDENT_1,IDENT_2,IDENT_3,IDENT_4,IDENT_5,


































