canBeInCodeSetC,
METHOD_0,

second,krysalis,barcode4j,code128,Code128LogicImpl,FNC_1,
IDENT_0,IDENT_1,IDENT_2,IDENT_3,IDENT_4,IDENT_5,







"canBeInCodeSetC",'1','0','9',
STRING_0,STRING_1,STRING_2,STRING_3,

























