extendedCharSet,Code39LogicImpl,generateBarcodeLogic,MockClassicBarcodeLogicHandler,
METHOD_0,METHOD_1,METHOD_2,METHOD_3,

krysalis,barcode4j,code39,Code39LogicImpl,logic,ChecksumMode,CP_IGNORE,
IDENT_0,IDENT_1,IDENT_2,IDENT_3,IDENT_4,IDENT_5,IDENT_6,







"a1$A","<BC>","<SBG:start-char:*>","<SBG:msg-char:*>B1W2B1W1B2W1B2W1B1</SBG>","W-1","<SBG:msg-char:A>B2W1B1W1B1W2B1W1B2</SBG>","<SBG:msg-char:1>B2W1B1W2B1W1B1W1B2</SBG>","<SBG:msg-char:/>B1W2B1W2B1W1B1W2B1</SBG>","<SBG:msg-char:D>B1W1B1W1B2W2B1W1B2</SBG>","<SBG:stop-char:*>",
STRING_0,STRING_1,STRING_2,STRING_3,STRING_4,STRING_5,STRING_6,STRING_7,STRING_8,STRING_9,

























