testGetCacheFolder,getCacheFolder,toURI,
METHOD_0,METHOD_1,METHOD_2,

jaitools,tilecache,DiskCachedTile,cacheFolder,
IDENT_0,IDENT_1,IDENT_2,IDENT_3,


































