cashFlowSize,MockTimeSeries,CashFlow,BaseTradingRecord,getSize,getTickCount,
METHOD_0,METHOD_1,METHOD_2,METHOD_3,METHOD_4,METHOD_5,

verdelhan,ta4j,TimeSeries,sampleTimeSeries,mocks,CashFlow,cashFlow,timeSeries,
IDENT_0,IDENT_1,IDENT_2,IDENT_3,IDENT_4,IDENT_5,IDENT_6,IDENT_7,










3.0,4.0,5.0,
FLOAT_0,FLOAT_1,FLOAT_2,






















