testFindGreaterNullFromEmptyTree,createTree,findGreater,
METHOD_0,METHOD_1,METHOD_2,

avltree,ArrayTree,K,comparator,singleton,
IDENT_0,IDENT_1,IDENT_2,IDENT_3,IDENT_4,


































