testJan1900Previous,previous,Month,
METHOD_0,METHOD_1,METHOD_2,

Month,previous,jan1900,month,MonthConstants,JANUARY,year,DECEMBER,
IDENT_0,IDENT_1,IDENT_2,IDENT_3,IDENT_4,IDENT_5,IDENT_6,IDENT_7,

1900,
INT_0,































