testRemoveSeries,TimeSeriesCollection,TimeSeries,addSeries,removeSeries,getSeries,
METHOD_0,METHOD_1,METHOD_2,METHOD_3,METHOD_4,METHOD_5,

TimeSeriesCollection,c1,TimeSeries,s1,s2,s3,s4,b1,LengthAdjustmentType,
IDENT_0,IDENT_1,IDENT_2,IDENT_3,IDENT_4,IDENT_5,IDENT_6,IDENT_7,IDENT_8,







"Series 1","Series 2","Series 3","Series 4",
STRING_0,STRING_1,STRING_2,STRING_3,

























