testStringConstructor,Reference,getVerb,getUUID,
METHOD_0,METHOD_1,METHOD_2,METHOD_3,

Reference,APITask,
IDENT_0,IDENT_1,







"http://example.org/cats/dogs?cats=dogs",
STRING_0,

























