testToString,getVerb,getUUID,
METHOD_0,METHOD_1,METHOD_2,

APITask,
IDENT_0,







"http://user:secret@example.org:81/p1/p2.jpg?q1=cats&q2=dogs#35",
STRING_0,

























