testGetBlockHeight,getBlockHeight,initDecompressor,getSubsampling,
METHOD_0,METHOD_1,METHOD_2,METHOD_3,

blockHeight,libjpegturbo,turbojpeg,TJ,SAMP_420,
IDENT_0,IDENT_1,IDENT_2,IDENT_3,IDENT_4,


































