testGetBlockWidth,getBlockWidth,initDecompressor,getSubsampling,
METHOD_0,METHOD_1,METHOD_2,METHOD_3,

blockWidth,libjpegturbo,turbojpeg,TJ,SAMP_420,SAMP_422,
IDENT_0,IDENT_1,IDENT_2,IDENT_3,IDENT_4,IDENT_5,


































