testReadChunked,getBodyAsStream,getContentAsStream,
METHOD_0,METHOD_1,METHOD_2,

predic8,membrane,RequestTest,reqChunked,inChunked,
IDENT_0,IDENT_1,IDENT_2,IDENT_3,IDENT_4,







"Could not get body as stream",
STRING_0,

























