containsTemporalRightEdgeClosed,between,DateInterval,
METHOD_0,METHOD_1,METHOD_2,

PlainDate,Boundary,
IDENT_0,IDENT_1,

2014,27,14,
INT_0,INT_1,INT_2,































