isFinite,between,ClockInterval,
METHOD_0,METHOD_1,METHOD_2,

PlainTime,Boundary,
IDENT_0,IDENT_1,

14,45,21,30,
INT_0,INT_1,INT_2,INT_3,































