onWeeks,between,ofPattern,chronology,
METHOD_0,METHOD_1,METHOD_2,METHOD_3,

CalendarPeriod,CalendarWeek,expert,ChronoFormatter,PatternType,CLDR,ROOT,
IDENT_0,IDENT_1,IDENT_2,IDENT_3,IDENT_4,IDENT_5,IDENT_6,

2017,52,2020,
INT_0,INT_1,INT_2,




"w. 'week of' YYYY","52. week of 2017  4. week of 2020",
STRING_0,STRING_1,

























