getBoundaries,between,withValue,
METHOD_0,METHOD_1,METHOD_2,

DateInterval,interval,PlainDate,ValueInterval,vi,
IDENT_0,IDENT_1,IDENT_2,IDENT_3,IDENT_4,

2017,26,
INT_0,INT_1,




"xyz",
STRING_0,

























