getTransitionsOf1996Only,atUTC,getTransitions,unmodifiableList,
METHOD_0,METHOD_1,METHOD_2,METHOD_3,

Moment,PlainTimestamp,tz,ZonalTransition,transitions,RulesOfEuropeanUnionTest,MODEL,SPRING_1996,AUTUMN_1996,UnixTime,arrayModel,ruleModel,
IDENT_0,IDENT_1,IDENT_2,IDENT_3,IDENT_4,IDENT_5,IDENT_6,IDENT_7,IDENT_8,IDENT_9,IDENT_10,IDENT_11,

1995,29,1997,30,
INT_0,INT_1,INT_2,INT_3,































