isDaylightSavingDST,loadFromPlatform,isDaylightSaving,
METHOD_0,METHOD_1,METHOD_2,

tz,Timezone,PlatformTimezoneTest,Moment,utc,TimeScale,POSIX,UnixTime,
IDENT_0,IDENT_1,IDENT_2,IDENT_3,IDENT_4,IDENT_5,IDENT_6,IDENT_7,

40,365,180,86400,
INT_0,INT_1,INT_2,INT_3,




"Europe/Berlin",
STRING_0,

























