testSplitBits,HBaseSailConfig,setSplitBits,getSplitBits,
METHOD_0,METHOD_1,METHOD_2,METHOD_3,

msd,gin,halyard,sail,HBaseSailConfig,cfg,splitBits,
IDENT_0,IDENT_1,IDENT_2,IDENT_3,IDENT_4,IDENT_5,IDENT_6,


































