testConfigBuilder,createAndCheckBuilder0,getLines,copyOf,
METHOD_0,METHOD_1,METHOD_2,METHOD_3,

metas,dlm,partitioner,PartitionConfig,lines,
IDENT_0,IDENT_1,IDENT_2,IDENT_3,IDENT_4,


































