testCollect,enumerate,
METHOD_0,METHOD_1,

strings,jhu,pacaya,sch,Indexed,collected,Iterable,itr,nextPair,
IDENT_0,IDENT_1,IDENT_2,IDENT_3,IDENT_4,IDENT_5,IDENT_6,IDENT_7,IDENT_8,




private,
MOD_0,

"this","is",
STRING_0,STRING_1,

























