testCalendar_CreateDate20121215_NotNull,validateDateArguments,GregorianCalendar,
METHOD_0,METHOD_1,METHOD_2,

year,month,day,michaelkohler,helpertools,CalendarHelper,DateTimeValidator,
IDENT_0,IDENT_1,IDENT_2,IDENT_3,IDENT_4,IDENT_5,IDENT_6,

2012,
INT_0,































