testAddFeature,addFeature,LoggingFeature,getFeatures,
METHOD_0,METHOD_1,METHOD_2,METHOD_3,

descriptor,features,
IDENT_0,IDENT_1,


































