TimeColumn,SymbolColumn,TableBuilderImpl,toQ,
METHOD_0,METHOD_1,METHOD_2,METHOD_3,

michaelwittig,javaq,TimeColumn,utctime,SymbolColumn,sym,Table,TableImpl,
IDENT_0,IDENT_1,IDENT_2,IDENT_3,IDENT_4,IDENT_5,IDENT_6,IDENT_7,







"utctime","sym",
STRING_0,STRING_1,

























