testReadPrimitiveTime,getDefault,setDefault,getTimeZone,getPrimitive,Time,
METHOD_0,METHOD_1,METHOD_2,METHOD_3,METHOD_4,METHOD_5,

TimeZone,tz,michaelwittig,javaq,PrimitiveResult,Time,primitive,
IDENT_0,IDENT_1,IDENT_2,IDENT_3,IDENT_4,IDENT_5,IDENT_6,







"UTC","01:00:00.000",
STRING_0,STRING_1,

























