shouldFindAllPenaltyCategoryEntity,getPenaltiesCategories,
METHOD_0,METHOD_1,

mifos,accounts,penalties,PenaltyCategoryEntity,penaltyDao,fieldErrors,
IDENT_0,IDENT_1,IDENT_2,IDENT_3,IDENT_4,IDENT_5,


































