testMatrixConvert,nextGaussian,sparse,
METHOD_0,METHOD_1,METHOD_2,

mikera,matrixx,Matrix,Rand,AMatrix,sm,
IDENT_0,IDENT_1,IDENT_2,IDENT_3,IDENT_4,IDENT_5,

67,128,300,
INT_0,INT_1,INT_2,































