test_,updateStatus,
METHOD_0,METHOD_1,

pluralsight,orderfulfillment,orderIds,updateCount,orderItemRepository,OrderStatus,PROCESSING,
IDENT_0,IDENT_1,IDENT_2,IDENT_3,IDENT_4,IDENT_5,IDENT_6,

2L,3L,4L,
INT_0,INT_1,INT_2,































