testCholesky,decompose,getL,Vector3,
METHOD_0,METHOD_1,METHOD_2,METHOD_3,

mikera,matrixx,AMatrix,Matrixx,vectorz,Vector,L,decompose,Cholesky,z,
IDENT_0,IDENT_1,IDENT_2,IDENT_3,IDENT_4,IDENT_5,IDENT_6,IDENT_7,IDENT_8,IDENT_9,

37,43,98,
INT_0,INT_1,INT_2,































