testClamping,clamp,Vector3,
METHOD_0,METHOD_1,METHOD_2,

mikera,vectorz,Vector3,z,
IDENT_0,IDENT_1,IDENT_2,IDENT_3,










1.5,2.5,
FLOAT_0,FLOAT_1,






















