testReordering2,reorder,Matrix22,
METHOD_0,METHOD_1,METHOD_2,

mikera,matrixx,Matrix,AMatrix,m2,
IDENT_0,IDENT_1,IDENT_2,IDENT_3,IDENT_4,


































