testLookupRootDSE,getAdminConnection,getLdapServer,lookup,
METHOD_0,METHOD_1,METHOD_2,METHOD_3,

LdapConnection,integ,ServerIntegrationUtils,comparator,
IDENT_0,IDENT_1,IDENT_2,IDENT_3,


































