testIsDatumGeldigeKalenderDatum,DatumElement,verwachtMelding,isGeldigeKalenderDatum,
METHOD_0,METHOD_1,METHOD_2,METHOD_3,

DatumElement,datumElement,
IDENT_0,IDENT_1,

20120101,
INT_0,































