R2362_RedenWijzigingNull,maakMigratieElement,valideerInhoud,
METHOD_0,METHOD_1,METHOD_2,

MigratieElement,migElement,MeldingElement,meldingen,elementen,
IDENT_0,IDENT_1,IDENT_2,IDENT_3,IDENT_4,







"0001","regel1",
STRING_0,STRING_1,

























