getDatumAanvang,DatumElement,getWaarde,
METHOD_0,METHOD_1,METHOD_2,

DatumElement,datumAanvang,OnderzoekGroepElement,onderzoekGroepElement,
IDENT_0,IDENT_1,IDENT_2,IDENT_3,

20170101,
INT_0,




"ci_onderzoek_groep",
STRING_0,

























