mapLeeg,
METHOD_0,

delivery,bevraging,gba,lo3,PL,WebserviceAntwoordMapper,elementen,
IDENT_0,IDENT_1,IDENT_2,IDENT_3,IDENT_4,IDENT_5,IDENT_6,


































