testValideer,valideer,
METHOD_0,METHOD_1,

BijhoudingVerzoekBericht,MeldingElement,meldingen,validatieService,elementen,
IDENT_0,IDENT_1,IDENT_2,IDENT_3,IDENT_4,


































