testAlsIntegerVolledigBekend,DatumLiteral,alsInteger,intValue,
METHOD_0,METHOD_1,METHOD_2,METHOD_3,

expressie,DatumLiteral,datumLiteral,
IDENT_0,IDENT_1,IDENT_2,

20171231,
INT_0,































