testUc811BerichtConversie,Uc811Bericht,setANummer,getAnummer,
METHOD_0,METHOD_1,METHOD_2,METHOD_3,

isc,Uc811Bericht,anummer,
IDENT_0,IDENT_1,IDENT_2,


































