test_isStopped,SelectieJobRunStatus,setEindeDatum,isStopped,
METHOD_0,METHOD_1,METHOD_2,METHOD_3,

selectie,lezer,SelectieJobRunStatus,selectieJobRunStatus,stop,
IDENT_0,IDENT_1,IDENT_2,IDENT_3,IDENT_4,


































