testRemoveFromSet3,Periode,removeFromSet,
METHOD_0,METHOD_1,METHOD_2,

Periode,testSet,andereTestSet,testResult,elementen,
IDENT_0,IDENT_1,IDENT_2,IDENT_3,IDENT_4,

8L,14L,4L,12L,2L,6L,5L,10L,9L,
INT_0,INT_1,INT_2,INT_3,INT_4,INT_5,INT_6,INT_7,INT_8,































