voegBerichtToe,AfnemersindicatiesBericht,aantalBerichten,
METHOD_0,METHOD_1,METHOD_2,

AfnemersindicatiesBericht,lo3Berichten,
IDENT_0,IDENT_1,


































