testEnumNamen,toUpperCase,
METHOD_0,METHOD_1,

Requirements,naamZonderKoppel,codeZonderKoppel,
IDENT_0,IDENT_1,IDENT_2,







"_","-",
STRING_0,STRING_1,

























