testSimple,sorteer,SorteerXml,sorteerXml,
METHOD_0,METHOD_1,METHOD_2,METHOD_3,

xml1,xml2,vergelijk,
IDENT_0,IDENT_1,IDENT_2,







"<bla><x>1</x><x>2</x></bla>","<bla><x>2</x><x>1</x></bla>",
STRING_0,STRING_1,

























