isNotEmpty,
METHOD_0,

mandatorySubject,SpdConstants,Attention,NO_ATTENTION,elementen,
IDENT_0,IDENT_1,IDENT_2,IDENT_3,IDENT_4,


































