validateOptionalAndNotEmpty,isMandatory,
METHOD_0,METHOD_1,

optionalSubject,
IDENT_0,

1234,
INT_0,




"field %s is mandatory and empty",
STRING_0,

























