zouGeenMeldingenMoetenGevenOmdatNieuweSituatieNullIs,executeer,
METHOD_0,METHOD_1,

Melding,meldings,brby0901,oudeSituatie,elementen,
IDENT_0,IDENT_1,IDENT_2,IDENT_3,IDENT_4,


































