testCorrectePeriode,executeer,maakPersoonOverlijden,maakGemeente,maakActie,
METHOD_0,METHOD_1,METHOD_2,METHOD_3,METHOD_4,

Melding,meldingen,brby0903,elementen,
IDENT_0,IDENT_1,IDENT_2,IDENT_3,

24,19000101,
INT_0,INT_1,




"gemeente","id.actie1",
STRING_0,STRING_1,

























