testSelectionVectorRemoval,testPhysical,getFile,
METHOD_0,METHOD_1,METHOD_2,

numOutputRecords,shaded,guava,Resources,Charsets,
IDENT_0,IDENT_1,IDENT_2,IDENT_3,IDENT_4,







"remover/test1.json","Unable to find path %s.",
STRING_0,STRING_1,

























