haalPersonenOp,
METHOD_0,

personenIds,hisvolledig,PersoonHisVolledig,personenVolledig,persoonHisVolledigRepository,elementen,
IDENT_0,IDENT_1,IDENT_2,IDENT_3,IDENT_4,IDENT_5,


































