updateRelatiesVanPersoon,
METHOD_0,

persRelateerderNoOp,persoon,iae,
IDENT_0,IDENT_1,IDENT_2,







"Er wordt een IllegalArgumentException verwacht",
STRING_0,

























