testGeenExceptiesInToStringMetNullWaarden,MessageImpl,ArchiveringBericht,
METHOD_0,METHOD_1,METHOD_2,

webservice,ArchiveringBericht,bronnen,ouder1,ouder2,kind,
IDENT_0,IDENT_1,IDENT_2,IDENT_3,IDENT_4,IDENT_5,







"Test","EersteInschrijving{","bronnen=",", ouder1=",", ouder2=",", kind=",'}',
STRING_0,STRING_1,STRING_2,STRING_3,STRING_4,STRING_5,STRING_6,

























