testGeenOverlapTweeActies,voerRegelUit,maakBericht,
METHOD_0,METHOD_1,METHOD_2,

basis,BerichtIdentificeerbaar,overtreders,brby0024,elementen,
IDENT_0,IDENT_1,IDENT_2,IDENT_3,IDENT_4,

2001,2005,2007,2009,
INT_0,INT_1,INT_2,INT_3,































