testVerzamelAfleidingsregels,verzamelAfleidingsregels,getAfleidingsregels,
METHOD_0,METHOD_1,METHOD_2,

verwerker,afleidingsregels,
IDENT_0,IDENT_1,


































