testCorrectePeriodeGemeenteGeenPeriode,voerRegelUit,maakPersoonMetPlaats,maakGemeente,maakActie,
METHOD_0,METHOD_1,METHOD_2,METHOD_3,METHOD_4,

basis,BerichtEntiteit,fouteObjecten,brby0175,elementen,
IDENT_0,IDENT_1,IDENT_2,IDENT_3,IDENT_4,

20120303,20120404,
INT_0,INT_1,




"24","gemeente","id.actie1",
STRING_0,STRING_1,STRING_2,

























