testZonderKind,voerRegelUit,bouwHuidigeSituatie,
METHOD_0,METHOD_1,METHOD_2,

basis,BerichtEntiteit,berichtEntiteiten,brby0178,elementen,
IDENT_0,IDENT_1,IDENT_2,IDENT_3,IDENT_4,


































