testSetDestinationNull,setDestination,getNumber,
METHOD_0,METHOD_1,METHOD_2,

flex,messaging,ConfigurationException,ce,number,
IDENT_0,IDENT_1,IDENT_2,IDENT_3,IDENT_4,

11116,
INT_0,




"ConfigurationException expected",
STRING_0,

























