shouldBeEmptyOnLast,step,isPresent,
METHOD_0,METHOD_1,METHOD_2,

adobe,acs,wcm,comparisons,lines,StepperTest,Step,steps,Stepper,underTest,toId,stringVal,longVal,doubleVal,dateVal,booleanVal,
IDENT_0,IDENT_1,IDENT_2,IDENT_3,IDENT_4,IDENT_5,IDENT_6,IDENT_7,IDENT_8,IDENT_9,IDENT_10,IDENT_11,IDENT_12,IDENT_13,IDENT_14,IDENT_15,







"3",
STRING_0,

























