testLeeg,getPersoonAdresHistorieSet,
METHOD_0,METHOD_1,

BrpStapel,groep,BrpIstGezagsVerhoudingGroepInhoud,brpInhoud,logisch,ist,Stapel,persoonAdresSet,
IDENT_0,IDENT_1,IDENT_2,IDENT_3,IDENT_4,IDENT_5,IDENT_6,IDENT_7,


































