testGetGerelateerdeAnummers,Tb02Bericht,getGerelateerdeAnummers,getGerelateerdeAnummer,
METHOD_0,METHOD_1,METHOD_2,METHOD_3,

lo3,Tb02Bericht,categorieen,
IDENT_0,IDENT_1,IDENT_2,


































