testSismember,sadd,sismember,incr,executeCommand,
METHOD_0,METHOD_1,METHOD_2,METHOD_3,METHOD_4,

redis1,craft,atom,CaseCounter,CommandEnum,SISMEMBER,member,
IDENT_0,IDENT_1,IDENT_2,IDENT_3,IDENT_4,IDENT_5,IDENT_6,







"[CRAFT-ATOM-REDIS] (^_^) <%s> Case -> test sismember. ",
STRING_0,

























