testAppendEmpty,ByteArrayBuffer,incr,
METHOD_0,METHOD_1,METHOD_2,

craft,atom,ByteArrayBuffer,CaseCounter,
IDENT_0,IDENT_1,IDENT_2,IDENT_3,







"[CRAFT-ATOM-UTIL] (^_^) <%s> Case -> test append empty. ",
STRING_0,

























