testKeys,incr,
METHOD_0,METHOD_1,

redis1,craft,atom,CaseCounter,indicator,
IDENT_0,IDENT_1,IDENT_2,IDENT_3,IDENT_4,







"foo*","[CRAFT-ATOM-REDIS] (^_^) <%s> Case -> test keys. ",
STRING_0,STRING_1,

























