testFileNameAtContructor,QemuImgFile,getFileName,
METHOD_0,METHOD_1,METHOD_2,

filename,agent,kvm,QemuImgFile,fileName,
IDENT_0,IDENT_1,IDENT_2,IDENT_3,IDENT_4,







"/tmp/test-image.qcow2",
STRING_0,

























