testFloatFromComputationBoxing,floatValueObject,
METHOD_0,METHOD_1,

theValue,mirkosertic,bytecoder,PHITest,Float,aValue,
IDENT_0,IDENT_1,IDENT_2,IDENT_3,IDENT_4,IDENT_5,










10.0F,20.0F,
FLOAT_0,FLOAT_1,






















