testStringBuilderAppend,sqrt,
METHOD_0,METHOD_1,

theBuilder,theResult,theSquareSum,s0,s1,
IDENT_0,IDENT_1,IDENT_2,IDENT_3,IDENT_4,







"123",
STRING_0,

0.0F,
FLOAT_0,






















