shouldReturnProperChainObject,whenHttp,StubHttp,
METHOD_0,METHOD_1,METHOD_2,

xebialabs,restito,StubServer,stub,
IDENT_0,IDENT_1,IDENT_2,IDENT_3,


































