shouldBePossibleToSpecifyPort,StubServer,stop,getPort,getListeners,
METHOD_0,METHOD_1,METHOD_2,METHOD_3,METHOD_4,

xebialabs,restito,StubServer,server1,simpleServer,
IDENT_0,IDENT_1,IDENT_2,IDENT_3,IDENT_4,

8888,
INT_0,































