testName,AutomationToolBarButton,
METHOD_0,METHOD_1,

mmarquee,automation,AutomationElement,controls,AutomationToolBarButton,ctrl,
IDENT_0,IDENT_1,IDENT_2,IDENT_3,IDENT_4,IDENT_5,







"NAME",
STRING_0,

























