shouldConsumeTokenWithAnyValueConstant,makeCaseInsensitive,consume,
METHOD_0,METHOD_1,METHOD_2,

TokenStream,ANY_VALUE,
IDENT_0,IDENT_1,







"SELECT","ALL","FROM","THIS","TABLE",
STRING_0,STRING_1,STRING_2,STRING_3,STRING_4,

























