testSafetyNetClose,setup,startThreads,joinThreads,gc,
METHOD_0,METHOD_1,METHOD_2,METHOD_3,METHOD_4,

unclosedCounter,closeableRegistry,
IDENT_0,IDENT_1,


































