shouldReturnSameHashCodeForNamesWithSameNamespaceUriAndLocalPart,BasicName,getNamespaceUri,getLocalName,
METHOD_0,METHOD_1,METHOD_2,METHOD_3,

modeshape,Name,basic,
IDENT_0,IDENT_1,IDENT_2,


































