shouldSupportNullInEquals,
METHOD_0,

modeshape,jca,JcrConnectionRequestInfo,workspace,creds,
IDENT_0,IDENT_1,IDENT_2,IDENT_3,IDENT_4,


































