testStringToHexArray,hexStringToByte,parseInt,
METHOD_0,METHOD_1,METHOD_2,

hex,hexArray,expectedArray,bts,
IDENT_0,IDENT_1,IDENT_2,IDENT_3,

97,49,74,
INT_0,INT_1,INT_2,




"019f314a",
STRING_0,

























