shouldConsiderAsNotNormalizedPathWithMostParentReferencesAndOneNonParentReferenceInMiddle,ChildPath,isNormalized,
METHOD_0,METHOD_1,METHOD_2,

modeshape,basic,PARENT_SEGMENT,
IDENT_0,IDENT_1,IDENT_2,







"../../a/b/../..",
STRING_0,

























