shouldConsiderAsNormalizedARelativePathWithParentSegmentAtFront,ChildPath,segment,isNormalized,
METHOD_0,METHOD_1,METHOD_2,METHOD_3,

modeshape,basic,
IDENT_0,IDENT_1,







"../../a/b/c/d","e",
STRING_0,STRING_1,

























