zeroPaths,getPaths,executeWithTracker,getExists,
METHOD_0,METHOD_1,METHOD_2,METHOD_3,

paths,mockTracker,
IDENT_0,IDENT_1,







"key","domain",
STRING_0,STRING_1,

























