shouldAllowCreatingSessions,getRootNode,addNode,isLive,
METHOD_0,METHOD_1,METHOD_2,METHOD_3,

Session,
IDENT_0,







"topLevel","nt:unstructured",
STRING_0,STRING_1,

























