getPaths,GetPathsOperation,
METHOD_0,METHOD_1,

mockResponse,paths,tracker,fm,last,moji,TrackerImplTest,KEY,DOMAIN,GetPathsOperation,requestHandler,
IDENT_0,IDENT_1,IDENT_2,IDENT_3,IDENT_4,IDENT_5,IDENT_6,IDENT_7,IDENT_8,IDENT_9,IDENT_10,







"paths","0",
STRING_0,STRING_1,

























