testGetDeviceCount,getPaths,LocalMojiFileAttributes,getDeviceCount,
METHOD_0,METHOD_1,METHOD_2,METHOD_3,

paths,mockMojiFile,fm,last,moji,local,LocalMojiFileAttributes,
IDENT_0,IDENT_1,IDENT_2,IDENT_3,IDENT_4,IDENT_5,IDENT_6,







"http://foo.fid",
STRING_0,

























