testInsertRetrieveFloat,MockObject,findOne,
METHOD_0,METHOD_1,METHOD_2,

mongojack,MockObject,floats,coll,
IDENT_0,IDENT_1,IDENT_2,IDENT_3,










3.0F,
FLOAT_0,






















