testMd5,BCryptPasswordEncoder,
METHOD_0,METHOD_1,

md5,monkeyk,sos,infrastructure,PasswordHandler,bcrypt,BCryptPasswordEncoder,encoder,password,
IDENT_0,IDENT_1,IDENT_2,IDENT_3,IDENT_4,IDENT_5,IDENT_6,IDENT_7,IDENT_8,







"123456",
STRING_0,

























