canSerialize,between,plusDays,PeriodConverter,toDbValue,
METHOD_0,METHOD_1,METHOD_2,METHOD_3,METHOD_4,

Period,period,LocalDate,mongolink,
IDENT_0,IDENT_1,IDENT_2,IDENT_3,


































