testCreateMaxDimension2,createMaxDimension,getDimension,Dimension,
METHOD_0,METHOD_1,METHOD_2,METHOD_3,

mortennobel,imagescaling,DimensionConstrain,constains,Dimension,width,height,
IDENT_0,IDENT_1,IDENT_2,IDENT_3,IDENT_4,IDENT_5,IDENT_6,

400,800,
INT_0,INT_1,































