testResourceAdaptToValueMapNull,adaptTo,getMultiFieldPanelValues,
METHOD_0,METHOD_1,METHOD_2,

sling,ValueMap,adobe,acs,MultiFieldPanelFunctions,
IDENT_0,IDENT_1,IDENT_2,IDENT_3,IDENT_4,







"single",
STRING_0,

























