testClientState,hex2Byte,computeClientState,sha256,arraycopy,byte2Hex,
METHOD_0,METHOD_1,METHOD_2,METHOD_3,METHOD_4,METHOD_5,

hexKB,byteKB,mozilla,gecko,clientState,background,fxa,FxAccountUtils,kB,sha256,truncated,
IDENT_0,IDENT_1,IDENT_2,IDENT_3,IDENT_4,IDENT_5,IDENT_6,IDENT_7,IDENT_8,IDENT_9,IDENT_10,

32,
INT_0,




"fd5c747806c07ce0b9d69dcfea144663e630b65ec4963596a22f24910d7dd15d","6ae94683571c7a7c54dab4700aa3995f","Unexpected kB.",
STRING_0,STRING_1,STRING_2,

























