testExec2,FormatDate,newTuple,
METHOD_0,METHOD_1,METHOD_2,

mozilla,pig,eval,FormatDate,formatDate,Tuple,tupleFactory,outputDateStr,
IDENT_0,IDENT_1,IDENT_2,IDENT_3,IDENT_4,IDENT_5,IDENT_6,IDENT_7,







"yyyyMMdd",
STRING_0,

























