shouldConvertUnicodeStringToBufferAndBack,stringToByteBuffer,byteBufferToString,
METHOD_0,METHOD_1,METHOD_2,

mpatric,mp3agic,BufferTools,converted,charsetName,
IDENT_0,IDENT_1,IDENT_2,IDENT_3,IDENT_4,







"γειά σου","UTF-16LE",
STRING_0,STRING_1,

























