getGenreDescriptionReturnsNullIfBothTagsDoNotExist,ID3Wrapper,getGenreDescription,
METHOD_0,METHOD_1,METHOD_2,

mpatric,mp3agic,ID3Wrapper,wrapper,id3v2Tag,id3v1Tag,
IDENT_0,IDENT_1,IDENT_2,IDENT_3,IDENT_4,IDENT_5,


































