getsAndSetsLanguage,ID3v2CommentFrameData,setLanguage,getLanguage,
METHOD_0,METHOD_1,METHOD_2,METHOD_3,

mpatric,mp3agic,ID3v2CommentFrameData,frameData,language,
IDENT_0,IDENT_1,IDENT_2,IDENT_3,IDENT_4,







"my language",
STRING_0,

























