testMinInRange,setMinimumValue,configure,fromArgs,
METHOD_0,METHOD_1,METHOD_2,METHOD_3,

ParameterTool,
IDENT_0,







"--test",
STRING_0,

























