test22,build_fixed_str,
METHOD_0,METHOD_1,

mpjct,jmpjct,mysql,proto,Proto,
IDENT_0,IDENT_1,IDENT_2,IDENT_3,IDENT_4,

97,98,
INT_0,INT_1,




"abc",
STRING_0,

























