testWrapForObjectTypes,wrap,isPrimitive,
METHOD_0,METHOD_1,METHOD_2,

objectClass,cz,zcu,kiv,jop,PrimitiveUtilsTest,primitivesMap,c0,c2,PrimitiveUtils,wrappers,
IDENT_0,IDENT_1,IDENT_2,IDENT_3,IDENT_4,IDENT_5,IDENT_6,IDENT_7,IDENT_8,IDENT_9,IDENT_10,

118,
INT_0,































