testEqualsForEqualityOfObjectArrays,isArray,getLength,
METHOD_0,METHOD_1,METHOD_2,

a1,a2,array1,array2,Array,value1,value2,cz,zcu,kiv,jop,ArrayUtils,
IDENT_0,IDENT_1,IDENT_2,IDENT_3,IDENT_4,IDENT_5,IDENT_6,IDENT_7,IDENT_8,IDENT_9,IDENT_10,IDENT_11,










3.0,4.0,
FLOAT_0,FLOAT_1,






















