testAbbreviateForNull,abbreviate,isPrimitive,
METHOD_0,METHOD_1,METHOD_2,

c0,c2,cz,zcu,kiv,jop,PrimitiveUtils,abbreviations,
IDENT_0,IDENT_1,IDENT_2,IDENT_3,IDENT_4,IDENT_5,IDENT_6,IDENT_7,

118,
INT_0,































