testValNodeVal,LinkedHashMap,__insert,DummyValue,
METHOD_0,METHOD_1,METHOD_2,METHOD_3,

imp,pdb,facts,ImmutableSet,persistent,TrieSetTests,DummyValue,TrieSet_5Bits,
IDENT_0,IDENT_1,IDENT_2,IDENT_3,IDENT_4,IDENT_5,IDENT_6,IDENT_7,


































