assignValueToSessionVariable,getSession,
METHOD_0,METHOD_1,

privileged,PrivilegedEvent,InternalEvent,
IDENT_0,IDENT_1,IDENT_2,







"bar_old","sessionVars['foo']='bar'",
STRING_0,STRING_1,

























