injectedConfigName,lookupHeisenberg,getConfigName,
METHOD_0,METHOD_1,METHOD_2,

heisenberg,HeisenbergExtension,testConfig,configName,
IDENT_0,IDENT_1,IDENT_2,IDENT_3,


































