testGetMuleAppsFile,getMuleAppsDir,isStandalone,getMuleBase,
METHOD_0,METHOD_1,METHOD_2,METHOD_3,

muleApps,reboot,MuleContainerBootstrapUtils,MULE_APPS_FILENAME,
IDENT_0,IDENT_1,IDENT_2,IDENT_3,


































