createUser_valueTooLongForColumn,getUserDAO,findUser,deleteUser,DefaultRoleImpl,singleton,DefaultUserImpl,createUser,
METHOD_0,METHOD_1,METHOD_2,METHOD_3,METHOD_4,METHOD_5,METHOD_6,METHOD_7,

ifar,jdbi,DefaultUserImpl,u,TestUserDAO,harness,realm,ISecurityRole,newId,userDAO,
IDENT_0,IDENT_1,IDENT_2,IDENT_3,IDENT_4,IDENT_5,IDENT_6,IDENT_7,IDENT_8,IDENT_9,







"FOO","user","A_TOO_LONG_PASSWORD","_0123456789_0123456789_0123456789_0123456789_0123456789",
STRING_0,STRING_1,STRING_2,STRING_3,

























