onStartCreateExecutionFolderIfDoesNotExists,getExecutionFolder,getMuleBaseFolder,
METHOD_0,METHOD_1,METHOD_2,

MuleFoldersUtil,EXECUTION_FOLDER,
IDENT_0,IDENT_1,


































