should_return_null_if_no_value_for_key,Toml,getList,SuppressWarnings,
METHOD_0,METHOD_1,METHOD_2,METHOD_3,

moandjiezana,toml,Toml,
IDENT_0,IDENT_1,IDENT_2,







"unchecked",
STRING_0,

























