testRemoveSchemaSelect,removeSchema,toUpperCase,lastIndexOf,countChar,
METHOD_0,METHOD_1,METHOD_2,METHOD_3,METHOD_4,

afterAql,mycat,RouterUtil,upStmt,upSchema,upSchema2,strtPos,indx,indx1,indx2,flag,firstE,endE,
IDENT_0,IDENT_1,IDENT_2,IDENT_3,IDENT_4,IDENT_5,IDENT_6,IDENT_7,IDENT_8,IDENT_9,IDENT_10,IDENT_11,IDENT_12,







"select id as 'aa' from test where name='abcdtestx.aa' and id=1 and testx=123","testx",".","`","`.","'",
STRING_0,STRING_1,STRING_2,STRING_3,STRING_4,STRING_5,




%,
OP_0,



















