GetAsText,LID,getAsText,getYear,
METHOD_0,METHOD_1,METHOD_2,METHOD_3,

editor,mysema,rdfbean,xsd,Year,year,
IDENT_0,IDENT_1,IDENT_2,IDENT_3,IDENT_4,IDENT_5,


































