GetAll,getAll,
METHOD_0,METHOD_1,

mysema,rdfbean,domains,NoteTermDomain,Note,notes,note1Id,note2Id,
IDENT_0,IDENT_1,IDENT_2,IDENT_3,IDENT_4,IDENT_5,IDENT_6,IDENT_7,







"Get both notes",
STRING_0,

























