Delete_Where_Matches,isDebugEnabled,
METHOD_0,METHOD_1,

mysema,rdfbean,ID,UID,NODE,MiniConnection,predicate,
IDENT_0,IDENT_1,IDENT_2,IDENT_3,IDENT_4,IDENT_5,IDENT_6,







"DELETE { ?s rdf:type rdfs:Class } WHERE { ?s ?p ?o }","exists ",
STRING_0,STRING_1,

























