should_get_a_connection,getConnection,isClosed,
METHOD_0,METHOD_1,METHOD_2,

norad,visuwall,teamcity,TeamCityConnection,TeamCityPluginTest,teamcityUrl,closed,
IDENT_0,IDENT_1,IDENT_2,IDENT_3,IDENT_4,IDENT_5,IDENT_6,


































