testGetChildren,getChildren,
METHOD_0,METHOD_1,

nasa,ensemble,EPlanChild,children,EPlanUtils,activities,
IDENT_0,IDENT_1,IDENT_2,IDENT_3,IDENT_4,IDENT_5,


































