testNoTopNextError,seek,Range,hasTop,getSource,
METHOD_0,METHOD_1,METHOD_2,METHOD_3,METHOD_4,

EMPTY_LIST,finished,
IDENT_0,IDENT_1,


































