testRegex,QueryJexl,
METHOD_0,METHOD_1,

datawave,testframework,QueryJexl,QueryJexlTest,TEST_ENTRIES,resp,typeMetadata,
IDENT_0,IDENT_1,IDENT_2,IDENT_3,IDENT_4,IDENT_5,IDENT_6,







"valid regex jexl parser/evaluation","Ho.*","HOME =~ '","'",
STRING_0,STRING_1,STRING_2,STRING_3,

























