testOrderClauseParsing,buildOrderClause,tokenizeOutsideParens,quoteField,
METHOD_0,METHOD_1,METHOD_2,METHOD_3,

ins,got,crq,commaSplit,datawave,webservice,cached,CachedRunningQuery,spaceParsed,
IDENT_0,IDENT_1,IDENT_2,IDENT_3,IDENT_4,IDENT_5,IDENT_6,IDENT_7,IDENT_8,







"STR_TO_DATE(1,2) ASC,INET_ATON(3,4) DSC","STR_TO_DATE(1, 2) ASC,INET_ATON(3, 4) DSC","STR_TO_DATE(1, 2) ,INET_ATON(3, 4) DSC","STR_TO_DATE(hey.there, 2) ,INET_ATON(3, 4) ","STR_TO_DATE(hi.there, 2) ,INET_ATON(`hi.there`, 4) ","MIN(STR_TO_DATE(ho.there, 2)) ASC ,INET_ATON(3, 4) ","STR_TO_DATE(1, 2),INET_ATON(3, 4) DSC","STR_TO_DATE(`hey.there`, 2),INET_ATON(3, 4)","STR_TO_DATE(`hi.there`, 2),INET_ATON(`hi.there`, 4)","MIN(STR_TO_DATE(`ho.there`, 2)) ASC,INET_ATON(3, 4)",',',' ',",","`",
STRING_0,STRING_1,STRING_2,STRING_3,STRING_4,STRING_5,STRING_6,STRING_7,STRING_8,STRING_9,STRING_10,STRING_11,STRING_12,STRING_13,

























