testRegex1,compile,done,sum,getPercentile,
METHOD_0,METHOD_1,METHOD_2,METHOD_3,METHOD_4,

tags,Pattern,metric,timestamp,
IDENT_0,IDENT_1,IDENT_2,IDENT_3,

75,99,
INT_0,INT_1,




"tag1=value1,tag2=value2,tag3=value3","(^|.*,)","tag2","=","value2","(,.*|$)","metric: "," tags: "," timestamp: "," count: "," min: "," max: "," sum: "," 50p: "," 75p: "," 99p: ",
STRING_0,STRING_1,STRING_2,STRING_3,STRING_4,STRING_5,STRING_6,STRING_7,STRING_8,STRING_9,STRING_10,STRING_11,STRING_12,STRING_13,STRING_14,STRING_15,

























