testDecodeWrongType,nextBytes,copyOfRange,fromPrefix,
METHOD_0,METHOD_1,METHOD_2,METHOD_3,

SecureRandom,encoded,nats,NKey,ACCOUNT,USER,NKey$Type,raw,src,dataBytes,expectedType,safe,
IDENT_0,IDENT_1,IDENT_2,IDENT_3,IDENT_4,IDENT_5,IDENT_6,IDENT_7,IDENT_8,IDENT_9,IDENT_10,IDENT_11,

32,
INT_0,




"SHA1PRNG","SUN","Unexpected type",
STRING_0,STRING_1,STRING_2,

























