testNotExistingPath,findAll,getTestUser,getCurrentUser,
METHOD_0,METHOD_1,METHOD_2,METHOD_3,

ngrinder,FileEntry,findAll,testUser,userContext,
IDENT_0,IDENT_1,IDENT_2,IDENT_3,IDENT_4,







"/helloworld",
STRING_0,

























