testPutPrefixedBytesCheckRange,AutomaticBuffer,putPrefixedString,getInternalBuffer,
METHOD_0,METHOD_1,METHOD_2,METHOD_3,

navercorp,pinpoint,Buffer,internalBuffer,
IDENT_0,IDENT_1,IDENT_2,IDENT_3,


































