isDubboEnabled,DubboConfiguration,
METHOD_0,METHOD_1,

navercorp,pinpoint,DubboConfiguration,dubboEnabled,
IDENT_0,IDENT_1,IDENT_2,IDENT_3,


































