devide,DefaultDivider,divide,
METHOD_0,METHOD_1,METHOD_2,

navercorp,pinpoint,DefaultDivider,defaultDivider,ExecutionContext,nodeMap,
IDENT_0,IDENT_1,IDENT_2,IDENT_3,IDENT_4,IDENT_5,







"test_partition",
STRING_0,

























