buildFromNodeEntity,Tag,getTags,getLatitude,getLongitude,addTag,buildFromEntity,ESNode,
METHOD_0,METHOD_1,METHOD_2,METHOD_3,METHOD_4,METHOD_5,METHOD_6,METHOD_7,

openstreetmap,osmosis,v0_6,Tag,tags,ESNode,
IDENT_0,IDENT_1,IDENT_2,IDENT_3,IDENT_4,IDENT_5,







"highway","primary",
STRING_0,STRING_1,

























