selectSingle,IndexPathComponent,
METHOD_0,METHOD_1,

JsonNode,nebhale,jsonpath,IndexPathComponentTest,NODE_BOOK,selectCalled,
IDENT_0,IDENT_1,IDENT_2,IDENT_3,IDENT_4,IDENT_5,







"0",
STRING_0,

























