lookupNonExistentNodes,
METHOD_0,

graphalgo,algo,GetNodeFuncTest,DB,graphdb,
IDENT_0,IDENT_1,IDENT_2,IDENT_3,IDENT_4,







"RETURN algo.getNodesById([3,4,5]) AS nodes","nodes",
STRING_0,STRING_1,

























