shouldBeOpenAfterCreation,newContext,isOpen,
METHOD_0,METHOD_1,METHOD_2,

coreapi,InternalTransaction,Neo4jTransactionalContext,
IDENT_0,IDENT_1,IDENT_2,


































