testSetPathColorStd,World,setPathColorStd,getPathColorStd,
METHOD_0,METHOD_1,METHOD_2,METHOD_3,

Color,color,GREEN,mudmap2,World,pathColorCardinal,
IDENT_0,IDENT_1,IDENT_2,IDENT_3,IDENT_4,IDENT_5,







"setPathColor","MyWorld",
STRING_0,STRING_1,

























