testGetCenterY,Layer,Place,getCenterY,getLogger,updateSizeCache,
METHOD_0,METHOD_1,METHOD_2,METHOD_3,METHOD_4,METHOD_5,

mudmap2,Layer,LayerTest,world,Logger,Level,SEVERE,maxY,minY,
IDENT_0,IDENT_1,IDENT_2,IDENT_3,IDENT_4,IDENT_5,IDENT_6,IDENT_7,IDENT_8,







"getCenterY","MyPlace",
STRING_0,STRING_1,

























