test23,build_eop_str,
METHOD_0,METHOD_1,

openddal,mysql,proto,Proto,CHARSET,
IDENT_0,IDENT_1,IDENT_2,IDENT_3,IDENT_4,

97,98,
INT_0,INT_1,




"ab",
STRING_0,

























