testAdd,Department,Company,
METHOD_0,METHOD_1,METHOD_2,

baidu,beidou,sample,Department,department101,department102,departmentList1,Company,company,companyMgr,IdDuplicateException,
IDENT_0,IDENT_1,IDENT_2,IDENT_3,IDENT_4,IDENT_5,IDENT_6,IDENT_7,IDENT_8,IDENT_9,IDENT_10,

111,222,114,
INT_0,INT_1,INT_2,




"Phone","Visio Studio","Mircosoft","got id dup exception here!!!!",
STRING_0,STRING_1,STRING_2,STRING_3,

























