testSourceCounterChannelFail,errorCounterCommon,ChannelException,getSourceCounter,getChannelWriteFail,
METHOD_0,METHOD_1,METHOD_2,METHOD_3,METHOD_4,

flume,sourceCounter,
IDENT_0,IDENT_1,







"true","dummy",
STRING_0,STRING_1,

























