shouldDemonstrateObjectsBeingCollectedAsNeeded,WeakCache,PerpetualCache,putObject,getSize,
METHOD_0,METHOD_1,METHOD_2,METHOD_3,METHOD_4,

N,decorators,WeakCache,
IDENT_0,IDENT_1,IDENT_2,

3000000,
INT_0,




"default",
STRING_0,

























