testDelLockPartialCompaction,TestData,newGCI,
METHOD_0,METHOD_1,METHOD_2,

fluo,iterators,TestData,Key,Value,
IDENT_0,IDENT_1,IDENT_2,IDENT_3,IDENT_4,

23,
INT_0,




"0 f q DEL_LOCK 19","0 ROLLBACK","0 f q LOCK 19","1 f q","0 f q DEL_LOCK 11","0 f q LOCK 11","0 f q DATA 19","19","0 f q DATA 11","15",
STRING_0,STRING_1,STRING_2,STRING_3,STRING_4,STRING_5,STRING_6,STRING_7,STRING_8,STRING_9,

























