testArchitectureDetection,parseFromLogLine,getSubstringBetween,
METHOD_0,METHOD_1,METHOD_2,

testX86_64,arch,adoptopenjdk,jitwatch,StringUtil,assembly,S_APOSTROPHE,Architecture,ARCH_X86_32,X86_32,ARCH_X86_64,ARCH_AMD_64,X86_64,ARCH_ARM_32,ARM_32,ARCH_ARM_64,ARM_64,
IDENT_0,IDENT_1,IDENT_2,IDENT_3,IDENT_4,IDENT_5,IDENT_6,IDENT_7,IDENT_8,IDENT_9,IDENT_10,IDENT_11,IDENT_12,IDENT_13,IDENT_14,IDENT_15,IDENT_16,







"[Disassembling for mach='i386:x86-64']",
STRING_0,

























