testIsWarnEnabled,isWarnEnabled,Slf4JLogger,isEnabledFor,
METHOD_0,METHOD_1,METHOD_2,METHOD_3,

slf4j,Logger,mockLogger,InternalLogger,Level,WARN,
IDENT_0,IDENT_1,IDENT_2,IDENT_3,IDENT_4,IDENT_5,


































