getIntDefaultValueWithPropertValueIsNotInt,getInt,parseInt,
METHOD_0,METHOD_1,METHOD_2,

SystemPropertyUtil,def,
IDENT_0,IDENT_1,







"key","NotInt","Unable to parse the integer system property '{}':{} - using the default value: {}",
STRING_0,STRING_1,STRING_2,

























