testDecryption,getUsers,
METHOD_0,METHOD_1,

networknt,basicauth,BasicAuthConfigTest,users,
IDENT_0,IDENT_1,IDENT_2,IDENT_3,







"password for user2 = ","password",
STRING_0,STRING_1,

























