testIdempotentProcessId,asLongText,InstanceMatcher,
METHOD_0,METHOD_1,METHOD_2,

DefaultChannelId,Channel,ChannelMatchers,
IDENT_0,IDENT_1,IDENT_2,

17,21,
INT_0,INT_1,































