testMultipleInterfaceOneBean,getBean,
METHOD_0,METHOD_1,

networknt,D1,d1,SingletonServiceFactory,D2,d2,serviceMap,interfaceClass,Array,
IDENT_0,IDENT_1,IDENT_2,IDENT_3,IDENT_4,IDENT_5,IDENT_6,IDENT_7,IDENT_8,


































