shouldToGetEmptyMapWhenFormDataIsEmpty,FormData,
METHOD_0,METHOD_1,

undertow,handlers,form,FormData,formData,bodyMap,networknt,BodyConverter,
IDENT_0,IDENT_1,IDENT_2,IDENT_3,IDENT_4,IDENT_5,IDENT_6,IDENT_7,

99,
INT_0,































