shouldCreatefromFile,setLabel,SuppressWarnings,createFromFile,getLabel,
METHOD_0,METHOD_1,METHOD_2,METHOD_3,METHOD_4,

neuroph,NeuralNetwork,nn,label,
IDENT_0,IDENT_1,IDENT_2,IDENT_3,







"TestNetLabel","testNet.nnet","rawtypes",
STRING_0,STRING_1,STRING_2,

























