testRemoveAllNeurons,removeAllNeurons,getNeuronsCount,getSelectedItem,
METHOD_0,METHOD_1,METHOD_2,METHOD_3,

structure,comboNetworkStructure,hiddenNeurons,neuronsCount,
IDENT_0,IDENT_1,IDENT_2,IDENT_3,







':',' ',"2 "," 1",
STRING_0,STRING_1,STRING_2,STRING_3,

























