testGetNeurons,getNeurons,getClassNamesFromPackage,getLogger,
METHOD_0,METHOD_1,METHOD_2,METHOD_3,

neuroph,Neuroph,Logger,Level,SEVERE,
IDENT_0,IDENT_1,IDENT_2,IDENT_3,IDENT_4,







"org.neuroph.nnet.comp.neuron","Neuron",
STRING_0,STRING_1,

























