writingMinusOne_sameAsWriting0xff_returnsCorrectHash,sha256,toHexString,
METHOD_0,METHOD_1,METHOD_2,

neuhalfen,projects,bouncycastle,openpgp,testtooling,HashingOutputStream,sut,sut2,uid,keyId,
IDENT_0,IDENT_1,IDENT_2,IDENT_3,IDENT_4,IDENT_5,IDENT_6,IDENT_7,IDENT_8,IDENT_9,







"MissingSignature{","uid='","???",'\'',", keyId=0x",'}',
STRING_0,STRING_1,STRING_2,STRING_3,STRING_4,STRING_5,

























