testCharacterPrinting,JsonWriter,reset,writeString,
METHOD_0,METHOD_1,METHOD_2,METHOD_3,

dslplatform,JsonWriter,jw,Character,MIN_SURROGATE,MAX_SURROGATE,replaced,
IDENT_0,IDENT_1,IDENT_2,IDENT_3,IDENT_4,IDENT_5,IDENT_6,

1024,
INT_0,




"codepoint [%d] == replaced [%c]","UTF-8",'\b',"\\b",'\t',"\\n",'\n','\f','\r',"\\r",'\\',"\\\\",'"',"\\\"",' ',"\\u%04X","\"codepoint [%d] == replaced [%s]\"",
STRING_0,STRING_1,STRING_2,STRING_3,STRING_4,STRING_5,STRING_6,STRING_7,STRING_8,STRING_9,STRING_10,STRING_11,STRING_12,STRING_13,STRING_14,STRING_15,STRING_16,

























