testBlackList,getBlackList,
METHOD_0,METHOD_1,

violet,myUser,Factories,USER,Black,friends,mSet,
IDENT_0,IDENT_1,IDENT_2,IDENT_3,IDENT_4,IDENT_5,IDENT_6,







"Nombre de blacklists : ",
STRING_0,

























