testLong,allocate,putLong,setByte,
METHOD_0,METHOD_1,METHOD_2,METHOD_3,

TEST_CASE,ByteOrder,BIG_ENDIAN,writeData,nhnent,haste,ByteWrite,dst,startIndex,
IDENT_0,IDENT_1,IDENT_2,IDENT_3,IDENT_4,IDENT_5,IDENT_6,IDENT_7,IDENT_8,

1642146535132L,
INT_0,































