testConverter_javaUtilDate,isoFormat,ofEpochMilli,
METHOD_0,METHOD_1,METHOD_2,

agrest,parsed,UtcDateConverterTest,AGREST_ISO_LOCAL_DATE_TIME,Instant,
IDENT_0,IDENT_1,IDENT_2,IDENT_3,IDENT_4,


































