testParse,setOf,Thing,
METHOD_0,METHOD_1,METHOD_2,

ning,TestBucketingMuckery,Stage,Thing,stages,one,Group,two,thr,fou,
IDENT_0,IDENT_1,IDENT_2,IDENT_3,IDENT_4,IDENT_5,IDENT_6,IDENT_7,IDENT_8,IDENT_9,







"[{1a 3a}] [{1b 2b}] [{1c 3c}] [{3d} {1f}]","c","d","f",
STRING_0,STRING_1,STRING_2,STRING_3,

























