testSetValueMaxLimit,setHandle,valueChanged,bindToView,
METHOD_0,METHOD_1,METHOD_2,METHOD_3,

scrollbar,viewSize,
IDENT_0,IDENT_1,










0.0F,4.0F,1.0F,40.0F,
FLOAT_0,FLOAT_1,FLOAT_2,FLOAT_3,






















