testGetContentType,contentType,getContentType,
METHOD_0,METHOD_1,METHOD_2,

ninja,
IDENT_0,







"text/my-funky-content-type",
STRING_0,

























