testSettingOfCharsetWorks,charset,getCharset,
METHOD_0,METHOD_1,METHOD_2,

ninja,SC_200_OK,
IDENT_0,IDENT_1,







"iso-7777",
STRING_0,

























