countTest,
METHOD_0,

nlpcn,es4sql,Aggregations,TEST_INDEX_ACCOUNT,aggregations,valuecount,ValueCount,
IDENT_0,IDENT_1,IDENT_2,IDENT_3,IDENT_4,IDENT_5,IDENT_6,







"SELECT COUNT(*) FROM %s/account","COUNT(*)",
STRING_0,STRING_1,

























