testSchemaExists,schemaExists,tableOperations,GoraException,
METHOD_0,METHOD_1,METHOD_2,METHOD_3,

gora,DataStore,generated,WebPage,webPageStore,
IDENT_0,IDENT_1,IDENT_2,IDENT_3,IDENT_4,


































