testLocal,local,
METHOD_0,METHOD_1,

biojava,bio,alignment,AlignmentPair,alignmentPair,align,seq,Sequence,nmdp,ngs,DEFAULT_LOCAL_GAP_PENALTIES,
IDENT_0,IDENT_1,IDENT_2,IDENT_3,IDENT_4,IDENT_5,IDENT_6,IDENT_7,IDENT_8,IDENT_9,IDENT_10,


































