flattenNonVarargs,flattenVarargs,isVarargs,clone,getComponentType,
METHOD_0,METHOD_1,METHOD_2,METHOD_3,METHOD_4,

nohope,reflection,IntrospectionUtils,signature,
IDENT_0,IDENT_1,IDENT_2,IDENT_3,


































