testApiGetMeEquality,assumeTrue,isReachable,getMe,
METHOD_0,METHOD_1,METHOD_2,METHOD_3,

Assume,voidplus,soundcloud,SoundCloudTest,login,sc,
IDENT_0,IDENT_1,IDENT_2,IDENT_3,IDENT_4,IDENT_5,







"/me",
STRING_0,

























