FileInputStream,getCues,
METHOD_0,METHOD_1,

FileInputStream,noop,subtitle,srt,SrtObject,srtObject,srtParser,cues,
IDENT_0,IDENT_1,IDENT_2,IDENT_3,IDENT_4,IDENT_5,IDENT_6,IDENT_7,







"src/test/resources/srt/no-eof-nl.srt",
STRING_0,

























