testPut_SplitWithImplicitNode,getNodeFactory,prettyPrint,getNode,
METHOD_0,METHOD_1,METHOD_2,METHOD_3,

concurrenttrees,radix,ConcurrentRadixTree,PrettyPrinter,PrettyPrintable,
IDENT_0,IDENT_1,IDENT_2,IDENT_3,IDENT_4,







"FOOBAR","FOOD","○\n","└── ○ FOO\n"," ├── ○ BAR (1)\n"," └── ○ D (2)\n",
STRING_0,STRING_1,STRING_2,STRING_3,STRING_4,STRING_5,

























