test_all,EthernetMacAddress,
METHOD_0,METHOD_1,

bb,EthernetMacAddress,ethernetMacAddress,rectangle,
IDENT_0,IDENT_1,IDENT_2,IDENT_3,







"00-03-47-73-dd-a5","Geomshape: ",
STRING_0,STRING_1,

























