testConfIsUnset,makeReconfigurable,reconfigureProperty,getConf,
METHOD_0,METHOD_1,METHOD_2,METHOD_3,

value1,newConf,ReconfigurableBase,reconfigurable,
IDENT_0,IDENT_1,IDENT_2,IDENT_3,







"FOO","value1",
STRING_0,STRING_1,

























