testNextFloat,MersenneTwisterFast,nextFloat,
METHOD_0,METHOD_1,METHOD_2,

numenta,nupic,MersenneTwisterFast,mti,N,kk,mt,mag01,M,UPPER_MASK,LOWER_MASK,TEMPERING_MASK_B,TEMPERING_MASK_C,
IDENT_0,IDENT_1,IDENT_2,IDENT_3,IDENT_4,IDENT_5,IDENT_6,IDENT_7,IDENT_8,IDENT_9,IDENT_10,IDENT_11,IDENT_12,

42,11,18,24,
INT_0,INT_1,INT_2,INT_3,










^,^=,
OP_0,OP_1,



















