test_update_ignore_null,setAge,Atom,Pet,fetch,
METHOD_0,METHOD_1,METHOD_2,METHOD_3,METHOD_4,

nutz,Pet,pet,FieldFilter,trans,p1,p2,ioc,IocLoader,iocLoader,iocLoaders,
IDENT_0,IDENT_1,IDENT_2,IDENT_3,IDENT_4,IDENT_5,IDENT_6,IDENT_7,IDENT_8,IDENT_9,IDENT_10,







"XiaoBai",
STRING_0,

























