test_create_table_by_map,drop,NutMap,setv,fetch,where,getInt,
METHOD_0,METHOD_1,METHOD_2,METHOD_3,METHOD_4,METHOD_5,METHOD_6,

nutz,NutMap,Record,re,Cnd,
IDENT_0,IDENT_1,IDENT_2,IDENT_3,IDENT_4,

18,
INT_0,




"t_from_map","*+id","*name","age",".table","wendal","=",
STRING_0,STRING_1,STRING_2,STRING_3,STRING_4,STRING_5,STRING_6,

























