testGetWrappedInputStream,getTestRootPath,createFile,open,getWrappedStream,
METHOD_0,METHOD_1,METHOD_2,METHOD_3,METHOD_4,

src,fSys,FSDataInputStream,internalDbIterator,
IDENT_0,IDENT_1,IDENT_2,IDENT_3,







"test/hadoop/file",
STRING_0,

























