test_json_lost_exception_message,PojoABC,toJson,
METHOD_0,METHOD_1,METHOD_2,

nutz,JsonTest,PojoABC,pojo,Json,
IDENT_0,IDENT_1,IDENT_2,IDENT_3,IDENT_4,


































