test_end_in_month,D,sDT,
METHOD_0,METHOD_1,METHOD_2,

s0430,d0430,nutz,Times,s0430_2,DF_DATE_TIME,
IDENT_0,IDENT_1,IDENT_2,IDENT_3,IDENT_4,IDENT_5,







"2016-04-30 00:00:00",
STRING_0,

























