test_add_string2,NutMap,setv,getAs,
METHOD_0,METHOD_1,METHOD_2,METHOD_3,

nutz,NutMap,nutMap,sList,sList2,sList3,ioc,IocMaking,re,ing,
IDENT_0,IDENT_1,IDENT_2,IDENT_3,IDENT_4,IDENT_5,IDENT_6,IDENT_7,IDENT_8,IDENT_9,







"sList","s1",
STRING_0,STRING_1,

























