test_dup_as_list,getDocumentElement,asMap,getAs,isArray,
METHOD_0,METHOD_1,METHOD_2,METHOD_3,METHOD_4,

xmlStr,nutz,Xmls,NutMap,pets,klass,
IDENT_0,IDENT_1,IDENT_2,IDENT_3,IDENT_4,IDENT_5,







"<root><user><pet><name>wendal</name></pet><pet><name>zozoh</name></pet></user></root>","user","pet",
STRING_0,STRING_1,STRING_2,

























