testArraysJoinSimple2,intersect,
METHOD_0,METHOD_1,

a1,a2,a3,ArrayUtils,item1,item2,
IDENT_0,IDENT_1,IDENT_2,IDENT_3,IDENT_4,IDENT_5,







"c","d","e","f",
STRING_0,STRING_1,STRING_2,STRING_3,

























