hasCorrectContent,newObject,unmarshall,
METHOD_0,METHOD_1,METHOD_2,

inlinedContent,protocols,inline,InlineURLFactory,inlineURL,
IDENT_0,IDENT_1,IDENT_2,IDENT_3,IDENT_4,


































