testCreateFileWithNullName,qualifiedPath,createFile,
METHOD_0,METHOD_1,METHOD_2,

fileName,testPath,fc2,fc1,FileContext,fc,
IDENT_0,IDENT_1,IDENT_2,IDENT_3,IDENT_4,IDENT_5,







"Create file with null name should throw IllegalArgumentException.",
STRING_0,

























