getTokenFromHeadersReturnsRightToken,getHeader,getTokenFromHeaders,
METHOD_0,METHOD_1,METHOD_2,

TOKEN,HttpServletRequest,webdav,MiscTest,headerName,tokenStart,tokenEnd,
IDENT_0,IDENT_1,IDENT_2,IDENT_3,IDENT_4,IDENT_5,IDENT_6,







"tititoto2010","If","<urn:uuid:",">",
STRING_0,STRING_1,STRING_2,STRING_3,

























