testToStringNoShowQuota,fileCount,directoryCount,quota,spaceConsumed,spaceQuota,reduce,orElse,
METHOD_0,METHOD_1,METHOD_2,METHOD_3,METHOD_4,METHOD_5,METHOD_6,METHOD_7,

fileCount,directoryCount,quota,spaceConsumed,spaceQuota,ContentSummary,contentSummary,infos,ozone,TestBlockData,left,right,
IDENT_0,IDENT_1,IDENT_2,IDENT_3,IDENT_4,IDENT_5,IDENT_6,IDENT_7,IDENT_8,IDENT_9,IDENT_10,IDENT_11,

11111,22222,33333,44444,55555,66665,
INT_0,INT_1,INT_2,INT_3,INT_4,INT_5,




" 33333 22222 11111 ",", ",
STRING_0,STRING_1,

























