testRecursiveRemoval2,getConnection,getRootNode,addChildNode,removeNode,getNodeById,
METHOD_0,METHOD_1,METHOD_2,METHOD_3,METHOD_4,METHOD_5,

Session,depth,Serializable,ids,
IDENT_0,IDENT_1,IDENT_2,IDENT_3,







"TestDoc",
STRING_0,

























