testFrom,FromList,serializeUnserialize,getCollectedDocumentIds,
METHOD_0,METHOD_1,METHOD_2,METHOD_3,

FromList,elements2,
IDENT_0,IDENT_1,







"abc","ABC",
STRING_0,STRING_1,

























