testRunOnPageProviderOperation,OperationContext,
METHOD_0,METHOD_1,

automation,OperationContext,DocumentModelList,rows,
IDENT_0,IDENT_1,IDENT_2,IDENT_3,







"runOnProviderTestchain","result",
STRING_0,STRING_1,

























