shouldExecuteSimpleScript,getCollectedDocumentIds,
METHOD_0,METHOD_1,

DocumentModelList,docs,scripting,
IDENT_0,IDENT_1,IDENT_2,







"simpleAutomationScript.js",
STRING_0,

























