testGetLocaleWhenEmpty,setDefault,setProperties,getLocale,
METHOD_0,METHOD_1,METHOD_2,METHOD_3,

defaultLocale,userTaskPageProviver,locale,
IDENT_0,IDENT_1,IDENT_2,







"locale",
STRING_0,

























