testPutEdgeActions,FlowActionOutput,putEdgeActions,getEdgeActions,
METHOD_0,METHOD_1,METHOD_2,METHOD_3,

o3project,odenos,basic,FlowAction,actions,edgeActions,nodeId,
IDENT_0,IDENT_1,IDENT_2,IDENT_3,IDENT_4,IDENT_5,IDENT_6,







"port1","port2","node1",
STRING_0,STRING_1,STRING_2,

























