testPutMatches,BasicFlowMatch,putMatches,getMatches,
METHOD_0,METHOD_1,METHOD_2,METHOD_3,

o3project,odenos,basic,BasicFlowMatch,match1,match2,
IDENT_0,IDENT_1,IDENT_2,IDENT_3,IDENT_4,IDENT_5,







"node01","port01","node02","port02",
STRING_0,STRING_1,STRING_2,STRING_3,

























