applyMatch,setup,PathData,getConf,
METHOD_0,METHOD_1,METHOD_2,METHOD_3,

PathData,mockFs,caseSensitive,globPattern,PASS,FAIL,
IDENT_0,IDENT_1,IDENT_2,IDENT_3,IDENT_4,IDENT_5,







"/directory/path/name",
STRING_0,

























