testParseSuccess,OFPFlowActionCopyTtlInQuery,checkMapExactly,
METHOD_0,METHOD_1,METHOD_2,

actions,o3project,odenos,BasicQuery,
IDENT_0,IDENT_1,IDENT_2,IDENT_3,







"type","aaa","edge_node","node_01",
STRING_0,STRING_1,STRING_2,STRING_3,

























