tablesTest,DataBaseServices,localTables,
METHOD_0,METHOD_1,METHOD_2,

obeonetwork,dsl,Table,tables,m2doc,dataBase,
IDENT_0,IDENT_1,IDENT_2,IDENT_3,IDENT_4,IDENT_5,


































