shouldReadBytesIntoArrays,readInto,
METHOD_0,METHOD_1,

ociweb,pronghorn,rs232,RS232ClientTest,client1,readSize,client2,connected,backing,fd,maxLength,
IDENT_0,IDENT_1,IDENT_2,IDENT_3,IDENT_4,IDENT_5,IDENT_6,IDENT_7,IDENT_8,IDENT_9,IDENT_10,







"bazinga #","UTF-8",
STRING_0,STRING_1,

























