testRemovesDuplicatePaths,canonicalize,appendReplacement,appendTail,
METHOD_0,METHOD_1,METHOD_2,METHOD_3,

Matcher,
IDENT_0,







"http://ocpsoft.com/prettyfaces/../prettyfaces/","http://ocpsoft.com/prettyfaces/","/../",
STRING_0,STRING_1,STRING_2,

























