testFailureCompressionNotWorking2,writeRecords,closeOutput,getPos,
METHOD_0,METHOD_1,METHOD_2,METHOD_3,

skip,rawDataSize,compression,Compression,Algorithm,NONE,Seekable,inputStream,
IDENT_0,IDENT_1,IDENT_2,IDENT_3,IDENT_4,IDENT_5,IDENT_6,IDENT_7,

10000,
INT_0,































