testCreateFromQuestionMarkYieldsEmptyQueryString,toQueryString,
METHOD_0,METHOD_1,

pretty,faces,QueryString,qs,
IDENT_0,IDENT_1,IDENT_2,IDENT_3,







"?","=","&",
STRING_0,STRING_1,STRING_2,

























