testCamelToUnderscoreSucceedsOnEmptyString,camelToUnderscore,
METHOD_0,METHOD_1,

socialpm,Strings,
IDENT_0,IDENT_1,







"([a-z])([A-Z])","$1_$2",
STRING_0,STRING_1,

























