testCanonicalize,canonicalize,
METHOD_0,METHOD_1,

socialpm,Strings,
IDENT_0,IDENT_1,







"Project#$% Name","project-name",' ','-',"[^a-z0-9-]*","-+","-",
STRING_0,STRING_1,STRING_2,STRING_3,STRING_4,STRING_5,STRING_6,

























