mustReturnEmptyOnInitialDequeueIn,dequeueIn,
METHOD_0,METHOD_1,

offbynull,actors,shuttle,items,
IDENT_0,IDENT_1,IDENT_2,IDENT_3,







"id",
STRING_0,

























