testEmptyConfig,ServerSocket,InetSocketAddress,bind,isBound,
METHOD_0,METHOD_1,METHOD_2,METHOD_3,METHOD_4,

ServerSocket,socket,InetSocketAddress,ipc,Server,wrapped,
IDENT_0,IDENT_1,IDENT_2,IDENT_3,IDENT_4,IDENT_5,







"TestRange","0.0.0.0",
STRING_0,STRING_1,

























