mustNotIdentifyAsPrefix,isPrefixOf,notNull,subList,
METHOD_0,METHOD_1,METHOD_2,METHOD_3,

offbynull,actors,Address,Validate,addressElements,
IDENT_0,IDENT_1,IDENT_2,IDENT_3,IDENT_4,







"one","two","three","xxx",
STRING_0,STRING_1,STRING_2,STRING_3,

























