testAddGroup,IniStyleFile,addGroup,containsGroup,
METHOD_0,METHOD_1,METHOD_2,METHOD_3,

freedesktop,IniStyleFile,
IDENT_0,IDENT_1,


































