putMinimal,putAgencies,getAllAgencies,
METHOD_0,METHOD_1,METHOD_2,

_gtfs,onebusaway,gtfs,GtfsRelationalDao,_ops,
IDENT_0,IDENT_1,IDENT_2,IDENT_3,IDENT_4,







"agency_fare_url=http://agency-$0.gov/fares","from Agency",
STRING_0,STRING_1,

























