testParseCommand,parseCommand,
METHOD_0,METHOD_1,

dmr,ModelNode,loom,as7,AS7CliUtils,
IDENT_0,IDENT_1,IDENT_2,IDENT_3,IDENT_4,







"parseCommand","The test case is a prototype.",
STRING_0,STRING_1,

























