testFormatCommand,formatCommand,has,asString,
METHOD_0,METHOD_1,METHOD_2,METHOD_3,

dmr,ModelNode,loom,as7,AS7CliUtils,ClientConstants,OP,ModelType,STRING,OP_ADDR,LIST,addr,segment,hasParams,
IDENT_0,IDENT_1,IDENT_2,IDENT_3,IDENT_4,IDENT_5,IDENT_6,IDENT_7,IDENT_8,IDENT_9,IDENT_10,IDENT_11,IDENT_12,IDENT_13,







"formatCommand","The test case is a prototype.","'","' not defined.","' must be a string.","' must be a list.",'/','=',':',',','(',')',
STRING_0,STRING_1,STRING_2,STRING_3,STRING_4,STRING_5,STRING_6,STRING_7,STRING_8,STRING_9,STRING_10,STRING_11,

























