testInvalidValue,post,stringValue,
METHOD_0,METHOD_1,METHOD_2,

ontopia,topicmaps,VariantName,variant,changed,
IDENT_0,IDENT_1,IDENT_2,IDENT_3,IDENT_4,







"4",
STRING_0,

























