testGenerateNameIdWithoutFormat,generateNameId,
METHOD_0,METHOD_1,

nameIdValue,nameId,onelogin,saml2,Util,expectedNameId,
IDENT_0,IDENT_1,IDENT_2,IDENT_3,IDENT_4,IDENT_5,







"ONELOGIN_ce998811003f4e60f8b07a311dc641621379cfde","<saml:NameID>ONELOGIN_ce998811003f4e60f8b07a311dc641621379cfde</saml:NameID>",
STRING_0,STRING_1,

























