testCanIRI7,runTests,getBindingNames,
METHOD_0,METHOD_1,METHOD_2,

ontopBindingSet,
IDENT_0,







"PREFIX : <http://ontop.inf.unibz.it/test/wellbore#> Select * WHERE{\n","?x :hasWellbore ?y .\n","}\n",
STRING_0,STRING_1,STRING_2,

























