testGetReadChunk,setChunkSize,getReadChunk,hasRemaining,
METHOD_0,METHOD_1,METHOD_2,METHOD_3,

testData,readChunk,
IDENT_0,IDENT_1,


































