decimalEncoding,binaryEncode,hexToBytes,digit,
METHOD_0,METHOD_1,METHOD_2,METHOD_3,

scale,bd,opcfoundation,ua,CryptoUtil,Character,
IDENT_0,IDENT_1,IDENT_2,IDENT_3,IDENT_4,IDENT_5,

1518632738243L,
INT_0,




"003201080000000400c39d90956101",
STRING_0,

























