testRun2,Bla,calc,
METHOD_0,METHOD_1,METHOD_2,

counter,opencastproject,ReflectionUtil,ReflectionUtilTest,
IDENT_0,IDENT_1,IDENT_2,IDENT_3,













--,
OP_0,



















