testLazyEachIndexEmpty,mlazy,eachIndex,eval,
METHOD_0,METHOD_1,METHOD_2,METHOD_3,

opencastproject,Monadics,Effect2,
IDENT_0,IDENT_1,IDENT_2,


































