testBase64Decoding,base64Decode,base64Encode,encodeBase64URLSafeString,
METHOD_0,METHOD_1,METHOD_2,METHOD_3,

policyValue,opencastproject,urlsigning,PolicyUtils,binary,Base64,
IDENT_0,IDENT_1,IDENT_2,IDENT_3,IDENT_4,IDENT_5,







"{policy:'The Policy'}",
STRING_0,

























