testSetResultOptionsToPreventResult0EntryGroup20,getAbstractEntryGroup20,setResultOptions,getEntryCollection,
METHOD_0,METHOD_1,METHOD_2,METHOD_3,

surfnet,coin,AbstractEntry,
IDENT_0,IDENT_1,IDENT_2,

22,
INT_0,




"title",
STRING_0,

























