testMessageUtil,formatMessage,wrappedBuffer,getAllBytes,readableBytes,
METHOD_0,METHOD_1,METHOD_2,METHOD_3,METHOD_4,

primitives,UnsignedBytes,ByteBuf,formattedMessage,Unpooled,bgp,MessageUtil,ByteArray,
IDENT_0,IDENT_1,IDENT_2,IDENT_3,IDENT_4,IDENT_5,IDENT_6,IDENT_7,

23,32,14,21,
INT_0,INT_1,INT_2,INT_3,































