testSendMessage,sendMessage,runPendingTasks,readOutbound,
METHOD_0,METHOD_1,METHOD_2,METHOD_3,

netconf,NetconfMessage,TestingNetconfClient,DEFAULT_CONNECT_TIMEOUT,
IDENT_0,IDENT_1,IDENT_2,IDENT_3,


































