testMutableIteratorOffsetReplaceWorks,createMap,toModifiableMap,
METHOD_0,METHOD_1,METHOD_2,

MutableOffsetMap,
IDENT_0,







"k1","new-v1",
STRING_0,STRING_1,

























