parseYangSources,
METHOD_0,

SchemaContext,StmtTestUtils,StatementStreamSource,StatementParserMode,DEFAULT_MODE,sources,
IDENT_0,IDENT_1,IDENT_2,IDENT_3,IDENT_4,IDENT_5,







"/bugs/identity-ietf-routing-test/",
STRING_0,

























