testGetBytes,DataFile,openStream,TechnicalException,
METHOD_0,METHOD_1,METHOD_2,METHOD_3,

digidoc4j,DataFile,dataFile,IOUtils,
IDENT_0,IDENT_1,IDENT_2,IDENT_3,

65,
INT_0,




"suura.txt","text/plain","Error reading document bytes: ",
STRING_0,STRING_1,STRING_2,

























