testCreatingNewChild_shouldReturnNewlyCreatedChild,createChild,getChild,
METHOD_0,METHOD_1,METHOD_2,

openengsb,children,
IDENT_0,IDENT_1,


































