testGetOpenTasks_shouldReturnOpenTasks,Task,getOpenTasks,
METHOD_0,METHOD_1,METHOD_2,

openengsb,workflow,Task,persistenceService,columns,
IDENT_0,IDENT_1,IDENT_2,IDENT_3,IDENT_4,


































