testGPIODigitalPortAllOff,keySet,prepareCommand,DecimalType,
METHOD_0,METHOD_1,METHOD_2,METHOD_3,

test_msg,cmd,openhab,
IDENT_0,IDENT_1,IDENT_2,

170,85,14,
INT_0,INT_1,INT_2,




"s0002000e010100","s0002000e0101ff","s0002000e0101aa","s0002000e010155",
STRING_0,STRING_1,STRING_2,STRING_3,

























