testBitSetEquals2,elasticByteBuffer,BitSet,getValueOut,getValueIn,release,
METHOD_0,METHOD_1,METHOD_2,METHOD_3,METHOD_4,METHOD_5,

openhft,chronicle,Bytes,wire,Wire,WireType,TEXT,BitSet,
IDENT_0,IDENT_1,IDENT_2,IDENT_3,IDENT_4,IDENT_5,IDENT_6,IDENT_7,

64,89,
INT_0,INT_1,































