testBytesStore,createWire,fromString,elasticByteBuffer,release,
METHOD_0,METHOD_1,METHOD_2,METHOD_3,METHOD_4,

jetbrains,annotations,NotNull,openhft,chronicle,wire,Wire,Bytes,
IDENT_0,IDENT_1,IDENT_2,IDENT_3,IDENT_4,IDENT_5,IDENT_6,IDENT_7,







"Hello","X{","text=",'}',
STRING_0,STRING_1,STRING_2,STRING_3,

























