asString,Random,nextInt,parseUnsignedLong,
METHOD_0,METHOD_1,METHOD_2,METHOD_3,

openhft,chronicle,wire,IntConverter,Base85IntConverter,Random,rand,CharSequence,
IDENT_0,IDENT_1,IDENT_2,IDENT_3,IDENT_4,IDENT_5,IDENT_6,IDENT_7,

100000,
INT_0,































