asString,
METHOD_0,

openhft,chronicle,wire,LongConverter,Base85LongConverter,
IDENT_0,IDENT_1,IDENT_2,IDENT_3,IDENT_4,







",a,ab,abc,abcd,ab.de,123=56,1234567,12345678,zzzzzzzzzz,+ko2&)z.H0",",","ScalarStrategy<",">",
STRING_0,STRING_1,STRING_2,STRING_3,

























