comment,createWire,writeComment,identity,
METHOD_0,METHOD_1,METHOD_2,METHOD_3,

jetbrains,annotations,NotNull,openhft,chronicle,wire,Wire,fieldName,Function,
IDENT_0,IDENT_1,IDENT_2,IDENT_3,IDENT_4,IDENT_5,IDENT_6,IDENT_7,IDENT_8,







"\thi: omg","hi","there",
STRING_0,STRING_1,STRING_2,

























