testWrite,createWire,
METHOD_0,METHOD_1,

jetbrains,annotations,NotNull,openhft,chronicle,wire,Wire,number,
IDENT_0,IDENT_1,IDENT_2,IDENT_3,IDENT_4,IDENT_5,IDENT_6,IDENT_7,







"NestedClass{","text='",'\'',", number=",'}',
STRING_0,STRING_1,STRING_2,STRING_3,STRING_4,

























