testGetDataWithBooleanDown,HealthCheckResponseImpl,getData,
METHOD_0,METHOD_1,METHOD_2,

attribute,microprofile,health,HealthCheckResponse,testData,
IDENT_0,IDENT_1,IDENT_2,IDENT_3,IDENT_4,







"success-test","first-key",
STRING_0,STRING_1,

























