testConfigCache,getConfig,releaseConfig,
METHOD_0,METHOD_1,METHOD_2,

microprofile,Config,configA,configB,ConfigProviderResolver,ivConfig,
IDENT_0,IDENT_1,IDENT_2,IDENT_3,IDENT_4,IDENT_5,


































