getLibertyVersion,getAllProductInfo,
METHOD_0,METHOD_1,

mockit,MockUp,productinfo,ProductInfo,Mock,testPIMap,testClassesDir,libertyVersion,mbean,
IDENT_0,IDENT_1,IDENT_2,IDENT_3,IDENT_4,IDENT_5,IDENT_6,IDENT_7,IDENT_8,







"test.classesDir","bin_test","/test-files","9.9.9.9",
STRING_0,STRING_1,STRING_2,STRING_3,

























