testGetAll002,LdapName,getAll,nextElement,
METHOD_0,METHOD_1,METHOD_2,METHOD_3,

naming,LdapName,ln,Enumeration,
IDENT_0,IDENT_1,IDENT_2,IDENT_3,







"t=test",
STRING_0,

























