testEquals_null,BasicGroup,
METHOD_0,METHOD_1,

basic,BasicGroup,ProbeImpl,identifier,
IDENT_0,IDENT_1,IDENT_2,IDENT_3,







"group",
STRING_0,

























