testAddAllIntListOfRdn005,Rdn,LdapName,
METHOD_0,METHOD_1,METHOD_2,

LinkedList,naming,Rdn,LdapName,ln,
IDENT_0,IDENT_1,IDENT_2,IDENT_3,IDENT_4,







"t=test",
STRING_0,

























