getRealm,updateConfigDynamically,
METHOD_0,METHOD_1,

wim,fat,FATTestAD,serverConfiguration,websphere,simplicity,Log,
IDENT_0,IDENT_1,IDENT_2,IDENT_3,IDENT_4,IDENT_5,IDENT_6,







"getRealm","Checking expected realm","SampleLdapADRealm",
STRING_0,STRING_1,STRING_2,

























