testAddIntString008,LdapName,
METHOD_0,METHOD_1,

toadd,naming,LdapName,ln,
IDENT_0,IDENT_1,IDENT_2,IDENT_3,







"t=test",
STRING_0,

























