test_hourOfDay_shouldReturnHourBetween0and11_whenTimeBetween0and11,createCalendar,hourOfDay,setTime,
METHOD_0,METHOD_1,METHOD_2,METHOD_3,

calendar,openl,DateToolTest,hour,HOUR_OF_DAY,DateTool,
IDENT_0,IDENT_1,IDENT_2,IDENT_3,IDENT_4,IDENT_5,

2018,
INT_0,































