test_dayOfWeek_shouldReturnNull,dayOfWeek,setTime,
METHOD_0,METHOD_1,METHOD_2,

openl,DateTool,DAY_OF_WEEK,
IDENT_0,IDENT_1,IDENT_2,


































