testBlockStripedFeature,createStripedINodeFile,isStriped,
METHOD_0,METHOD_1,METHOD_2,

namenode,INodeFile,inf,TestStripedINodeFile,
IDENT_0,IDENT_1,IDENT_2,IDENT_3,


































