test11,calc,intValue,
METHOD_0,METHOD_1,METHOD_2,

openl,tbasic,TestForEach,TestAlgorithm,
IDENT_0,IDENT_1,IDENT_2,IDENT_3,







"test/rules/tbasic1/FOR_EACH_P5.xls",
STRING_0,

























