getIdentifiers_shouldNotReturnNull,Patient,setIdentifiers,getIdentifiers,TreeSet,
METHOD_0,METHOD_1,METHOD_2,METHOD_3,METHOD_4,

Patient,identifiers,
IDENT_0,IDENT_1,


































