testGetOpRequireAuth,getRequireAuth,
METHOD_0,METHOD_1,

HttpOpParam,Op,GetOpParam,GETDELEGATIONTOKEN,
IDENT_0,IDENT_1,IDENT_2,IDENT_3,


































