getCountOfPatients_shouldCountSinglePatient_SignatureNo1,getCountOfPatients,
METHOD_0,METHOD_1,

patientCount,
IDENT_0,







"Bilbo",
STRING_0,

























