handle_shouldSetDateRetired,BaseRetireHandler,Location,handle,getDateRetired,
METHOD_0,METHOD_1,METHOD_2,METHOD_3,METHOD_4,

RetireHandler,Retireable,retireable,dateRetired,
IDENT_0,IDENT_1,IDENT_2,IDENT_3,


































