getPersonName_shouldGetSavedPersonNameById,getPersonName,getLocationAttributeTypeId,
METHOD_0,METHOD_1,METHOD_2,

PersonName,personName,
IDENT_0,IDENT_1,


































