handle_shouldSetPersonDateVoided,PersonVoidHandler,handle,getPersonDateVoided,
METHOD_0,METHOD_1,METHOD_2,METHOD_3,

VoidHandler,personDateVoided,
IDENT_0,IDENT_1,


































