contains_shouldReturnTrueIfParameterIsEqualToLow,DoubleRange,getSession,
METHOD_0,METHOD_1,METHOD_2,

DoubleRange,r1,
IDENT_0,IDENT_1,


































