testSetIsEdgeRouter,setIsEdgeRouter,isEdgeRouter,
METHOD_0,METHOD_1,METHOD_2,

segmentrouting,SegmentRoutingDeviceConfig,EDGE,
IDENT_0,IDENT_1,IDENT_2,


































