testValueAs,discrete,valueAs,completedFuture,
METHOD_0,METHOD_1,METHOD_2,METHOD_3,

DiscreteResource,Resources,DiscreteResourceTest,D1,DeviceId,volume,CompletableFuture,
IDENT_0,IDENT_1,IDENT_2,IDENT_3,IDENT_4,IDENT_5,IDENT_6,


































