testValueAsIncompatibleType,continuous,bps,valueAs,
METHOD_0,METHOD_1,METHOD_2,METHOD_3,

ContinuousResource,Resources,ContinuousResourceTest,D1,P1,onlab,Bandwidth,BW1,VlanId,
IDENT_0,IDENT_1,IDENT_2,IDENT_3,IDENT_4,IDENT_5,IDENT_6,IDENT_7,IDENT_8,


































