testGetMaxAreaAddresses,setMaxAreaAddresses,getMaxAreaAddresses,
METHOD_0,METHOD_1,METHOD_2,

defaultIsisInterface,resultInt,
IDENT_0,IDENT_1,


































