testIsSelfOriginated,setSelfOriginated,isSelfOriginated,
METHOD_0,METHOD_1,METHOD_2,

defaultLspWrapper,result3,
IDENT_0,IDENT_1,


































