testValidateHelloMessage,L1L2HelloPdu,validateHelloMessage,
METHOD_0,METHOD_1,METHOD_2,

helloPdu,isis,isispacket,pdu,isisHeader,result4,defaultIsisInterface,
IDENT_0,IDENT_1,IDENT_2,IDENT_3,IDENT_4,IDENT_5,IDENT_6,


































