testMarshalling,toLong,toHexString,
METHOD_0,METHOD_1,METHOD_2,

dpidStr,dpid,onlab,HexString,testStr,
IDENT_0,IDENT_1,IDENT_2,IDENT_3,IDENT_4,







"00:00:00:23:20:2d:16:71",":",
STRING_0,STRING_1,

























