testNoonToday,GregorianCalendar,setSubHourFieldsZero,parseTimes,
METHOD_0,METHOD_1,METHOD_2,METHOD_3,

HOUR_OF_DAY,startDate,
IDENT_0,IDENT_1,







"noon","16",
STRING_0,STRING_1,

























