testFilterOddNumbersOut,
METHOD_0,

evenNumbers,ilr,Filter,Predicate,netmgt,OnmsIpInterface,
IDENT_0,IDENT_1,IDENT_2,IDENT_3,IDENT_4,IDENT_5,













%,
OP_0,



















