testAlias,CriteriaBuilder,alias,toCriteria,visit,getMatches,
METHOD_0,METHOD_1,METHOD_2,METHOD_3,METHOD_4,METHOD_5,

netmgt,BeanWrapperVisitorTest,TestBean,m_visitor,m_matches,
IDENT_0,IDENT_1,IDENT_2,IDENT_3,IDENT_4,







"subBean","foo.one","(.*)",
STRING_0,STRING_1,STRING_2,

























