testHoldCtrl,SudoKeyDownEvent,onKeyDown,getKeybuf,
METHOD_0,METHOD_1,METHOD_2,METHOD_3,

gwtterminal,TermHandlerTest,SudoKeyDownEvent,ctrlPress,CTRL_KEY,termHandler,keybuf,
IDENT_0,IDENT_1,IDENT_2,IDENT_3,IDENT_4,IDENT_5,IDENT_6,


































