dwoToString,DnsRequisitionUrlConnection,getURL,
METHOD_0,METHOD_1,METHOD_2,

URLConnection,netmgt,provision,dns,DnsRequisitionUrlConnectionIT,TEST_URL,m_url,
IDENT_0,IDENT_1,IDENT_2,IDENT_3,IDENT_4,IDENT_5,IDENT_6,


































