testIsGreaterThan,isGreaterThan,
METHOD_0,METHOD_1,

netmgt,OnmsSeverity,major,MAJOR,minor,MINOR,
IDENT_0,IDENT_1,IDENT_2,IDENT_3,IDENT_4,IDENT_5,


































