testCountMatchingEvents,EventCriteria,countMatchingEvents,countMatching,getOnmsCriteria,
METHOD_0,METHOD_1,METHOD_2,METHOD_3,METHOD_4,

EventCriteria,m_daoEventRepo,m_eventDao,
IDENT_0,IDENT_1,IDENT_2,


































