testGetNotification,getNotification,getNotifications,
METHOD_0,METHOD_1,METHOD_2,

notification,Notification,notice,m_daoNotificationRepo,
IDENT_0,IDENT_1,IDENT_2,IDENT_3,


































