testUmlauteToStringWriter,CSVPrinter,printValues,print,
METHOD_0,METHOD_1,METHOD_2,METHOD_3,

sw,csv,CSVPrinter,printer,CSVFormat,DEFAULT,
IDENT_0,IDENT_1,IDENT_2,IDENT_3,IDENT_4,IDENT_5,







"Hans","Meier","Peter","Mller","Grald","Ren",
STRING_0,STRING_1,STRING_2,STRING_3,STRING_4,STRING_5,

























