testExpected,addSnippetParam,checkExpected,getExpectedErrorMsg,
METHOD_0,METHOD_1,METHOD_2,METHOD_3,

expectedErrorMsg,
IDENT_0,







"sample.id1","sample.userId1","sample.displayName1","Social_Profiles_REST_Read_Name_and_Email",
STRING_0,STRING_1,STRING_2,STRING_3,

























