testSetNamespace,setNamespace,getNamespaceName,asString,
METHOD_0,METHOD_1,METHOD_2,METHOD_3,

openshift,restclient,Service,METADATA_NAMESPACE,
IDENT_0,IDENT_1,IDENT_2,IDENT_3,


































