testGetSelector,getSelector,asMap,
METHOD_0,METHOD_1,METHOD_2,

selector,openshift,restclient,Service,SERVICE_SELECTOR,
IDENT_0,IDENT_1,IDENT_2,IDENT_3,IDENT_4,







"database",
STRING_0,

























