testNamedThread,FakeWorkerThread,
METHOD_0,METHOD_1,

gearman,AbstractWorkerThread,fakeWorker,
IDENT_0,IDENT_1,IDENT_2,

4730,
INT_0,




"GearmanServer","faker",
STRING_0,STRING_1,

























