testSetAddressInt,setAddress,getAddress,isAddress,
METHOD_0,METHOD_1,METHOD_2,METHOD_3,

smpp,pdu,AddressTest,Address,theAddress,
IDENT_0,IDENT_1,IDENT_2,IDENT_3,IDENT_4,


































