proxyDisabledByDefault,isEnabled,assertElementNotStale,evaluateMethod,
METHOD_0,METHOD_1,METHOD_2,METHOD_3,

OperaAtom,IS_ENABLED,
IDENT_0,IDENT_1,







"return ","(locator)",
STRING_0,STRING_1,

























