testSetWithInteger,getSection,
METHOD_0,METHOD_1,

preferences,opera,systems,OperaPreference,section,
IDENT_0,IDENT_1,IDENT_2,IDENT_3,IDENT_4,

1234,
INT_0,




"Developer Tools","Proxy Port",
STRING_0,STRING_1,

























