openMultipleWindows,getWindowHandles,createWindow,newWindows,
METHOD_0,METHOD_1,METHOD_2,METHOD_3,

toOpen,totalNumberNewWindows,
IDENT_0,IDENT_1,


































