testDefaultCrashedState,TestOperaLauncherRunner,hasOperaCrashed,
METHOD_0,METHOD_1,METHOD_2,

opera,systems,OperaLauncherRunnerTest,settings,crashlog,
IDENT_0,IDENT_1,IDENT_2,IDENT_3,IDENT_4,


































