saveScreenshot,OperaInProcessRunner,captureScreen,getMs,
METHOD_0,METHOD_1,METHOD_2,METHOD_3,

opera,systems,inprocess,OperaIntervals,RUNNER_SCREEN_CAPTURE_TIMEOUT,
IDENT_0,IDENT_1,IDENT_2,IDENT_3,IDENT_4,


































