idleCanBeSet,setIdle,useIdle,
METHOD_0,METHOD_1,METHOD_2,

settings,opera,systems,OperaSettings,Capability,OPERAIDLE,
IDENT_0,IDENT_1,IDENT_2,IDENT_3,IDENT_4,IDENT_5,


































