LanguageProfileReader,getLanguageList,
METHOD_0,METHOD_1,

optimaize,langdetect,profiles,LanguageProfile,NgramFrequencyDataTest,allThreeGrams,
IDENT_0,IDENT_1,IDENT_2,IDENT_3,IDENT_4,IDENT_5,

71,
INT_0,




"de","fr",
STRING_0,STRING_1,

























