setURLStreamHandlerFactory,createMock,getURLStreamHandlerFactory,
METHOD_0,METHOD_1,METHOD_2,

URLStreamHandlerFactory,ops4j,pax,URLUtils,
IDENT_0,IDENT_1,IDENT_2,IDENT_3,







"Factory",
STRING_0,

























