extractGrams_6,gramLength,extractGrams,getLanguageList,
METHOD_0,METHOD_1,METHOD_2,METHOD_3,

optimaize,langdetect,ngram,ngrams,NgramExtractor,NgramFrequencyDataTest,allThreeGrams,
IDENT_0,IDENT_1,IDENT_2,IDENT_3,IDENT_4,IDENT_5,IDENT_6,

71,
INT_0,




"Foo bar",
STRING_0,

























