resolveRelease,openStream,
METHOD_0,METHOD_1,

artifact,localRepo,m_client,
IDENT_0,IDENT_1,IDENT_2,







"org.ops4j.pax.url.mvn.repositories","http://www.knopflerfish.org/maven2/@id=kf","mvn:org.knopflerfish/framework/7.0.1/pom","org/knopflerfish/framework/7.0.1/framework-7.0.1.pom",
STRING_0,STRING_1,STRING_2,STRING_3,

























