noDuplicateRegionCode,getRegionCode,or,
METHOD_0,METHOD_1,METHOD_2,

regionCodes,oracle,bmc,Region,region,regionCode,regionId,
IDENT_0,IDENT_1,IDENT_2,IDENT_3,IDENT_4,IDENT_5,IDENT_6,


































