testFileHasAnnotation,fileHasAnnotation,getRazorArchiveRCSFileFor,isFile,getRazorArchiveSCCSFileFor,
METHOD_0,METHOD_1,METHOD_2,METHOD_3,METHOD_4,

mappedFile,
IDENT_0,


































