testMap,executeQuery,ObjectVisitor,visit,isArray,getArrayClassName,getLength,
METHOD_0,METHOD_1,METHOD_2,METHOD_3,METHOD_4,METHOD_5,METHOD_6,

graalvm,visualvm,profiler,oql,OQLEngine,modules,mbeans,Array,openmbean,CompositeData,TabularData,
IDENT_0,IDENT_1,IDENT_2,IDENT_3,IDENT_4,IDENT_5,IDENT_6,IDENT_7,IDENT_8,IDENT_9,IDENT_10,







"map","$assertionsDisabled=true\nserialVersionUID=301077366599181570\ntmpdir=null\ncounter=-1\ntmpFileLock=<a href=\'file://instance/1684106928\' name=\'1684106928\'>java.lang.Object#6</a>\npathSeparator=<a href=\'file://instance/1684106888\' name=\'1684106888\'>java.lang.String#101</a>\npathSeparatorChar=:\nseparator=<a href=\'file://instance/1684106848\' name=\'1684106848\'>java.lang.String#100</a>\nseparatorChar=/\nfs=<a href=\'file://instance/1684106408\' name=\'1684106408\'>java.io.UnixFileSystem#1</a>\n<classLoader>=null\n","select map(heap.findClass(\"java.io.File\").statics, \"index + \'=\' + toHtml(it)\")","[",
STRING_0,STRING_1,STRING_2,STRING_3,

























