testGetDelegationTokenOnHA,getRMDelegationToken,Text,createFakeToken,
METHOD_0,METHOD_1,METHOD_2,METHOD_3,

Token,identifier,password,
IDENT_0,IDENT_1,IDENT_2,







"fake Token","fake token passwd",
STRING_0,STRING_1,

























