simpleStatelessTest2,createStage,getReference,sayHello,yield,fromValue,getIdentity,
METHOD_0,METHOD_1,METHOD_2,METHOD_3,METHOD_4,METHOD_5,METHOD_6,

orbit,actors,StatelessThing,actor1,Actor,Task,activationId,
IDENT_0,IDENT_1,IDENT_2,IDENT_3,IDENT_4,IDENT_5,IDENT_6,







"1000","hello from ",
STRING_0,STRING_1,

























