singeActor2StageTest,createStage,getReference,sayHello,fromValue,
METHOD_0,METHOD_1,METHOD_2,METHOD_3,METHOD_4,

orbit,actors,Stage,stage,SomeActor,someActor,Actor,Task,
IDENT_0,IDENT_1,IDENT_2,IDENT_3,IDENT_4,IDENT_5,IDENT_6,IDENT_7,







"bla",
STRING_0,

























