testNegative,
METHOD_0,

OResultSet,OIfStatementExecutionTest,itty,
IDENT_0,IDENT_1,IDENT_2,







"if(1=2){ select 1 as a; }",
STRING_0,

























