testTruncatePlain,getMetadata,getSchema,createClass,ODocument,OCommandSQL,intValue,
METHOD_0,METHOD_1,METHOD_2,METHOD_3,METHOD_4,METHOD_5,METHOD_6,

OClass,vcl,ODocument,Number,
IDENT_0,IDENT_1,IDENT_2,IDENT_3,







"A","ab","truncate class A ",
STRING_0,STRING_1,STRING_2,

























