rollbackOnShutdownNotCommit,OrientGraph,addVertex,shutdown,countVertices,
METHOD_0,METHOD_1,METHOD_2,METHOD_3,METHOD_4,

blueprints,impls,OrientGraph,orientGraph,userData,
IDENT_0,IDENT_1,IDENT_2,IDENT_3,IDENT_4,







"memory:test","User",
STRING_0,STRING_1,

























