testIterator,UnsupportedOperationException,
METHOD_0,METHOD_1,

aCollection,K,V,
IDENT_0,IDENT_1,IDENT_2,







"p1","p2","Not implemented yet",
STRING_0,STRING_1,STRING_2,

























