testCallbacksHierarchy,ExactEntity,callbackExecuted,
METHOD_0,METHOD_1,METHOD_2,

enhancement,ExactEntity,databaseTx,before3Called,
IDENT_0,IDENT_1,IDENT_2,IDENT_3,


































