testSetAndGetStringProperty,setStrProperty,getStrProperty,
METHOD_0,METHOD_1,METHOD_2,

expectedValue,configurator,propertyName,
IDENT_0,IDENT_1,IDENT_2,







"new value",
STRING_0,

























