getByData,getWoolData,getByWoolData,
METHOD_0,METHOD_1,METHOD_2,

dye,bukkit,DyeColor,byData,BY_WOOL_DATA,
IDENT_0,IDENT_1,IDENT_2,IDENT_3,IDENT_4,


































