insertRoleOrganization,SysRoleOrganization,setParentId,
METHOD_0,METHOD_1,METHOD_2,

hunt,SysRoleOrganization,ro,
IDENT_0,IDENT_1,IDENT_2,


































