getByNameWithMixedCase,getByName,notNull,
METHOD_0,METHOD_1,METHOD_2,

bukkit,Art,Validate,BY_NAME,ENGLISH,
IDENT_0,IDENT_1,IDENT_2,IDENT_3,IDENT_4,







'E','e',"Name cannot be null","_",
STRING_0,STRING_1,STRING_2,STRING_3,

























