isEdible,getItem,
METHOD_0,METHOD_1,

material,bukkit,craftbukkit,CraftMagicNumbers,minecraft,ItemFood,
IDENT_0,IDENT_1,IDENT_2,IDENT_3,IDENT_4,IDENT_5,


































