isUniformEmpty,isUniform,reduce,
METHOD_0,METHOD_1,METHOD_2,

Stream,oc,Streams,Uniformity,EMPTY,combine,
IDENT_0,IDENT_1,IDENT_2,IDENT_3,IDENT_4,IDENT_5,


































