testExpandHomeomorphicRelation,convertOBOFile,parseOBOFile,writeOWL,
METHOD_0,METHOD_1,METHOD_2,METHOD_3,

semanticweb,owlapi,OWLOntology,owlOnt,fn,
IDENT_0,IDENT_1,IDENT_2,IDENT_3,IDENT_4,







"homrel.obo",
STRING_0,

























