testComputeClassHierarchy,precomputeInferences,isPrecomputed,
METHOD_0,METHOD_1,METHOD_2,

reasoner,InferenceType,CLASS_HIERARCHY,semanticweb,owlapi,
IDENT_0,IDENT_1,IDENT_2,IDENT_3,IDENT_4,


































