testStringSerialization,createFormatterGenson,toJsonQuotedString,
METHOD_0,METHOD_1,METHOD_2,

owlike,genson,Genson,Period,period,
IDENT_0,IDENT_1,IDENT_2,IDENT_3,IDENT_4,







"\"",
STRING_0,

























