testObjectSerialization,createTimestampGenson,createWriter,serializeNull,
METHOD_0,METHOD_1,METHOD_2,METHOD_3,

owlike,genson,Genson,YearMonth,TimestampFormat,OBJECT,yearMonth,sw,ObjectWriter,
IDENT_0,IDENT_1,IDENT_2,IDENT_3,IDENT_4,IDENT_5,IDENT_6,IDENT_7,IDENT_8,

2010,11,
INT_0,INT_1,




"{\"year\":2010,\"month\":11}",
STRING_0,

























