getSetStartPosition,TsLintPosition,setStartPosition,getStartPosition,
METHOD_0,METHOD_1,METHOD_2,METHOD_3,

pablissimo,sonar,TsLintPosition,startPosition,
IDENT_0,IDENT_1,IDENT_2,IDENT_3,


































