testEmpty,cartesianProduct,multiply,intValue,
METHOD_0,METHOD_1,METHOD_2,METHOD_3,

cp,abc4trust,CartesianProduct,resultSet,MAX_LIST_SIZE,productSize,ONE,sets,ZERO,loopSize,
IDENT_0,IDENT_1,IDENT_2,IDENT_3,IDENT_4,IDENT_5,IDENT_6,IDENT_7,IDENT_8,IDENT_9,

100000,
INT_0,




"Will not generate carthesian product for more than "," elements ","(size would be ","). Not proceeding.",
STRING_0,STRING_1,STRING_2,STRING_3,




/=,%,
OP_0,OP_1,



















