testEquals,StandardTickUnitSource,getModuleClass,
METHOD_0,METHOD_1,METHOD_2,

axis,StandardTickUnitSource,t1,t2,modules,PackageState,packageState,
IDENT_0,IDENT_1,IDENT_2,IDENT_3,IDENT_4,IDENT_5,IDENT_6,


































