testSerialization,ArrowNeedle,serialised,getModuleClass,
METHOD_0,METHOD_1,METHOD_2,METHOD_3,

needle,ArrowNeedle,n1,n2,TestUtilities,modules,PackageState,packageState,
IDENT_0,IDENT_1,IDENT_2,IDENT_3,IDENT_4,IDENT_5,IDENT_6,IDENT_7,


































