testNotAStringNotABoolean,isAssignableFrom,internalConvert,defaultValue,
METHOD_0,METHOD_1,METHOD_2,METHOD_3,

attribute,
IDENT_0,


































