test_deserialize_string_object,deserialize,
METHOD_0,METHOD_1,

afollestad,ason,AsonSerializeTest,Ason,cls,
IDENT_0,IDENT_1,IDENT_2,IDENT_3,IDENT_4,







"{\"name\":\"Aidan\",\"_id\":2,\"age\":22,","\"spouse\":{\"name\":\"Nina\",\"_id\":6,\"age\":22}}",
STRING_0,STRING_1,

























