collectsEntriesIntoMap,toMap,
METHOD_0,METHOD_1,

jnape,palatable,lambda,functions,builtin,fn2,ToMap,K,V,M,
IDENT_0,IDENT_1,IDENT_2,IDENT_3,IDENT_4,IDENT_5,IDENT_6,IDENT_7,IDENT_8,IDENT_9,







"baz",
STRING_0,

























