flatMapPrecedence,flatMap,EquatableM,andThen,coerce,
METHOD_0,METHOD_1,METHOD_2,METHOD_3,METHOD_4,

jnape,palatable,lambda,adt,hlist,Tuple7,HList,Function,testsupport,ma,M,B,equatable,
IDENT_0,IDENT_1,IDENT_2,IDENT_3,IDENT_4,IDENT_5,IDENT_6,IDENT_7,IDENT_8,IDENT_9,IDENT_10,IDENT_11,IDENT_12,


































