zipPrecedence,zip,EquatableM,coerce,
METHOD_0,METHOD_1,METHOD_2,METHOD_3,

jnape,palatable,lambda,adt,hlist,Tuple4,HList,Function,functor,Applicative,testsupport,ma,appFn,M,A,B,equatable,
IDENT_0,IDENT_1,IDENT_2,IDENT_3,IDENT_4,IDENT_5,IDENT_6,IDENT_7,IDENT_8,IDENT_9,IDENT_10,IDENT_11,IDENT_12,IDENT_13,IDENT_14,IDENT_15,IDENT_16,


































