asIntListOffset_should_if_null,asIntListOffset,asIntList,
METHOD_0,METHOD_1,METHOD_2,

wehi,idsv,AttributeConverter,defaultValue,
IDENT_0,IDENT_1,IDENT_2,IDENT_3,


































