weight_should_be_sum_of_kmer_weights,G,toNodes,weight,
METHOD_0,METHOD_1,METHOD_2,METHOD_3,

wehi,idsv,BaseGraph,PathNode,debruijn,DeBruijnNodeBase,cacheWeight,
IDENT_0,IDENT_1,IDENT_2,IDENT_3,IDENT_4,IDENT_5,IDENT_6,







"ATAC","TACA","ACAG","ATACAG",
STRING_0,STRING_1,STRING_2,STRING_3,

























