typedObjectFromIntAndDouble,CField,typedObjectFromValueAndField,typedObjectFromValueAndFieldType,
METHOD_0,METHOD_1,METHOD_2,METHOD_3,

pardot,rhombus,cobject,CField,jsonValue,JsonUtil,
IDENT_0,IDENT_1,IDENT_2,IDENT_3,IDENT_4,IDENT_5,

1234567890,
INT_0,




"double","Field ",": Unable to convert "," of type "," to C* type ",
STRING_0,STRING_1,STRING_2,STRING_3,STRING_4,

























