testHelp,asArgArray,translateCommandline,
METHOD_0,METHOD_1,METHOD_2,

at,favre,uberadb,Arg,parsedArg,CLIParser,CLIParserTest,ant,Commandline,cmd,
IDENT_0,IDENT_1,IDENT_2,IDENT_3,IDENT_4,IDENT_5,IDENT_6,IDENT_7,IDENT_8,IDENT_9,







"--help",
STRING_0,

























