testWithOverwrite,asArgArray,Arg,translateCommandline,
METHOD_0,METHOD_1,METHOD_2,METHOD_3,

at,favre,apksigner,Arg,parsedArg,CLIParser,CLIParserTest,ARG_APK_FILE,expectedArg,ant,Commandline,cmd,
IDENT_0,IDENT_1,IDENT_2,IDENT_3,IDENT_4,IDENT_5,IDENT_6,IDENT_7,IDENT_8,IDENT_9,IDENT_10,IDENT_11,







"-","./ --overwrite","./",
STRING_0,STRING_1,STRING_2,

























