testDeviceArg,asArgArray,Arg,translateCommandline,
METHOD_0,METHOD_1,METHOD_2,METHOD_3,

at,favre,uberadb,Arg,parsedArg,CLIParser,CLIParserTest,ARG_UNINSTALL,ARG_DEVICE_SERIAL,expectedArg,Mode,UNINSTALL,ant,Commandline,cmd,
IDENT_0,IDENT_1,IDENT_2,IDENT_3,IDENT_4,IDENT_5,IDENT_6,IDENT_7,IDENT_8,IDENT_9,IDENT_10,IDENT_11,IDENT_12,IDENT_13,IDENT_14,







"-"," com.android.* -"," IR2131236","com.android.*","IR2131236",
STRING_0,STRING_1,STRING_2,STRING_3,STRING_4,

























