testUnaryResultTypeLong,unaryResultType,unaryNumericResultType,
METHOD_0,METHOD_1,METHOD_2,

thoughtworks,qdox,EvaluatingVisitor,Float,
IDENT_0,IDENT_1,IDENT_2,IDENT_3,


































