testTagButNoCommentToString,getTags,commentHeader,
METHOD_0,METHOD_1,METHOD_2,

thoughtworks,qdox,JavaAnnotatedElement,annotatedElement,DocletTag,monkeyTag,modelWriter,
IDENT_0,IDENT_1,IDENT_2,IDENT_3,IDENT_4,IDENT_5,IDENT_6,







"monkey","is in the tree","/**\n"," * @monkey is in the tree\n"," */\n","++",
STRING_0,STRING_1,STRING_2,STRING_3,STRING_4,STRING_5,

























