testEmptyParseException,ParseException,
METHOD_0,METHOD_1,

thoughtworks,qdox,ParseException,pe,sourceInfo,
IDENT_0,IDENT_1,IDENT_2,IDENT_3,IDENT_4,







" @[",',',']'," in ",
STRING_0,STRING_1,STRING_2,STRING_3,

























