test2,getExchange,removeAll,setSplitPolicy,setLength,clear,fetch,
METHOD_0,METHOD_1,METHOD_2,METHOD_3,METHOD_4,METHOD_5,METHOD_6,

persistit,Exchange,_persistit,SplitPolicy,LEFT_BIAS,NICE_BIAS,_value,
IDENT_0,IDENT_1,IDENT_2,IDENT_3,IDENT_4,IDENT_5,IDENT_6,

900,521479,521482,521485,521490,321,521491,521492,427,
INT_0,INT_1,INT_2,INT_3,INT_4,INT_5,INT_6,INT_7,INT_8,




"persistit","bug70612","stress10",
STRING_0,STRING_1,STRING_2,

























