testListSize,StringLoader,strictVariables,getTemplate,
METHOD_0,METHOD_1,METHOD_2,METHOD_3,

mitchellbosecke,pebble,PebbleEngine,PebbleTemplate,Writer,
IDENT_0,IDENT_1,IDENT_2,IDENT_3,IDENT_4,







"{% if dirEntries.size > 0 %}\n","<p>There are available files.</p>\n","{% else %}\n","<p>There are no available files.</p>\n","{% endif %}","dirEntries","Test",
STRING_0,STRING_1,STRING_2,STRING_3,STRING_4,STRING_5,STRING_6,

























