testGetMaximalExecutionAttempts,getMaximalExecutionAttempts,
METHOD_0,METHOD_1,

peerbox,PeerWaspConfig,MAX_EXECUTION_ATTEMPTS,
IDENT_0,IDENT_1,IDENT_2,


































