testReadWrongKey,writeCache,readCache,readAllBytes,
METHOD_0,METHOD_1,METHOD_2,METHOD_3,

RandomStringUtils,fileAgent,cacheFile,Files,
IDENT_0,IDENT_1,IDENT_2,IDENT_3,







"key","wrongKey",
STRING_0,STRING_1,

























