testExpressionInArguments,StringLoader,strictVariables,getTemplate,
METHOD_0,METHOD_1,METHOD_2,METHOD_3,

mitchellbosecke,pebble,PebbleEngine,PebbleTemplate,Writer,
IDENT_0,IDENT_1,IDENT_2,IDENT_3,IDENT_4,







"{{ input(1 + 1) }}{% macro input(value) %}{{value}}{% endmacro %}",
STRING_0,

























