testLeaveNetwork_NotConnected,leaveNetwork,never,publish,anyObject,disconnect,notifyDisconnect,
METHOD_0,METHOD_1,METHOD_2,METHOD_3,METHOD_4,METHOD_5,METHOD_6,

nodeManager,messageBus,
IDENT_0,IDENT_1,


































