testListTableNamesCloseException,doThrow,listTableNames,
METHOD_0,METHOD_1,METHOD_2,

ioException,hBaseConnectionHandle,hBaseConnection,
IDENT_0,IDENT_1,IDENT_2,


































