testGetTupleFamiliesSplit,getTupleFamilies,getTupleFamiliesSplit,
METHOD_0,METHOD_1,METHOD_2,

family1,family2,families,shim,HBaseValueMeta,SEPARATOR,
IDENT_0,IDENT_1,IDENT_2,IDENT_3,IDENT_4,IDENT_5,







"family1","family2",
STRING_0,STRING_1,

























