testPutPrimitives,allocate,SingleByteBuff,putLong,rewind,getLong,remaining,
METHOD_0,METHOD_1,METHOD_2,METHOD_3,METHOD_4,METHOD_5,METHOD_6,

bb,SingleByteBuff,long1,remaining,curItem,Bytes,SIZEOF_LONG,
IDENT_0,IDENT_1,IDENT_2,IDENT_3,IDENT_4,IDENT_5,IDENT_6,

4465109508325701663L,
INT_0,










<<=,^=,
OP_0,OP_1,



















