testGetRowImmediate,putRow,RowMeta,getRowImmediate,UnsupportedOperationException,
METHOD_0,METHOD_1,METHOD_2,METHOD_3,METHOD_4,

rowSet,
IDENT_0,


































