testGetNamesEmpty,addProvider,getNames,
METHOD_0,METHOD_1,METHOD_2,

names,connectionManager,pageCoords,ints,
IDENT_0,IDENT_1,IDENT_2,IDENT_3,


































