testToFloat,toBytes,toFloat,parseFloat,
METHOD_0,METHOD_1,METHOD_2,METHOD_3,

Bytes,Float,
IDENT_0,IDENT_1,







"4",
STRING_0,

123.45F,
FLOAT_0,






















