setFieldValueTest,setFieldValue,getFieldValue,
METHOD_0,METHOD_1,METHOD_2,

trans,steps,nullif,NullIfMeta,Const,KETTLE_EMPTY_STRING_DIFFERS_FROM_NULL,fieldValue,
IDENT_0,IDENT_1,IDENT_2,IDENT_3,IDENT_4,IDENT_5,IDENT_6,







"N","theValue",
STRING_0,STRING_1,

























