testPathNotExist,testPath,JobEntryEmpty,JobHopMeta,JobEntryCopy,addJobHop,isPathExist,
METHOD_0,METHOD_1,METHOD_2,METHOD_3,METHOD_4,METHOD_5,METHOD_6,

entries,JobEntryEmpty,je1,je2,JobHopMeta,hop,jobMeta,je3,je4,branch,
IDENT_0,IDENT_1,IDENT_2,IDENT_3,IDENT_4,IDENT_5,IDENT_6,IDENT_7,IDENT_8,IDENT_9,







"je1","je2","je3","je4","je1-je4","je2-je4",
STRING_0,STRING_1,STRING_2,STRING_3,STRING_4,STRING_5,

























