testMaxSheetNameLength,getSheetname,prepareNextOutputFile,containsValue,
METHOD_0,METHOD_1,METHOD_2,METHOD_3,

mockHelper,initStepMetaInterface,step,initStepDataInterface,KettleException,storageMap,
IDENT_0,IDENT_1,IDENT_2,IDENT_3,IDENT_4,IDENT_5,







"12345678901234567890123456789012",
STRING_0,

























