testURLEncodedKey,putValueXML,checkValueXML,
METHOD_0,METHOD_1,METHOD_2,

urlKey,TABLE,URLEncoder,HConstants,UTF8_ENCODING,COLUMN_1,VALUE_1,
IDENT_0,IDENT_1,IDENT_2,IDENT_3,IDENT_4,IDENT_5,IDENT_6,







"http://example.com/foo",'/',
STRING_0,STRING_1,

























