testIsDisplaySizeTwiceThePrecision,VerticaDatabaseMeta,isDisplaySizeTwiceThePrecision,
METHOD_0,METHOD_1,METHOD_2,

DatabaseInterface,databaseInterface,
IDENT_0,IDENT_1,


































