setSelectName,getSelectName,
METHOD_0,METHOD_1,

selectValuesMeta,trans,steps,selectvalues,SelectValuesMetaTest,FIRST_FIELD,SECOND_FIELD,selectName,selectFields,
IDENT_0,IDENT_1,IDENT_2,IDENT_3,IDENT_4,IDENT_5,IDENT_6,IDENT_7,IDENT_8,


































