testHash,parseServerName,
METHOD_0,METHOD_1,

ServerName,sn1,sn2,sns,
IDENT_0,IDENT_1,IDENT_2,IDENT_3,







"asf903.gq1.ygridcore.net,52690,1517835491385","asf903.gq1.ygridcore.net,42231,1517835491329",
STRING_0,STRING_1,

























