generateStringConcat_single,HiveDialect,generateStringConcat,
METHOD_0,METHOD_1,METHOD_2,

vals,pms,mql,dialect,HiveDialect,
IDENT_0,IDENT_1,IDENT_2,IDENT_3,IDENT_4,







"'string'","CONCAT('string')","CONCAT(",",",")",
STRING_0,STRING_1,STRING_2,STRING_3,STRING_4,

























