testIsHasMoreItems,GetCheckedoutDocsResponse,isHasMoreItems,
METHOD_0,METHOD_1,METHOD_2,

GetCheckedoutDocsResponse,hasMoreItems,
IDENT_0,IDENT_1,


































