testDisableReplicationWhenTableNameAsNull,disableTableReplication,getCause,
METHOD_0,METHOD_1,METHOD_2,

CompletionException,cause,
IDENT_0,IDENT_1,


































