testEncryptDecryptPasswordSpecialCharacters,encrypt,decrypt,Base64PasswordService,
METHOD_0,METHOD_1,METHOD_2,METHOD_3,

toEncode,encodedPw,decodedPw,decrypted,Base64PasswordService,ps,encoded,
IDENT_0,IDENT_1,IDENT_2,IDENT_3,IDENT_4,IDENT_5,IDENT_6,







"AbC@#$%^&*()[]\"\'`~\t\r\n","ENC:",
STRING_0,STRING_1,

























