testConstructor_StringFile,PropertiesFileConfiguration,
METHOD_0,METHOD_1,

PropertiesFileConfiguration,
IDENT_0,







"id","system",
STRING_0,STRING_1,

























