testGetHelpUrl,getConsoleConfig,getHelpUrl,
METHOD_0,METHOD_1,METHOD_2,

consoleConfig,spyAppConfigProperties,ConsoleConfigXml,HELP_URL_XPATH,
IDENT_0,IDENT_1,IDENT_2,IDENT_3,







"http://help.pentaho.com",
STRING_0,

























