testConstructor_doc,WebXml,getDocument,
METHOD_0,METHOD_1,METHOD_2,

webXml,email,EmailConfigurationXml,
IDENT_0,IDENT_1,IDENT_2,


































