testGetBlockoutJobs,getBlockOutJobs,getBlockoutJobs,
METHOD_0,METHOD_1,METHOD_2,

scheduler2,Job,mockJobs,schedulerResource,schedulerService,blockoutJobs,
IDENT_0,IDENT_1,IDENT_2,IDENT_3,IDENT_4,IDENT_5,


































