testIsPdiFile_txt,isPdiFile,isTransformation,isJob,
METHOD_0,METHOD_1,METHOD_2,METHOD_3,

repository2,unified,RepositoryFile,SchedulerResourceUtil,
IDENT_0,IDENT_1,IDENT_2,IDENT_3,







"readme.txt",
STRING_0,

























