testGetKeyStrokeWithMask,getKeyStroke,
METHOD_0,METHOD_1,

swing,KeyStroke,reporting,designer,extensions,wizard,Messages,MessagesTest,bundle,mask,
IDENT_0,IDENT_1,IDENT_2,IDENT_3,IDENT_4,IDENT_5,IDENT_6,IDENT_7,IDENT_8,IDENT_9,


































