testStrings,InternalValue,doubleValue,
METHOD_0,METHOD_1,METHOD_2,

reporting,classic,sorting,GenericComparatorTest,InternalValue,GenericComparator,value1,value2,Number,n1,n2,d1,d2,Comparable,c1,c2,cce,s1,s2,
IDENT_0,IDENT_1,IDENT_2,IDENT_3,IDENT_4,IDENT_5,IDENT_6,IDENT_7,IDENT_8,IDENT_9,IDENT_10,IDENT_11,IDENT_12,IDENT_13,IDENT_14,IDENT_15,IDENT_16,IDENT_17,IDENT_18,







"123",
STRING_0,

























