testIsQueryExecutable,isQueryExecutable,
METHOD_0,METHOD_1,

reporting,classic,DataRow,swing,TableModel,ExternalDataFactoryTest,QUERY,querymappings,
IDENT_0,IDENT_1,IDENT_2,IDENT_3,IDENT_4,IDENT_5,IDENT_6,IDENT_7,


































