getFilterConfig,initFilter,createNoOverridesFilter,
METHOD_0,METHOD_1,METHOD_2,

psddev,dari,AbstractFilter,filterConfig,
IDENT_0,IDENT_1,IDENT_2,IDENT_3,


































