parse_empty_2,parseAny,JsonParsingException,
METHOD_0,METHOD_1,METHOD_2,

codehaus,JsonParseException,psddev,dari,
IDENT_0,IDENT_1,IDENT_2,IDENT_3,







"Can't parse JSON bytes!",
STRING_0,

























