isEmpty_child,ObjectMap,Child,
METHOD_0,METHOD_1,METHOD_2,

Parent,Child,psddev,dari,ObjectMap,objmap,
IDENT_0,IDENT_1,IDENT_2,IDENT_3,IDENT_4,IDENT_5,


































