remove_paradox,SparseSet,getPattern,setCharAt,lastIndexOf,setLength,
METHOD_0,METHOD_1,METHOD_2,METHOD_3,METHOD_4,METHOD_5,

psddev,dari,SparseSet,itemString,paddedPattern,check,slashAt,
IDENT_0,IDENT_1,IDENT_2,IDENT_3,IDENT_4,IDENT_5,IDENT_6,







"+a",' ','-','+'," +/ ",
STRING_0,STRING_1,STRING_2,STRING_3,STRING_4,

























