testToByteArray_MinValue,SendSequenceCounter,clone,
METHOD_0,METHOD_1,METHOD_2,

persosim,simulator,SendSequenceCounter,ssc,ZERO,HexString,oidByteArray,
IDENT_0,IDENT_1,IDENT_2,IDENT_3,IDENT_4,IDENT_5,IDENT_6,







"0000",
STRING_0,

























