testConstructor,BitField,getBit,BitFieldOutOfBoundsException,
METHOD_0,METHOD_1,METHOD_2,METHOD_3,

persosim,simulator,BitField,storedBits,
IDENT_0,IDENT_1,IDENT_2,IDENT_3,


































