testToByteArray_Value_00,parseInt,
METHOD_0,METHOD_1,

recv,persosim,simulator,HexString,inputString,
IDENT_0,IDENT_1,IDENT_2,IDENT_3,IDENT_4,







"00","\\s","hexadecimal string must be of even length",
STRING_0,STRING_1,STRING_2,




%,
OP_0,



















