equals_DifferentContent,TestOid,
METHOD_0,METHOD_1,

persosim,simulator,protocols,Oid,oid1,OidTest,oid2,ta,Authorization,
IDENT_0,IDENT_1,IDENT_2,IDENT_3,IDENT_4,IDENT_5,IDENT_6,IDENT_7,IDENT_8,


































