itShouldbeNullSafe,QueryParamsMap,
METHOD_0,METHOD_1,

QueryParamsMap,queryParamsMap,
IDENT_0,IDENT_1,







"x","z","y","w",
STRING_0,STRING_1,STRING_2,STRING_3,

























