shouldNotFindNonExistingPerson,
METHOD_0,

no,kodemaker,ps,jdbiapp,person2,PersonDaoFluentStyleTest,addressDao,
IDENT_0,IDENT_1,IDENT_2,IDENT_3,IDENT_4,IDENT_5,IDENT_6,

100L,
INT_0,































