test_ProxyPort,getSlackNotification,getProxyPort,
METHOD_0,METHOD_1,METHOD_2,

slacknotifications,SlackNotification,W,proxyPort,
IDENT_0,IDENT_1,IDENT_2,IDENT_3,


































