testMatches,digit,seq,flatten,
METHOD_0,METHOD_1,METHOD_2,METHOD_3,

petitparser,Parser,primitive,CharacterParser,
IDENT_0,IDENT_1,IDENT_2,IDENT_3,







"12","23","45","a123b45",
STRING_0,STRING_1,STRING_2,STRING_3,

























