loct_ar_sliktu_paradigmu,generateInflectionsFromParadigm,AttributeValues,
METHOD_0,METHOD_1,METHOD_2,

lv,semti,morphology,Testi,MorphologyTest,loctjs,lemma,paradigm,
IDENT_0,IDENT_1,IDENT_2,IDENT_3,IDENT_4,IDENT_5,IDENT_6,IDENT_7,







"vrms",
STRING_0,

























