testValidName,GalaxyProjectName,
METHOD_0,METHOD_1,

corefacility,bioinformatics,irida,upload,galaxy,GalaxyProjectName,ConstraintViolation,constraintViolations,
IDENT_0,IDENT_1,IDENT_2,IDENT_3,IDENT_4,IDENT_5,IDENT_6,IDENT_7,







"Abc123 _-.'",
STRING_0,

























