testNonCopyOut,copyOut,getCount,createStatement,executeQuery,getInt,
METHOD_0,METHOD_1,METHOD_2,METHOD_3,METHOD_4,METHOD_5,

copyAPI,SQLException,sqle,Statement,con,
IDENT_0,IDENT_1,IDENT_2,IDENT_3,IDENT_4,







"SELECT 1","Can't use a non-copy query.","SELECT count(*) FROM copytest",
STRING_0,STRING_1,STRING_2,

























