testComprable,sort,copyOf,natural,sortedCopy,
METHOD_0,METHOD_1,METHOD_2,METHOD_3,METHOD_4,

pfichtner,jrunalyser,Duration,DefaultDuration,MINUTES,HOURS,SECONDS,Iterable,Ordering,
IDENT_0,IDENT_1,IDENT_2,IDENT_3,IDENT_4,IDENT_5,IDENT_6,IDENT_7,IDENT_8,

65,190,
INT_0,INT_1,































