writeWithNoDataDoesNothing,getData,writeJSON,
METHOD_0,METHOD_1,METHOD_2,

patient,MedicationController,DATA_NAME,phenotips,Patient,
IDENT_0,IDENT_1,IDENT_2,IDENT_3,IDENT_4,


































