toJSONSkipsUnknownInformation,AuditEvent,toJSON,
METHOD_0,METHOD_1,METHOD_2,

phenotips,audit,AuditEvent,
IDENT_0,IDENT_1,IDENT_2,







"id",
STRING_0,

























