checkGetProperties,getComponentUnderTest,getProperties,
METHOD_0,METHOD_1,METHOD_2,

phenotips,AbstractSimpleController,mocker,
IDENT_0,IDENT_1,IDENT_2,


































