marshalReturnsNullWhenPassedNull,marshal,print,
METHOD_0,METHOD_1,METHOD_2,

DateTime,phenotips,DateTimeAdapter,ISO_DATETIME_FORMATTER,
IDENT_0,IDENT_1,IDENT_2,IDENT_3,


































