loadReturnsUnaffectedString,getIntValue,
METHOD_0,METHOD_1,

dataHolder,phenotips,ClinicalStatusControllerTest,UNAFFECTED,PatientData,patient,
IDENT_0,IDENT_1,IDENT_2,IDENT_3,IDENT_4,IDENT_5,


































