test_fixed_length,ArbitraryInputStream,
METHOD_0,METHOD_1,

SIZE,philvarner,clamavj,ArbitraryInputStream,totalSize,currentOffset,
IDENT_0,IDENT_1,IDENT_2,IDENT_3,IDENT_4,IDENT_5,







"bytes.length < offset + length",
STRING_0,

























