shouldCreateWithUrl,FacesView,getUrl,getWebDriver,getCurrentUrl,
METHOD_0,METHOD_1,METHOD_2,METHOD_3,METHOD_4,

springfaces,mvc,FacesView,
IDENT_0,IDENT_1,IDENT_2,







"http://localhost:8080",
STRING_0,

























