shouldGetVarIfSpecified,setVar,getVar,getStateHelper,
METHOD_0,METHOD_1,METHOD_2,METHOD_3,

uiPagedData,springfaces,selectitems,UISelectItems,PropertyKeys,var,
IDENT_0,IDENT_1,IDENT_2,IDENT_3,IDENT_4,IDENT_5,







"myVar",
STRING_0,

























