shouldGetAsList,unmodifiableList,
METHOD_0,METHOD_1,

stateHolders,stateHolder,partialStateHolder,faces,StateHolder,
IDENT_0,IDENT_1,IDENT_2,IDENT_3,IDENT_4,


































