shouldClearInitialStateOnAdd,markInitialState,initialStateMarked,
METHOD_0,METHOD_1,METHOD_2,

stateHolders,stateHolder,faces,PartialStateHolder,initialState,
IDENT_0,IDENT_1,IDENT_2,IDENT_3,IDENT_4,


































