testHashmapPutIsNotAllowed,getNodeName,
METHOD_0,METHOD_1,

Characteristics,CDI,
IDENT_0,IDENT_1,







"injection","true","BuilderNode: "," (\"","\")",
STRING_0,STRING_1,STRING_2,STRING_3,STRING_4,

























