testGetUrl,ClassPathElement,getUrl,
METHOD_0,METHOD_1,METHOD_2,

picocontainer,classname,ClassPathElement,
IDENT_0,IDENT_1,IDENT_2,







"file:///usr/lib",
STRING_0,

























