testPlainObjectMissingFromAllReportedAsMissing,getComponent,
METHOD_0,METHOD_1,

composite,jtype,Generic,
IDENT_0,IDENT_1,IDENT_2,







"three",
STRING_0,

























