testVoidReturnType,getComponentAdapters,
METHOD_0,METHOD_1,

picocontainer,gems,DelegateMethod,Void,testMap,mutablePicoContainer,
IDENT_0,IDENT_1,IDENT_2,IDENT_3,IDENT_4,IDENT_5,







"clear","A",
STRING_0,STRING_1,

























