testNotStartableNorDisposable,stop,dispose,hasLifecycle,
METHOD_0,METHOD_1,METHOD_2,METHOD_3,

serializable,mockery,Serializable,
IDENT_0,IDENT_1,IDENT_2,


































