testHasLabelWithin,addVertex,addEdge,traversal,V,hasLabel,printTraversalForm,
METHOD_0,METHOD_1,METHOD_2,METHOD_3,METHOD_4,METHOD_5,METHOD_6,

gremlin,structure,Vertex,a1,sqlgGraph,label,b1,traversal,dsl,GraphTraversal,
IDENT_0,IDENT_1,IDENT_2,IDENT_3,IDENT_4,IDENT_5,IDENT_6,IDENT_7,IDENT_8,IDENT_9,







"A","a1","B","b1","ab","C",
STRING_0,STRING_1,STRING_2,STRING_3,STRING_4,STRING_5,

























