test591MARC21,
METHOD_0,

gwdg,metadataqa,marc,definition,DataFieldDefinition,TagDefinitionLoader,MarcVersion,MARC21,versionedCache,tag,marcVersion,OCLC,
IDENT_0,IDENT_1,IDENT_2,IDENT_3,IDENT_4,IDENT_5,IDENT_6,IDENT_7,IDENT_8,IDENT_9,IDENT_10,IDENT_11,







"591",
STRING_0,

























