loadDefaultRuleset,createRuleSet,
METHOD_0,METHOD_1,

pmd,RuleSet,ruleset,RuleSetReferenceId,ruleSetReferenceId,
IDENT_0,IDENT_1,IDENT_2,IDENT_3,IDENT_4,







"rulesets/apex/ruleset.xml",
STRING_0,

























