testFindClassExplicitImport,TypeSet,addImport,findClass,
METHOD_0,METHOD_1,METHOD_2,METHOD_3,

pmd,symboltable,TypeSet,findClassCalls,
IDENT_0,IDENT_1,IDENT_2,IDENT_3,







"java.io.File","File",
STRING_0,STRING_1,

























