testConcurrentWrites,innerMain,getConfiguration,
METHOD_0,METHOD_1,METHOD_2,

errCode,wal,WALPerformanceEvaluation,TestFSHLogProvider,TEST_UTIL,
IDENT_0,IDENT_1,IDENT_2,IDENT_3,IDENT_4,







"-threads","3","-verify","-noclosefs","-iterations","3000",
STRING_0,STRING_1,STRING_2,STRING_3,STRING_4,STRING_5,

























