testIgnoreBetweenSpecialComments,SourceCode,StringCodeLoader,Tokens,tokenize,getEOF,
METHOD_0,METHOD_1,METHOD_2,METHOD_3,METHOD_4,METHOD_5,

pmd,cpd,SourceCode,sourceCode,PMD,EOL,Tokens,tokenizer,TokenEntry,
IDENT_0,IDENT_1,IDENT_2,IDENT_3,IDENT_4,IDENT_5,IDENT_6,IDENT_7,IDENT_8,







"% CPD-OFF","function g = vec(op, y)"," opy = op(y);"," if ( any(size(opy) > 1) )"," g = @loopWrapperArray;"," end"," % CPD-ON","end",
STRING_0,STRING_1,STRING_2,STRING_3,STRING_4,STRING_5,STRING_6,STRING_7,

























