filtersByClassNameRegex,getClassFinder,findClasses,Regex,
METHOD_0,METHOD_1,METHOD_2,METHOD_3,

poolik,classfinder,ClassInfo,Regex,
IDENT_0,IDENT_1,IDENT_2,IDENT_3,







".*\\d$",
STRING_0,

























