getItemRevisions,getAPI,getResourceFactory,getApiResource,
METHOD_0,METHOD_1,METHOD_2,METHOD_3,

podio,ItemRevision,revisions,itemId,GenericType,
IDENT_0,IDENT_1,IDENT_2,IDENT_3,IDENT_4,







"/item/","/revision/",
STRING_0,STRING_1,

























