testAcceptNullInout,setInput,checkNotNull,getActiveCommand,getInput,
METHOD_0,METHOD_1,METHOD_2,METHOD_3,METHOD_4,

openspotlight,console,ConsoleState,Assertions,
IDENT_0,IDENT_1,IDENT_2,IDENT_3,







"state","display properties",
STRING_0,STRING_1,

























