testModularGB6,BuchbergerGB,ModularGB,asGenericRing,asOverZp64,
METHOD_0,METHOD_1,METHOD_2,METHOD_3,METHOD_4,

vars,poly,multivar,MultivariatePolynomial,bigint,Z,MonomialOrder,GREVLEX,gens,buch,mod,IntegersZp64,Comparator,IntegersZp,lDomain,ring,ordering,variables,
IDENT_0,IDENT_1,IDENT_2,IDENT_3,IDENT_4,IDENT_5,IDENT_6,IDENT_7,IDENT_8,IDENT_9,IDENT_10,IDENT_11,IDENT_12,IDENT_13,IDENT_14,IDENT_15,IDENT_16,IDENT_17,







"x","y","z","x*y^2*z^3","1+x^3*y*z^2","x*z+3*x^2*z+y^3*z",
STRING_0,STRING_1,STRING_2,STRING_3,STRING_4,STRING_5,

























