test9,multiply,createOne,
METHOD_0,METHOD_1,METHOD_2,

poly,univar,UnivariatePolynomial,bigint,Poly,multivar,IPolynomial,factors,
IDENT_0,IDENT_1,IDENT_2,IDENT_3,IDENT_4,IDENT_5,IDENT_6,IDENT_7,

58,81,29,77,42,38,48,94,55,35,75,54,102,127,14,152,242,161,116,
INT_0,INT_1,INT_2,INT_3,INT_4,INT_5,INT_6,INT_7,INT_8,INT_9,INT_10,INT_11,INT_12,INT_13,INT_14,INT_15,INT_16,INT_17,INT_18,































