testParse2,IntegersZp,mapToObj,joining,
METHOD_0,METHOD_1,METHOD_2,METHOD_3,

vars,IntegersZp,poly,multivar,MultivariatePolynomial,bigint,MonomialOrder,LEX,parsed,Collectors,
IDENT_0,IDENT_1,IDENT_2,IDENT_3,IDENT_4,IDENT_5,IDENT_6,IDENT_7,IDENT_8,IDENT_9,

17,
INT_0,




"8+14*a+16*a^2+11*a^3+12*a^4+a^5","{",",","}",
STRING_0,STRING_1,STRING_2,STRING_3,

























