test6,toBigPoly,square,nanoTime,SubresultantPRS,resultant,nanosecondsToString,ModularResultant,
METHOD_0,METHOD_1,METHOD_2,METHOD_3,METHOD_4,METHOD_5,METHOD_6,METHOD_7,

poly,univar,UnivariatePolynomial,bigint,UnivariatePolynomialZ64,direct,TimeUnits,modular,pf,nano,
IDENT_0,IDENT_1,IDENT_2,IDENT_3,IDENT_4,IDENT_5,IDENT_6,IDENT_7,IDENT_8,IDENT_9,

123,1231231431,12123434,2341,1234329,
INT_0,INT_1,INT_2,INT_3,INT_4,




"Direct: ","Modular: ","ns","us","ms","s",
STRING_0,STRING_1,STRING_2,STRING_3,STRING_4,STRING_5,




/=,
OP_0,



















