isPathWithinSubtree_rootIsInside,isPathWithinSubtree,depth,
METHOD_0,METHOD_1,METHOD_2,

subtree,FileUtils,
IDENT_0,IDENT_1,







"/foo",
STRING_0,

























