shouldConvertFromHex,GeneralConverter,HexConverter,OctanConverter,
METHOD_0,METHOD_1,METHOD_2,METHOD_3,

solid,dependencyinversion,NumberSystem,HEX,numberSystem,liskov,
IDENT_0,IDENT_1,IDENT_2,IDENT_3,IDENT_4,IDENT_5,







"F",
STRING_0,

























