testAddress,writeValue,createAddress,readValue,
METHOD_0,METHOD_1,METHOD_2,METHOD_3,

priyatam,springrest,DomainTest,MockDataHelper,Address,jsonRoot,
IDENT_0,IDENT_1,IDENT_2,IDENT_3,IDENT_4,IDENT_5,







"address.json",
STRING_0,

























