testRemoveInt,
METHOD_0,

ccnx,ccn,Log,FAC_TEST,cd,CollectionTest,lrs,_set,
IDENT_0,IDENT_1,IDENT_2,IDENT_3,IDENT_4,IDENT_5,IDENT_6,IDENT_7,







"Starting testRemoveInt","Completed testRemoveInt",
STRING_0,STRING_1,

























