shouldReturnFalseForEmptyString,isQuoted,checkNotNull,
METHOD_0,METHOD_1,METHOD_2,

quoted,stanford,bmir,protege,EntityNameUtils,entityName,SINGLE_QUOTE,
IDENT_0,IDENT_1,IDENT_2,IDENT_3,IDENT_4,IDENT_5,IDENT_6,


































