testCreate,checkExists,forPath,
METHOD_0,METHOD_1,METHOD_2,

ebay,jetstream,ZkConnectorTest,zkConnector,m_curator,
IDENT_0,IDENT_1,IDENT_2,IDENT_3,IDENT_4,







"/testCreate",
STRING_0,

























