addToLast,removeLast,
METHOD_0,METHOD_1,

psjava,ds,DynamicArray,asize,
IDENT_0,IDENT_1,IDENT_2,IDENT_3,







"A","B","C",
STRING_0,STRING_1,STRING_2,

























