BipartiteGraph,addLeft,addRight,addEdge,calculate,getCount,
METHOD_0,METHOD_1,METHOD_2,METHOD_3,METHOD_4,METHOD_5,

psjava,BipartiteGraph,number,MinimumVertexCover,MaximumBipartiteMatching,bg,
IDENT_0,IDENT_1,IDENT_2,IDENT_3,IDENT_4,IDENT_5,







"A","B","C","X","Y","Z",
STRING_0,STRING_1,STRING_2,STRING_3,STRING_4,STRING_5,

























