makeSureAllImportsArePresent,static_,setStaticMember,getImports,
METHOD_0,METHOD_1,METHOD_2,METHOD_3,

speedment,codegen,Import,Objects,imports,
IDENT_0,IDENT_1,IDENT_2,IDENT_3,IDENT_4,







"requireNonNull","equals",
STRING_0,STRING_1,

























