readOnlyTest,UserOrder,setUserId,
METHOD_0,METHOD_1,METHOD_2,

easydevelop,UserOrder,shardingDatasourceSeq,agTest,shardingServiceInstance,
IDENT_0,IDENT_1,IDENT_2,IDENT_3,IDENT_4,


































