testOverwriteUse,LRUCache,access,
METHOD_0,METHOD_1,METHOD_2,

uwaterloo,ece,qhanam,practice,lru,LRUCache,
IDENT_0,IDENT_1,IDENT_2,IDENT_3,IDENT_4,IDENT_5,


































