testClass,ClassOfCallerConverter,
METHOD_0,METHOD_1,

qos,logback,DynamicConverter,classic,ILoggingEvent,le,
IDENT_0,IDENT_1,IDENT_2,IDENT_3,IDENT_4,IDENT_5,


































