testUsingDefaultConfig,setRemoteHost,getLocalHost,getHostAddress,setPort,getSocketFactory,getDefault,
METHOD_0,METHOD_1,METHOD_2,METHOD_3,METHOD_4,METHOD_5,METHOD_6,

InetAddress,SocketFactory,
IDENT_0,IDENT_1,

6000,
INT_0,































