testNested,Parser,SimpleKeywordNode,CompositeNode,setChildNode,
METHOD_0,METHOD_1,METHOD_2,METHOD_3,METHOD_4,

qos,logback,Parser,witness,w,LITERAL,CompositeNode,composite,BARE,childNode,
IDENT_0,IDENT_1,IDENT_2,IDENT_3,IDENT_4,IDENT_5,IDENT_6,IDENT_7,IDENT_8,IDENT_9,







"%top %(%child%(%h))","top","child","h",
STRING_0,STRING_1,STRING_2,STRING_3,

























