sequenceWithCopyContextMap,getCopyOfContextMap,
METHOD_0,METHOD_1,

mdcAdapter,map0,copyOnThreadLocal,E,numElems,ea,maxSize,
IDENT_0,IDENT_1,IDENT_2,IDENT_3,IDENT_4,IDENT_5,IDENT_6,







"k0","v0","k1","v1",
STRING_0,STRING_1,STRING_2,STRING_3,




--,
OP_0,



















