testLoggers,getLogger,getLoggers,
METHOD_0,METHOD_1,METHOD_2,

expectedNames,actualNames,slf4j,SubstituteLogger,slog,
IDENT_0,IDENT_1,IDENT_2,IDENT_3,IDENT_4,







"foo1","foo2","NOP",
STRING_0,STRING_1,STRING_2,

























