testSubstVarsSystemProperties,substVars,clearProperty,
METHOD_0,METHOD_1,METHOD_2,

qos,logback,OptionHelper,PropertyContainer,pc1,
IDENT_0,IDENT_1,IDENT_2,IDENT_3,IDENT_4,







"v1","if","v2","works",
STRING_0,STRING_1,STRING_2,STRING_3,

























