base_base,TypeFactory,getDeclaredField,getGenericType,getParameters,
METHOD_0,METHOD_1,METHOD_2,METHOD_3,METHOD_4,

codegen,TypeFactory,typeFactory,Inheritance2Test,Base,mysema,
IDENT_0,IDENT_1,IDENT_2,IDENT_3,IDENT_4,IDENT_5,







"base",
STRING_0,

























