sum_as_float2,sum,negate,fetchFirst,oneResult,
METHOD_0,METHOD_1,METHOD_2,METHOD_3,METHOD_4,

AbstractJPATest,cat,floatProperty,
IDENT_0,IDENT_1,IDENT_2,


































