createEnumPath,enumPath,
METHOD_0,METHOD_1,

annotations,PropertyType,pathFactory,PathMetadata,dsl,Expressions,
IDENT_0,IDENT_1,IDENT_2,IDENT_3,IDENT_4,IDENT_5,


































