gt_subquery,avg,fetchFirst,where,gt,fetch,innerList,
METHOD_0,METHOD_1,METHOD_2,METHOD_3,METHOD_4,METHOD_5,METHOD_6,

avg,product,price,
IDENT_0,IDENT_1,IDENT_2,


































