hashCode1,QSurvey,all,newHashSet,gt,
METHOD_0,METHOD_1,METHOD_2,METHOD_3,METHOD_4,

QSurvey,survey,survey2,SubQueryExpression,Tuple,query1,SQLExpressions,query2,queries,Sets,products,
IDENT_0,IDENT_1,IDENT_2,IDENT_3,IDENT_4,IDENT_5,IDENT_6,IDENT_7,IDENT_8,IDENT_9,IDENT_10,







"survey2",
STRING_0,

























