num_date_operation,year,mod,fetchFirst,oneResult,
METHOD_0,METHOD_1,METHOD_2,METHOD_3,METHOD_4,

employee,datefield,
IDENT_0,IDENT_1,


































