union2,union,where,distinct,gt,
METHOD_0,METHOD_1,METHOD_2,METHOD_3,METHOD_4,

Tuple,rows,AbstractSQLTest,cat,products,
IDENT_0,IDENT_1,IDENT_2,IDENT_3,IDENT_4,







"Beck","Kate",
STRING_0,STRING_1,

























