insert_batch2,addBatch,setNull,getTemplates,isNativeMerge,executeNativeMerge,executeCompositeMerge,
METHOD_0,METHOD_1,METHOD_2,METHOD_3,METHOD_4,METHOD_5,METHOD_6,

dml,SQLInsertClause,survey,
IDENT_0,IDENT_1,IDENT_2,







"55",
STRING_0,

























