scroll,Cat,
METHOD_0,METHOD_1,

QCat,cat,HibernateQuery,Void,ScrollableResults,ScrollMode,SCROLL_INSENSITIVE,RelationalPath,
IDENT_0,IDENT_1,IDENT_2,IDENT_3,IDENT_4,IDENT_5,IDENT_6,IDENT_7,

11,
INT_0,




"Bob","Steve",
STRING_0,STRING_1,

























