subQueries,where,fetch,
METHOD_0,METHOD_1,METHOD_2,

expectedQuery,employee,batches,
IDENT_0,IDENT_1,IDENT_2,







"select e.ID from EMPLOYEE e ","where e.ID = (select max(e.ID) ","from EMPLOYEE e)",
STRING_0,STRING_1,STRING_2,

























