setNull2,fetchCount,SQLUpdateClause,getConnection,
METHOD_0,METHOD_1,METHOD_2,METHOD_3,

survey,RelationalPath,dml,
IDENT_0,IDENT_1,IDENT_2,


































