shouldReturnSameOffsetWhenOffsetIsNormal,determinePageOffset,
METHOD_0,METHOD_1,

originalOffset,openstack,PaginationHelper,DEFAULT_PAGE_OFFSET,MIN_PAGE_OFFSET,
IDENT_0,IDENT_1,IDENT_2,IDENT_3,IDENT_4,

500,
INT_0,































