shouldRejectWhenIdAndTypeAreBothSet,passedValidation,
METHOD_0,METHOD_1,

vip,openstack,ValidatorResult,lbvipvalidator,mgmt,validators,VIPS_POST,expectationResultList,
IDENT_0,IDENT_1,IDENT_2,IDENT_3,IDENT_4,IDENT_5,IDENT_6,IDENT_7,

1234,
INT_0,































