case2,processExistingEvents,hasValues,
METHOD_0,METHOD_1,METHOD_2,

openstack,usagerefactor,usage,LoadBalancerMergedHostUsage,mergedRecords,usagePollerHelper,lbHostMap,AssertLoadBalancerMergedHostUsage,UsageEvent,SSL_ONLY_ON,SSL_MIXED_ON,
IDENT_0,IDENT_1,IDENT_2,IDENT_3,IDENT_4,IDENT_5,IDENT_6,IDENT_7,IDENT_8,IDENT_9,IDENT_10,

1234,124,123,200L,300L,
INT_0,INT_1,INT_2,INT_3,INT_4,




"2013-04-10 20:03:01","2013-04-10 20:04:01","2013-04-10 20:03:00","2013-04-10 20:04:00",
STRING_0,STRING_1,STRING_2,STRING_3,

























