edgeCasesCase005,processRecords,hasValues,
METHOD_0,METHOD_1,METHOD_2,

processedUsages,usageRollupProcessor,allUsageRecordsInOrder,hourToRollup,lbsActiveDuringHour,openstack,Usage,actualUsage,usagerefactor,AssertUsage,CREATE_LOADBALANCER,SSL_MIXED_ON,
IDENT_0,IDENT_1,IDENT_2,IDENT_3,IDENT_4,IDENT_5,IDENT_6,IDENT_7,IDENT_8,IDENT_9,IDENT_10,IDENT_11,

1234,50L,100L,200L,
INT_0,INT_1,INT_2,INT_3,




"2013-04-10 20:23:59","2013-04-10 20:25:00","2013-04-10 21:00:00",
STRING_0,STRING_1,STRING_2,

0.5,
FLOAT_0,






















