shouldnotMatch,IPv6Cidr,getAllowedDomains,hostInDomain,
METHOD_0,METHOD_1,METHOD_2,METHOD_3,

openstack,ip,IPv6Cidr,cidr1,cidr2,domains,allowedDomainsRepository,matchedDomains,hostName,
IDENT_0,IDENT_1,IDENT_2,IDENT_3,IDENT_4,IDENT_5,IDENT_6,IDENT_7,IDENT_8,







"cccc:cccc:cccc:cccc::192.168.3.51/64","cccc:ffff:cccc:cccc:aaaa:aaaa:aaaa:aaaa/64",
STRING_0,STRING_1,

























