ShouldGetArrayForNull,PostgreSQLTextArray,getArray,copyOf,
METHOD_0,METHOD_1,METHOD_2,METHOD_3,

atomhopper,PostgreSQLTextArray,stringArray,
IDENT_0,IDENT_1,IDENT_2,


































