constructorSetsTimestamp,SimpleNumber,getTimestamp,
METHOD_0,METHOD_1,METHOD_2,

rackspacecloud,blueflood,SimpleNumber,timestamp,Points,Point,point,
IDENT_0,IDENT_1,IDENT_2,IDENT_3,IDENT_4,IDENT_5,IDENT_6,

42,1234L,
INT_0,INT_1,































