equalsDifferentStringReturnsFalse,createLocatorFromDbKey,
METHOD_0,METHOD_1,

rackspacecloud,blueflood,Locator,locator,SlotState,
IDENT_0,IDENT_1,IDENT_2,IDENT_3,IDENT_4,







"a.b.c","a.b.d",
STRING_0,STRING_1,

























