testGetSlotCheckConcurrency,getMaximumPoolSize,getSlotCheckConcurrency,verifyNoMoreInteractions,
METHOD_0,METHOD_1,METHOD_2,METHOD_3,

locatorFetchExecutors,
IDENT_0,


































