geTotalUsers,newDao,setUsername,getTotalUsers,
METHOD_0,METHOD_1,METHOD_2,METHOD_3,

jforum,UserRepository,u1,u2,u3,SessionManager,anonymousSessions,loggedSessions,
IDENT_0,IDENT_1,IDENT_2,IDENT_3,IDENT_4,IDENT_5,IDENT_6,IDENT_7,







"u1",
STRING_0,

























