member_equals_falseForNull,Member,
METHOD_0,METHOD_1,

JsonObject,Member,member,Json,TRUE,Location,
IDENT_0,IDENT_1,IDENT_2,IDENT_3,IDENT_4,IDENT_5,


































