testMaxLength,getRecommendation,getIidxs,Tuple2od,
METHOD_0,METHOD_1,METHOD_2,METHOD_3,

maxLength,IntPredicate,ranksys,tuples,Tuple2id,recommender,T1,
IDENT_0,IDENT_1,IDENT_2,IDENT_3,IDENT_4,IDENT_5,IDENT_6,










6.0,5.0,
FLOAT_0,FLOAT_1,






















