testStdFilter,getRecommendation,getItems,Tuple2od,
METHOD_0,METHOD_1,METHOD_2,METHOD_3,

maxLength,Predicate,ranksys,tuples,Tuple2od,recommender,T1,
IDENT_0,IDENT_1,IDENT_2,IDENT_3,IDENT_4,IDENT_5,IDENT_6,







"0","3","4","5",
STRING_0,STRING_1,STRING_2,STRING_3,

6.0,5.0,4.0,3.0,
FLOAT_0,FLOAT_1,FLOAT_2,FLOAT_3,






















