getReturnValue,RPCException,
METHOD_0,METHOD_1,

rapid7,dcerpc,RPCException,rpcException,SystemErrorCode,ERROR_SUCCESS,
IDENT_0,IDENT_1,IDENT_2,IDENT_3,IDENT_4,IDENT_5,


































