getMajorVersion,unmarshalHeader,
METHOD_0,METHOD_1,

rapid7,dcerpc,Header,Test_Header,HEADER_HEX_STRING,majorVersion,
IDENT_0,IDENT_1,IDENT_2,IDENT_3,IDENT_4,IDENT_5,


































