setMajorVersion,Header,getMajorVersion,
METHOD_0,METHOD_1,METHOD_2,

rapid7,dcerpc,Header,majorVersion,
IDENT_0,IDENT_1,IDENT_2,IDENT_3,


































