testCutDate2,Day,toGMTDate,cutDate,
METHOD_0,METHOD_1,METHOD_2,METHOD_3,

rapla,DateToolsTest,Day,day,gmtDate,gmtDateOneHour,DateTools,MILLISECONDS_PER_HOUR,dateModMillis,MILLISECONDS_PER_DAY,
IDENT_0,IDENT_1,IDENT_2,IDENT_3,IDENT_4,IDENT_5,IDENT_6,IDENT_7,IDENT_8,IDENT_9,













%,
OP_0,



















