shouldMarkChildSyncStateToFalseWhenEverChildIsSaved,Child,setSynced,isSynced,
METHOD_0,METHOD_1,METHOD_2,METHOD_3,

activity,rapidftr,
IDENT_0,IDENT_1,







"id1","user1","{ 'test1' : 'value1', 'test2' : 0, 'test3' : [ '1', 2, '3' ] }",
STRING_0,STRING_1,STRING_2,

























