getWindowsTime,FileTime,
METHOD_0,METHOD_1,

rapid7,dcerpc,msrrp,FileTime,fileTime,windowsTime,
IDENT_0,IDENT_1,IDENT_2,IDENT_3,IDENT_4,IDENT_5,

131420285736739999L,
INT_0,































