testIsClStatus,getHosts,isCrmStatusOk,isConnected,
METHOD_0,METHOD_1,METHOD_2,METHOD_3,

lcmc,Host,integrationTestLauncher,crmStatusOk,
IDENT_0,IDENT_1,IDENT_2,IDENT_3,


































