testGetBrowser,getHosts,getBrowser,
METHOD_0,METHOD_1,METHOD_2,

lcmc,Host,integrationTestLauncher,ClusterBrowser,
IDENT_0,IDENT_1,IDENT_2,IDENT_3,


































