testFastSet,getList,fastSet,toIterable,
METHOD_0,METHOD_1,METHOD_2,METHOD_3,

redisson,RListReactive,RScoredSortedSetReactive,BaseReactiveTest,
IDENT_0,IDENT_1,IDENT_2,IDENT_3,







"list",
STRING_0,

























