testExampleFromPaper,Kneedle,detectKneePoints,detectKneeOrElbowPoints,
METHOD_0,METHOD_1,METHOD_2,METHOD_3,

won,Kneedle,kneedle,knees,
IDENT_0,IDENT_1,IDENT_2,IDENT_3,










4.5,4.66,4.75,4.8,4.83,4.86,4.875,4.88,4.9,
FLOAT_0,FLOAT_1,FLOAT_2,FLOAT_3,FLOAT_4,FLOAT_5,FLOAT_6,FLOAT_7,FLOAT_8,






















