test1NotReducible,LocaleResolutionComponent,isReducible,
METHOD_0,METHOD_1,METHOD_2,

resource4j,LocaleResolutionComponent,ENGLISH,sections,
IDENT_0,IDENT_1,IDENT_2,IDENT_3,


































