testTimeoutTransition,createState,createTransition,createTimeoutTransition,setStart,setEnd,signal,currentThread,getState,
METHOD_0,METHOD_1,METHOD_2,METHOD_3,METHOD_4,METHOD_5,METHOD_6,METHOD_7,METHOD_8,

fsm,
IDENT_0,

3000,5000,
INT_0,INT_1,




"start","state1","end","t1","t2","Interrupted",
STRING_0,STRING_1,STRING_2,STRING_3,STRING_4,STRING_5,

























