testInsecureSource,InetSocketAddress,LocalNetworkGuard,isSecure,isConnected,getRemoteAddress,
METHOD_0,METHOD_1,METHOD_2,METHOD_3,METHOD_4,METHOD_5,

subnet,InetSocketAddress,remoteAddress,Channel,restcomm,NetworkGuard,guard,secure,deprecated,NetworkChannel,
IDENT_0,IDENT_1,IDENT_2,IDENT_3,IDENT_4,IDENT_5,IDENT_6,IDENT_7,IDENT_8,IDENT_9,

2727,
INT_0,




"255.255.255.0","192.168.1.0","192.168.2.4",
STRING_0,STRING_1,STRING_2,

























