testHello,HelloResource,Greeter,greet,hello,
METHOD_0,METHOD_1,METHOD_2,METHOD_3,METHOD_4,

resteasy,guice,hello,HelloResource,helloResource,greeter,
IDENT_0,IDENT_1,IDENT_2,IDENT_3,IDENT_4,IDENT_5,







"greeting",
STRING_0,

























