testNormalReadWrite,createStream,tick,checkSequence,getSequenceNumber,
METHOD_0,METHOD_1,METHOD_2,METHOD_3,METHOD_4,

restcomm,rtp,RtpPacket,memory,Frame,wallClock,jitterBuffer,AVProfile,audio,
IDENT_0,IDENT_1,IDENT_2,IDENT_3,IDENT_4,IDENT_5,IDENT_6,IDENT_7,IDENT_8,

20000000L,
INT_0,




"Null data at position: ","Wrong sequence ",
STRING_0,STRING_1,




&=,
OP_0,



















