testHtmlSanitizerEnabled,generateURL,readEntity,notSupported,
METHOD_0,METHOD_1,METHOD_2,METHOD_3,

resteasy,providers,HtmlSanitizerOptionalTest,ENABLED,GenericType,
IDENT_0,IDENT_1,IDENT_2,IDENT_3,IDENT_4,







"/test",
STRING_0,

























