testPutThing,generateURL,addResponseHeader,Thing,
METHOD_0,METHOD_1,METHOD_2,METHOD_3,

Invocation,resteasy,rx,rxjava2,Rx2SingleServerAsyncTest,Thing,aEntity,objs,cachedHeaders,
IDENT_0,IDENT_1,IDENT_2,IDENT_3,IDENT_4,IDENT_5,IDENT_6,IDENT_7,IDENT_8,







"/put/thing",
STRING_0,

























