testPutThing,putThing,buildObservableThing,Thing,
METHOD_0,METHOD_1,METHOD_2,METHOD_3,

resteasy,rx,Thing,rxjava2,Rx2SingleProxyServerAsyncTest,Rx2ObservableResourceNoStreamImpl,
IDENT_0,IDENT_1,IDENT_2,IDENT_3,IDENT_4,IDENT_5,


































