testProxiedSubresource,generateURL,queryParam,
METHOD_0,METHOD_1,METHOD_2,

WebTarget,resteasy,basic,ResourceLocatorTest,
IDENT_0,IDENT_1,IDENT_2,IDENT_3,







"/proxy/3","1.2","1.3",
STRING_0,STRING_1,STRING_2,

























