canBeSerializedAndDeserialized,JsonNumber,serializeAndDeserialize,deserialize,
METHOD_0,METHOD_1,METHOD_2,METHOD_3,

restfb,JsonNumber,number,TestUtil,
IDENT_0,IDENT_1,IDENT_2,IDENT_3,







"3.14",
STRING_0,

























