hashIndexTable_remove,HashIndexTable,hashSlotFor,
METHOD_0,METHOD_1,METHOD_2,

restfb,JsonObject,HashIndexTable,indexTable,slot,hashTable,
IDENT_0,IDENT_1,IDENT_2,IDENT_3,IDENT_4,IDENT_5,

23,
INT_0,































