member_equals_trueForSameInstance,Member,
METHOD_0,METHOD_1,

restfb,JsonObject,Member,member,Json,TRUE,ReflectionUtils,
IDENT_0,IDENT_1,IDENT_2,IDENT_3,IDENT_4,IDENT_5,IDENT_6,


































