getAll,testUp,tearDown,
METHOD_0,METHOD_1,METHOD_2,

rhwayfun,springboot,mybatis,UserEntity,all,userMapper,multidatasource,
IDENT_0,IDENT_1,IDENT_2,IDENT_3,IDENT_4,IDENT_5,IDENT_6,


































