getAll,testUp,tearDown,
METHOD_0,METHOD_1,METHOD_2,

rhwayfun,springboot,mybatis,multidatasource,CityEntity,all,cityMapper,UserEntity,userMapper,
IDENT_0,IDENT_1,IDENT_2,IDENT_3,IDENT_4,IDENT_5,IDENT_6,IDENT_7,IDENT_8,


































