testSelfCycleFilter,StringReader,getLengthGraphIO,selfCycleFilter,getConnections,UnsupportedOperationException,
METHOD_0,METHOD_1,METHOD_2,METHOD_3,METHOD_4,METHOD_5,

StringReader,sr,rinde,rinsim,Graph,DotGraphIO,Filters,
IDENT_0,IDENT_1,IDENT_2,IDENT_3,IDENT_4,IDENT_5,IDENT_6,







"n0[p=\"5,5\"]\nn1[p=\"4,4\"]\nn0 -> n0\nn0 -> n1",
STRING_0,

























