getByKey_not_normalized,addObject,getByKey,
METHOD_0,METHOD_1,METHOD_2,

rpsl,RpslObject,rpslObject,databaseHelper,byKey,ObjectType,INET6NUM,CIString,
IDENT_0,IDENT_1,IDENT_2,IDENT_3,IDENT_4,IDENT_5,IDENT_6,IDENT_7,







"inet6num: 2001:0658:021A::/48\n","netname: NETNAME\n","source: RIPE\n","2001:658:21a::/48",
STRING_0,STRING_1,STRING_2,STRING_3,

























