nonexistentUsingSingleAsBlockQuery,findAsBlock,RpslObjectRowMapper,
METHOD_0,METHOD_1,METHOD_2,

rpsl,RpslObject,asBlock,jdbcTemplate,begin,
IDENT_0,IDENT_1,IDENT_2,IDENT_3,IDENT_4,







"SELECT l.object_id, l.object ","FROM last l ","JOIN as_block a ON l.object_id = a.object_id ","WHERE ? >= a.begin_as ","AND ? <= a.end_as ","AND l.sequence_id != 0",
STRING_0,STRING_1,STRING_2,STRING_3,STRING_4,STRING_5,

























