getMultipleAttributes,getTemplate,
METHOD_0,METHOD_1,

rpsl,ObjectTemplate,ObjectType,AS_BLOCK,AttributeType,multipleAttributes,
IDENT_0,IDENT_1,IDENT_2,IDENT_3,IDENT_4,IDENT_5,


































