testRidiculousNess,amt,multiply,doubleValue,
METHOD_0,METHOD_1,METHOD_2,METHOD_3,

ripple,coretypes,Amount,oneXRP,AmountTest,oneUSD,Number,multiplicand,
IDENT_0,IDENT_1,IDENT_2,IDENT_3,IDENT_4,IDENT_5,IDENT_6,IDENT_7,







"1.0","1.0/USD",
STRING_0,STRING_1,

























