test_Negativity_In_Equality_For_XRP,amt,areEqual,
METHOD_0,METHOD_1,METHOD_2,

ripple,coretypes,Amount,AmountTest,bouncycastle,asn1,eac,PackedDate,
IDENT_0,IDENT_1,IDENT_2,IDENT_3,IDENT_4,IDENT_5,IDENT_6,IDENT_7,







"-1",
STRING_0,

























