testFunkyCurrencies,fromJSONObject,toHex,toBytes,
METHOD_0,METHOD_1,METHOD_2,METHOD_3,

amtJSON,ripple,coretypes,Amount,amt,amounts,hex,encodings,B16,
IDENT_0,IDENT_1,IDENT_2,IDENT_3,IDENT_4,IDENT_5,IDENT_6,IDENT_7,IDENT_8,







"{\"currency\": \"015841551A748AD23FEFFFFFFFEA028000000000\",","\"issuer\": \"rM1oqKtfh1zgjdAgbFmaRm3btfGBX25xVo\",","\"value\": \"1000\"}","D5438D7EA4C68000015841551A748AD23FEFFFFFFFEA028000000000E4FE687C90257D3D2D694C8531CDEECBE84F3367",
STRING_0,STRING_1,STRING_2,STRING_3,

























