equals_not_equal_glue,DnsCheckRequest,
METHOD_0,METHOD_1,

dns,DnsCheckRequest,dnsCheckRequest1,dnsCheckRequest2,QueryParser,Objects,originalStringQuery,
IDENT_0,IDENT_1,IDENT_2,IDENT_3,IDENT_4,IDENT_5,IDENT_6,







"domain","glue","GLUE",
STRING_0,STRING_1,STRING_2,

























