testDataHeaderAcceptsDot,createRequest,getClientAction,
METHOD_0,METHOD_1,METHOD_2,

dumbster,smtp,Request,SmtpState,DATA_HDR,clientAction,
IDENT_0,IDENT_1,IDENT_2,IDENT_3,IDENT_4,IDENT_5,







".",
STRING_0,

























