testRoaringWithOptimize,RoaringBitmap,runOptimize,
METHOD_0,METHOD_1,METHOD_2,

roaringbitmap,RoaringBitmap,setWithOptimize,bitmapWithOptimize,
IDENT_0,IDENT_1,IDENT_2,IDENT_3,


































