ior2,RunContainer,ArrayContainer,iadd,ior,getCardinality,getLongCardinality,
METHOD_0,METHOD_1,METHOD_2,METHOD_3,METHOD_4,METHOD_5,METHOD_6,

roaringbitmap,Container,rc,
IDENT_0,IDENT_1,IDENT_2,

128,256,512,
INT_0,INT_1,INT_2,































