ior,RunContainer,iadd,getCardinality,getLongCardinality,
METHOD_0,METHOD_1,METHOD_2,METHOD_3,METHOD_4,

roaringbitmap,Container,rc1,rc2,
IDENT_0,IDENT_1,IDENT_2,IDENT_3,

128,256,
INT_0,INT_1,































