iremove12,RunContainer,iremove,getCardinality,getLongCardinality,
METHOD_0,METHOD_1,METHOD_2,METHOD_3,METHOD_4,

roaringbitmap,Container,rc,
IDENT_0,IDENT_1,IDENT_2,

11,
INT_0,































