numberOfRuns,newArrayContainer,isBackedBySimpleArray,bitCount,limit,
METHOD_0,METHOD_1,METHOD_2,METHOD_3,METHOD_4,

roaringbitmap,MappeableContainer,TestMappeableArrayContainer,BufferUtil,bitmap,src,numRuns,nextWord,word,
IDENT_0,IDENT_1,IDENT_2,IDENT_3,IDENT_4,IDENT_5,IDENT_6,IDENT_7,IDENT_8,

13,63,9223372036854775808L,
INT_0,INT_1,INT_2,










~,
OP_0,



















