addEmptyRange,MappeableArrayContainer,iadd,getCardinality,getLongCardinality,
METHOD_0,METHOD_1,METHOD_2,METHOD_3,METHOD_4,

roaringbitmap,MappeableContainer,
IDENT_0,IDENT_1,


































