testEof,AsciiDecoder,
METHOD_0,METHOD_1,

nucleus8583,charset,AsciiDecoder,decoder,remaining,readIndex,
IDENT_0,IDENT_1,IDENT_2,IDENT_3,IDENT_4,IDENT_5,













--,
OP_0,



















