testHorizontalOrCardinality,bitmapOf,or,getCardinality,toIntUnsigned,getLength,
METHOD_0,METHOD_1,METHOD_2,METHOD_3,METHOD_4,METHOD_5,

vals,roaringbitmap,MutableRoaringBitmap,BufferFastAggregation,ImmutableRoaringBitmap,sum,nbrruns,Util,
IDENT_0,IDENT_1,IDENT_2,IDENT_3,IDENT_4,IDENT_5,IDENT_6,IDENT_7,

65535,131071,196607,262143,327679,393215,458751,524287,
INT_0,INT_1,INT_2,INT_3,INT_4,INT_5,INT_6,INT_7,































