testSimpleCardinality,MappeableRunContainer,getCardinality,getLongCardinality,
METHOD_0,METHOD_1,METHOD_2,METHOD_3,

roaringbitmap,MappeableRunContainer,
IDENT_0,IDENT_1,

17,
INT_0,































