MappeableRunContainer,getCardinality,getLongCardinality,
METHOD_0,METHOD_1,METHOD_2,

roaringbitmap,MappeableContainer,rc,newContainer,
IDENT_0,IDENT_1,IDENT_2,IDENT_3,


































