addAndCompress,MappeableRunContainer,getSizeInBytes,getLongSizeInBytes,
METHOD_0,METHOD_1,METHOD_2,METHOD_3,

roaringbitmap,MappeableRunContainer,
IDENT_0,IDENT_1,

99,98,
INT_0,INT_1,































