ParseInt,getParser,XmlFactory,createParser,nextToken,
METHOD_0,METHOD_1,METHOD_2,METHOD_3,METHOD_4,

robe,parsers,ParseInt,parseInt,ParserUtil,dataformat,XmlFactory,JsonParser,
IDENT_0,IDENT_1,IDENT_2,IDENT_3,IDENT_4,IDENT_5,IDENT_6,IDENT_7,

42,
INT_0,




"<int>42</int>",
STRING_0,

























