findByJobOid,createFrom,deleteFrom,
METHOD_0,METHOD_1,METHOD_2,

robe,HTriggerInfo,hTriggerInfoEntities,
IDENT_0,IDENT_1,IDENT_2,


































