getTransformer,openSession,createCriteria,
METHOD_0,METHOD_1,METHOD_2,

Session,sessionFactory,robe,Criteria,hql,TransformerImpl,
IDENT_0,IDENT_1,IDENT_2,IDENT_3,IDENT_4,IDENT_5,


































