whenGetPropertyNames_thenReturnZero,getPropertyNames,
METHOD_0,METHOD_1,

propertyNames,robobinding,PropertyUtils,PropertyUtilsTest,MalformedBean,
IDENT_0,IDENT_1,IDENT_2,IDENT_3,IDENT_4,


































