dockerfileToCommandListTest_empty,newFile,dockerfileToCommandList,
METHOD_0,METHOD_1,METHOD_2,

testFile,folder,roboconf,DockerfileParser,DockerCommand,ldc,
IDENT_0,IDENT_1,IDENT_2,IDENT_3,IDENT_4,IDENT_5,


































