testExtractZipArchive_illegalArgument_4,randomUUID,extractZipArchive,getSimpleName,
METHOD_0,METHOD_1,METHOD_2,METHOD_3,

existingFile,unexistingFile,roboconf,
IDENT_0,IDENT_1,IDENT_2,







"java.io.tmpdir",
STRING_0,

























