testConstructWarnValueWithTextWithEscapedQuotes,WarningValue,getWarnCode,getWarnAgent,getWarnText,getWarnDate,
METHOD_0,METHOD_1,METHOD_2,METHOD_3,METHOD_4,METHOD_5,

client5,WarningValue,warnDate,
IDENT_0,IDENT_1,IDENT_2,

110,
INT_0,




"110 fred \"stale\\\" stuff\"","fred","\"stale\\\" stuff\"",
STRING_0,STRING_1,STRING_2,

























