shouldCallFinishInOnBackPressed,Activity,onBackPressed,isFinishing,directlyOn,
METHOD_0,METHOD_1,METHOD_2,METHOD_3,METHOD_4,

Activity,activity,realActivity,
IDENT_0,IDENT_1,IDENT_2,


































