setTextShouldStoreNull,setText,processStringResources,getTextContent,
METHOD_0,METHOD_1,METHOD_2,METHOD_3,

preference,currentNode,robolectric,StringResources,
IDENT_0,IDENT_1,IDENT_2,IDENT_3,


































