shouldInjectService,MyRoboService,onCreate,ClassCastException,
METHOD_0,METHOD_1,METHOD_2,METHOD_3,

roboguice,inject,ExtrasListenerTest,MyRoboService,s1,failures,
IDENT_0,IDENT_1,IDENT_2,IDENT_3,IDENT_4,IDENT_5,







"whoops, failure #",
STRING_0,

























