shouldGetLayoutInflater,Dialog,getLayoutInflater,
METHOD_0,METHOD_1,METHOD_2,

Dialog,dialog,LayoutInflater,realActivity,
IDENT_0,IDENT_1,IDENT_2,IDENT_3,


































