shouldSetIsNetworkRoaming,shadowOf,setIsNetworkRoaming,isNetworkRoaming,
METHOD_0,METHOD_1,METHOD_2,METHOD_3,

robolectric,Shadows,telephonyManager,
IDENT_0,IDENT_1,IDENT_2,


































