testSaveTherapy,Therapy,setAceInhibitor,saveTherapy,
METHOD_0,METHOD_1,METHOD_2,METHOD_3,

patientview,radar,sequenced,Therapy,therapy,therapyDao,therapy_update,
IDENT_0,IDENT_1,IDENT_2,IDENT_3,IDENT_4,IDENT_5,IDENT_6,


































