testFindUser_valid_user,findUser,addAttribute,
METHOD_0,METHOD_1,METHOD_2,

captaindebug,cargocult,ntier,UserControllerTest,NAME,userService,Model,
IDENT_0,IDENT_1,IDENT_2,IDENT_3,IDENT_4,IDENT_5,IDENT_6,







"aaa@bbb.com","user",
STRING_0,STRING_1,

























