testDoWork,ThreadWrapper,doWork,getResultFromDatabase,
METHOD_0,METHOD_1,METHOD_2,METHOD_3,

captaindebug,threading,bad_example,ThreadWrapper,
IDENT_0,IDENT_1,IDENT_2,IDENT_3,

10000,
INT_0,































