testFloatParseDefaultSuccess,parseFloat,floatValue,
METHOD_0,METHOD_1,METHOD_2,

num,rometools,rome,NumberParser,Float,def,
IDENT_0,IDENT_1,IDENT_2,IDENT_3,IDENT_4,IDENT_5,







"Non Float",
STRING_0,

1.0F,
FLOAT_0,






















