probeStillAdjustsAfterCoolDownPeriod,setMaxPerRoute,setCurrentTime,probe,getMaxPerRoute,
METHOD_0,METHOD_1,METHOD_2,METHOD_3,METHOD_4,

connPerRoute,clock,client5,HttpRoute,
IDENT_0,IDENT_1,IDENT_2,IDENT_3,

1000L,
INT_0,































