testReadPoints,readPoints,getOrder,
METHOD_0,METHOD_1,METHOD_2,

namedCurve,rub,nds,tlsattacker,attacks,ec,ICEPoint,ICEPointReader,
IDENT_0,IDENT_1,IDENT_2,IDENT_3,IDENT_4,IDENT_5,IDENT_6,IDENT_7,







"secp192r1",
STRING_0,

























