testVelocityIsUnderMax,Vector2,setVelocity,velocityLimit,getVelocity,cpy,
METHOD_0,METHOD_1,METHOD_2,METHOD_3,METHOD_4,METHOD_5,

badlogic,gdx,Vector2,velocity,rubentxu,juegos,modelo,HeroTest,
IDENT_0,IDENT_1,IDENT_2,IDENT_3,IDENT_4,IDENT_5,IDENT_6,IDENT_7,










1.0F,0.0F,
FLOAT_0,FLOAT_1,






















