testToString,
METHOD_0,










"HeartbeatMessage:","\n Type: ","null","\n Payload Length: ","\n Payload: ","\n Padding: ","HelloRequestMessage:",
STRING_0,STRING_1,STRING_2,STRING_3,STRING_4,STRING_5,STRING_6,

























