testPrepare,setDataConfig,prepare,getCompleteResultingMessage,
METHOD_0,METHOD_1,METHOD_2,METHOD_3,

preparator,completeResultingMessage,
IDENT_0,IDENT_1,


































