testToString,
METHOD_0,










"SSL2ServerHelloMessage:","\n Protocol Version: ","null","\n Type: ","\n Supported CipherSuites: ","\n SessionIdHit: ","\n Certificate: ","\n SessionID: ","HelloRequestMessage:",
STRING_0,STRING_1,STRING_2,STRING_3,STRING_4,STRING_5,STRING_6,STRING_7,STRING_8,

























