testSerializeHandshakeMessageContent,PskDheServerKeyExchangeMessage,setCompleteResultingMessage,setType,setLength,setIdentityHint,setIdentityHintLength,setModulusLength,setModulus,hexStringToByteArray,setGeneratorLength,setGenerator,setPublicKey,setPublicKeyLength,PskDheServerKeyExchangeSerializer,ServerHelloSerializer,
METHOD_0,METHOD_1,METHOD_2,METHOD_3,METHOD_4,METHOD_5,METHOD_6,METHOD_7,METHOD_8,METHOD_9,METHOD_10,METHOD_11,METHOD_12,METHOD_13,METHOD_14,METHOD_15,

rub,nds,tlsattacker,PskDheServerKeyExchangeMessage,expectedPart,PskIdentityHint,PskIdentityHintLength,modifiablevariable,ArrayConverter,PskDheServerKeyExchangeSerializer,ServerHelloSerializer,helloMessage,constants,ProtocolVersion,TLS12,serialised,
IDENT_0,IDENT_1,IDENT_2,IDENT_3,IDENT_4,IDENT_5,IDENT_6,IDENT_7,IDENT_8,IDENT_9,IDENT_10,IDENT_11,IDENT_12,IDENT_13,IDENT_14,IDENT_15,

128,
INT_0,




"b10b8f96a080e01dde92de5eae5d54ec52c99fbcfb06a3c69a6a9dca52d23b616073e28675a23d189838ef1e2ee652c013ecb4aea906112324975c3cd49b83bfaccbdd7d90c4bd7098488e9c219a73724effd6fae5644738faa31a4ff55bccc0a151af5f0dc8b4bd45bf37df365c1a65e68cfda76d4da708df1fb2bc2e4a4371","a4d1cbd5c3fd34126765a442efb99905f8104dd258ac507fd6406cff14266d31266fea1e5c41564b777e690f5504f213160217b4b01b886a5e91547f9e2749f4d7fbd7d3b9a92ee1909d0d2263f80a76a6a24c087a091f531dbf0a0169b6a28ad662a4d18e73afa32d779d5918d08bc8858f4dcef97c2a24855e6eeb22b3b2e5","70dd13c4bca8c96983bdf065ce9517eb44114a4cf4cdbc55b3bfdabde8510faa38142139409378b90e3ceba61167056fc8b0ee088132183e48b986ed468eeaaf435c9dea3a5d9c01b63a3aae176971a2e1142674675dedca8a8e91093cd42246b4fa37893d7e66534a59461935274955e5dc623c9897a6c4a8501f37427e079d",
STRING_0,STRING_1,STRING_2,

























