testOverload,AsActor,newProxy,
METHOD_0,METHOD_1,METHOD_2,

kontraktor,BasicTest,Overload,ov,nustaq,Actors,actorClazz,defaultScheduler,
IDENT_0,IDENT_1,IDENT_2,IDENT_3,IDENT_4,IDENT_5,IDENT_6,IDENT_7,


































