asShortKey,asKey,
METHOD_0,METHOD_1,

rutledgepaulv,qbuilders,structures,FieldPath,oneMore,chain,
IDENT_0,IDENT_1,IDENT_2,IDENT_3,IDENT_4,IDENT_5,


































