testObject,InstagramSubscription,
METHOD_0,METHOD_1,

jinstagram,realtime,InstagramSubscription,SubscriptionType,GEOGRAPHIES,SUBSCRIPTION_TYPE,
IDENT_0,IDENT_1,IDENT_2,IDENT_3,IDENT_4,IDENT_5,


































