shouldReturnSameResultWithPyhtonImplementation,verifySubscriptionPostRequestSignature,forName,isSuccess,
METHOD_0,METHOD_1,METHOD_2,METHOD_3,

clientSecret,jsonResponse,xHubSignature,jinstagram,realtime,SubscriptionUtil,VerificationResult,charset,Charset,success,
IDENT_0,IDENT_1,IDENT_2,IDENT_3,IDENT_4,IDENT_5,IDENT_6,IDENT_7,IDENT_8,IDENT_9,







"5f395ee5acae448bbbcf01a251c480f6","[{\"subscription_id\":\"1\",\"object\":\"user\",\"object_id\":\"1234\",\"changed_aspect\":\"media\",\"time\":1297286541},{\"subscription_id\":\"2\",\"object\":\"tag\",\"object_id\":\"nofilter\",\"changed_aspect\":\"media\",\"time\":1297286541}]","53a41d80a55a9265fc72633d432e22e6dc05fd64","UTF-8",
STRING_0,STRING_1,STRING_2,STRING_3,

























