testFindTypeFromRequestClass,findTypeFromRequestClass,getRequestClass,
METHOD_0,METHOD_1,METHOD_2,

dbo,asynch,AsynchJobType,requestClass,
IDENT_0,IDENT_1,IDENT_2,IDENT_3,


































