testGet,newChallengeTeam,parseLong,
METHOD_0,METHOD_1,METHOD_2,

challengeTeam,challengeTeamDAO,ChallengeTeam,retrieved,
IDENT_0,IDENT_1,IDENT_2,IDENT_3,


































