testparseValueForDBDouble,parseValueForDB,getInfoForType,parseValueForDatabaseWrite,
METHOD_0,METHOD_1,METHOD_2,METHOD_3,

objectValue,SQLUtils,ColumnType,DOUBLE,ColumnTypeInfo,
IDENT_0,IDENT_1,IDENT_2,IDENT_3,IDENT_4,







"123.456","Type cannot be null",
STRING_0,STRING_1,

123.456,
FLOAT_0,






















