testCreateSQLInsertIgnoreFileHandleId,createSQLInsertIgnoreFileHandleId,getTableNameForId,
METHOD_0,METHOD_1,METHOD_2,

SQLUtils,tableId,TableType,FILE_IDS,FILE_ID,
IDENT_0,IDENT_1,IDENT_2,IDENT_3,IDENT_4,







"INSERT IGNORE INTO T987F (FILE_ID) VALUES(?)","987","INSERT IGNORE INTO "," (",") VALUES(?)",
STRING_0,STRING_1,STRING_2,STRING_3,STRING_4,

























