testGetMaxVersionSQL,getStatusMaxVersionSQL,getTableNameForId,
METHOD_0,METHOD_1,METHOD_2,

SQLUtils,ROW_VERSION,tableId,TableType,STATUS,
IDENT_0,IDENT_1,IDENT_2,IDENT_3,IDENT_4,







"SELECT ROW_VERSION FROM T123S","123","SELECT "," FROM ",
STRING_0,STRING_1,STRING_2,STRING_3,

























