testToSQLNoOrding,TableQueryParser,sortKey,SortSpecification,
METHOD_0,METHOD_1,METHOD_2,METHOD_3,

SortKey,sortKey,OrderingSpecification,orderingSpecification,SortSpecification,percent,currentIndex,totalCount,
IDENT_0,IDENT_1,IDENT_2,IDENT_3,IDENT_4,IDENT_5,IDENT_6,IDENT_7,







"foo.bar","%1$-30s %2$10d/%3$-10d %4$8.2f %%",
STRING_0,STRING_1,

100.0,
FLOAT_0,






















