testTimedAssert,AtomicInteger,waitForAssert,Runnable,incrementAndGet,
METHOD_0,METHOD_1,METHOD_2,METHOD_3,METHOD_4,

AtomicInteger,TimedAssert,
IDENT_0,IDENT_1,

10000,
INT_0,




"Only call get() once after start()",
STRING_0,

























