testUpdateShortObject_Null,ShortObject,setAge,getAge,
METHOD_0,METHOD_1,METHOD_2,METHOD_3,

jmethods,catatumbo,ShortObject,EntityManagerTest,age,
IDENT_0,IDENT_1,IDENT_2,IDENT_3,IDENT_4,

13,
INT_0,































