testUpdateDateField_Null,DateField,setCreationDate,getCreationDate,
METHOD_0,METHOD_1,METHOD_2,METHOD_3,

jmethods,catatumbo,DateField,EntityManagerTest,creationDate,
IDENT_0,IDENT_1,IDENT_2,IDENT_3,IDENT_4,


































