testGetBinaryStream,JdbcBlob,getBinaryStream,readBytes,free,
METHOD_0,METHOD_1,METHOD_2,METHOD_3,METHOD_4,

ignite,jdbc2,JdbcBlob,blob,JdbcBlobTest,SQLException,GridFilenameUtils,filename1,filename2,IOCase,SENSITIVE,
IDENT_0,IDENT_1,IDENT_2,IDENT_3,IDENT_4,IDENT_5,IDENT_6,IDENT_7,IDENT_8,IDENT_9,IDENT_10,

11,13,14,
INT_0,INT_1,INT_2,































