testDetectFragment,WrappedInputStream,readAll,arraycopy,
METHOD_0,METHOD_1,METHOD_2,METHOD_3,

footer,sakaiproject,tmp,
IDENT_0,IDENT_1,IDENT_2,

1024,
INT_0,




"<html><head><title>My Doc</title></head><body>","The Body","</body></html>",
STRING_0,STRING_1,STRING_2,

























