testSelectNodes,selectNodes,
METHOD_0,METHOD_1,

sakaiproject,importer,XPathHelper,m_wrapper,
IDENT_0,IDENT_1,IDENT_2,IDENT_3,







"//bar",
STRING_0,

























