testSize,map5,DistributedOrderedMap,clear,
METHOD_0,METHOD_1,METHOD_2,METHOD_3,

usi,da,dmap,DistributedOrderedMap,DmapTest,
IDENT_0,IDENT_1,IDENT_2,IDENT_3,IDENT_4,







"83a8c1c0-dcb2-4afa-a447-07f79a0fcd6b","127.0.0.1:2181","A","E","C","B","D",
STRING_0,STRING_1,STRING_2,STRING_3,STRING_4,STRING_5,STRING_6,

























