behaves_as_if_it_were_the_underlying_key,
METHOD_0,

noodlesandwich,rekord,Rekord,CopiedKeyTest,Bratwurst,bratwurst,curvature,style,Style,Chopped,Key,
IDENT_0,IDENT_1,IDENT_2,IDENT_3,IDENT_4,IDENT_5,IDENT_6,IDENT_7,IDENT_8,IDENT_9,IDENT_10,










0.7,
FLOAT_0,






















