extensionsCountIsCorrect,getExtensionsCount,getCriticalExtensionOIDs,getNonCriticalExtensionOIDs,
METHOD_0,METHOD_1,METHOD_2,METHOD_3,

certificate,
IDENT_0,


































