exponentIsCorrect,getPublicKeyExponent,compile,getPublicKey,
METHOD_0,METHOD_1,METHOD_2,METHOD_3,

exponent,Pattern,Matcher,certificate,
IDENT_0,IDENT_1,IDENT_2,IDENT_3,







"11","exponent: ([0-9]*)","Not found",
STRING_0,STRING_1,STRING_2,

























