testAge,Employee,setAge,getAge,
METHOD_0,METHOD_1,METHOD_2,METHOD_3,

sap,odata,Employee,employee1,EmployeeTest,VALUE_AGE,age,
IDENT_0,IDENT_1,IDENT_2,IDENT_3,IDENT_4,IDENT_5,IDENT_6,


































