ensuresLargestIfXIsNewAndYIsExisting,setEnd,getCentre,Rectangle,getX,getY,getBounds,
METHOD_0,METHOD_1,METHOD_2,METHOD_3,METHOD_4,METHOD_5,METHOD_6,

Point2D,mouse,temporaryArcView,centre,place,Rectangle,
IDENT_0,IDENT_1,IDENT_2,IDENT_3,IDENT_4,IDENT_5,


































