testCanDeleteDirWithOpenDirStreamOnChild,createDirectories,newDirectoryStream,getFs,toEfsPath,
METHOD_0,METHOD_1,METHOD_2,METHOD_3,METHOD_4,

dir,Files,DirectoryStream,
IDENT_0,IDENT_1,IDENT_2,







"dir","child",
STRING_0,STRING_1,

























