testList,LinkedList,toJsonTree,formatException,
METHOD_0,METHOD_1,METHOD_2,METHOD_3,

savoirtech,slf4j,JsonLogger,Supplier,jsonObject,
IDENT_0,IDENT_1,IDENT_2,IDENT_3,IDENT_4,







"x-list-key-x",
STRING_0,

























