testNLinkWithHardLink,createFile,createLink,getAttribute,
METHOD_0,METHOD_1,METHOD_2,METHOD_3,

Files,link,nLink,sbridges,ephemeralfs,EphemeralFsPath,ResolvedPath,
IDENT_0,IDENT_1,IDENT_2,IDENT_3,IDENT_4,IDENT_5,IDENT_6,







"file","link","unix:nlink",
STRING_0,STRING_1,STRING_2,

























