testJsonSupplier,toJsonTree,formatException,
METHOD_0,METHOD_1,METHOD_2,

savoirtech,slf4j,JsonLogger,Supplier,jsonObject,jsonElement,
IDENT_0,IDENT_1,IDENT_2,IDENT_3,IDENT_4,IDENT_5,







"x-field-key-x","unexpected execution",
STRING_0,STRING_1,

























