testReadPositionDirectory,open,assertNotClosed,
METHOD_0,METHOD_1,METHOD_2,

channels,FileChannel,fc,lock,
IDENT_0,IDENT_1,IDENT_2,IDENT_3,




synchronized,
MOD_0,




























