testNoBatchWriteWithSync,getInflightWrites,
METHOD_0,METHOD_1,

iterations,journal,Journal,WriteType,SYNC,inflightWrites,
IDENT_0,IDENT_1,IDENT_2,IDENT_3,IDENT_4,IDENT_5,







"DATA",
STRING_0,

























