noGroupsResolved,Constraint,emptyMap,getGroups,
METHOD_0,METHOD_1,METHOD_2,METHOD_3,

restdocs,constraints,Constraint,constraint,groups,descriptionResolver,
IDENT_0,IDENT_1,IDENT_2,IDENT_3,IDENT_4,IDENT_5,







"Constraint",
STRING_0,

























