testReadOnlyDefault,ByteBufferByteBank,isReadOnly,
METHOD_0,METHOD_1,METHOD_2,

scijava,ByteBufferByteBank,bank,className,
IDENT_0,IDENT_1,IDENT_2,IDENT_3,







"java.nio.HeapByteBufferR","java.nio.DirectByteBufferR",
STRING_0,STRING_1,

























