testIterator,createShadowMenu,checkIter,
METHOD_0,METHOD_1,METHOD_2,

scijava,menu,ShadowMenu,ShadowMenuIterator,iter,childIterators,
IDENT_0,IDENT_1,IDENT_2,IDENT_3,IDENT_4,IDENT_5,







"Copy","Cut","Paste","Exit","Image","Text Window","Open","Save",
STRING_0,STRING_1,STRING_2,STRING_3,STRING_4,STRING_5,STRING_6,STRING_7,

























