testLogSourceParse,newRoot,subSource,
METHOD_0,METHOD_1,METHOD_2,

scijava,LogSource,foo,subPath,SEPARATOR,
IDENT_0,IDENT_1,IDENT_2,IDENT_3,IDENT_4,







"Hello:World","Hello","World",
STRING_0,STRING_1,STRING_2,

























