testCreate,DemographicCust,generateTestDataForModelClass,persist,
METHOD_0,METHOD_1,METHOD_2,METHOD_3,

DemographicCust,EntityDataGenerator,
IDENT_0,IDENT_1,


































