testFindByFormDataIdList,generateEFormValue,persist,findByFormDataIdList,
METHOD_0,METHOD_1,METHOD_2,METHOD_3,

EFormValue,v3,eFormValueDao,searchIds,references,
IDENT_0,IDENT_1,IDENT_2,IDENT_3,IDENT_4,


































