doseInstructionsTest,substanceAdministrationHelper,
METHOD_0,METHOD_1,

marc,everest,datatypes,ED,e2e,export,observation,DoseObservationModelTest,drug,
IDENT_0,IDENT_1,IDENT_2,IDENT_3,IDENT_4,IDENT_5,IDENT_6,IDENT_7,IDENT_8,


































