shouldNotSplitWhenSimple,RequestDataMap,
METHOD_0,METHOD_1,

threewks,thundr,bind,RequestDataMap,pathMap,arg0,
IDENT_0,IDENT_1,IDENT_2,IDENT_3,IDENT_4,IDENT_5,







"key",
STRING_0,

























