testFindAll,findAll,getServiceContext,
METHOD_0,METHOD_1,METHOD_2,

sculptor,Library,all,libraryService,AppEngineTestHelper,
IDENT_0,IDENT_1,IDENT_2,IDENT_3,IDENT_4,


































