readFromFile,
METHOD_0,

harFile,sstoehr,harreader,Har,har,harReader,HarReaderMode,STRICT,
IDENT_0,IDENT_1,IDENT_2,IDENT_3,IDENT_4,IDENT_5,IDENT_6,IDENT_7,







"src/test/resources/sstoehr.har",
STRING_0,

























