convertEmptyJsonStringToMapObject,parseResponseBody,JsonObject,
METHOD_0,METHOD_1,METHOD_2,

JsonObject,jsonMap,searchbox,AbstractActionTest,DummyAction,
IDENT_0,IDENT_1,IDENT_2,IDENT_3,IDENT_4,


































