equalsReturnsTrueForSameDocs,ByDoc,DroidClientConfig,
METHOD_0,METHOD_1,METHOD_2,

searchbox,MultiGet,multiGet1,doc1,doc2,doc3,multiGet1Duplicate,searchly,jestdroid,
IDENT_0,IDENT_1,IDENT_2,IDENT_3,IDENT_4,IDENT_5,IDENT_6,IDENT_7,IDENT_8,


































