addIndex,bloom,fieldData,DroidClientConfig,
METHOD_0,METHOD_1,METHOD_2,METHOD_3,

searchbox,indices,ClearCache,clearCache1,clearCache1Duplicate,searchly,jestdroid,
IDENT_0,IDENT_1,IDENT_2,IDENT_3,IDENT_4,IDENT_5,IDENT_6,







"twitter",
STRING_0,

























