equalsReturnsTrueForSameIndices,DroidClientConfig,
METHOD_0,METHOD_1,

searchbox,indices,CloseIndex,closeIndex1,closeIndex1Duplicate,searchly,jestdroid,
IDENT_0,IDENT_1,IDENT_2,IDENT_3,IDENT_4,IDENT_5,IDENT_6,







"twitter",
STRING_0,

























