testToObject_empty,toObject,IORuntimeException,
METHOD_0,METHOD_1,METHOD_2,

stringListType,seasar,FileInputStreamUtil,CloseableUtil,
IDENT_0,IDENT_1,IDENT_2,IDENT_3,







"[]",
STRING_0,

























