newResponse,JRStateResponse,
METHOD_0,METHOD_1,

river,mgm,JRStateResponse,rb,JRStateAction,
IDENT_0,IDENT_1,IDENT_2,IDENT_3,IDENT_4,


































