shouldReturnTrueIfMotherDoesNotHaveFever,SafeMap,
METHOD_0,METHOD_1,

didRuleApply,ei,drishti,
IDENT_0,IDENT_1,IDENT_2,







"hasFever",
STRING_0,

























