delete2,save2,where,Criteria,DeleteBuilder,
METHOD_0,METHOD_1,METHOD_2,METHOD_3,METHOD_4,

jdbcDao,dexcoder,Criteria,
IDENT_0,IDENT_1,IDENT_2,

2L,3L,
INT_0,INT_1,




"userId","in",
STRING_0,STRING_1,

























