testAlwaysSampler,AlwaysSampler,NoSuchElementException,
METHOD_0,METHOD_1,METHOD_2,

htrace,AlwaysSampler,sampler,HTraceConfiguration,EMPTY,bufIdx,bufs,
IDENT_0,IDENT_1,IDENT_2,IDENT_3,IDENT_4,IDENT_5,IDENT_6,


































