testGetGroup1,ModuleDependency,emptySet,getGroup,
METHOD_0,METHOD_1,METHOD_2,METHOD_3,

netbeans,modules,gradle,GradleDependency,ModuleDependency,
IDENT_0,IDENT_1,IDENT_2,IDENT_3,IDENT_4,







":hamcrest-core-1.3:",
STRING_0,

























