test2,createL1cGranuleMetadata,VirtualPath,buildPathResource,toURI,toPath,
METHOD_0,METHOD_1,METHOD_2,METHOD_3,METHOD_4,METHOD_5,

esa,s2tbx,dataio,s2,l1c,IL1cGranuleMetadata,granuleMetadata,L1cMetadataFactory,xmlPath,
IDENT_0,IDENT_1,IDENT_2,IDENT_3,IDENT_4,IDENT_5,IDENT_6,IDENT_7,IDENT_8,







"metadata/S2A_OPER_MTD_L1C_TL_CGS1_20130621T120000_A000065_T14SLF.xml",
STRING_0,

























