testFindMasterProduct,Product,findMasterProduct,
METHOD_0,METHOD_1,METHOD_2,

esa,snap,Product,openProductList,masterProduct,s3tbx,dataio,s3,aatsr,AatsrLevel1ProductFactory,
IDENT_0,IDENT_1,IDENT_2,IDENT_3,IDENT_4,IDENT_5,IDENT_6,IDENT_7,IDENT_8,IDENT_9,

14,13,
INT_0,INT_1,




"p1","t","p2","p3","p4","p5",
STRING_0,STRING_1,STRING_2,STRING_3,STRING_4,STRING_5,

























