testSaturationFlags,createSaturationFlagCoding,FlagCoding,addFlag,getSatellite,
METHOD_0,METHOD_1,METHOD_2,METHOD_3,METHOD_4,

esa,snap,FlagCoding,flagCoding,
IDENT_0,IDENT_1,IDENT_2,IDENT_3,

32,64,128,256,512,1024,2048,
INT_0,INT_1,INT_2,INT_3,INT_4,INT_5,INT_6,




"LC08_L1TP_024036_20181011_20181011_01_RT_radsat_qa.tif","Band 5 Data Saturation Flag","data_fill_flag","Band6_saturated","Band 1 Data Saturation Flag","Band3_saturated","Band4_saturated","Band 4 Data Saturation Flag","Band7_saturated","Band 10 Data Saturation Flag","Band11_saturated",
STRING_0,STRING_1,STRING_2,STRING_3,STRING_4,STRING_5,STRING_6,STRING_7,STRING_8,STRING_9,STRING_10,

























