buildCentroidForPolygon,setCoordinates,getCentroid,
METHOD_0,METHOD_1,METHOD_2,

centroidExpected,sentilo,CentroidBuilderTest,polygon,CentroidBuilder,centroid,
IDENT_0,IDENT_1,IDENT_2,IDENT_3,IDENT_4,IDENT_5,










0.5,
FLOAT_0,






















