parseProviderWriteResponse,getParts,BasicHttpResponse,BasicStatusLine,writeResponse,getObservationsFromProvider,getHttpResponse,getEntity,writeTo,hasText,
METHOD_0,METHOD_1,METHOD_2,METHOD_3,METHOD_4,METHOD_5,METHOD_6,METHOD_7,METHOD_8,METHOD_9,

parts,sentilo,SentiloResponse,HttpVersion,HTTP_1_0,sentiloRequest,baos,ByteArrayEntity,sensor,CollectionUtils,observations,
IDENT_0,IDENT_1,IDENT_2,IDENT_3,IDENT_4,IDENT_5,IDENT_6,IDENT_7,IDENT_8,IDENT_9,IDENT_10,







"prov1","{\"sensors\":[{\"sensor\":\"sensor1\",\"observations\":[{\"value\":\"1\",\"timestamp\":\"21/02/2013T17:49:24\",\"time\":1361468964000}]},{\"sensor\":\"sensor2\",\"observations\":[{\"value\":\"10\",\"timestamp\":\"21/02/2013T17:49:30\",\"time\":1361468970000},{\"value\":\"5\",\"timestamp\":\"20/02/2013T17:49:30\",\"time\":1361382570000}]}]}","--- Sensor observations ---","\n\t sensor:","\n\t location:",
STRING_0,STRING_1,STRING_2,STRING_3,STRING_4,

























