testSetSchemaWithNoMetaData,DriverSpecification,setMetaData,setSchema,getSchema,
METHOD_0,METHOD_1,METHOD_2,METHOD_3,METHOD_4,

netbeans,ddl,DriverSpecification,ds,
IDENT_0,IDENT_1,IDENT_2,IDENT_3,







"ANY",
STRING_0,

























