parseTimestampWithoutTimeZone,parseTimestamp,stringToDate,
METHOD_0,METHOD_1,METHOD_2,

timestampWithTZ,timestampWithoutTZ,sentilo,DateUtils,timestamp,
IDENT_0,IDENT_1,IDENT_2,IDENT_3,IDENT_4,







"01/04/2014T10:23:34+0200","01/04/2014T08:23:34",
STRING_0,STRING_1,

























