toJSONString,createSnakeCase,toJson,
METHOD_0,METHOD_1,METHOD_2,

generatedJson,seratch,jslack,rtm,expectedJson,GsonFactory,
IDENT_0,IDENT_1,IDENT_2,IDENT_3,IDENT_4,IDENT_5,







"{\"type\":\"message\"}",
STRING_0,

























