detect_A$String_StringIsNull,detect,
METHOD_0,METHOD_1,

sourceCodeString,junithelper,CurrentLineBreak,extractor,CurrentLineBreakDetector,CRLF,LF,
IDENT_0,IDENT_1,IDENT_2,IDENT_3,IDENT_4,IDENT_5,IDENT_6,







"\r\n",
STRING_0,

























