testParse1,
METHOD_0,

golden,testCases,LinkedList,netbeans,modules,hints,declarative,TestParser,TestCase,ts,startOffset,endOffset,attrs,
IDENT_0,IDENT_1,IDENT_2,IDENT_3,IDENT_4,IDENT_5,IDENT_6,IDENT_7,IDENT_8,IDENT_9,IDENT_10,IDENT_11,IDENT_12,







"%%TestCase name\ncode\n%%=>\nfixed1\n%%=>\nfixed2\n","name:code\n:[fixed1\n, fixed2\n]:0:16:[26, 38]","name:code\n:[fixed1\n, fixed2\n]:45:61:[71, 83]","<",",",">: ",
STRING_0,STRING_1,STRING_2,STRING_3,STRING_4,STRING_5,

























