isPublic_A$String_StringIsEmpty,isPublic,
METHOD_0,METHOD_1,

methodSignature,junithelper,AccessModifierDetector,RegExp,Prefix,Suffix,
IDENT_0,IDENT_1,IDENT_2,IDENT_3,IDENT_4,IDENT_5,







"public",
STRING_0,

























