deepCopyList_A$List_null,deepCopyList,deepCopy,
METHOD_0,METHOD_1,METHOD_2,

arg,junithelper,ObjectUtil,retList,each,
IDENT_0,IDENT_1,IDENT_2,IDENT_3,IDENT_4,


































