equals_A$Object,CrontabCommandClassNameElement,
METHOD_0,METHOD_1,

commandClassName,seratch,taskun,scheduler,crond,CrontabCommandClassNameElement,
IDENT_0,IDENT_1,IDENT_2,IDENT_3,IDENT_4,IDENT_5,







"dsfsdf",
STRING_0,

























