WhenRookDoStepItCanMovInNewBox,Rook,Point,chekMove,getX,getY,
METHOD_0,METHOD_1,METHOD_2,METHOD_3,METHOD_4,METHOD_5,

ru,szhernovoy,Rook,rook,Color,Black,Point,chek,subX,B,A,subY,
IDENT_0,IDENT_1,IDENT_2,IDENT_3,IDENT_4,IDENT_5,IDENT_6,IDENT_7,IDENT_8,IDENT_9,IDENT_10,IDENT_11,







"Uncorrect move for this figure",
STRING_0,

























