WriteMultiLineStringTest,SimpleTextWriter,writeLines,SimpleTextReader,asStringList,
METHOD_0,METHOD_1,METHOD_2,METHOD_3,METHOD_4,

strs,zemberek,tmpFile,
IDENT_0,IDENT_1,IDENT_2,







"Merhaba","Dunya",
STRING_0,STRING_1,

























