whenAddInConatainerThenAddInArray,DynamicArray,addValueInCache,
METHOD_0,METHOD_1,METHOD_2,

ru,szhernovoy,DynamicArray,
IDENT_0,IDENT_1,IDENT_2,







"First message",
STRING_0,

























