testGetPassword,Setting,PropertyHandler,getPassword,
METHOD_0,METHOD_1,METHOD_2,METHOD_3,

configSettings,PropertyHandler,IAAS_API_PWD,v2_0,propertyHandler,iaas,settings,password,
IDENT_0,IDENT_1,IDENT_2,IDENT_3,IDENT_4,IDENT_5,IDENT_6,IDENT_7,







"pwd",
STRING_0,

























