getStartTime,Setting,PropertyHandler,
METHOD_0,METHOD_1,METHOD_2,

PropertyHandler,START_TIME,v2_0,propertyHandler,openstack,settings,timeStr,
IDENT_0,IDENT_1,IDENT_2,IDENT_3,IDENT_4,IDENT_5,IDENT_6,


































