constructor,UpdateStackRequest,getJSON,
METHOD_0,METHOD_1,METHOD_2,

openstack,UpdateStackRequest,
IDENT_0,IDENT_1,







"NAME",
STRING_0,

























