testChooseStorageDirWithNoVolume,chooseStorageDir,randomUUID,
METHOD_0,METHOD_1,METHOD_2,

ratis,ServerState,expectedErrMsg,
IDENT_0,IDENT_1,IDENT_2,







"No storage directory found.",
STRING_0,

























