loadAuditLogs_byNulloperationIds,givenAuditLogs,loadAuditLogsInTx,
METHOD_0,METHOD_1,METHOD_2,

auditlog,AuditLog,dbAuditLogs,categoriesForMarketplace,
IDENT_0,IDENT_1,IDENT_2,IDENT_3,


































