getLoggedInUserId_Null,getSession,anyBoolean,getLoggedInUserId,
METHOD_0,METHOD_1,METHOD_2,METHOD_3,

externalContext,userId,ctrl,
IDENT_0,IDENT_1,IDENT_2,







"mockUserId",
STRING_0,

























