toAsciiTest,toAscii,
METHOD_0,METHOD_1,

zemberek,turkish,TurkishAlphabet,alphabet,iStr,oStr,turkishToAsciiMap,IntIntMap,NO_RESULT,
IDENT_0,IDENT_1,IDENT_2,IDENT_3,IDENT_4,IDENT_5,IDENT_6,IDENT_7,IDENT_8,







"abciIoz","abccgiiIIoousaiuAIUz",
STRING_0,STRING_1,

























