removeEmptyValue_Null,removeEmptyValue,hasMoreElements,nextElement,
METHOD_0,METHOD_1,METHOD_2,METHOD_3,

resultProps,PropertiesConverter,Enumeration,
IDENT_0,IDENT_1,IDENT_2,


































