countNonEmptyValue_Null,countNonEmptyValue,hasMoreElements,nextElement,
METHOD_0,METHOD_1,METHOD_2,METHOD_3,

PropertiesConverter,numOfNotEmptyValue,Enumeration,
IDENT_0,IDENT_1,IDENT_2,


































