getInvisibleProducts,createUserGroupWithProducts,
METHOD_0,METHOD_1,

domobjects,UserGroup,userGrp,invisibleProducts,
IDENT_0,IDENT_1,IDENT_2,IDENT_3,


































