getCleanProductId_Empty,ProductData,setProductId,getCleanProductId,getProductId,
METHOD_0,METHOD_1,METHOD_2,METHOD_3,METHOD_4,

domobjects,ProductData,product,cleanProductId,
IDENT_0,IDENT_1,IDENT_2,IDENT_3,







"#",
STRING_0,

























