setSerializedValue,pow,
METHOD_0,METHOD_1,

tppd,VMwareValue$Unit,targetUnit,pow,factor,
IDENT_0,IDENT_1,IDENT_2,IDENT_3,IDENT_4,

1024,
INT_0,




"<xml>xyz</xml>",
STRING_0,

























