equalsOtherObjectNull,VOMarketplace,setMarketplaceId,
METHOD_0,METHOD_1,METHOD_2,

VOMarketplace,mp,mp2,Pair,pair,second,
IDENT_0,IDENT_1,IDENT_2,IDENT_3,IDENT_4,IDENT_5,







"mpid",
STRING_0,

























