equalsOtherType,Setting,
METHOD_0,METHOD_1,

Setting,triggerservice,local,TriggerMessage,
IDENT_0,IDENT_1,IDENT_2,IDENT_3,







"string",
STRING_0,

























