equalsOtherType,VOMarketplace,
METHOD_0,METHOD_1,

VOMarketplace,mp,Pair,pair,second,
IDENT_0,IDENT_1,IDENT_2,IDENT_3,IDENT_4,







"string",
STRING_0,

























