toString_Info,ReturnCode,hasToString,TestWithToString,
METHOD_0,METHOD_1,METHOD_2,METHOD_3,

ReturnCode,returnCode,ReturnType,INFO,JavaMatchersTest,JavaMatchers,
IDENT_0,IDENT_1,IDENT_2,IDENT_3,IDENT_4,IDENT_5,







"KEY",
STRING_0,

























