getResultList,givenResponseWithLists,
METHOD_0,METHOD_1,

domobjects,BillingAdapter,ba,billingAdapter,ds,
IDENT_0,IDENT_1,IDENT_2,IDENT_3,IDENT_4,


































