jsonParameterOption_equal1,givenJsonParameterOption,
METHOD_0,METHOD_1,

JsonParameterOption,jsonParamOpt1,jsonParamOpt2,Pair,pair,second,
IDENT_0,IDENT_1,IDENT_2,IDENT_3,IDENT_4,IDENT_5,


































