testDisplay_forSubscriptionPage,setCurrentPMPage,display,isDirty,
METHOD_0,METHOD_1,METHOD_2,METHOD_3,

PriceModelBean,PRICEMODEL_FOR_SUBSCRIPTION,dirty,
IDENT_0,IDENT_1,IDENT_2,


































