isNameSequenceReversed_German,setCurrentLocale,getNameSequenceReversed,UiDelegate,isNameSequenceReversed,
METHOD_0,METHOD_1,METHOD_2,METHOD_3,METHOD_4,

GERMAN,sessionBean,
IDENT_0,IDENT_1,


































