getAsString,getComponent,
METHOD_0,METHOD_1,

faces,UIComponent,ConverterTestHelper,FacesContext,retVal,VOPaymentInfo,
IDENT_0,IDENT_1,IDENT_2,IDENT_3,IDENT_4,IDENT_5,







"discount","1.00",
STRING_0,STRING_1,

























