testCreateCaptchaKeyZero,createCaptchaKey,createKey,
METHOD_0,METHOD_1,METHOD_2,

captchaKey,captchaKeyGenerator,sbuilder,ii,wordLength,
IDENT_0,IDENT_1,IDENT_2,IDENT_3,IDENT_4,


































