getSelectedUserId_Existing,getUserId,setSelectedUserId,getSelectedUserId,
METHOD_0,METHOD_1,METHOD_2,METHOD_3,

ud,selId,ctrl,selectedUserId,
IDENT_0,IDENT_1,IDENT_2,IDENT_3,


































