testGetAsStringSpaceAndThreeByteSpaceMixtureTrailing,getAsString,
METHOD_0,METHOD_1,

faces,FacesContext,UIComponent,retVal,VOPaymentInfo,
IDENT_0,IDENT_1,IDENT_2,IDENT_3,IDENT_4,







"　","　　",
STRING_0,STRING_1,

























