testGetAsStringThreeByteSpaceMiddle,getAsString,
METHOD_0,METHOD_1,

faces,FacesContext,UIComponent,retVal,VOPaymentInfo,
IDENT_0,IDENT_1,IDENT_2,IDENT_3,IDENT_4,







"one","　","two",
STRING_0,STRING_1,STRING_2,

























