isSaveDisabled_true,setSelectedTemplateKey,isSaveDisabled,isLocked,isErrorOnRead,
METHOD_0,METHOD_1,METHOD_2,METHOD_3,METHOD_4,





































