getServicesThirdCategory,givenModel,newCategories,newServiceList,
METHOD_0,METHOD_1,METHOD_2,METHOD_3,

dialog,mp,landingpage,LandingpageEntryModel,categoriesForMarketplace,
IDENT_0,IDENT_1,IDENT_2,IDENT_3,IDENT_4,







"cat1","cat2","cat3","s1","s2","s3",
STRING_0,STRING_1,STRING_2,STRING_3,STRING_4,STRING_5,

























