getServicesFirstCategory_NoData,givenEmptyModel,getServicesFirstCategory,
METHOD_0,METHOD_1,METHOD_2,

entriesOfCateogry0,
IDENT_0,


































