fromDocument,TypeDocumentConverter,RyaIRI,getConf,
METHOD_0,METHOD_1,METHOD_2,METHOD_3,

TypeDocumentConverter,ID,PROPERTY_NAMES,mongo,ImmutableSet,
IDENT_0,IDENT_1,IDENT_2,IDENT_3,IDENT_4,







"urn:icecream","urn:brand","urn:flavor","urn:cost",
STRING_0,STRING_1,STRING_2,STRING_3,

























