isUserInRole_UnitAdmin,prepareUserWithRole,isUnitAdministrator,getUserRoles,
METHOD_0,METHOD_1,METHOD_2,METHOD_3,

UserRoleType,UNIT_ADMINISTRATOR,voUserDetails,
IDENT_0,IDENT_1,IDENT_2,


































