testGetServiceIdToDisplay,setServiceIdToDisplay,Service,getServiceIdToDisplay,
METHOD_0,METHOD_1,METHOD_2,METHOD_3,

voService,Service,
IDENT_0,IDENT_1,







"Service (c912153e)",
STRING_0,

























