createOrFindDomainObject_Create,createOrFindDomainObject,
METHOD_0,METHOD_1,

domobjects,ProductReview,reviewBean,
IDENT_0,IDENT_1,IDENT_2,


































