testGlassfishGroupNames,ADMRealm,getGroupNames,enumeration,
METHOD_0,METHOD_1,METHOD_2,METHOD_3,

ADMRealm,testRealm,groups,ADMRealmImpl,GROUPLIST_ADMIN,
IDENT_0,IDENT_1,IDENT_2,IDENT_3,IDENT_4,


































