testLoadImageNotExistingProduct,loadImage,UnsupportedOperationException,
METHOD_0,METHOD_1,METHOD_2,

VOImageResource,svcProv,
IDENT_0,IDENT_1,


































