prepareProductStatusRestriction,
METHOD_0,

ps,serviceprovisioningservice,ProductSearchTest,RESTRICTION_SUSPENDED_OR_ACTIVE,
IDENT_0,IDENT_1,IDENT_2,IDENT_3,


































