getProductForCustomerOnly,runTX,
METHOD_0,METHOD_1,

domobjects,Product,Callable,subscriptionservice,supplierCustomer,categoriesForMarketplace,
IDENT_0,IDENT_1,IDENT_2,IDENT_3,IDENT_4,IDENT_5,


































