buildMailType_noError,buildMailType,
METHOD_0,METHOD_1,

failures,enumtypes,EmailType,BULK_USER_IMPORT_SUCCESS,BULK_USER_IMPORT_SOME_ERRORS,
IDENT_0,IDENT_1,IDENT_2,IDENT_3,IDENT_4,


































