testHashCodeDifferentObj,TriggerMessage,
METHOD_0,METHOD_1,

triggerservice,local,TriggerMessage,data1,enumtypes,TriggerType,ACTIVATE_SERVICE,data2,DEACTIVATE_SERVICE,second,
IDENT_0,IDENT_1,IDENT_2,IDENT_3,IDENT_4,IDENT_5,IDENT_6,IDENT_7,IDENT_8,IDENT_9,

31,
INT_0,































