assertGetQueryTimeoutWithRoutedStatements,executeQuery,getQueryTimeout,getRoutedStatements,
METHOD_0,METHOD_1,METHOD_2,METHOD_3,

Statement,each,statements,
IDENT_0,IDENT_1,IDENT_2,


































