testIterate,getObjectDb,doubleValue,
METHOD_0,METHOD_1,METHOD_2,

wikibrain,ObjectDb,iteratedMap,Pair,pair,expectedMap,T1,newValue,oldValue,
IDENT_0,IDENT_1,IDENT_2,IDENT_3,IDENT_4,IDENT_5,IDENT_6,IDENT_7,IDENT_8,

324,11,24,26,
INT_0,INT_1,INT_2,INT_3,




"asdfasdf","zab",
STRING_0,STRING_1,

























