testDisableCache,KmeliaAuthorization,disableCache,isCacheEnabled,
METHOD_0,METHOD_1,METHOD_2,METHOD_3,

silverpeas,kmelia,KmeliaAuthorization,cacheEnabled,
IDENT_0,IDENT_1,IDENT_2,IDENT_3,


































