testExistsOneAsync,condAnd,
METHOD_0,METHOD_1,

jooq,Condition,DSL,
IDENT_0,IDENT_1,IDENT_2,







"existsOneAsync.json","Lang","code","Test",
STRING_0,STRING_1,STRING_2,STRING_3,

























