testFindByInstanceId,findByInstanceId,
METHOD_0,METHOD_1,

silverpeas,kmelia,TopicSearch,
IDENT_0,IDENT_1,IDENT_2,







"kmelia111",
STRING_0,

























