testGetAll,getAll,
METHOD_0,METHOD_1,

silverpeas,sharing,DownloadDetail,downloads,Objects,
IDENT_0,IDENT_1,IDENT_2,IDENT_3,IDENT_4,


































