findNoValuesOfAnUnknownAxis,findByAxisId,getNbElt,
METHOD_0,METHOD_1,METHOD_2,

silverpeas,pdc,PdcAxisValue,entries,FacetEntryVO,
IDENT_0,IDENT_1,IDENT_2,IDENT_3,IDENT_4,

1000L,
INT_0,































