simpleGetItemsTest,getItems,
METHOD_0,METHOD_1,

cloudapp,CloudAppItem,CloudAppItem$Type,items,perPage,showDeleted,
IDENT_0,IDENT_1,IDENT_2,IDENT_3,IDENT_4,IDENT_5,


































