testForkEventJoin,fork,Stamp,one,zero,LeafEvent,
METHOD_0,METHOD_1,METHOD_2,METHOD_3,METHOD_4,METHOD_5,

itc4j,Stamp,fork1,seedStamp,event1,event2,fork2,event11,join1,fork22,join2,event3,IDs,Events,
IDENT_0,IDENT_1,IDENT_2,IDENT_3,IDENT_4,IDENT_5,IDENT_6,IDENT_7,IDENT_8,IDENT_9,IDENT_10,IDENT_11,IDENT_12,IDENT_13,


































