testComplexSerialzation,Stamp,fork,writeValueAsString,readValue,
METHOD_0,METHOD_1,METHOD_2,METHOD_3,METHOD_4,

itc4j,Stamp,js,SerializationTest,ns,ID,ids,
IDENT_0,IDENT_1,IDENT_2,IDENT_3,IDENT_4,IDENT_5,IDENT_6,


































