shouldGenerateAValue,Property,RandomFunction,Range,
METHOD_0,METHOD_1,METHOD_2,METHOD_3,

six2six,fixturefactory,Property,
IDENT_0,IDENT_1,IDENT_2,

10L,
INT_0,




"someNumber",
STRING_0,

























