shouldTransformToNumberTarget,PrimitiveTransformer,concat,
METHOD_0,METHOD_1,METHOD_2,

six2six,fixturefactory,transformer,
IDENT_0,IDENT_1,IDENT_2,


































