hashCodeDifferent,MfgData,HashCodeBuilder,toHashCode,
METHOD_0,METHOD_1,METHOD_2,METHOD_3,

lightboxtechnologies,nsrl,MfgData,MfgDataTest,mfg_code,
IDENT_0,IDENT_1,IDENT_2,IDENT_3,IDENT_4,







"FOOF",
STRING_0,

























