retrieveImageID,Hex,makeFsEntryKey,getImageID,
METHOD_0,METHOD_1,METHOD_2,METHOD_3,

binary,Hex,hex,lightboxtechnologies,spectrum,KeyUtils,MD5_LEN,
IDENT_0,IDENT_1,IDENT_2,IDENT_3,IDENT_4,IDENT_5,IDENT_6,

34,
INT_0,




"8a9111fe05f9815fc55c728137c5b389","/howdy/doody.jpg",
STRING_0,STRING_1,

























