clearActiveTransactions,getActiveTransactions,rollback,
METHOD_0,METHOD_1,METHOD_2,

slim3,GlobalTransaction,gtx,
IDENT_0,IDENT_1,IDENT_2,


































