testGetAsOk,getAs,getNonNull,isInstance,DataException,cast,
METHOD_0,METHOD_1,METHOD_2,METHOD_3,METHOD_4,METHOD_5,

lightboxtechnologies,spectrum,JSON,
IDENT_0,IDENT_1,IDENT_2,

42,
INT_0,




" == ",", a ",", expected a ",
STRING_0,STRING_1,STRING_2,

























