validateWhenErrorsIsNotEmpty,
METHOD_0,

valid,validatorsMap,slim3,Validator,
IDENT_0,IDENT_1,IDENT_2,IDENT_3,







"aaa","xxx",
STRING_0,STRING_1,

























