getErrors,setAttribute,Errors,not,nullValue,
METHOD_0,METHOD_1,METHOD_2,METHOD_3,METHOD_4,

tester,ControllerConstants,ERRORS_KEY,slim3,
IDENT_0,IDENT_1,IDENT_2,IDENT_3,


































