refreshWhenKeyIsNotSet,refresh,nullValue,Hoge,setModel,not,sameInstance,
METHOD_0,METHOD_1,METHOD_2,METHOD_3,METHOD_4,METHOD_5,METHOD_6,

slim3,Hoge,hoge,Datastore,
IDENT_0,IDENT_1,IDENT_2,IDENT_3,


































