copyBBForExcludeEmptyString,SrcBB,DestBB,copy,CopyOptions,excludeEmptyString,
METHOD_0,METHOD_1,METHOD_2,METHOD_3,METHOD_4,METHOD_5,

slim3,BeanUtilTest,SrcBB,src,aaa,DestBB,dest,BeanUtil,
IDENT_0,IDENT_1,IDENT_2,IDENT_3,IDENT_4,IDENT_5,IDENT_6,IDENT_7,







"111",
STRING_0,

























