toPrimitiveIntForNumber,toPrimitiveInt,toInteger,intValue,
METHOD_0,METHOD_1,METHOD_2,METHOD_3,

slim3,IntegerUtil,
IDENT_0,IDENT_1,


































