toDateAndClearTimePart,setTime,clearTimePart,toDate,
METHOD_0,METHOD_1,METHOD_2,METHOD_3,

cal,slim3,TimeZoneLocator,HOUR_OF_DAY,MINUTE,SECOND,MILLISECOND,DateUtil,
IDENT_0,IDENT_1,IDENT_2,IDENT_3,IDENT_4,IDENT_5,IDENT_6,IDENT_7,


































