toPrimitiveLongForEmptyString,toPrimitiveLong,toLong,longValue,
METHOD_0,METHOD_1,METHOD_2,METHOD_3,

slim3,LongUtil,
IDENT_0,IDENT_1,


































