doesNotAcceptNullFile,isDirectory,getDefault,endsWith,
METHOD_0,METHOD_1,METHOD_2,METHOD_3,

fileAccepted,caseInsensitiveFileFilter,
IDENT_0,IDENT_1,







"*",
STRING_0,

























