testGetInstance,DTM,
METHOD_0,METHOD_1,

smartenit,sdn,floodlight090,dtm,DTM,singleton,
IDENT_0,IDENT_1,IDENT_2,IDENT_3,IDENT_4,IDENT_5,




synchronized,
MOD_0,

"getInstance() begin","Creating DTM singleton","getInstance() end",
STRING_0,STRING_1,STRING_2,

























