tailingSlashOnAUrlIsOptional,Url,
METHOD_0,METHOD_1,

smartrics,fitnesse,Url,u1,u2,
IDENT_0,IDENT_1,IDENT_2,IDENT_3,IDENT_4,







"http://a.com/","http://a.com","[name=","] ",
STRING_0,STRING_1,STRING_2,STRING_3,

























