checkMessageMethod,PoolGuardException,
METHOD_0,METHOD_1,

smart_tools,smartactors,pool_guard,PoolGuardException,
IDENT_0,IDENT_1,IDENT_2,IDENT_3,


































