testGetCurrentUser,userResources,getCurrentUser,getAccount,
METHOD_0,METHOD_1,METHOD_2,METHOD_3,

UserProfile,smartsheet,Account,account,
IDENT_0,IDENT_1,IDENT_2,IDENT_3,


































