checkNullOnUseGetIterator,WDSObject,DSObjectIterator,
METHOD_0,METHOD_1,METHOD_2,

smart_tools,smartactors,iobject,IObject,wObj,iobject_extension,wds_object,ds_object,DSObject,
IDENT_0,IDENT_1,IDENT_2,IDENT_3,IDENT_4,IDENT_5,IDENT_6,IDENT_7,IDENT_8,


































