testOdometer,Odometer,print,
METHOD_0,METHOD_1,METHOD_2,

smile,wide,counter,Odometer,odo,
IDENT_0,IDENT_1,IDENT_2,IDENT_3,IDENT_4,


































