test_empty_ok_value,LongDecoder,Time,
METHOD_0,METHOD_1,METHOD_2,

milyn,javabean,decoders,LongDecoder,decoder,
IDENT_0,IDENT_1,IDENT_2,IDENT_3,IDENT_4,


































