testMaxWithLargeIntegers,Max,asInteger,
METHOD_0,METHOD_1,METHOD_2,

jsoar,rhs,functions,Max,symbols,Symbol,rhsFuncContext,Symbols,syms,
IDENT_0,IDENT_1,IDENT_2,IDENT_3,IDENT_4,IDENT_5,IDENT_6,IDENT_7,IDENT_8,

1000000000000L,40,99,
INT_0,INT_1,INT_2,































