testMultipleGeneratorsLine27,forComp,yield,Tu,Tuple2,
METHOD_0,METHOD_1,METHOD_2,METHOD_3,METHOD_4,

soabase,halva,details,Tuple2,A,B,_1,_2,
IDENT_0,IDENT_1,IDENT_2,IDENT_3,IDENT_4,IDENT_5,IDENT_6,IDENT_7,


































