testComplex,Author,Book,forComp,authors,years,yield,Tu,title,Tuple2,
METHOD_0,METHOD_1,METHOD_2,METHOD_3,METHOD_4,METHOD_5,METHOD_6,METHOD_7,METHOD_8,METHOD_9,

soabase,halva,comprehension,Author,aynRand,kenFollet,leeChild,Book,books,AnyVal,book,Any,author,year,Tuple,For,A,B,_1,_2,
IDENT_0,IDENT_1,IDENT_2,IDENT_3,IDENT_4,IDENT_5,IDENT_6,IDENT_7,IDENT_8,IDENT_9,IDENT_10,IDENT_11,IDENT_12,IDENT_13,IDENT_14,IDENT_15,IDENT_16,IDENT_17,IDENT_18,IDENT_19,

1940,1950,1960,1970,1980,1990,2000,
INT_0,INT_1,INT_2,INT_3,INT_4,INT_5,INT_6,




"Ayn Rand","Ken Follet","Lee Child","Big Compilation","Atlas Shrugged","The Pillars of the Earth","Ayn",
STRING_0,STRING_1,STRING_2,STRING_3,STRING_4,STRING_5,STRING_6,

























