testGetEndTimestamp,Link,setEndTimestamp,getEndTimestamp,getLongPar,
METHOD_0,METHOD_1,METHOD_2,METHOD_3,METHOD_4,

inria,soctrace,Link,link,
IDENT_0,IDENT_1,IDENT_2,IDENT_3,


































