testGetRoot,EPHierarchyDescMap,getRoot,getEventProducer,
METHOD_0,METHOD_1,METHOD_2,METHOD_3,

inria,soctrace,hierarchy,EPHierarchyDescMap,traceDB,EPHierarchyDesc,ep,
IDENT_0,IDENT_1,IDENT_2,IDENT_3,IDENT_4,IDENT_5,IDENT_6,


































