testGetImbricationLevel,State,setImbricationLevel,getImbricationLevel,getDoublePar,intValue,
METHOD_0,METHOD_1,METHOD_2,METHOD_3,METHOD_4,METHOD_5,

inria,soctrace,State,
IDENT_0,IDENT_1,IDENT_2,


































