get_subject,getPrincipal,
METHOD_0,METHOD_1,

shiro,Subject,principal,sonatype,nexus,UserIdHelper,UNKNOWN,
IDENT_0,IDENT_1,IDENT_2,IDENT_3,IDENT_4,IDENT_5,IDENT_6,


































