expect_fieldName_Set,NpmFieldMatcher,getFieldName,
METHOD_0,METHOD_1,METHOD_2,

underTest,sonatype,nexus,npm,NpmFieldMatcherTest,FIELD_NAME,fieldDeserializer,fieldName,
IDENT_0,IDENT_1,IDENT_2,IDENT_3,IDENT_4,IDENT_5,IDENT_6,IDENT_7,


































