addStatement,sampleStatements,getDefaultModel,removeAll,
METHOD_0,METHOD_1,METHOD_2,METHOD_3,

solrdf,gazzax,labs,TestUtility,localDataset,
IDENT_0,IDENT_1,IDENT_2,IDENT_3,IDENT_4,


































