testIsErrorSession,SparkSession,setError,hasError,getError,
METHOD_0,METHOD_1,METHOD_2,METHOD_3,METHOD_4,

sparkplatform,SparkSession,
IDENT_0,IDENT_1,







"error",
STRING_0,

























