setSuccess,mockupHttpClient,
METHOD_0,METHOD_1,

sparkplatform,HttpDelete,rs2,Connection,EMPT_MAP,
IDENT_0,IDENT_1,IDENT_2,IDENT_3,IDENT_4,







"TESTDELETE",
STRING_0,

























