zeroSize,PagedResultSet,
METHOD_0,METHOD_1,

hp,hpl,ResultSetRewindable,cut,gazzax,labs,solrdf,resultset,
IDENT_0,IDENT_1,IDENT_2,IDENT_3,IDENT_4,IDENT_5,IDENT_6,IDENT_7,


































