testDeleteFile,createNewFile,
METHOD_0,METHOD_1,

trash,FileUtils,SKIP_MISSING,
IDENT_0,IDENT_1,IDENT_2,







"deletion of non-existing file must fail","deletion of non-existing file must not fail with option SKIP_MISSING",
STRING_0,STRING_1,

























