testShiftArray3,shiftArray,setBit,getBit,
METHOD_0,METHOD_1,METHOD_2,METHOD_3,

dk,alexandra,fresco,ByteArrayHelper,positions,
IDENT_0,IDENT_1,IDENT_2,IDENT_3,IDENT_4,

128,
INT_0,































