getArrayFirstStringFromArray,getJsonManager,createArray,getArrayFirstString,
METHOD_0,METHOD_1,METHOD_2,METHOD_3,

spincast,JsonArray,array2,arrayFirst,
IDENT_0,IDENT_1,IDENT_2,IDENT_3,







"toto","titi","nope",
STRING_0,STRING_1,STRING_2,

























