testGetValueDefaultJson,setupGetValue,writeCharSequence,
METHOD_0,METHOD_1,METHOD_2,

servicecomb,inputBodyByteBuf,StandardCharsets,paramIndex,
IDENT_0,IDENT_1,IDENT_2,IDENT_3,







"\"1\"",
STRING_0,

























