dateFormatDatePartOnlyCustomInvalid,getJsonManager,getTemplatingEngine,getLocaleToUse,
METHOD_0,METHOD_1,METHOD_2,METHOD_3,

Instant,spincast,JsonObject,
IDENT_0,IDENT_1,IDENT_2,







"2007-12-03T10:15:30Z","now","{{now | dateFormat('q', '') }}",
STRING_0,STRING_1,STRING_2,

























