testGetValueNormal,Expectations,getHeader,createProcessor,
METHOD_0,METHOD_1,METHOD_2,METHOD_3,

mockit,servicecomb,HeaderProcessorCreator,HeaderProcessor,paramIndex,
IDENT_0,IDENT_1,IDENT_2,IDENT_3,IDENT_4,







"h1","h1v",
STRING_0,STRING_1,

























