testQueryCustomerById,executeQuery,resultSetSize,
METHOD_0,METHOD_1,METHOD_2,

derby,actions,IndexIT,SELECT_UNIQUE_CUSTOMER,SCHEMA_NAME,CustomerTable,TABLE_NAME,methodWatcher,
IDENT_0,IDENT_1,IDENT_2,IDENT_3,IDENT_4,IDENT_5,IDENT_6,IDENT_7,


































