testDelete,executeUpdate,executeQuery,
METHOD_0,METHOD_1,METHOD_2,

methodWatcher,derby,complextypes,homeless,FormattedResult,ResultFactory,
IDENT_0,IDENT_1,IDENT_2,IDENT_3,IDENT_4,IDENT_5,







"delete from ARRAY_FOUR where col1 = [2,1]","select col1 from ARRAY_FOUR where col1 = [2,1]",
STRING_0,STRING_1,

























