asyncSucc,HttpServerFilterBaseForTest,beforeSendResponseAsync,
METHOD_0,METHOD_1,METHOD_2,

servicecomb,HttpServerFilter,CompletableFuture,Void,
IDENT_0,IDENT_1,IDENT_2,IDENT_3,


































