testUnionNoSort,createStatement,executeQuery,resultSetSize,
METHOD_0,METHOD_1,METHOD_2,METHOD_3,

Statement,derby,
IDENT_0,IDENT_1,







"select * from ST_MARS UNION select * from ST_EARTH",
STRING_0,

























