testFrameRowsUnboundedPrecedingCurrentRow,getTableReference,executeQuery,toStringUnsorted,
METHOD_0,METHOD_1,METHOD_2,METHOD_3,

sqlText,derby,WindowFunctionIT,EMPTAB,useSpark,methodWatcher,homeless,FormattedResult,ResultFactory,
IDENT_0,IDENT_1,IDENT_2,IDENT_3,IDENT_4,IDENT_5,IDENT_6,IDENT_7,IDENT_8,







" 50 | 1 | 52000 | 50000 |\n","min(salary) over (Partition by dept ORDER BY salary rows between unbounded preceding and current row) as minsal ","from %s --SPLICE-PROPERTIES useSpark = %s \n order by empnum","EMPNUM |DEPT |SALARY |MINSAL |\n","------------------------------\n"," 20 | 1 | 75000 | 50000 |\n"," 40 | 2 | 52000 | 51000 |\n"," 44 | 2 | 52000 | 51000 |\n"," 80 | 3 | 79000 | 55000 |\n"," 90 | 2 | 51000 | 51000 |\n",
STRING_0,STRING_1,STRING_2,STRING_3,STRING_4,STRING_5,STRING_6,STRING_7,STRING_8,STRING_9,

























