testJDBCTableVTI,executeQuery,stepNext,
METHOD_0,METHOD_1,METHOD_2,

derby,VTIOperationIT,CLASS_NAME,TABLE_NAME,spliceClassWatcher,
IDENT_0,IDENT_1,IDENT_2,IDENT_3,IDENT_4,







"select * from table (JDBCTableVTI('jdbc:splice://localhost:1527/splicedb;create=true;user=splice;password=admin', '%s', '%s'))a",
STRING_0,

























