testConstructCorrectSize,StrictBitVector,
METHOD_0,METHOD_1,

bits,dk,alexandra,fresco,StrictBitVector,bv,ByteAndBitConverter,
IDENT_0,IDENT_1,IDENT_2,IDENT_3,IDENT_4,IDENT_5,IDENT_6,


































