testDenseRankWithoutPartitionOrderby,getTableReference,executeQuery,toStringUnsorted,
METHOD_0,METHOD_1,METHOD_2,METHOD_3,

sqlText,derby,WindowFunctionIT,EMPTAB,useSpark,methodWatcher,homeless,FormattedResult,ResultFactory,
IDENT_0,IDENT_1,IDENT_2,IDENT_3,IDENT_4,IDENT_5,IDENT_6,IDENT_7,IDENT_8,







" 44 | 2 | 52000 | 8 |\n","FROM %s --SPLICE-PROPERTIES useSpark = %s \n order by empnum","EMPNUM |DEPT |SALARY |RANK |\n"," 40 | 2 | 52000 | 8 |\n"," 55 | 1 | 52000 | 8 |\n"," 60 | 1 | 78000 | 3 |\n"," 80 | 3 | 79000 | 2 |\n"," 90 | 2 | 51000 | 9 |\n"," 100 | 3 | 55000 | 6 |\n"," 110 | 1 | 53000 | 7 |\n",
STRING_0,STRING_1,STRING_2,STRING_3,STRING_4,STRING_5,STRING_6,STRING_7,STRING_8,STRING_9,

























