classloader,MicroserviceClassLoader,setClassLoader,getClassLoader,
METHOD_0,METHOD_1,METHOD_2,METHOD_3,

ClassLoader,servicecomb,definition,microserviceMeta,classLoader,
IDENT_0,IDENT_1,IDENT_2,IDENT_3,IDENT_4,


































