testRankInOrderBy,getTableReference,executeQuery,toStringUnsorted,
METHOD_0,METHOD_1,METHOD_2,METHOD_3,

sqlText,derby,WindowFunctionIT,EMPTAB,useSpark,methodWatcher,homeless,FormattedResult,ResultFactory,
IDENT_0,IDENT_1,IDENT_2,IDENT_3,IDENT_4,IDENT_5,IDENT_6,IDENT_7,IDENT_8,







"SELECT empnum, dept, salary, "," 30 | 3 | 84000 | 4 |\n"," 20 | 1 | 75000 | 5 |\n"," 44 | 2 | 52000 | 2 |\n"," 49 | 2 | 53000 | 4 |\n"," 50 | 1 | 52000 | 2 |\n"," 60 | 1 | 78000 | 7 |\n"," 80 | 3 | 79000 | 3 |\n"," 100 | 3 | 55000 | 1 |\n"," 120 | 3 | 75000 | 2 |",
STRING_0,STRING_1,STRING_2,STRING_3,STRING_4,STRING_5,STRING_6,STRING_7,STRING_8,STRING_9,

























