testInnerJoin2,createStatement,executeQuery,
METHOD_0,METHOD_1,METHOD_2,

joinStrategy,FormattedResult,ResultFactory,
IDENT_0,IDENT_1,IDENT_2,







"select a.ia[0], b.ia[1] from a --splice-properties joinStrategy="," 9 | 9 |","--------\n"," 1 | 1 |\n"," 2 | 2 |\n"," 3 | 3 |\n"," 4 | 4 |\n"," 5 | 5 |\n"," 7 | 7 |\n"," 8 | 8 |\n",
STRING_0,STRING_1,STRING_2,STRING_3,STRING_4,STRING_5,STRING_6,STRING_7,STRING_8,STRING_9,

























