testMultiFunctionSameOverClause,getTableReference,executeQuery,toStringUnsorted,
METHOD_0,METHOD_1,METHOD_2,METHOD_3,

sqlText,derby,WindowFunctionIT,EMPTAB_HIRE_DATE,useSpark,methodWatcher,homeless,FormattedResult,ResultFactory,
IDENT_0,IDENT_1,IDENT_2,IDENT_3,IDENT_4,IDENT_5,IDENT_6,IDENT_7,IDENT_8,







" 10 | 1 | 50000 | 7 | 7 | 7 |\n"," 60 | 1 | 78000 | 1 | 1 | 1 |\n","----------------------------------------------------\n"," 49 | 2 | 53000 | 1 | 1 | 1 |\n"," 50 | 1 | 52000 | 5 | 5 | 5 |\n"," 55 | 1 | 52000 | 6 | 6 | 6 |\n"," 70 | 1 | 76000 | 2 | 2 | 2 |\n"," 80 | 3 | 79000 | 2 | 2 | 2 |\n"," 100 | 3 | 55000 | 4 | 4 | 4 |\n"," 110 | 1 | 53000 | 4 | 4 | 4 |\n",
STRING_0,STRING_1,STRING_2,STRING_3,STRING_4,STRING_5,STRING_6,STRING_7,STRING_8,STRING_9,

























