stripedReadWriteLock,newIdentityHashSet,
METHOD_0,METHOD_1,

LongStripedSynchronizer,locks,ReadWriteLock,striped,spark_project,guava,Sets,entries,
IDENT_0,IDENT_1,IDENT_2,IDENT_3,IDENT_4,IDENT_5,IDENT_6,IDENT_7,

128,2000,
INT_0,INT_1,































