testEventManagement,HilbertMatrix,getEntry,
METHOD_0,METHOD_1,METHOD_2,

maxIterations,RealLinearOperator,IterativeLinearSolver,solver,xFromSolver,xFromListener,
IDENT_0,IDENT_1,IDENT_2,IDENT_3,IDENT_4,IDENT_5,







"row %d, column %d",
STRING_0,

























