testNegativeSecondRow,createRealMatrix,getDecimalCharacter,
METHOD_0,METHOD_1,METHOD_2,

RealMatrix,MatrixUtils,realMatrixFormat,arguments,
IDENT_0,IDENT_1,IDENT_2,IDENT_3,







"{{1","23,1","43,1","63},{-2","6666666667,2","46,2","66}}",
STRING_0,STRING_1,STRING_2,STRING_3,STRING_4,STRING_5,STRING_6,

1.23,1.43,1.63,2.66666666666,2.46,2.66,
FLOAT_0,FLOAT_1,FLOAT_2,FLOAT_3,FLOAT_4,FLOAT_5,






















