testLogGamma,logGamma,ulp,
METHOD_0,METHOD_1,METHOD_2,

ulps,special,GammaTest,LOG_GAMMA_REF,Gamma,tol,FastMath,commandString,
IDENT_0,IDENT_1,IDENT_2,IDENT_3,IDENT_4,IDENT_5,IDENT_6,IDENT_7,







"[",",",
STRING_0,STRING_1,

1.0E-15,
FLOAT_0,






















