testBesselJ,validateParameters,
METHOD_0,METHOD_1,

tol,special,BesselJTest,BESSEL_J_REF,BesselJ,xMc,
IDENT_0,IDENT_1,IDENT_2,IDENT_3,IDENT_4,IDENT_5,







" @ ",
STRING_0,

1.0E-15,
FLOAT_0,






















