invalidProxyFails,
METHOD_0,

caught,Jsoup,ConnectException,
IDENT_0,IDENT_1,IDENT_2,

8889,
INT_0,




"http://jsoup.org","localhost",
STRING_0,STRING_1,

























