hasAssociatedControls,unmodifiableSet,keySet,
METHOD_0,METHOD_1,METHOD_2,

Jsoup,FormElement,form,elmap,
IDENT_0,IDENT_1,IDENT_2,IDENT_3,







"<form id=1><button id=1><fieldset id=2 /><input id=3><keygen id=4><object id=5><output id=6>","<select id=7><option></select><textarea id=8><p id=9>","form",
STRING_0,STRING_1,STRING_2,

























