testAllWithClass,
METHOD_0,

h,Jsoup,Elements,ps,ingredients,
IDENT_0,IDENT_1,IDENT_2,IDENT_3,IDENT_4,







"<p class=first>One<p class=first>Two<p>Three","*.first",
STRING_0,STRING_1,

























