testLang315,StopWatch,suspend,stop,
METHOD_0,METHOD_1,METHOD_2,METHOD_3,

StopWatch,watch,InterruptedException,suspendTime,totalTime,
IDENT_0,IDENT_1,IDENT_2,IDENT_3,IDENT_4,


































