isCaseSensitive,
METHOD_0,

Tag,p1,p2,inria,astor,OperatorInstance,modificationPoint,modified,operator,
IDENT_0,IDENT_1,IDENT_2,IDENT_3,IDENT_4,IDENT_5,IDENT_6,IDENT_7,IDENT_8,







"P","p",
STRING_0,STRING_1,

























