Expectations,
METHOD_0,

mockit,fileUpload,part,multipartFile,
IDENT_0,IDENT_1,IDENT_2,IDENT_3,







"pName","paramName",
STRING_0,STRING_1,

























