testGetHeader,Expectations,getHeader,
METHOD_0,METHOD_1,METHOD_2,

mockit,vertxRequest,
IDENT_0,IDENT_1,







"key","ms",
STRING_0,STRING_1,

























