testAddToEntry,ArrayRealVector,getDimension,addToEntry,getEntry,
METHOD_0,METHOD_1,METHOD_2,METHOD_3,METHOD_4,

ArrayRealVector,inc,
IDENT_0,IDENT_1,


































