testAddition,PolynomialFunction,checkNullPolynomial,checkPolynomial,degree,
METHOD_0,METHOD_1,METHOD_2,METHOD_3,METHOD_4,

polynomials,PolynomialFunction,p1,p2,coefficients,
IDENT_0,IDENT_1,IDENT_2,IDENT_3,IDENT_4,







"-4 + 2 x","-x",
STRING_0,STRING_1,

























