testExample280CommandLine,AstorMain,getEngine,getSolutions,
METHOD_0,METHOD_1,METHOD_2,METHOD_3,

inria,main,evolution,AstorMain,main1,astor,ProgramVariant,solutions,operators,
IDENT_0,IDENT_1,IDENT_2,IDENT_3,IDENT_4,IDENT_5,IDENT_6,IDENT_7,IDENT_8,







"-bug280",
STRING_0,

























