test_g_2,NopolExample,
METHOD_0,METHOD_1,

symbolic_examples,symbolic_example_10,NopolExample,resg,
IDENT_0,IDENT_1,IDENT_2,IDENT_3,


































