testInsertEntity,copyFrom,getInsertKeys,copyOf,
METHOD_0,METHOD_1,METHOD_2,METHOD_3,

protobuf,ByteString,picture,asyncdatastoreclient,Key,Insert,QueryBuilder,MutationResult,Collectors,
IDENT_0,IDENT_1,IDENT_2,IDENT_3,IDENT_4,IDENT_5,IDENT_6,IDENT_7,IDENT_8,

222222L,123456789,40,234567L,
INT_0,INT_1,INT_2,INT_3,




"address","nickname","22 Arcadia Ave","employee","fullname","senior_role","start_date","manager","Monday","overtime_hours",
STRING_0,STRING_1,STRING_2,STRING_3,STRING_4,STRING_5,STRING_6,STRING_7,STRING_8,STRING_9,

2.43,22.5,
FLOAT_0,FLOAT_1,






















