testMain,main,getFailures,
METHOD_0,METHOD_1,METHOD_2,

ConsumerMain,autoExit,servicecomb,throwable,ITJUnitUtils,failures,
IDENT_0,IDENT_1,IDENT_2,IDENT_3,IDENT_4,IDENT_5,


































