testReadEmptyOptional,ValueWithOptionalBuilder,readValue,
METHOD_0,METHOD_1,METHOD_2,

pubsub,JsonTest,ValueWithOptional,Json,MAPPER,src,cls,
IDENT_0,IDENT_1,IDENT_2,IDENT_3,IDENT_4,IDENT_5,IDENT_6,







"{}","UTF-8",
STRING_0,STRING_1,

























