testOf,base64,PubsubFuture,
METHOD_0,METHOD_1,METHOD_2,

encoded,BaseEncoding,pubsub,RequestInfo,requestInfo,
IDENT_0,IDENT_1,IDENT_2,IDENT_3,IDENT_4,







"hello world","UTF-8",
STRING_0,STRING_1,

























