testReadGuava,readValue,
METHOD_0,METHOD_1,

pubsub,Json,MAPPER,src,cls,
IDENT_0,IDENT_1,IDENT_2,IDENT_3,IDENT_4,







"{\"foo\":\"bar\"}","UTF-8",
STRING_0,STRING_1,

























