testPrepend,toCompletableFuture,prepend,unwrap,
METHOD_0,METHOD_1,METHOD_2,METHOD_3,

folsom,IntegrationTest,KEY1,VALUE1,TTL,VALUE2,transformerUtil,
IDENT_0,IDENT_1,IDENT_2,IDENT_3,IDENT_4,IDENT_5,IDENT_6,


































