propagatesJavaArgs,javaArgs,ForkingExecutor,
METHOD_0,METHOD_1,METHOD_2,

forkingExecutor,flo,ForkingExecutor,inner,Runnable,
IDENT_0,IDENT_1,IDENT_2,IDENT_3,IDENT_4,







"-Dfoo=bar",
STRING_0,

























