testMinValues,StripedMaxBucket,updatePoint,Point,
METHOD_0,METHOD_1,METHOD_2,METHOD_3,

heroic,aggregation,StripedMaxBucket,MaxBucketTest,TAGS,metric,limits,
IDENT_0,IDENT_1,IDENT_2,IDENT_3,IDENT_4,IDENT_5,IDENT_6,










20.0,10.0,
FLOAT_0,FLOAT_1,






















