testGetMethod,Expectations,getHttpMethod,getMethod,
METHOD_0,METHOD_1,METHOD_2,METHOD_3,

mockit,swaggerOperation,
IDENT_0,IDENT_1,







"GET",
STRING_0,

























