testAddTags,NoopTagExtractor,addTags,
METHOD_0,METHOD_1,METHOD_2,

tags,NoopTagExtractor,noopTagExtractor,currentMap,
IDENT_0,IDENT_1,IDENT_2,IDENT_3,







"baz","cluster","cluster1",
STRING_0,STRING_1,STRING_2,

























