removingAddedValue,
METHOD_0,

spout,Session,SpoutSession,sessions,
IDENT_0,IDENT_1,IDENT_2,IDENT_3,







"This session registry can only handle SpoutSessions",
STRING_0,

























