testToConcatedUpperCaseStartWith,toConcatedUpperCase,concat,toUpperCase,
METHOD_0,METHOD_1,METHOD_2,METHOD_3,

matchersDemo,str1,str2,
IDENT_0,IDENT_1,IDENT_2,







"HELLO","hello","world",
STRING_0,STRING_1,STRING_2,

























