testSunnyDay,sleepAndCreateStringInBackground,poll,parseExpression,
METHOD_0,METHOD_1,METHOD_2,METHOD_3,

Callable,callback,poller,scheduling,executions,TaskSchedulerPoller,MILLISECONDS,
IDENT_0,IDENT_1,IDENT_2,IDENT_3,IDENT_4,IDENT_5,IDENT_6,

500L,1000L,
INT_0,INT_1,































