testFindWithFilterRange,createIndexIfNotExists,Key,getNameSpace,Bin,createQueryForMethodWithArgs,
METHOD_0,METHOD_1,METHOD_2,METHOD_3,METHOD_4,METHOD_5,

aerospike,sample,IndexType,NUMERIC,AerospikeTemplateIntegrationTests,SET_NAME_PERSON,Iterable,keyvalue,KeyValueQuery,Serializable,keyspace,
IDENT_0,IDENT_1,IDENT_2,IDENT_3,IDENT_4,IDENT_5,IDENT_6,IDENT_7,IDENT_8,IDENT_9,IDENT_10,

21,22,23,24,25,26,27,28,29,30,
INT_0,INT_1,INT_2,INT_3,INT_4,INT_5,INT_6,INT_7,INT_8,INT_9,




"age_index","dave-010","dave-001","firstname","dave-002","dave-004","dave-005","Dave06","dave-007","dave-008",
STRING_0,STRING_1,STRING_2,STRING_3,STRING_4,STRING_5,STRING_6,STRING_7,STRING_8,STRING_9,

























