shouldPopulateGalaxyWithWorlds,makeSomeWorlds,world,addRocketRouteTo,
METHOD_0,METHOD_1,METHOD_2,METHOD_3,

Iterable,hellograph,World,worlds,galaxy,newWorlds,earth,mars,
IDENT_0,IDENT_1,IDENT_2,IDENT_3,IDENT_4,IDENT_5,IDENT_6,IDENT_7,

63,62,27,13,
INT_0,INT_1,INT_2,INT_3,




"Uranus","Venus","Mars","Jupiter","Saturn","Neptune","Alfheimr","Midgard","Asgard","Hel",
STRING_0,STRING_1,STRING_2,STRING_3,STRING_4,STRING_5,STRING_6,STRING_7,STRING_8,STRING_9,

























