testCreateNode,createNode,getNodeById,
METHOD_0,METHOD_1,METHOD_2,

restGraphDatabase,graphDatabaseService,nodeId,
IDENT_0,IDENT_1,IDENT_2,


































