testSetStringArrayProperty,getReferenceNode,prefixedKey,
METHOD_0,METHOD_1,METHOD_2,

restGraphDatabase,graphdb,
IDENT_0,IDENT_1,


































