nearSphereWithMinDistance,Point,where,nearSphere,minDistance,
METHOD_0,METHOD_1,METHOD_2,METHOD_3,METHOD_4,

geo,Point,point,Venue,venues,Criteria,
IDENT_0,IDENT_1,IDENT_2,IDENT_3,IDENT_4,IDENT_5,







"location",
STRING_0,

73.99171,40.738868,0.01,
FLOAT_0,FLOAT_1,FLOAT_2,






















