sessionAttributeNull,Session,resolveIndexesFor,
METHOD_0,METHOD_1,METHOD_2,

SpelIndexResolverUnitTests,IndexedData,indexes,typeInformation,
IDENT_0,IDENT_1,IDENT_2,IDENT_3,


































