test2,Headers,addHeader,getFirst,
METHOD_0,METHOD_1,METHOD_2,METHOD_3,

servicecomb,swagger,invocation,Headers,querys,
IDENT_0,IDENT_1,IDENT_2,IDENT_3,IDENT_4,







"h1","h1v1","h1v2",
STRING_0,STRING_1,STRING_2,

























