construct_noContext,SwaggerInvocation,getParentContext,
METHOD_0,METHOD_1,METHOD_2,

servicecomb,swagger,invocation,SwaggerInvocation,parentContext,
IDENT_0,IDENT_1,IDENT_2,IDENT_3,IDENT_4,


































