testPing,ping,SolrPingResponse,
METHOD_0,METHOD_1,METHOD_2,

solrClientMock,solrj,pingResult,solrTemplate,SolrClient,
IDENT_0,IDENT_1,IDENT_2,IDENT_3,IDENT_4,


































