copyStringPropertyValue,Todo,perform,getDescription,
METHOD_0,METHOD_1,METHOD_2,METHOD_3,

webmvc,patch,Todo,todos,CopyOperation,copy,
IDENT_0,IDENT_1,IDENT_2,IDENT_3,IDENT_4,IDENT_5,

2L,3L,
INT_0,INT_1,




"A","B","C","/0/description","/1/description",
STRING_0,STRING_1,STRING_2,STRING_3,STRING_4,

























