testMeanDate,SimpleStatsResult,setMean,getMeanAsDate,
METHOD_0,METHOD_1,METHOD_2,METHOD_3,

SimpleStatsResult,stats,mean,
IDENT_0,IDENT_1,IDENT_2,


































