getOrder,
METHOD_0,

servicecomb,swagger,invocation,producer,TestDefaultProducerResponseMapperFactory,
IDENT_0,IDENT_1,IDENT_2,IDENT_3,IDENT_4,


































