testSearch,getCompositeCriteria,getResults,
METHOD_0,METHOD_1,METHOD_2,

samples,splitteraggregator,CompositeResult,searchRequestor,
IDENT_0,IDENT_1,IDENT_2,IDENT_3,


































