updateWithChildren_Ldap235,getDn,setStreet,
METHOD_0,METHOD_1,METHOD_2,

odm,OrganizationalUnit,organizationalUnit,odmManager,TestLdap,ouTestData,updated,dn,
IDENT_0,IDENT_1,IDENT_2,IDENT_3,IDENT_4,IDENT_5,IDENT_6,IDENT_7,







"new street",
STRING_0,

























