testTagParsing_2,parseTags,
METHOD_0,METHOD_1,

ide,boot,dash,TagUtils,SEPARATOR_REGEX,sanitized,tag,
IDENT_0,IDENT_1,IDENT_2,IDENT_3,IDENT_4,IDENT_5,IDENT_6,


































