testPersistWithEmptyKeyToMetadataStore,notNull,
METHOD_0,METHOD_1,

metadataStore,retrievedValue,
IDENT_0,IDENT_1,







"PersistWithEmptyKey","'key' must not be null.",
STRING_0,STRING_1,

























