detectsKeywordMatch,QueryMethodPart,isCompletePathMatch,
METHOD_0,METHOD_1,METHOD_2,

ide,jdt,QueryMethodPart,part,QueryMethodPartUnitTests,seed,
IDENT_0,IDENT_1,IDENT_2,IDENT_3,IDENT_4,IDENT_5,







"FirstnameLike",
STRING_0,

























