testInstanceDoesNotEqualNull,GwtRequestMetadata,
METHOD_0,METHOD_1,

roo,addon,gwt,GwtRequestMetadata,GwtRequestMetadataTest,MID_1,CONTENTS,requestTypeContents,
IDENT_0,IDENT_1,IDENT_2,IDENT_3,IDENT_4,IDENT_5,IDENT_6,IDENT_7,


































