testMergeSort2,JaegyuMergeSort,sort,mergeSort,
METHOD_0,METHOD_1,METHOD_2,METHOD_3,

chapter3,mergesort,JaegyuMergeSort,mergeSort,
IDENT_0,IDENT_1,IDENT_2,IDENT_3,


































