testInsertMap,insertMap,UnsupportedOperationException,
METHOD_0,METHOD_1,METHOD_2,

before,egov,sample,
IDENT_0,IDENT_1,IDENT_2,


































