testGetFileSeparatorAsRegex,getFileSeparatorAsRegex,getCanonicalPath,
METHOD_0,METHOD_1,METHOD_2,

roo,FileUtils,currentDirectory,CURRENT_DIRECTORY,pathElements,
IDENT_0,IDENT_1,IDENT_2,IDENT_3,IDENT_4,


































