testEmptyModel,getBeansOfType,
METHOD_0,METHOD_1,

IOUtils,ide,vscode,boot,livebean,LiveBeansModel,LiveBean,listeners,
IDENT_0,IDENT_1,IDENT_2,IDENT_3,IDENT_4,IDENT_5,IDENT_6,IDENT_7,







"/live-beans-models/empty-live-beans-model.json","org.test.DependencyA",
STRING_0,STRING_1,

























