testTimestamp,TimestampGenerator,getTimestamp,nanoTime,
METHOD_0,METHOD_1,METHOD_2,METHOD_3,

avrobase,TimestampGenerator,last,startms,timestamp,current,startMillisInNanos,startNanos,
IDENT_0,IDENT_1,IDENT_2,IDENT_3,IDENT_4,IDENT_5,IDENT_6,IDENT_7,

100000,
INT_0,































