theLargest,JaegyuSelectionSort,returnMaxIndex,
METHOD_0,METHOD_1,METHOD_2,

chapter3,selectionsort,JaegyuSelectionSort,selection,maxIndex,last,
IDENT_0,IDENT_1,IDENT_2,IDENT_3,IDENT_4,IDENT_5,


































