testSelectionSort,JaegyuSelectionSort,sort,
METHOD_0,METHOD_1,METHOD_2,

chapter3,selectionsort,JaegyuSelectionSort,selection,loc,newItem,temp,
IDENT_0,IDENT_1,IDENT_2,IDENT_3,IDENT_4,IDENT_5,IDENT_6,













--,
OP_0,



















