bytesEmittedToSinkWithFlush,Buffer,writeUtf8,flush,
METHOD_0,METHOD_1,METHOD_2,METHOD_3,

okio,Buffer,sink,BufferedSink,bufferedSink,Okio,Sink,Utf8,
IDENT_0,IDENT_1,IDENT_2,IDENT_3,IDENT_4,IDENT_5,IDENT_6,IDENT_7,







"abc","transr",
STRING_0,STRING_1,

























