readUtf8TooShortThrows,writeUtf8,emit,readUtf8,
METHOD_0,METHOD_1,METHOD_2,METHOD_3,

sink,EOFException,
IDENT_0,IDENT_1,

4L,
INT_0,




"abc",
STRING_0,

























