testGetNextSet3,BitArray,getSize,getNextSet,numberOfTrailingZeros,
METHOD_0,METHOD_1,METHOD_2,METHOD_3,METHOD_4,

zxing,BitArray,bitsOffset,currentBits,bits,
IDENT_0,IDENT_1,IDENT_2,IDENT_3,IDENT_4,

63,31,32,
INT_0,INT_1,INT_2,










&=,~,
OP_0,OP_1,



















