readFullyTooShortThrows,writeUtf8,emit,Buffer,readFully,readUtf8,
METHOD_0,METHOD_1,METHOD_2,METHOD_3,METHOD_4,METHOD_5,

sink,okio,Buffer,EOFException,ignored,
IDENT_0,IDENT_1,IDENT_2,IDENT_3,IDENT_4,







"Hi",
STRING_0,

























