testEmbedBasicPatterns1,ByteMatrix,clearMatrix,embedBasicPatterns,getVersionForNumber,getSymbolWidth,getSymbolHeight,getSymbolDataWidth,getSymbolDataHeight,
METHOD_0,METHOD_1,METHOD_2,METHOD_3,METHOD_4,METHOD_5,METHOD_6,METHOD_7,METHOD_8,

zxing,qrcode,encoder,ByteMatrix,matrix,MatrixUtil,decoder,Version,rectangular,matrixWidth,matrixHeight,dataCapacity,errorCodewords,
IDENT_0,IDENT_1,IDENT_2,IDENT_3,IDENT_4,IDENT_5,IDENT_6,IDENT_7,IDENT_8,IDENT_9,IDENT_10,IDENT_11,IDENT_12,

21,
INT_0,




" 1 1 1 1 1 1 1 0 0 1 1 1 1 1 1 1\n"," 1 0 0 0 0 0 1 0 0 1 0 0 0 0 0 1\n"," 1 0 1 1 1 0 1 0 0 1 0 1 1 1 0 1\n"," 1 1 1 1 1 1 1 0 1 0 1 0 1 0 1 1 1 1 1 1 1\n"," 0 0 0 0 0 0 0 0 0 0 0 0 0 0 0 0\n"," 1 \n"," 0 0 0 0 0 0 0 0 1 \n"," 1 1 1 1 1 1 1 0 \n"," 1 0 0 0 0 0 1 0 \n"," 1 0 1 1 1 0 1 0 \n","Rectangular Symbol:","Square Symbol:"," data region ",'x',", symbol size ",", symbol data size ",", codewords ",'+',
STRING_0,STRING_1,STRING_2,STRING_3,STRING_4,STRING_5,STRING_6,STRING_7,STRING_8,STRING_9,STRING_10,STRING_11,STRING_12,STRING_13,STRING_14,STRING_15,STRING_16,STRING_17,

























