Sorted_Equal,diff,sorted,getRawType,
METHOD_0,METHOD_1,METHOD_2,METHOD_3,

diff,javersion,Diff,DiffTest,
IDENT_0,IDENT_1,IDENT_2,IDENT_3,


































