getFormattedElement,PlainTextItem,getFormattedItem,
METHOD_0,METHOD_1,METHOD_2,

servicecomb,accesslog,PlainTextItem,AccessLogParam,
IDENT_0,IDENT_1,IDENT_2,IDENT_3,







"contentTest","OverriddenItem",
STRING_0,STRING_1,

























