propertyToListBoxUpdatesPropertyWhenListBoxChanges,StubListBox,bind,
METHOD_0,METHOD_1,METHOD_2,

tessell,dsl,StubListBox,listBox,joist,Copy,binder,DummyModel,
IDENT_0,IDENT_1,IDENT_2,IDENT_3,IDENT_4,IDENT_5,IDENT_6,IDENT_7,


































