testRemoveVertex,startTransaction,retrieveCell,getEdges,isEdgeWith,
METHOD_0,METHOD_1,METHOD_2,METHOD_3,METHOD_4,

steffi,SteffiGraph,SteffiVertex,v101,v103,v104,SteffiEdge,edge,EdgeType,IN,cellId,
IDENT_0,IDENT_1,IDENT_2,IDENT_3,IDENT_4,IDENT_5,IDENT_6,IDENT_7,IDENT_8,IDENT_9,IDENT_10,

101L,103L,104L,103,104,
INT_0,INT_1,INT_2,INT_3,INT_4,




"recommends","Edge not valid of v103: ","Edge not valid of v104: ",
STRING_0,STRING_1,STRING_2,

























