stringPropertyToWidgetSetsMaxLengthViaGenericPropertyBinder,bind,getMaxLength,
METHOD_0,METHOD_1,METHOD_2,

tessell,dsl,Property,binder,box,maxLength,
IDENT_0,IDENT_1,IDENT_2,IDENT_3,IDENT_4,IDENT_5,


































