testCard,Player,setID,addCard,getCards,
METHOD_0,METHOD_1,METHOD_2,METHOD_3,METHOD_4,

polimi,deib,provaFinale2014,andrea,celli_stefano1,cereda,gameModel,players,Player,objectsOfGame,Card,territorialCards,
IDENT_0,IDENT_1,IDENT_2,IDENT_3,IDENT_4,IDENT_5,IDENT_6,IDENT_7,IDENT_8,IDENT_9,IDENT_10,IDENT_11,


































