testGetClientID,DisconnectedClient,getClientID,
METHOD_0,METHOD_1,METHOD_2,

polimi,deib,provaFinale2014,andrea,celli_stefano1,cereda,DisconnectedClient,clientID,
IDENT_0,IDENT_1,IDENT_2,IDENT_3,IDENT_4,IDENT_5,IDENT_6,IDENT_7,


































