testHeadURL,createTestClient,head,
METHOD_0,METHOD_1,METHOD_2,

Client,WebResource,webResource,base_url,ClientResponse,MediaType,APPLICATION_JSON,
IDENT_0,IDENT_1,IDENT_2,IDENT_3,IDENT_4,IDENT_5,IDENT_6,


































