asIntsRemovesStringsLater,StringToElementConverter,clear,
METHOD_0,METHOD_1,METHOD_2,

tessell,ListProperty,ints,ListPropertyTest,DummyModel,
IDENT_0,IDENT_1,IDENT_2,IDENT_3,IDENT_4,


































