testSchemaSchemaProto,getProto,newBuilder,setExecutionBlockId,
METHOD_0,METHOD_1,METHOD_2,METHOD_3,

tajo,schema2,TajoIdProtos,QueryUnitIdProto,executionBlockId,
IDENT_0,IDENT_1,IDENT_2,IDENT_3,IDENT_4,


































