booleanToRadioGroupSetsOnTrueClick,StubRadioButton,booleanProperty,bind,click,
METHOD_0,METHOD_1,METHOD_2,METHOD_3,METHOD_4,

tessell,dsl,StubRadioButton,b1,b2,BooleanProperty,binder,
IDENT_0,IDENT_1,IDENT_2,IDENT_3,IDENT_4,IDENT_5,IDENT_6,


































