onKeyDown,StubTextBox,keyDown,
METHOD_0,METHOD_1,METHOD_2,

tessell,dsl,StubTextBox,binder,DummyModel,
IDENT_0,IDENT_1,IDENT_2,IDENT_3,IDENT_4,







"asdf",'a',
STRING_0,STRING_1,

























