shouldCompactNulls4,compactNulls,
METHOD_0,METHOD_1,

listBad,steveash,jopenfst,MutableFst,nextGood,ss,
IDENT_0,IDENT_1,IDENT_2,IDENT_3,IDENT_4,IDENT_5,


































