testLastIndexOf09,lastIndexOf,$length,
METHOD_0,METHOD_1,METHOD_2,

Number,_NaN,stjs,JSGlobal,NaN,Array,V,searchElement,
IDENT_0,IDENT_1,IDENT_2,IDENT_3,IDENT_4,IDENT_5,IDENT_6,IDENT_7,







"NaN","false",
STRING_0,STRING_1,

























