convertsNullToZero,PrimitiveIntStringConverter,
METHOD_0,METHOD_1,

sjl,dsl4xml,PrimitiveIntStringConverter,_c,aValue,
IDENT_0,IDENT_1,IDENT_2,IDENT_3,IDENT_4,


































