testForEach11,AtomicBoolean,$array,$invoke,$get,$set,forEach,
METHOD_0,METHOD_1,METHOD_2,METHOD_3,METHOD_4,METHOD_5,METHOD_6,

AtomicBoolean,stjs,Array,kIndex,JSCollections,ArrayForEachTest,ForEachCB,callbackfn,idx,
IDENT_0,IDENT_1,IDENT_2,IDENT_3,IDENT_4,IDENT_5,IDENT_6,IDENT_7,IDENT_8,

11,13,14,
INT_0,INT_1,INT_2,































