testEvery12,Array,$set,AtomicInteger,$invoke,incrementAndGet,every,
METHOD_0,METHOD_1,METHOD_2,METHOD_3,METHOD_4,METHOD_5,METHOD_6,

stjs,Array,AtomicInteger,callCnt,ArrayEveryTest,EveryCB,callbackfn,idx,
IDENT_0,IDENT_1,IDENT_2,IDENT_3,IDENT_4,IDENT_5,IDENT_6,IDENT_7,

999,
INT_0,































