testBuildDefaultFilter,buildDefaultFilter,SimpleDateFormat,getDatePattern,
METHOD_0,METHOD_1,METHOD_2,METHOD_3,

dateCheckpointType,
IDENT_0,


































