testClone,DecimalTypeSupport,clone,deepCopy,
METHOD_0,METHOD_1,METHOD_2,METHOD_3,

DecimalTypeSupport,ts,ONE,ListTypeSupport,
IDENT_0,IDENT_1,IDENT_2,IDENT_3,


































