testSize,createInet4,
METHOD_0,METHOD_1,

tajo,datum,Datum,DatumFactory,taskRequestQueue,
IDENT_0,IDENT_1,IDENT_2,IDENT_3,IDENT_4,







"163.152.23.222",
STRING_0,

























