testClone,StringTypeSupport,clone,deepCopy,
METHOD_0,METHOD_1,METHOD_2,METHOD_3,

StringTypeSupport,ts,ListTypeSupport,
IDENT_0,IDENT_1,IDENT_2,







"s",
STRING_0,

























