testConstructor2,PipelineRuntimeException,getIssues,
METHOD_0,METHOD_1,METHOD_2,

datacollector,PipelineRuntimeException,ContainerError,CONTAINER_0151,issues,
IDENT_0,IDENT_1,IDENT_2,IDENT_3,IDENT_4,


































