testStripPathPrefix,stripPathPrefix,lastIndexOf,
METHOD_0,METHOD_1,METHOD_2,

stage,destination,influxdb,CollectdRecordConverter,fieldPath,FIELD_PATH_PREFIX,
IDENT_0,IDENT_1,IDENT_2,IDENT_3,IDENT_4,IDENT_5,







"field1","/some/field/path/",
STRING_0,STRING_1,

























