shouldParseFromString,GtidSourceOffset,withIncompleteTransaction,readValue,propagate,
METHOD_0,METHOD_1,METHOD_2,METHOD_3,METHOD_4,

stage,origin,mysql,GtidSourceOffset,gtidSet1,gtid1,gtid2,offset1,Throwables,
IDENT_0,IDENT_1,IDENT_2,IDENT_3,IDENT_4,IDENT_5,IDENT_6,IDENT_7,IDENT_8,

300,500,
INT_0,INT_1,




"{",
STRING_0,

























