readBytes,BigDecoder,arraycopy,fill,
METHOD_0,METHOD_1,METHOD_2,METHOD_3,

flagstone,coder,BigDecoder,wanted,dest,available,remaining,
IDENT_0,IDENT_1,IDENT_2,IDENT_3,IDENT_4,IDENT_5,IDENT_6,


































