byteAlign,BigDecoder,readBits,alignToByte,mark,push,
METHOD_0,METHOD_1,METHOD_2,METHOD_3,METHOD_4,METHOD_5,

flagstone,coder,BigDecoder,locations,
IDENT_0,IDENT_1,IDENT_2,IDENT_3,

64,
INT_0,































