writeIntWithFlush,SWFEncoder,writeByte,writeInt,flush,
METHOD_0,METHOD_1,METHOD_2,METHOD_3,METHOD_4,

flagstone,coder,SWFEncoder,encoder,diff,
IDENT_0,IDENT_1,IDENT_2,IDENT_3,IDENT_4,

16909060,
INT_0,































