resetRestoresLocations,SWFDecoder,readByte,mark,reset,fill,ArrayIndexOutOfBoundsException,
METHOD_0,METHOD_1,METHOD_2,METHOD_3,METHOD_4,METHOD_5,METHOD_6,

flagstone,coder,SWFDecoder,BYTE_MASK,
IDENT_0,IDENT_1,IDENT_2,IDENT_3,


































