readZeroBits,SWFDecoder,readBits,fill,ArrayIndexOutOfBoundsException,
METHOD_0,METHOD_1,METHOD_2,METHOD_3,METHOD_4,

flagstone,coder,SWFDecoder,pointer,BYTES_TO_BITS,numberOfBits,BITS_PER_INT,BITS_PER_BYTE,BYTE_MASK,signed,BITS_TO_BYTES,Coder,LOWEST3,
IDENT_0,IDENT_1,IDENT_2,IDENT_3,IDENT_4,IDENT_5,IDENT_6,IDENT_7,IDENT_8,IDENT_9,IDENT_10,IDENT_11,IDENT_12,

192,
INT_0,










-=,|=,<<=,>>=,>>>=,
OP_0,OP_1,OP_2,OP_3,OP_4,



















