testTableListPB,TableListModel,getObjectFromMessage,getBody,checkTableList,
METHOD_0,METHOD_1,METHOD_2,METHOD_3,METHOD_4,

TestTableResource,MIMETYPE_PROTOBUF,TableListModel,
IDENT_0,IDENT_1,IDENT_2,


































