testCopyFromStream,allocate,DataInputStream,copyFromStreamToBuffer,
METHOD_0,METHOD_1,METHOD_2,METHOD_3,

bis,DataInputStream,dis,ByteBufferUtils,
IDENT_0,IDENT_1,IDENT_2,IDENT_3,







"get(List<Get>) not supported",
STRING_0,

























