testDrop,getCollection,upsert,BasicBSONObject,drop,
METHOD_0,METHOD_1,METHOD_2,METHOD_3,METHOD_4,

jp,ameba,mongo,MongoCollection,
IDENT_0,IDENT_1,IDENT_2,IDENT_3,







"client","_id","name-1",
STRING_0,STRING_1,STRING_2,

























