testArgumentExceptionString,ArgumentException,
METHOD_0,METHOD_1,

ArgumentException,httpStatus,
IDENT_0,IDENT_1,







"123"," [Method]"," [Path]"," [ReturnStatus]",
STRING_0,STRING_1,STRING_2,STRING_3,

























