testSearchVendors2,searchVendors,
METHOD_0,METHOD_1,

sw360,datahandler,thrift,vendors,Vendor,vendorHandler,vendorSearch,searchText,
IDENT_0,IDENT_1,IDENT_2,IDENT_3,IDENT_4,IDENT_5,IDENT_6,IDENT_7,







"http",
STRING_0,

























