testFormatMessageWithSquigglyFormatAndNullParameters,setMessage,setParameters,formatMessage,getParameters,
METHOD_0,METHOD_1,METHOD_2,METHOD_3,METHOD_4,

LogRecord,
IDENT_0,







"{0}",
STRING_0,

























