mergeElementsShouldBeIdempotent,TextElement,mergeWords,
METHOD_0,METHOD_1,METHOD_2,

technology,tabula,TextElement,pdfbox,pdmodel,font,PDType1Font,HELVETICA,TextChunk,words,words2,textElements,Ruling,
IDENT_0,IDENT_1,IDENT_2,IDENT_3,IDENT_4,IDENT_5,IDENT_6,IDENT_7,IDENT_8,IDENT_9,IDENT_10,IDENT_11,IDENT_12,







"A","B","C","D",
STRING_0,STRING_1,STRING_2,STRING_3,

0.0F,15.0F,10.0F,20.0F,1.0F,6.0F,25.0F,35.0F,45.0F,
FLOAT_0,FLOAT_1,FLOAT_2,FLOAT_3,FLOAT_4,FLOAT_5,FLOAT_6,FLOAT_7,FLOAT_8,






















