testQuickSortOneUpperThanOther,Rectangle,
METHOD_0,METHOD_1,

technology,tabula,Rectangle,lower,upper,ILL_DEFINED_ORDER,
IDENT_0,IDENT_1,IDENT_2,IDENT_3,IDENT_4,IDENT_5,










175.72F,72.72F,1.67F,1.52F,169.21F,161.16F,4.33F,4.31F,
FLOAT_0,FLOAT_1,FLOAT_2,FLOAT_3,FLOAT_4,FLOAT_5,FLOAT_6,FLOAT_7,






















