runOnWholeSeries,MockTimeSeries,setTimeSeries,getTrades,
METHOD_0,METHOD_1,METHOD_2,METHOD_3,

ta4j,TimeSeries,series,mocks,numFunction,Trade,allTrades,trades,
IDENT_0,IDENT_1,IDENT_2,IDENT_3,IDENT_4,IDENT_5,IDENT_6,IDENT_7,










20.0,40.0,60.0,10.0,30.0,50.0,
FLOAT_0,FLOAT_1,FLOAT_2,FLOAT_3,FLOAT_4,FLOAT_5,






















