testCreateFeatureServiceWithDefault,createFeatureService,
METHOD_0,METHOD_1,

tacitknowledge,flip,FeatureService,featureService,
IDENT_0,IDENT_1,IDENT_2,IDENT_3,


































