test_hugedata_rank1,append1,rank1,
METHOD_0,METHOD_1,METHOD_2,

trie4j,bv,SuccinctBitVector,cn,UnsafeBytesSuccinctBitVector,CACHE_WIDTH,countCache0,BITCOUNTS1,MASKS,
IDENT_0,IDENT_1,IDENT_2,IDENT_3,IDENT_4,IDENT_5,IDENT_6,IDENT_7,IDENT_8,

1000000,100000,
INT_0,INT_1,










%,
OP_0,



















