test_MapTrie_get_1,trieWithWordsAndValues,
METHOD_0,METHOD_1,

words,trie4j,MapTrie,trie,orig,
IDENT_0,IDENT_1,IDENT_2,IDENT_3,IDENT_4,







"hello","hi","world","happy","haru",
STRING_0,STRING_1,STRING_2,STRING_3,STRING_4,

























