test_findShortestWord_2,trieWithWords,findShortestWord,
METHOD_0,METHOD_1,METHOD_2,

trie4j,Trie,AbstractTrieTest,longSentences,begin,
IDENT_0,IDENT_1,IDENT_2,IDENT_3,IDENT_4,







"Linux",
STRING_0,

























