test26,getByLocale,getLanguage,getByCode,
METHOD_0,METHOD_1,METHOD_2,METHOD_3,

locale,language,neovisionaries,i18n,LanguageCode,undefined,
IDENT_0,IDENT_1,IDENT_2,IDENT_3,IDENT_4,IDENT_5,


































