test2,ArrayTailIndexBuilder,
METHOD_0,METHOD_1,

trie4j,tail,TailIndexBuilder,tib,TailIndex,ti,trie,
IDENT_0,IDENT_1,IDENT_2,IDENT_3,IDENT_4,IDENT_5,IDENT_6,


































