testGetFromBytes,GoogleDrivePutParameters,getFromBytes,
METHOD_0,METHOD_1,METHOD_2,

drive,GoogleDrivePutParameters,p2,fromBytes,
IDENT_0,IDENT_1,IDENT_2,IDENT_3,







"destination","resource","byteContent",
STRING_0,STRING_1,STRING_2,

























