testGetResult,getResult,GetDeletedResult,DeletedRecord,setDeletedRecords,
METHOD_0,METHOD_1,METHOD_2,METHOD_3,METHOD_4,

sforce,soap,partner,GetDeletedResult,DeletedRecord,
IDENT_0,IDENT_1,IDENT_2,IDENT_3,IDENT_4,

1999,
INT_0,




"0019000001fvZV",
STRING_0,

























