testGetSearchFieldType,getSearchFieldClass,getFieldTypeName,
METHOD_0,METHOD_1,METHOD_2,

netsuite,SearchFieldType,searchFieldType,basicMetaData,fieldTypeName,
IDENT_0,IDENT_1,IDENT_2,IDENT_3,IDENT_4,


































