folderShouldExist,getFolderRepository,addFolder,
METHOD_0,METHOD_1,METHOD_2,

dataprep,folder,Folder,foo,homeFolderId,
IDENT_0,IDENT_1,IDENT_2,IDENT_3,IDENT_4,







"/foo",
STRING_0,

























