shouldRemove,getPreparation,wrapStore,
METHOD_0,METHOD_1,METHOD_2,

dataprep,preparation,Preparation,DataSetMetadata,DataSetContentStore,dataSetMetadata,limit,
IDENT_0,IDENT_1,IDENT_2,IDENT_3,IDENT_4,IDENT_5,IDENT_6,







"id#8486343",
STRING_0,

























