removeOrDecrementTestNewKey,removeOrDecrement,
METHOD_0,METHOD_1,

dataprep,qa,FileComparator,FileComparatorTest,TEST_KEY,decremented,
IDENT_0,IDENT_1,IDENT_2,IDENT_3,IDENT_4,IDENT_5,













--,
OP_0,



















