testAddQuotesIfNotExist_Case_11,addQuotesIfNotExist,
METHOD_0,METHOD_1,

TalendQuoteUtilsTest,QUOTES,QUOTES_2,TalendQuoteUtils,items,importexport,handlers,ImportItem,
IDENT_0,IDENT_1,IDENT_2,IDENT_3,IDENT_4,IDENT_5,IDENT_6,IDENT_7,







"JUnit",
STRING_0,

























