test_isOldComponent_null,isOldComponent,isDirectory,listFiles,
METHOD_0,METHOD_1,METHOD_2,METHOD_3,

listFiles,subFile,UpdatesHelper,COMPONENT_SUFFIX,
IDENT_0,IDENT_1,IDENT_2,IDENT_3,


































