testGetColumnsTitle4Zero,getColumnsTitle,arraycopy,getAllColumnsTitle,
METHOD_0,METHOD_1,METHOD_2,METHOD_3,

wizards,files,excel,ExcelReader,rows,
IDENT_0,IDENT_1,IDENT_2,IDENT_3,IDENT_4,

26,
INT_0,































