test_createXmlElement_null,ComponentIndexManager,createXmlElement,
METHOD_0,METHOD_1,METHOD_2,

dom4j,elem,updates,nexus,ComponentIndexBean,
IDENT_0,IDENT_1,IDENT_2,IDENT_3,IDENT_4,







"XXXXX",
STRING_0,

























