testGetSchema,_string,BigDecimalStringConverter,getSchema,UnsupportedOperationException,
METHOD_0,METHOD_1,METHOD_2,METHOD_3,METHOD_4,

daikon,AvroUtils,AvroConverter,codegen,
IDENT_0,IDENT_1,IDENT_2,IDENT_3,


































