getNodeName,
METHOD_0,

esb,servicelocator,NodePath,NodePathTest,PARENT_PATH,PATH_SEGMENT_RAW_2,
IDENT_0,IDENT_1,IDENT_2,IDENT_3,IDENT_4,IDENT_5,


































