addAssertion,isMatching,includesValues,
METHOD_0,METHOD_1,METHOD_2,

esb,servicelocator,TestValues,NAME_1,VALUE_1,SLProperties,
IDENT_0,IDENT_1,IDENT_2,IDENT_3,IDENT_4,IDENT_5,


































