testIgnorable,CorrelationIDAssertion,generateStubElement,isIgnorable,
METHOD_0,METHOD_1,METHOD_2,METHOD_3,

esb,correlation,CorrelationIDAssertion,cia,
IDENT_0,IDENT_1,IDENT_2,IDENT_3,


































