isLiveTrue,nodeExists,isLive,
METHOD_0,METHOD_1,METHOD_2,

esb,servicelocator,NodePath,livePath,endpointNode,zk,EndpointNodeImpl,LIVE,
IDENT_0,IDENT_1,IDENT_2,IDENT_3,IDENT_4,IDENT_5,IDENT_6,IDENT_7,


































