testSkipEmptyLines,countRows,readCSV,
METHOD_0,METHOD_1,METHOD_2,

csv,sparql,Binding,deri,tarql,CSVParserTest,varsFromHeader,
IDENT_0,IDENT_1,IDENT_2,IDENT_3,IDENT_4,IDENT_5,IDENT_6,







"\n,,,,\n1",
STRING_0,

























