testPlayerMove_noMovement_false,getLocation,Location,hasPlayerMoved,distance3D,
METHOD_0,METHOD_1,METHOD_2,METHOD_3,METHOD_4,

player,bukkit,world,MAX_MOVE_TOLERANCE,originalLocation,
IDENT_0,IDENT_1,IDENT_2,IDENT_3,IDENT_4,










1.5,
FLOAT_0,






















