testClone,clone,IntegerPolynomial,
METHOD_0,METHOD_1,METHOD_2,

ntru,sign,SignatureParameters,TEST157,TEST157_PROD,polynomial,coeffs,
IDENT_0,IDENT_1,IDENT_2,IDENT_3,IDENT_4,IDENT_5,IDENT_6,


































