testRepeatability,IndexGenerator,initIndices,nextIndex,
METHOD_0,METHOD_1,METHOD_2,METHOD_3,

ig,ntru,encrypt,seed,indices2,indices,
IDENT_0,IDENT_1,IDENT_2,IDENT_3,IDENT_4,IDENT_5,


































