when_finding_should_set_proper_id_for_string,getRole,
METHOD_0,METHOD_1,

rrm,ehour,backup,restore,UserRole,userRole,role,
IDENT_0,IDENT_1,IDENT_2,IDENT_3,IDENT_4,IDENT_5,IDENT_6,







"ADMIN",
STRING_0,

























