shouldFindProjectAssignmentsForCustomer,DateRange,findProjectAssignmentsForCustomer,Customer,
METHOD_0,METHOD_1,METHOD_2,METHOD_3,

rrm,ehour,DateRange,AUGUST,JANUARY,ProjectAssignment,projectAssignmentDAO,
IDENT_0,IDENT_1,IDENT_2,IDENT_3,IDENT_4,IDENT_5,IDENT_6,

2006,1900,24,2007,
INT_0,INT_1,INT_2,INT_3,































