shouldSetPassword,setPassword,getPassword,
METHOD_0,METHOD_1,METHOD_2,

connectionInfo,designer,TeiidConnectionInfoTest,NEW_PSWD,password,
IDENT_0,IDENT_1,IDENT_2,IDENT_3,IDENT_4,


































