testNestedInlineViewsCount,helpResolve,verifyProjectedTypes,eIsProxy,
METHOD_0,METHOD_1,METHOD_2,METHOD_3,

Command,keywords,
IDENT_0,IDENT_1,







"SELECT COUNT(*) FROM (SELECT * FROM (SELECT * FROM pm1.g1) AS Y) AS X"," (description: ",", keywords: ",')',
STRING_0,STRING_1,STRING_2,STRING_3,

























