testHostInfoEquals,HostInfo,TeiidURL,getHostInfo,throwIndex,
METHOD_0,METHOD_1,METHOD_2,METHOD_3,METHOD_4,

HostInfo,expectedResults,TeiidURL,actualResults,nux,xom,binary,ArrayByteList,DEBUG,
IDENT_0,IDENT_1,IDENT_2,IDENT_3,IDENT_4,IDENT_5,IDENT_6,IDENT_7,IDENT_8,

31000,
INT_0,




"localhost","mm://localhost:31000",
STRING_0,STRING_1,

























