testGetObject1,exampleResults2,ResultSetImpl,exampleResultsMsg2a,getObject,findColumn,
METHOD_0,METHOD_1,METHOD_2,METHOD_3,METHOD_4,METHOD_5,

ResultSetImpl,columnName,
IDENT_0,IDENT_1,







"a3",
STRING_0,

























