testUserDefinedAggregateParsing,getQueryParser,parseCommand,ParseInfo,
METHOD_0,METHOD_1,METHOD_2,METHOD_3,

actualCommand,QueryParser,fileNumber,
IDENT_0,IDENT_1,IDENT_2,







"SELECT foo(ALL x, y)","IndexedFile(",": ",")",
STRING_0,STRING_1,STRING_2,STRING_3,

























