testExceptionGroup,sample1,clone,setExceptionGroup,
METHOD_0,METHOD_1,METHOD_2,METHOD_3,

proc,Block,b1,TestBlock,b2,anObject,EntryResult,anEntryResult,word,refs,otherRefs,fileRefs,
IDENT_0,IDENT_1,IDENT_2,IDENT_3,IDENT_4,IDENT_5,IDENT_6,IDENT_7,IDENT_8,IDENT_9,IDENT_10,IDENT_11,







"x","y",
STRING_0,STRING_1,

























