testUnionOfAliasedLiteralsGetsModified,helpResolve,
METHOD_0,METHOD_1,

Command,left,right,
IDENT_0,IDENT_1,IDENT_2,







"SELECT 5 AS x UNION ALL SELECT 10 AS x",
STRING_0,

























