testCorrelatedTextTable,helpResolve,getProjectedSymbols,getUpdateCommandSymbol,
METHOD_0,METHOD_1,METHOD_2,METHOD_3,

Command,
IDENT_0,







"select x.* from pm1.g1, texttable(e1 COLUMNS x string) x",
STRING_0,

























