testWrapped,parseObject,StringReader,arraycopy,
METHOD_0,METHOD_1,METHOD_2,METHOD_3,

LinkedHashMap,
IDENT_0,







"x({\"y\":100, \"z\" : null})","y","z",
STRING_0,STRING_1,STRING_2,

























