testHeapCacualtion_13,Caculation,heapCaculation,getSource_count,getQueries_concurrent,
METHOD_0,METHOD_1,METHOD_2,METHOD_3,METHOD_4,

tool,sizing,sources,total_in_mb,heap,isRunOnCloud,
IDENT_0,IDENT_1,IDENT_2,IDENT_3,IDENT_4,IDENT_5,

400,300,1024,
INT_0,INT_1,INT_2,































