testGetFile,getChild,getPhysicalFile,JBossVirtualFile,
METHOD_0,METHOD_1,METHOD_2,METHOD_3,

vfs,VFS,
IDENT_0,IDENT_1,







"/home/kylin/vsftpd/not-exist.txt",
STRING_0,

























