testToChars4,arraycopy,helpInvokeMethod,BlobType,SerialBlob,getSubString,
METHOD_0,METHOD_1,METHOD_2,METHOD_3,METHOD_4,METHOD_5,

stringBytes,Clob,DataTypeManager,DefaultDataClasses,BLOB,STRING,rowset,serial,
IDENT_0,IDENT_1,IDENT_2,IDENT_3,IDENT_4,IDENT_5,IDENT_6,IDENT_7,

239,187,191,
INT_0,INT_1,INT_2,




"hello world","UTF-8","to_chars","UTF-8-BOM",
STRING_0,STRING_1,STRING_2,STRING_3,

























