testEncodePostgreSQLUpperCase,getTestTraceHead,encodePostgreSQL,toHexString,
METHOD_0,METHOD_1,METHOD_2,METHOD_3,

telefonica,cygnus,CommonUtilsForTests,NGSICharsets,AssertionError,next4,hex,
IDENT_0,IDENT_1,IDENT_2,IDENT_3,IDENT_4,IDENT_5,IDENT_6,

97,119,121,122,48,57,
INT_0,INT_1,INT_2,INT_3,INT_4,INT_5,




"[NGSICharsets.encodePostgreSQL]","-------- Upper case not accented characters are encoded","ABCDEFGHIJKLMNOPQRSTUVWXYZ","x0041x0042x0043x0044x0045x0046x0047x0048x0049x004ax004bx004cx004dx004ex004f","x0050x0051x0052x0053x0054x0055x0056x0057x0058x0059x005a","- OK - '","' has been encoded as '","'","- FAIL - '","' has not been encoded as '",'x',"WXYZ","^[0-9a-fA-F]{4}$","xx",'_','=',"xffff","x","0000",
STRING_0,STRING_1,STRING_2,STRING_3,STRING_4,STRING_5,STRING_6,STRING_7,STRING_8,STRING_9,STRING_10,STRING_11,STRING_12,STRING_13,STRING_14,STRING_15,STRING_16,STRING_17,STRING_18,

























