switchId,DefaultFlowsCommandData,setSwitchId,getSwitchId,
METHOD_0,METHOD_1,METHOD_2,METHOD_3,

openkilda,messaging,DefaultFlowsCommandData,defaultFlowsCommandData,
IDENT_0,IDENT_1,IDENT_2,IDENT_3,


































