fromEncodedString,getActionMemento,getNameParmsId,getNumber,
METHOD_0,METHOD_1,METHOD_2,METHOD_3,

parsed,
IDENT_0,







"234","#",
STRING_0,STRING_1,

























