testAdd21,fromCode,ResultMessages,getList,
METHOD_0,METHOD_1,METHOD_2,METHOD_3,

terasoluna,gfw,ResultMessage,msg1,msg2,ResultMessages,ResultMessageType,ERROR,
IDENT_0,IDENT_1,IDENT_2,IDENT_3,IDENT_4,IDENT_5,IDENT_6,IDENT_7,







"aa","bb",
STRING_0,STRING_1,

























