testIsNotEmpty01,ResultMessages,isNotEmpty,
METHOD_0,METHOD_1,METHOD_2,

terasoluna,gfw,ResultMessages,ResultMessageType,ERROR,
IDENT_0,IDENT_1,IDENT_2,IDENT_3,IDENT_4,


































