testH10,h,htmlEscape,
METHOD_0,METHOD_1,METHOD_2,

terasoluna,gfw,Functions,HtmlEscapeUtils,
IDENT_0,IDENT_1,IDENT_2,IDENT_3,










1.1,2.2,3.3,
FLOAT_0,FLOAT_1,FLOAT_2,






















