created_and_then_deleted,pre,setPost,shouldAudit,getPre,getPost,
METHOD_0,METHOD_1,METHOD_2,METHOD_3,METHOD_4,METHOD_5,

isis,changes,PreAndPostValues,papv,IsisTransaction,Placeholder,NEW,DELETED,Objects,
IDENT_0,IDENT_1,IDENT_2,IDENT_3,IDENT_4,IDENT_5,IDENT_6,IDENT_7,IDENT_8,


































