testGetAveDelta,getAveDelta,abs,
METHOD_0,METHOD_1,METHOD_2,

one,two,aveDelta,hits,curr,prev,
IDENT_0,IDENT_1,IDENT_2,IDENT_3,IDENT_4,IDENT_5,










0.5,1.5,2.5,3.5,4.5,5.5,
FLOAT_0,FLOAT_1,FLOAT_2,FLOAT_3,FLOAT_4,FLOAT_5,

/=,
OP_0,



















