testBytes2Float,float2Bytes,bytes2Float,intBitsToFloat,bytes2Int,
METHOD_0,METHOD_1,METHOD_2,METHOD_3,METHOD_4,

testVals,Float,MIN_VALUE,testVal,convertedBytes,Conversion,
IDENT_0,IDENT_1,IDENT_2,IDENT_3,IDENT_4,IDENT_5,










1.1F,
FLOAT_0,






















