loadingPropertiesWorks,savePropertiesTo,loadPropertiesFrom,getPropertiesFile,getPropertiesFromJson,
METHOD_0,METHOD_1,METHOD_2,METHOD_3,METHOD_4,

fi,helsinki,tmc,SettingsIo,tempDir,loadedProps,
IDENT_0,IDENT_1,IDENT_2,IDENT_3,IDENT_4,IDENT_5,







"lastupdated","1970-01-01","nextupdate","2038-01-20",
STRING_0,STRING_1,STRING_2,STRING_3,

























