gettingLatestAccountSetsItToTheTop,Account,setServerAddress,addAccount,getAccount,verifySearchIsCalled,
METHOD_0,METHOD_1,METHOD_2,METHOD_3,METHOD_4,METHOD_5,

fi,helsinki,tmc,Account,wanted,account,
IDENT_0,IDENT_1,IDENT_2,IDENT_3,IDENT_4,IDENT_5,







"e","-","D",
STRING_0,STRING_1,STRING_2,

























