noColorWorks,colorString,isWindows,
METHOD_0,METHOD_1,METHOD_2,

fi,helsinki,tmc,ColorUtil,Color,NONE,EnvironmentUtil,color,RESET,
IDENT_0,IDENT_1,IDENT_2,IDENT_3,IDENT_4,IDENT_5,IDENT_6,IDENT_7,IDENT_8,







"foobar",
STRING_0,

























