testGetAllInstrumentModels,getInstrumentModels,
METHOD_0,METHOD_1,

on,oicr,pinery,InstrumentModel,sut,
IDENT_0,IDENT_1,IDENT_2,IDENT_3,IDENT_4,


































