testCount,currentSession,createCriteria,setProjection,rowCount,uniqueResult,
METHOD_0,METHOD_1,METHOD_2,METHOD_3,METHOD_4,METHOD_5,

runs,bbsrc,tgac,miso,ArrayRun,criterion,Projections,
IDENT_0,IDENT_1,IDENT_2,IDENT_3,IDENT_4,IDENT_5,IDENT_6,


































