testGetAllSamples,getSamples,
METHOD_0,METHOD_1,

on,oicr,pinery,Sample,samples,sut,
IDENT_0,IDENT_1,IDENT_2,IDENT_3,IDENT_4,IDENT_5,


































