testListAllWithNegativeLimit,listAllWithLimit,
METHOD_0,METHOD_1,

bbsrc,tgac,miso,Study,studies,
IDENT_0,IDENT_1,IDENT_2,IDENT_3,IDENT_4,


































