testEmptyTree,visit,getResult,
METHOD_0,METHOD_1,METHOD_2,

gedge,radixtree,RadixTree,RadixTreeVisitor,V,visitor,
IDENT_0,IDENT_1,IDENT_2,IDENT_3,IDENT_4,IDENT_5,


































