shouldConvertLong,addVertex,convertIdentifier,parseLong,
METHOD_0,METHOD_1,METHOD_2,METHOD_3,

blueprints,Vertex,identifier,NumberFormatException,
IDENT_0,IDENT_1,IDENT_2,IDENT_3,


































