testGetPrincipalsExternalUser2,getPrincipals,
METHOD_0,METHOD_1,

Principal,principals,principalProvider,TestIdentityProvider,ID_SECOND_USER,
IDENT_0,IDENT_1,IDENT_2,IDENT_3,IDENT_4,


































