shouldCountVotes,Feedback,getCount,
METHOD_0,METHOD_1,METHOD_2,

thm,arsnova,Feedback,FEEDBACK_FASTER,FEEDBACK_OK,FEEDBACK_SLOWER,FEEDBACK_AWAY,
IDENT_0,IDENT_1,IDENT_2,IDENT_3,IDENT_4,IDENT_5,IDENT_6,

30,
INT_0,































