testSimpleTinkerPopTraversal,addVertex,addEdge,traversal,V,has,outE,inV,longId,
METHOD_0,METHOD_1,METHOD_2,METHOD_3,METHOD_4,METHOD_5,METHOD_6,METHOD_7,METHOD_8,

gremlin,structure,Vertex,Edge,
IDENT_0,IDENT_1,IDENT_2,IDENT_3,







"josh","lop","created","e",
STRING_0,STRING_1,STRING_2,STRING_3,

























