differentObjectsShouldNotBeEqual,Feedback,
METHOD_0,METHOD_1,

thm,arsnova,Feedback,migration,RoomInfo,keyword,
IDENT_0,IDENT_1,IDENT_2,IDENT_3,IDENT_4,IDENT_5,


































