testValidateLookupReturnsNull,isConnected,lookup,denotesRootPath,
METHOD_0,METHOD_1,METHOD_2,METHOD_3,

LdapConnection,Dn,ROOT_DSE,SchemaConstants,NO_ATTRIBUTE,PathUtils,last,
IDENT_0,IDENT_1,IDENT_2,IDENT_3,IDENT_4,IDENT_5,IDENT_6,







'/',"Path may not end with '/': ","Path may not contains '//': ",
STRING_0,STRING_1,STRING_2,

























