blockTillClockAdvancesTest,accurateTimeMillis,blockTillClockAdvances,lastKnownTimeMillis,
METHOD_0,METHOD_1,METHOD_2,METHOD_3,

before,threadly,Clock,nowMillis,
IDENT_0,IDENT_1,IDENT_2,IDENT_3,


































