appendCharSquenceRangeTest,subSequence,
METHOD_0,METHOD_1,

rangeStart,rangeEnd,testStr,sbw,
IDENT_0,IDENT_1,IDENT_2,IDENT_3,







"The quick brown fox jumped over the lazy dog!",
STRING_0,

























