dumpStoppedOutputStreamEmptyTest,stop,dump,
METHOD_0,METHOD_1,METHOD_2,

profiler,threadly,ControlledThreadProfilerTest,WAIT_TIME_FOR_COLLECTION,resultStr,
IDENT_0,IDENT_1,IDENT_2,IDENT_3,IDENT_4,


































