test_equals_nullDayOfMonth,
METHOD_0,

threeten,extra,DayOfMonth,doy,otherAmount,Seconds,seconds,
IDENT_0,IDENT_1,IDENT_2,IDENT_3,IDENT_4,IDENT_5,IDENT_6,


































