test_toUtcInstant,ofModifiedJulianDay,ofTaiSeconds,toUtcInstant,system,convertToUtc,
METHOD_0,METHOD_1,METHOD_2,METHOD_3,METHOD_4,METHOD_5,

threeten,extra,scale,UtcInstant,TaiInstant,UtcRules,
IDENT_0,IDENT_1,IDENT_2,IDENT_3,IDENT_4,IDENT_5,

36204,1000000000L,2L,24,60,
INT_0,INT_1,INT_2,INT_3,INT_4,































