test_equals_null,ofTaiSeconds,
METHOD_0,METHOD_1,

threeten,extra,scale,TaiInstant,test5,otherAmount,Seconds,seconds,
IDENT_0,IDENT_1,IDENT_2,IDENT_3,IDENT_4,IDENT_5,IDENT_6,IDENT_7,

5L,
INT_0,































