testStringArraySize1Verbose,createJsonLdObj,createJsonMap,
METHOD_0,METHOD_1,METHOD_2,

val1,stanbol,jsonld,JsonLd,jsonLd,fieldName,JsonSerializer,
IDENT_0,IDENT_1,IDENT_2,IDENT_3,IDENT_4,IDENT_5,IDENT_6,







"{\"testprop\":[\"val1\\\"\"]}",
STRING_0,

























