testInit,TieWebSheetBean,getColumns,
METHOD_0,METHOD_1,METHOD_2,

tiefaces,websheet,TieWebSheetBean,columns,
IDENT_0,IDENT_1,IDENT_2,IDENT_3,


































