testTrades,exchange,getMarketDataService,getTrades,
METHOD_0,METHOD_1,METHOD_2,METHOD_3,

knowm,xchange,kucoin,KucoinExchange,exchange,marketdata,Trades,trades,ETH,
IDENT_0,IDENT_1,IDENT_2,IDENT_3,IDENT_4,IDENT_5,IDENT_6,IDENT_7,IDENT_8,


































