getTypedPropertyValueJSONObjectNullPropertyValue,getTypedPropertyValue,
METHOD_0,METHOD_1,

nullValue,rexster,ElementHelper,NULL,propertyValue,
IDENT_0,IDENT_1,IDENT_2,IDENT_3,IDENT_4,


































