testDefaultVisibleColumnCount,JXTable,getVisibleColumnCount,
METHOD_0,METHOD_1,METHOD_2,

jdesktop,swingx,JXTable,visibleColumnCount,
IDENT_0,IDENT_1,IDENT_2,IDENT_3,


































