testNegativeInteger,asNumber,intValue,
METHOD_0,METHOD_1,METHOD_2,

mictale,jsonite,JsonNumber,
IDENT_0,IDENT_1,IDENT_2,

345543,
INT_0,































