testFrameworkLookupWithNotFoundValue,lookup,asString,checkNotNull,getProperties,
METHOD_0,METHOD_1,METHOD_2,METHOD_3,METHOD_4,

BundleContext,ComponentContext,OsgiUtil,
IDENT_0,IDENT_1,IDENT_2,


































