shouldInstrumentLabelWithBraces,instrumentSource,
METHOD_0,METHOD_1,

instrumentedSource,sourceProcessor,expectedSource,
IDENT_0,IDENT_1,IDENT_2,







"outloop:\n"," {\n"," _$jscoverage[\'test.js\'].lineData[3]++;\n"," break outloop;\n"," }","_$jscoverage[\'test.js\'].lineData[1]++;\n"," for (var j = 0; j < 10; j++) {\n"," }\n","}\n",
STRING_0,STRING_1,STRING_2,STRING_3,STRING_4,STRING_5,STRING_6,STRING_7,STRING_8,

























