shouldInstrumentES6MemberFunction,instrumentSource,
METHOD_0,METHOD_1,

instrumentedSource,sourceProcessor,expectedSource,
IDENT_0,IDENT_1,IDENT_2,







"var x = {\n"," mounted () {\n","};"," }\n","_$jscoverage[\'test.js\'].lineData[1]++;\n","var x = {mounted() {\n"," _$jscoverage[\'test.js\'].functionData[0]++;\n"," _$jscoverage[\'test.js\'].lineData[3]++;\n"," this.onReady();\n","}};\n",
STRING_0,STRING_1,STRING_2,STRING_3,STRING_4,STRING_5,STRING_6,STRING_7,STRING_8,STRING_9,

























