binaryContent,defaultCharset,
METHOD_0,METHOD_1,

Matcher,simplehttp,HttpMessageContentByteArrayMatcher,charset,Charset,
IDENT_0,IDENT_1,IDENT_2,IDENT_3,IDENT_4,


































