shouldInstrumentBranch,SourceProcessor,instrumentSource,
METHOD_0,METHOD_1,METHOD_2,

sourceProcessor,jscover,instrument,instrumentedSource,expectedSource,
IDENT_0,IDENT_1,IDENT_2,IDENT_3,IDENT_4,







"var x = x || 7;","test.js","_$jscoverage[\'test.js\'].branchData[\'1\'][1].init(8, 6);\n","function visit1_1_1(result) {\n"," _$jscoverage[\'test.js\'].branchData[\'1\'][1].ranCondition(result);\n"," return result;\n","}\n","_$jscoverage[\'test.js\'].lineData[1]++;\n","var x = visit1_1_1(x || 7);\n",
STRING_0,STRING_1,STRING_2,STRING_3,STRING_4,STRING_5,STRING_6,STRING_7,STRING_8,

























