fromKeystoreExpiresSoon,forClass,getKeyStore,withCompareAgainstDate,whenExpiresIn,printWarningTo,capture,willExpireSoon,formatWarningMessage,
METHOD_0,METHOD_1,METHOD_2,METHOD_3,METHOD_4,METHOD_5,METHOD_6,METHOD_7,METHOD_8,

slf4j,Logger,ArgumentCaptor,captor,KeyStore,keystore,cz,tomasdvorak,eet,DateUtils,CertExpirationChecker,DAYS,
IDENT_0,IDENT_1,IDENT_2,IDENT_3,IDENT_4,IDENT_5,IDENT_6,IDENT_7,IDENT_8,IDENT_9,IDENT_10,IDENT_11,







"/keys/CZ1212121218.p12","2019-09-12T11:02:44+02:00","79a6e8cf65cf6ed2d7b5f3b49f539cf576bee0f6","\n#### WARNING ####\n","Following certificate expires on 2019-09-30T11:02:44+02:00!\n","{subject=\'DC=CZ,CN=CZ1212121218,2.5.4.13=fyzicka osoba\', issuer=\'DC=CZ,O=Česká Republika – Generální finanční ředitelství,CN=EET CA 1 Playground\', SerialNumber=1446418224, validFrom=2016-09-30T11:02:44+02:00, validTo=2019-09-30T11:02:44+02:00}\n","Please update your certificate as soon as possible. More info on https://github.com/todvora/eet-client#certificate-expiration\n","##################",
STRING_0,STRING_1,STRING_2,STRING_3,STRING_4,STRING_5,STRING_6,STRING_7,

























