unmarshal,
METHOD_0,

cz,tomasdvorak,eet,NumberUtils,BIGDECIMAL_ADAPTER,
IDENT_0,IDENT_1,IDENT_2,IDENT_3,IDENT_4,







"123.45",
STRING_0,

























