shouldBeFalseIfPropertyExistsButisFalse,isActive,
METHOD_0,METHOD_1,

togglz,FeatureState,FeatureUser,
IDENT_0,IDENT_1,IDENT_2,







"foo.bar","false",
STRING_0,STRING_1,

























