testCache3,clear,
METHOD_0,METHOD_1,

tomp2p,ConcurrentCacheSet,ccs,
IDENT_0,IDENT_1,IDENT_2,







"test1","test2",
STRING_0,STRING_1,

























