testDifference1,difference,
METHOD_0,METHOD_1,

collection1,collection2,collection3,tomp2p,
IDENT_0,IDENT_1,IDENT_2,IDENT_3,







"hallo",
STRING_0,

























