shouldAllowToCreditAccount,BankAccount,deposit,getBalance,
METHOD_0,METHOD_1,METHOD_2,METHOD_3,

practicalunittesting,chp09,bdd,BankAccount,account,balance,
IDENT_0,IDENT_1,IDENT_2,IDENT_3,IDENT_4,IDENT_5,


































