testCache5,createHash,awaitUninterruptibly,isSuccess,dataMap,
METHOD_0,METHOD_1,METHOD_2,METHOD_3,METHOD_4,

tomp2p,ConcurrentCacheMap,dht,FutureGet,futureGet,peer,peers,Number160,
IDENT_0,IDENT_1,IDENT_2,IDENT_3,IDENT_4,IDENT_5,IDENT_6,IDENT_7,

1024,1100,
INT_0,INT_1,




"hallo0","test0","test1","not found",
STRING_0,STRING_1,STRING_2,STRING_3,

























