toStringTest,LogMessage,ToStringBuilder,
METHOD_0,METHOD_1,METHOD_2,

pdfsam,LogMessage,victim,LogLevel,WARN,pageSelection,rotation,
IDENT_0,IDENT_1,IDENT_2,IDENT_3,IDENT_4,IDENT_5,IDENT_6,







"message","source","pageSelection","rotation",
STRING_0,STRING_1,STRING_2,STRING_3,

























