multipleAdd,addValue,getDataForModule,putIfAbsent,
METHOD_0,METHOD_1,METHOD_2,METHOD_3,

victim,emptyValues,
IDENT_0,IDENT_1,







"module","key","key2","value2",
STRING_0,STRING_1,STRING_2,STRING_3,

























