yes,clickOn,i18n,tr,
METHOD_0,METHOD_1,METHOD_2,METHOD_3,

confirm,pdfsam,i18n,DefaultI18nContext,
IDENT_0,IDENT_1,IDENT_2,IDENT_3,







"show","Yes",
STRING_0,STRING_1,

























