fileFactoryValidFile_doesntExist,isFile,FileOrDirectoryTaskOutput,
METHOD_0,METHOD_1,METHOD_2,

FALSE,sejda,FileOrDirectoryTaskOutput,
IDENT_0,IDENT_1,IDENT_2,







"A valid instance is expected (not null or existing file).",
STRING_0,

























