step_3,defaultCommandLine,invokeSejdaConsole,getStep,
METHOD_0,METHOD_1,METHOD_2,METHOD_3,

sejda,AddBackPagesParameters,step,
IDENT_0,IDENT_1,IDENT_2,







"-n","3",
STRING_0,STRING_1,

























