toXrefStreamEntry,compressedEntry,copyBytesTo,getObjectStreamNumber,
METHOD_0,METHOD_1,METHOD_2,METHOD_3,

sejda,sambox,xref,CompressedXrefEntry,retVal,secondFieldLength,thirdFieldLength,
IDENT_0,IDENT_1,IDENT_2,IDENT_3,IDENT_4,IDENT_5,IDENT_6,

1234,210,
INT_0,INT_1,































