batesStartFrom,defaultCommandLine,invokeSejdaConsole,getBatesSequence,
METHOD_0,METHOD_1,METHOD_2,METHOD_3,

sejda,SetHeaderFooterParameters,batesSequence,
IDENT_0,IDENT_1,IDENT_2,







"--batesStartFrom","123456",
STRING_0,STRING_1,

























