testGetStreamInputs,getStreamInputs,
METHOD_0,METHOD_1,

tracecompass,ctf,CTFStreamInput,fInputs,
IDENT_0,IDENT_1,IDENT_2,IDENT_3,


































