testUnwrappedOr,XPathToSQL2Converter,
METHOD_0,METHOD_1,

xpath,
IDENT_0,







"/jcr:root/home//test/* [@type='t1' or @type='t2' or @type='t3']","and b.[type] in('t1', 't2', 't3')",
STRING_0,STRING_1,

























