testSeek,seek,invalidate,
METHOD_0,METHOD_1,METHOD_2,

timestamp,real_pos,newpos,BUF_SIZE,buf_pos,
IDENT_0,IDENT_1,IDENT_2,IDENT_3,IDENT_4,


































