testGetInt_pos1,CTFException,getInt,
METHOD_0,METHOD_1,METHOD_2,

tracecompass,ctf,BitBuffer,BIT_LONG,BIT_INT,highShift,retVal,signed,signExtendBits,INT_MASK,
IDENT_0,IDENT_1,IDENT_2,IDENT_3,IDENT_4,IDENT_5,IDENT_6,IDENT_7,IDENT_8,IDENT_9,







"Cannot read a long longer than 64 bits. Rquested: ",
STRING_0,

























