testgetElem_noDefs,getDefinitions,
METHOD_0,METHOD_1,

tracecompass,ctf,IDefinition,charArrayFixture,fBuffer,fPosition,BitBuffer,BIT_CHAR,dst,
IDENT_0,IDENT_1,IDENT_2,IDENT_3,IDENT_4,IDENT_5,IDENT_6,IDENT_7,IDENT_8,


































