testIsCharacter,isCharacter,
METHOD_0,METHOD_1,

fLength,tracecompass,ctf,IntegerDeclaration,SIZE_8,fEncoding,Encoding,NONE,
IDENT_0,IDENT_1,IDENT_2,IDENT_3,IDENT_4,IDENT_5,IDENT_6,IDENT_7,


































