testSnapshotCopy,SnapshotInfo,
METHOD_0,METHOD_1,

tracecompass,lttng2,SnapshotInfo,fSnapshotInfo1,fName,
IDENT_0,IDENT_1,IDENT_2,IDENT_3,IDENT_4,


































