testGetLocation,getLocation,
METHOD_0,METHOD_1,

tracecompass,tmf,ctf,CtfLocation,fCurLocation,
IDENT_0,IDENT_1,IDENT_2,IDENT_3,IDENT_4,


































