testGetStreamingInterval,getStreamingInterval,getChildren,
METHOD_0,METHOD_1,METHOD_2,

fFixture,interval,tracecompass,tmf,ITmfTrace,
IDENT_0,IDENT_1,IDENT_2,IDENT_3,IDENT_4,


































