testFilterParsesContextFromHeaderToBackend,putSingle,
METHOD_0,METHOD_1,

TraceeConstants,TPIC_HEADER,requestContext,traceeKeys,slf4j,MDC,
IDENT_0,IDENT_1,IDENT_2,IDENT_3,IDENT_4,IDENT_5,







"foo=bar",
STRING_0,

























