testCleansUpContextAfterProcessing,intercept,onMessage,
METHOD_0,METHOD_1,METHOD_2,

encodedContext,invocationContext,mdbLike,traceeKeys,
IDENT_0,IDENT_1,IDENT_2,IDENT_3,







"contextFromMessage","yes",
STRING_0,STRING_1,

























