testHasData,makeBaggage,hasData,isData,
METHOD_0,METHOD_1,METHOD_2,METHOD_3,

brown,tracingplane,baggageprotocol,BaggageReader,nextAtom,nextAtomPrefix,
IDENT_0,IDENT_1,IDENT_2,IDENT_3,IDENT_4,IDENT_5,


































