ensureInterrupt,AtomicReference,ensure,raise,
METHOD_0,METHOD_1,METHOD_2,METHOD_3,

AtomicReference,intr,trane,Promise,Future,Local,threadLocal,
IDENT_0,IDENT_1,IDENT_2,IDENT_3,IDENT_4,IDENT_5,IDENT_6,


































