testGetRestrictionsNone,createEntry,getRestrictions,
METHOD_0,METHOD_1,METHOD_2,

accesscontrol,ACE,ace,ImmutableSet,restriction,Restriction,restrictions,
IDENT_0,IDENT_1,IDENT_2,IDENT_3,IDENT_4,IDENT_5,IDENT_6,


































