selectIndexMixedException,selectIndex,setException,
METHOD_0,METHOD_1,METHOD_2,

trane,Promise,p1,p2,Future,Duration,ZERO,
IDENT_0,IDENT_1,IDENT_2,IDENT_3,IDENT_4,IDENT_5,IDENT_6,


































