extendedQueryInvalid,notExpected,
METHOD_0,METHOD_1,

trane,ndbc,PreparedStatement,ps,ds,timeout,NdbcException,
IDENT_0,IDENT_1,IDENT_2,IDENT_3,IDENT_4,IDENT_5,IDENT_6,







"SLCT * FROM ",
STRING_0,

























