testEqualsForNull,Source,
METHOD_0,METHOD_1,

eluder,coveralls,Source,Objects,digest,coverage,
IDENT_0,IDENT_1,IDENT_2,IDENT_3,IDENT_4,IDENT_5,







"src/main/java/Hello.java","public class Hello {\n \n}\n","E8BD88CF0BDB77A6408234FD91FD22C3",
STRING_0,STRING_1,STRING_2,

























