getFloat,ShortValue,Float,
METHOD_0,METHOD_1,METHOD_2,

Short,trane,ndbc,ShortValue,wrapper,
IDENT_0,IDENT_1,IDENT_2,IDENT_3,IDENT_4,

44,
INT_0,































