testIterateEmptyArray,newArray,iterate,getSize,UnsupportedOperationException,
METHOD_0,METHOD_1,METHOD_2,METHOD_3,METHOD_4,

arrays,cursor,transparent,market,
IDENT_0,IDENT_1,IDENT_2,IDENT_3,




private,
MOD_0,




























