finishShouldInactivateId,Session,finish,
METHOD_0,METHOD_1,METHOD_2,

treasuredata,Session,finishedAt,
IDENT_0,IDENT_1,IDENT_2,


































