testGetPropertyCount,getTree,getPropertyCount,getWrappedNodeBuilder,
METHOD_0,METHOD_1,METHOD_2,METHOD_3,

Tree,
IDENT_0,







"/a",
STRING_0,

























