testGetDefaultURL,getReply,
METHOD_0,METHOD_1,

args0,reply,spy,sender,Matcher,
IDENT_0,IDENT_1,IDENT_2,IDENT_3,IDENT_4,







"geturl","Not A valid URL!!",
STRING_0,STRING_1,

























