setDesiredNumberOfRunnersTest,setDesiredNumberOfRunners,getDesiredNumberOfRunners,
METHOD_0,METHOD_1,METHOD_2,

propertyManager,desiredNumberOfRunners,
IDENT_0,IDENT_1,


































