testLineSeparators,newBuilder,compileMustache,
METHOD_0,METHOD_1,METHOD_2,

templateContents,trimou,Mustache,mustache,MustacheEngineBuilder,
IDENT_0,IDENT_1,IDENT_2,IDENT_3,IDENT_4,







"\nHello\r\n\n!","line_sep",
STRING_0,STRING_1,

























