testNoViableAlt,execParser,
METHOD_0,METHOD_1,

grammar,expecting,grammarFileName,grammarStr,parserName,lexerName,startRuleName,
IDENT_0,IDENT_1,IDENT_2,IDENT_3,IDENT_4,IDENT_5,IDENT_6,







"grammar T;\n","s\n","@init {setBuildParseTree(true);}\n","@after {System.out.println($r.ctx.toStringTree(this));}\n","a : \'x\' | \'y\'\n"," ;\n","Z : \'z\'; \n","T.g4","TParser","(a z)\n",
STRING_0,STRING_1,STRING_2,STRING_3,STRING_4,STRING_5,STRING_6,STRING_7,STRING_8,STRING_9,

























