testNotSet,complement,
METHOD_0,METHOD_1,

misc,IntervalSet,vocabulary,expecting,
IDENT_0,IDENT_1,IDENT_2,IDENT_3,

60,250,300,
INT_0,INT_1,INT_2,




"{1..4, 6..49, 61..249, 301..1000}","..",
STRING_0,STRING_1,

























