testSingleElementMinusDisjointSet,subtract,
METHOD_0,METHOD_1,

misc,IntervalSet,s2,expecting,
IDENT_0,IDENT_1,IDENT_2,IDENT_3,







"{}","..",
STRING_0,STRING_1,

























