testZeroLengthToken,execLexer,
METHOD_0,METHOD_1,

grammar,expecting,grammarFileName,grammarStr,lexerName,
IDENT_0,IDENT_1,IDENT_2,IDENT_3,IDENT_4,







"lexer grammar L;\n","BeginString\n","[@0,0:4=\'\'xxx\'\',<1>,1:0]\n","mode StringMode;\n","\tStringMode_X : \'x\' -> more;\n","\tStringMode_Done : -> more, mode(EndStringMode);\n","mode EndStringMode;\t\n","L.g4","[@1,5:4=\'<EOF>\',<-1>,1:5]\n",
STRING_0,STRING_1,STRING_2,STRING_3,STRING_4,STRING_5,STRING_6,STRING_7,STRING_8,

























