testSingleTokenDeletionBeforeLoop,execParser,
METHOD_0,METHOD_1,

grammar,expecting,stderrDuringParse,grammarFileName,grammarStr,parserName,lexerName,startRuleName,
IDENT_0,IDENT_1,IDENT_2,IDENT_3,IDENT_4,IDENT_5,IDENT_6,IDENT_7,







"grammar T;\n","a : 'a' 'b'* EOF ;","T.g4","TParser","TLexer","aabc","line 1:1 extraneous input \'a\' expecting {<EOF>, \'b\'}\n","line 1:3 token recognition error at: \'c\'\n",
STRING_0,STRING_1,STRING_2,STRING_3,STRING_4,STRING_5,STRING_6,STRING_7,

























