testTranslate,translateAlternateColorCodes,
METHOD_0,METHOD_1,

turt2live,antishare,AColor,u,BLACK,DARK_BLUE,DARK_GREEN,DARK_AQUA,DARK_RED,DARK_PURPLE,GOLD,GRAY,DARK_GRAY,BLUE,GREEN,AQUA,RED,LIGHT_PURPLE,YELLOW,WHITE,MAGIC,
IDENT_0,IDENT_1,IDENT_2,IDENT_3,IDENT_4,IDENT_5,IDENT_6,IDENT_7,IDENT_8,IDENT_9,IDENT_10,IDENT_11,IDENT_12,IDENT_13,IDENT_14,IDENT_15,IDENT_16,IDENT_17,IDENT_18,IDENT_19,IDENT_20,







"&0&1&2&3&4&5&6&7&8&9&A&a&B&b&C&c&D&d&E&e&F&f&K&k & more",'&'," & more",
STRING_0,STRING_1,STRING_2,

























