testJoin,getNum,
METHOD_0,METHOD_1,

no,tv2,serf,SerfClientIT,JoinResponse,client1,SERF2_IP,SERF2_PORT,num,
IDENT_0,IDENT_1,IDENT_2,IDENT_3,IDENT_4,IDENT_5,IDENT_6,IDENT_7,IDENT_8,







"join",":",
STRING_0,STRING_1,

























