testEOF,ExprReader,isEOF,
METHOD_0,METHOD_1,METHOD_2,

turn,splicer,tsdbutils,ExprReader,mark,chars,
IDENT_0,IDENT_1,IDENT_2,IDENT_3,IDENT_4,IDENT_5,


































