testInstance1,WorldEngine,getWorldName,
METHOD_0,METHOD_1,METHOD_2,

turt2live,antishare,WorldEngine,worldName,
IDENT_0,IDENT_1,IDENT_2,IDENT_3,


































