getValueAsUnsignedByte,Tlv,toUnsignedByte,TlvConvertException,
METHOD_0,METHOD_1,METHOD_2,METHOD_3,

cloudhopper,smpp,tlv,Tlv,tlv0,tlv1,TlvConvertException,tlv2,ByteArrayUtil,
IDENT_0,IDENT_1,IDENT_2,IDENT_3,IDENT_4,IDENT_5,IDENT_6,IDENT_7,IDENT_8,

61441,240,
INT_0,INT_1,




"unsigned byte",
STRING_0,

























