testCount2,UserSearch,setMinAge,count2,
METHOD_0,METHOD_1,METHOD_2,METHOD_3,

tg,UserSearch,minAge,
IDENT_0,IDENT_1,IDENT_2,

24,
INT_0,































