pay_notify,Voucher,check_pay_notify,getContext,toJSONString,
METHOD_0,METHOD_1,METHOD_2,METHOD_3,METHOD_4,

li3huo,Voucher,voucher,channelId,ChannelCode,qihoo,appid,game_id,fastjson,JSON,
IDENT_0,IDENT_1,IDENT_2,IDENT_3,IDENT_4,IDENT_5,IDENT_6,IDENT_7,IDENT_8,IDENT_9,







"/api/PayNotify/QH/500006/","?order_id=1703163703999689041&app_key=c91a4fd40d51798d70cbf19b3c1bbc6b&product_id=111111111111111&amount=1&app_uid=2846383641&user_id=2846383641&sign_type=md5&gateway_flag=success&sign=4f7d7869c59b6b65cf6377280a21816b&sign_return=2a19db57b1da3021683673bb984fcc5d","voucher = ",
STRING_0,STRING_1,STRING_2,

























