testPrint,Random,newCritBit,nextInt,toBinary,doesPrefixMatch,getBit,
METHOD_0,METHOD_1,METHOD_2,METHOD_3,METHOD_4,METHOD_5,METHOD_6,

N,Random,R,tinspin,critbit,CritBit1D,BitTools,AtomicInfo,V,rootKey,prefix,posDiff,hi,hiPost,lo,loPost,
IDENT_0,IDENT_1,IDENT_2,IDENT_3,IDENT_4,IDENT_5,IDENT_6,IDENT_7,IDENT_8,IDENT_9,IDENT_10,IDENT_11,IDENT_12,IDENT_13,IDENT_14,IDENT_15,

64,12345,
INT_0,INT_1,































