testSizeCalcRef2,setAllocBatchSize,calcArraySize,
METHOD_0,METHOD_1,METHOD_2,

ethz,globis,phtree,PhTreeHelper,Refs,nLong,
IDENT_0,IDENT_1,IDENT_2,IDENT_3,IDENT_4,IDENT_5,


































