testReadQueryNoSchema,openPM,newQuery,closePM,BucketIterator,
METHOD_0,METHOD_1,METHOD_2,METHOD_3,METHOD_4,

jdo,PersistenceManager,pm,zoodb,testutil,TestTools,TestClassSmallA,TestClass,
IDENT_0,IDENT_1,IDENT_2,IDENT_3,IDENT_4,IDENT_5,IDENT_6,IDENT_7,







"myInt == 5",
STRING_0,

























