testHorizontal,linkToArray,horCat,
METHOD_0,METHOD_1,METHOD_2,

ujmp,Matrix,m1,Factory,m2,m3,Coordinates,
IDENT_0,IDENT_1,IDENT_2,IDENT_3,IDENT_4,IDENT_5,IDENT_6,

11,
INT_0,































