testLoadSave,createMatrix,randn,createTempFile,
METHOD_0,METHOD_1,METHOD_2,METHOD_3,

ujmp,Matrix,m1,Ret,ORIG,tmpfile,m2,Factory,filename,
IDENT_0,IDENT_1,IDENT_2,IDENT_3,IDENT_4,IDENT_5,IDENT_6,IDENT_7,IDENT_8,







"ujmp-junit",".tmp",
STRING_0,STRING_1,

























