findOrCreateEvent_createNew,findOrCreateEvent,relationName,
METHOD_0,METHOD_1,METHOD_2,

cruise,umple,Event,e1,sm,m_Instances,
IDENT_0,IDENT_1,IDENT_2,IDENT_3,IDENT_4,IDENT_5,







"e1",
STRING_0,

























