testLazyIf,Expression,setVariable,eval,getParams,
METHOD_0,METHOD_1,METHOD_2,METHOD_3,METHOD_4,

udojava,evalex,Expression,
IDENT_0,IDENT_1,IDENT_2,







"if(a=0,0,12/a)",
STRING_0,

























