getEvents_none,StateMachine,setUmpleClass,getEvents,unmodifiableList,
METHOD_0,METHOD_1,METHOD_2,METHOD_3,METHOD_4,

cruise,umple,StateMachine,sm,umpleClass,Event,newEvents,
IDENT_0,IDENT_1,IDENT_2,IDENT_3,IDENT_4,IDENT_5,IDENT_6,







"sm",
STRING_0,

























