stateMachineTraits042Test,getModel,destroy,
METHOD_0,METHOD_1,METHOD_2,

cruise,umple,UmpleModel,SampleFileWriter,
IDENT_0,IDENT_1,IDENT_2,IDENT_3,







"class A{ isA T2;}","trait T2{ isA T<sm as sm2.s2,sm as sm2.s2>;sm2{ s2{ } }}","trait T{ sm{ so{ go->so; } }}","229","traitTest.ump",
STRING_0,STRING_1,STRING_2,STRING_3,STRING_4,

























