isEmpty_hasValues,Filter,addValue,
METHOD_0,METHOD_1,METHOD_2,

cruise,umple,Filter,
IDENT_0,IDENT_1,IDENT_2,







"bbb","abc",
STRING_0,STRING_1,

























