constructor,UniqueIdentifier,
METHOD_0,METHOD_1,

cruise,umple,UniqueIdentifier,
IDENT_0,IDENT_1,IDENT_2,







"myId","int",
STRING_0,STRING_1,

























