testIsExpendRows,ChartSettings,isExpendRows,
METHOD_0,METHOD_1,METHOD_2,

kg,apc,charting,ChartSettings,expendRows,
IDENT_0,IDENT_1,IDENT_2,IDENT_3,IDENT_4,







"isExpendRows",
STRING_0,

























