testInstantiateNewRow,instantiateNewRow,
METHOD_0,METHOD_1,

rowType,kg,apc,charting,AbstractGraphRow,jmeter,reporters,ConsoleStatusLogger,
IDENT_0,IDENT_1,IDENT_2,IDENT_3,IDENT_4,IDENT_5,IDENT_6,IDENT_7,







"instantiateNewRow",
STRING_0,

























