testGetReferenceKey,FifoGet,getReferenceKey,
METHOD_0,METHOD_1,METHOD_2,

kg,apc,jmeter,functions,FifoGet,timers,TSTFeedback,KEY,
IDENT_0,IDENT_1,IDENT_2,IDENT_3,IDENT_4,IDENT_5,IDENT_6,IDENT_7,







"getReferenceKey","__fifoGet",
STRING_0,STRING_1,

























