testIsOverwrite,FlexibleFileWriter,isOverwrite,getPropertyAsBoolean,
METHOD_0,METHOD_1,METHOD_2,METHOD_3,

kg,apc,jmeter,reporters,FlexibleFileWriter,OVERWRITE,
IDENT_0,IDENT_1,IDENT_2,IDENT_3,IDENT_4,IDENT_5,







"isOverwrite",
STRING_0,

























