testGetValue_0args,PerfMonSampleResult,getPropertyAsString,
METHOD_0,METHOD_1,METHOD_2,

kg,apc,jmeter,perfmon,PerfMonSampleResult,modifiers,FifoPutPostProcessor,VALUE,
IDENT_0,IDENT_1,IDENT_2,IDENT_3,IDENT_4,IDENT_5,IDENT_6,IDENT_7,







"getValue",
STRING_0,

123.0,
FLOAT_0,






















