testGetFilename,LockFile,getFilename,getPropertyAsString,
METHOD_0,METHOD_1,METHOD_2,METHOD_3,

kg,apc,jmeter,LockFile,FILENAME,
IDENT_0,IDENT_1,IDENT_2,IDENT_3,IDENT_4,







"getFilename","Return filename: ",
STRING_0,STRING_1,

























