testGetValue,Parameter,getPropertyAsString,
METHOD_0,METHOD_1,METHOD_2,

atlantbh,jmeter,oauth,Parameter,kg,apc,modifiers,FifoPutPostProcessor,VALUE,
IDENT_0,IDENT_1,IDENT_2,IDENT_3,IDENT_4,IDENT_5,IDENT_6,IDENT_7,IDENT_8,







"getValue","key",
STRING_0,STRING_1,

























