testGetSource,getSource,
METHOD_0,METHOD_1,

ebi,ep,ebeye,protein,EntryTest,
IDENT_0,IDENT_1,IDENT_2,IDENT_3,IDENT_4,







"getSource","enzymeportal",
STRING_0,STRING_1,

























