removeExistingNode,getAdminSession,getRootNode,addNode,getNode,concat,
METHOD_0,METHOD_1,METHOD_2,METHOD_3,METHOD_4,METHOD_5,

Session,InvalidItemStateException,
IDENT_0,IDENT_1,







"new","/new",
STRING_0,STRING_1,

























