testGetFields,Fields,getFields,
METHOD_0,METHOD_1,METHOD_2,

ebi,ep,ebeye,protein,EntryTest,fieldNames,Fields,acc,geneName,
IDENT_0,IDENT_1,IDENT_2,IDENT_3,IDENT_4,IDENT_5,IDENT_6,IDENT_7,IDENT_8,







"getFields","O76074","ABC_HUMAN",
STRING_0,STRING_1,STRING_2,

























