testOf,getUnit,
METHOD_0,METHOD_1,

measure,Quantity,quantity,Pressure,pressure,tec,units,ri,NumberQuantity,PASCAL,
IDENT_0,IDENT_1,IDENT_2,IDENT_3,IDENT_4,IDENT_5,IDENT_6,IDENT_7,IDENT_8,IDENT_9,


































