testConverterToSI,getConverterTo,doubleValue,toDouble,
METHOD_0,METHOD_1,METHOD_2,METHOD_3,

factor,measure,UnitConverter,one,tec,uom,se,UnitsTest,Level,FINER,RationalConverter,dividend,divisor,
IDENT_0,IDENT_1,IDENT_2,IDENT_3,IDENT_4,IDENT_5,IDENT_6,IDENT_7,IDENT_8,IDENT_9,IDENT_10,IDENT_11,IDENT_12,










10.0,
FLOAT_0,






















