test12,ATRAC,getSupportedExtensions,
METHOD_0,METHOD_1,METHOD_2,

pms,formats,ATRAC,aTRAC0,str_array1,
IDENT_0,IDENT_1,IDENT_2,IDENT_3,IDENT_4,







"ogg","ogm","ogv",
STRING_0,STRING_1,STRING_2,

























