testBody,getRequestBody,
METHOD_0,METHOD_1,










"alias,stevenh\n","alias,marianb\n","ios_channel,b64a5105-20a1-459e-a15d-6aa22f4365f5\n","named_user,SDo09sczvJkoiu\n","named_user,\"gates,bill\"\n",
STRING_0,STRING_1,STRING_2,STRING_3,STRING_4,

























