fullNameNormCase,NamePerson,getNameNormalizeCase,normalizeOrgNameCase,
METHOD_0,METHOD_1,METHOD_2,METHOD_3,

uspto,patent,NamePerson,normCase,NameUtil,
IDENT_0,IDENT_1,IDENT_2,IDENT_3,IDENT_4,







"JOHN","VAN DER DOE","Van der Doe, John",
STRING_0,STRING_1,STRING_2,

























