testMostSpecificClasses,getMostSpecificClasses,sort,
METHOD_0,METHOD_1,METHOD_2,

facets,cpcClass,uspto,patent,classification,ClassificationTokenizer,leafClasses,largestNode,
IDENT_0,IDENT_1,IDENT_2,IDENT_3,IDENT_4,IDENT_5,IDENT_6,IDENT_7,







"0/E03D","0/G06F","1/E03D/E03D9","1/G06F/G06F3","2/E03D/E03D9/E03D908","2/G06F/G06F3/G06F3041","E03D908","G06F3041",
STRING_0,STRING_1,STRING_2,STRING_3,STRING_4,STRING_5,STRING_6,STRING_7,




--,
OP_0,



















