testPadding,DocumentId,toText,createPrettyPrint,XMLWriter,
METHOD_0,METHOD_1,METHOD_2,METHOD_3,METHOD_4,

uspto,patent,DocumentId,docId,CountryCode,US,actualValue,expectValue,dom4j,sw,OutputFormat,XMLWriter,xw,
IDENT_0,IDENT_1,IDENT_2,IDENT_3,IDENT_4,IDENT_5,IDENT_6,IDENT_7,IDENT_8,IDENT_9,IDENT_10,IDENT_11,IDENT_12,







"123456","A1","US00123456A1",
STRING_0,STRING_1,STRING_2,

























