CollisionWithMergeInlineAbove1,DummyValue,__remove,mergeTwoKeyValPairs,
METHOD_0,METHOD_1,METHOD_2,METHOD_3,

usethesource,capsule,SetSmokeTest,DummyValue,hash98304_obj1,hash98304_obj2,hash268435456_obj3,Immutable,xs,PersistentTrieSet,ys,K,Objects,key0,key1,keyHash0,keyHash1,CompactSetNode,newRootNode,
IDENT_0,IDENT_1,IDENT_2,IDENT_3,IDENT_4,IDENT_5,IDENT_6,IDENT_7,IDENT_8,IDENT_9,IDENT_10,IDENT_11,IDENT_12,IDENT_13,IDENT_14,IDENT_15,IDENT_16,IDENT_17,IDENT_18,

98304,268435456,
INT_0,INT_1,































