MathML2Short_NormCons,StringReader,getStringForm,generalizeConstance,
METHOD_0,METHOD_1,METHOD_2,METHOD_3,

xmlForm,uspto,patent,mathml,MathML,mathML,stringForm,Matcher,mReplace,REPLACE_CONS,mathMLString,
IDENT_0,IDENT_1,IDENT_2,IDENT_3,IDENT_4,IDENT_5,IDENT_6,IDENT_7,IDENT_8,IDENT_9,IDENT_10,







"<math><mrow><mi>a</mi><mo>+</mo> <msup> <mi>b</mi><mn>2</mn></msup></mrow></math>","math(mrow(mi(a)mo(+)msup(mi(b)mn(con))))","mn(con)",
STRING_0,STRING_1,STRING_2,

























