whenAddRoleToRoleStoreThenSameRoleInRoleStore,Role,getOrDefault,
METHOD_0,METHOD_1,METHOD_2,

vkaretko,Role,role,rStore,K,
IDENT_0,IDENT_1,IDENT_2,IDENT_3,IDENT_4,







"12345",
STRING_0,

























