whenEnterEndThenResultProgramTerminate,setIn,ConsoleChat,
METHOD_0,METHOD_1,METHOD_2,

stopKey,sep,vkaretko,chat,filePathPhrase,filePathLog,ioe,
IDENT_0,IDENT_1,IDENT_2,IDENT_3,IDENT_4,IDENT_5,IDENT_6,







"end%stest%scontinue%sstop","User %s",
STRING_0,STRING_1,

























