whenIteratorNextTwoTimesThenResultSecondElement,NoSuchElementException,
METHOD_0,METHOD_1,

itr,E,currentNode,cursor,
IDENT_0,IDENT_1,IDENT_2,IDENT_3,


































