alwaysPass,ValueContext,isError,
METHOD_0,METHOD_1,METHOD_2,

binder,Validator,ValidationResult,BindingValidationStatus,ERROR,
IDENT_0,IDENT_1,IDENT_2,IDENT_3,IDENT_4,


































