treeData_re_add_removed_item,removeItem,addItem,getChildren,unmodifiableList,
METHOD_0,METHOD_1,METHOD_2,METHOD_3,METHOD_4,

StrBean,rootData,itemToWrapperMap,
IDENT_0,IDENT_1,IDENT_2,







"Item '","' not in the hierarchy",
STRING_0,STRING_1,

























