removeStyleAttribute,createDiv,getStyle,removeAttribute,getNames,getPropertyNames,
METHOD_0,METHOD_1,METHOD_2,METHOD_3,METHOD_4,METHOD_5,

ElementFactory,Style,style,propertyMap,
IDENT_0,IDENT_1,IDENT_2,IDENT_3,







"border","1px solid green","style",
STRING_0,STRING_1,STRING_2,

























