collectEmptyStream,asArray,
METHOD_0,METHOD_1,

Stream,elemental,JsonValue,jsonValueStream,JsonArray,JsonUtils,
IDENT_0,IDENT_1,IDENT_2,IDENT_3,IDENT_4,IDENT_5,


































