doesNotHaveUndefinedAttribute,createDiv,hasAttribute,getClassList,
METHOD_0,METHOD_1,METHOD_2,METHOD_3,

ElementFactory,
IDENT_0,


































