textNodeOuterHtml,createText,getOuterHTML,toJsoup,outerHtml,
METHOD_0,METHOD_1,METHOD_2,METHOD_3,METHOD_4,

ElementUtil,
IDENT_0,







"foobar",
STRING_0,

























