attachToComponent,createDiv,setComponent,getComponent,
METHOD_0,METHOD_1,METHOD_2,METHOD_3,

ElementFactory,Component,ElementUtil,
IDENT_0,IDENT_1,IDENT_2,


































