getStreet,
METHOD_0,

v7,MethodProperty,mp,testObject,street,
IDENT_0,IDENT_1,IDENT_2,IDENT_3,IDENT_4,







"street","Foo street",
STRING_0,STRING_1,

























