testItemEqualsNull,createPropertySetItem,getSignature,
METHOD_0,METHOD_1,METHOD_2,

v7,PropertysetItem,Property,
IDENT_0,IDENT_1,IDENT_2,


































