nonExistingDirectory,FilesystemContainer,getItemIds,
METHOD_0,METHOD_1,METHOD_2,

v7,FilesystemContainer,fsc,
IDENT_0,IDENT_1,IDENT_2,







"/non/existing",
STRING_0,

























