getRowNum_shouldReturnRowNumGivenInConstructor,ReadOnlyRowId,getRowNum,
METHOD_0,METHOD_1,METHOD_2,

rowNum,v7,sqlcontainer,ReadOnlyRowId,rid,
IDENT_0,IDENT_1,IDENT_2,IDENT_3,IDENT_4,

1337,
INT_0,































