appliesToProperty_valueIsProperty_shouldBeTrue,Like,appliesToProperty,getPropertyId,
METHOD_0,METHOD_1,METHOD_2,METHOD_3,

v7,Like,like,propertyId,
IDENT_0,IDENT_1,IDENT_2,IDENT_3,







"%foo",
STRING_0,

























