appliesToProperty_differentProperties_shoudlBeFalse,Between,appliesToProperty,getPropertyId,
METHOD_0,METHOD_1,METHOD_2,METHOD_3,

v7,Between,between,propertyId,
IDENT_0,IDENT_1,IDENT_2,IDENT_3,


































