getPageLength_freeform_returnsDefault100,SQLContainer,FreeformQuery,getPageLength,
METHOD_0,METHOD_1,METHOD_2,METHOD_3,

v7,sqlcontainer,SQLContainer,connectionPool,pageLength,
IDENT_0,IDENT_1,IDENT_2,IDENT_3,IDENT_4,







"SELECT * FROM people","ID",
STRING_0,STRING_1,

























