constructor_withArrayOfPrimaryKeyColumns_shouldSucceed,RowId,
METHOD_0,METHOD_1,

v7,sqlcontainer,RowId,
IDENT_0,IDENT_1,IDENT_2,







"id",
STRING_0,

























