setSelectable_explicitSelectable_tableIsSelectable,Table,setSelectable,isSelectable,isSeparator,
METHOD_0,METHOD_1,METHOD_2,METHOD_3,METHOD_4,

v7,Table,
IDENT_0,IDENT_1,


































