noSelectModel_getSelectedRows,setSelectionMode,getSelectedRows,getSelectedRow,singleton,emptySet,
METHOD_0,METHOD_1,METHOD_2,METHOD_3,METHOD_4,METHOD_5,

SelectionMode,NONE,
IDENT_0,IDENT_1,


































