alwaysPass,ValueContext,isError,
METHOD_0,METHOD_1,METHOD_2,

Validator,ValidationResult,BindingValidationStatus,ERROR,
IDENT_0,IDENT_1,IDENT_2,IDENT_3,


































