testBeanTypeConstructor,TreeGrid,getBeanType,
METHOD_0,METHOD_1,METHOD_2,

TreeGrid,treeGrid,beanType,
IDENT_0,IDENT_1,IDENT_2,


































