removeAllColumns,getColumns,openTestURL,$,getColumnCount,
METHOD_0,METHOD_1,METHOD_2,METHOD_3,METHOD_4,

testbench,GridLayoutElement,GridLayoutUI,ONE_ROW_ONE_COL,TEN_ROWS_TEN_COLS,
IDENT_0,IDENT_1,IDENT_2,IDENT_3,IDENT_4,


































