restrictTo_fullyOutside,between,restrictTo,getStart,getEnd,withLength,
METHOD_0,METHOD_1,METHOD_2,METHOD_3,METHOD_4,METHOD_5,

Range,r1,r2,r3,startWithin,bounds,endWithin,boundsWithin,
IDENT_0,IDENT_1,IDENT_2,IDENT_3,IDENT_4,IDENT_5,IDENT_6,IDENT_7,

11,
INT_0,































