testSerialization,UniqueSerializable,deserialize,getSignature,
METHOD_0,METHOD_1,METHOD_2,METHOD_3,

UniqueSerializable,o1,d1,SerializationUtils,Property,
IDENT_0,IDENT_1,IDENT_2,IDENT_3,IDENT_4,


































