requiredIndicatorVisible,openTestURL,findElements,className,forEach,
METHOD_0,METHOD_1,METHOD_2,METHOD_3,METHOD_4,

WebElement,layouts,By,checkRequiredIndicator,
IDENT_0,IDENT_1,IDENT_2,IDENT_3,







"vaadin-layout",
STRING_0,

























