removeWithHeadingSpace,setStyleName,removeStyleName,getStyleName,
METHOD_0,METHOD_1,METHOD_2,METHOD_3,

styleName,
IDENT_0,







" foo",
STRING_0,

























