mergeLightAndShadowDomResults,openTestURL,$,waitForFirst,all,executeSearch,
METHOD_0,METHOD_1,METHOD_2,METHOD_3,METHOD_4,METHOD_5,

PolymerTemplateViewElement,NativeButtonElement,buttons,
IDENT_0,IDENT_1,IDENT_2,


































