ensureElementListFromOnPageWrapped,openTestURL,$,onPage,
METHOD_0,METHOD_1,METHOD_2,METHOD_3,

PolymerTemplateViewElement,view2,
IDENT_0,IDENT_1,


































