testCreationFromEmptyDictionary,putAll,ConfigurationParameters,
METHOD_0,METHOD_1,METHOD_2,

Dictionary,dict,ConfigurationParameters,cp,EMPTY,
IDENT_0,IDENT_1,IDENT_2,IDENT_3,IDENT_4,


































