pi3,singleParam,vars,Nat,Pi,DataCallExpression,
METHOD_0,METHOD_1,METHOD_2,METHOD_3,METHOD_4,METHOD_5,

arend,SingleDependentLink,xy,zw,ts,Expression,expr1,expr2,prelude,Prelude,NAT,sort,Sort,SET0,
IDENT_0,IDENT_1,IDENT_2,IDENT_3,IDENT_4,IDENT_5,IDENT_6,IDENT_7,IDENT_8,IDENT_9,IDENT_10,IDENT_11,IDENT_12,IDENT_13,







"x","y","z","w","t","s",
STRING_0,STRING_1,STRING_2,STRING_3,STRING_4,STRING_5,

























