pi,singleParam,Nat,vars,TypedBinding,Pi,Universe,Apps,Ref,getNext,ReferenceExpression,
METHOD_0,METHOD_1,METHOD_2,METHOD_3,METHOD_4,METHOD_5,METHOD_6,METHOD_7,METHOD_8,METHOD_9,METHOD_10,

arend,SingleDependentLink,xy,_Impl,Binding,A,Expression,expr1,expr2,
IDENT_0,IDENT_1,IDENT_2,IDENT_3,IDENT_4,IDENT_5,IDENT_6,IDENT_7,IDENT_8,







"x","y","A",
STRING_0,STRING_1,STRING_2,

























