testCreate,reflectionToString,
METHOD_0,METHOD_1,

feilong,URIUtil,CharsetType,UTF8,ToStringBuilder,ToStringStyle,JSON_STYLE,
IDENT_0,IDENT_1,IDENT_2,IDENT_3,IDENT_4,IDENT_5,IDENT_6,







"http://127.0.0.1/cmens/t-b-f-a-c-s-f-p-g-e-i-o.htm?a=1&a=2",
STRING_0,

























