isOnlyEmojis_for_random_string_returns_false,isOnlyEmojis,removeAllEmojis,
METHOD_0,METHOD_1,METHOD_2,

isEmoji,vdurmont,emoji,EmojiManager,EmojiParser,
IDENT_0,IDENT_1,IDENT_2,IDENT_3,IDENT_4,


































