testForEach,runAllExcept,clear,runAll,emptyMap,
METHOD_0,METHOD_1,METHOD_2,METHOD_3,METHOD_4,

codetrans,scala,ScalaLang,ControlTest,collected,Runnable,except,after,
IDENT_0,IDENT_1,IDENT_2,IDENT_3,IDENT_4,IDENT_5,IDENT_6,IDENT_7,







"control/ForEach",
STRING_0,

























