testSortListNullComparator,sortList,isNullOrEmpty,sort,toComparator,
METHOD_0,METHOD_1,METHOD_2,METHOD_3,METHOD_4,

feilong,member,Comparator,Validator,comparators,SortUtil,
IDENT_0,IDENT_1,IDENT_2,IDENT_3,IDENT_4,IDENT_5,

23,30,25,
INT_0,INT_1,INT_2,































