testGetHandlebars,getHandlebars,
METHOD_0,METHOD_1,

templ,handlebars,HandlebarsTemplateEngine,HandlebarsTemplateTest,
IDENT_0,IDENT_1,IDENT_2,IDENT_3,


































