testMapStringReturn,methodWithMapStringReturn,rxGetNow,subscribe,
METHOD_0,METHOD_1,METHOD_2,METHOD_3,

rx,HttpClient,Single,HttpClientResponse,resp,
IDENT_0,IDENT_1,IDENT_2,IDENT_3,IDENT_4,







"http://the-server",
STRING_0,

























