testGetJadeConfiguration,getJadeConfiguration,
METHOD_0,METHOD_1,

templ,jade,JadeTemplateEngine,JadeTemplateTest,
IDENT_0,IDENT_1,IDENT_2,IDENT_3,


































