testThatReflectAllFields,
METHOD_0,

vidageek,mirror,DefaultAllReflectionHandler,fixtures,FieldFixture,
IDENT_0,IDENT_1,IDENT_2,IDENT_3,IDENT_4,


































