testValueSetIteratorForEach,IntOpenHashSet,forEach,
METHOD_0,METHOD_1,METHOD_2,

unimi,dsi,fastutil,ints,IntOpenHashSet,
IDENT_0,IDENT_1,IDENT_2,IDENT_3,IDENT_4,


































