testToEdit,OneLineText,toEdit,getOneLineString,
METHOD_0,METHOD_1,METHOD_2,METHOD_3,

horstmann,violet,product,diagram,decorator,OneLineText,oneLineString,
IDENT_0,IDENT_1,IDENT_2,IDENT_3,IDENT_4,IDENT_5,IDENT_6,







"<b><<test>></b>",
STRING_0,

























