testResetPasswordByAdmin,addUser,setPassword,updateUser,removeUser,getPassword,
METHOD_0,METHOD_1,METHOD_2,METHOD_3,METHOD_4,METHOD_5,

traccar,DataServiceTest,dataService,password,
IDENT_0,IDENT_1,IDENT_2,IDENT_3,







"test1",
STRING_0,

























