testAdd,MockWebElement,$,wrappedNativeElements,
METHOD_0,METHOD_1,METHOD_2,METHOD_3,

webDriver,minium,drivers,CoreWebElements,DefaultWebElements,emptyAddSomething,browser,Iterables,
IDENT_0,IDENT_1,IDENT_2,IDENT_3,IDENT_4,IDENT_5,IDENT_6,IDENT_7,







"$().add(\":text\")",":text",
STRING_0,STRING_1,

























