testGetUrlWithEmptyContext,getUrl,
METHOD_0,METHOD_1,

UrlBuilder,contextPath,cornell,mannlib,vitro,webapp,freemarker,
IDENT_0,IDENT_1,IDENT_2,IDENT_3,IDENT_4,IDENT_5,IDENT_6,







"/individual",
STRING_0,

























