testNoLiveNodes,LocalRegistry,nodeMatching,defaultLogger,liveNodes,
METHOD_0,METHOD_1,METHOD_2,METHOD_3,METHOD_4,

vlingo,LocalRegistry,wire,Id,testWorld,TreeSet,RegisteredNodeStatus,
IDENT_0,IDENT_1,IDENT_2,IDENT_3,IDENT_4,IDENT_5,IDENT_6,


































