testOfEmptyList,CompositePrincipalProvider,
METHOD_0,METHOD_1,

principal,PrincipalProvider,pp,providers,EmptyPrincipalProvider,
IDENT_0,IDENT_1,IDENT_2,IDENT_3,IDENT_4,


































