testNotEqualsOtherPrincipalWithSameName,Principal,
METHOD_0,METHOD_1,

Principal,another,SystemPrincipal,external,ExternalIdentityRef,
IDENT_0,IDENT_1,IDENT_2,IDENT_3,IDENT_4,


































