testDenotesDynamicAllNullPropertyState,denotesDynamicJcrAll,
METHOD_0,METHOD_1,

PropertyState,LONGS,LONG,privilege,JcrAllUtil,DYNAMIC_JCR_ALL_VALUE,
IDENT_0,IDENT_1,IDENT_2,IDENT_3,IDENT_4,IDENT_5,


































