getList,newParser,newBuilder,fix,OnJsonObjectAddListener,onAdd,
METHOD_0,METHOD_1,METHOD_2,METHOD_3,METHOD_4,METHOD_5,

vvakame,jsonpullparser,JsonPullParser,sample,BuilderData,twitter,Tweet,Place,NestParentData,NestDepth1Data,NestDepth2Data,
IDENT_0,IDENT_1,IDENT_2,IDENT_3,IDENT_4,IDENT_5,IDENT_6,IDENT_7,IDENT_8,IDENT_9,IDENT_10,







"[{\"i\":1},{\"i\":2}]","t","u","p","Np","N1","N2","o",
STRING_0,STRING_1,STRING_2,STRING_3,STRING_4,STRING_5,STRING_6,STRING_7,

























