testInsertRetrieveEmptyList,MockObject,findOne,BasicDBObject,
METHOD_0,METHOD_1,METHOD_2,METHOD_3,

vz,MockObject,simpleList,coll,
IDENT_0,IDENT_1,IDENT_2,IDENT_3,


































