testSetVolumeLabelValid,setVolumeLabel,getVolumeLabel,checkClosed,getLabel,
METHOD_0,METHOD_1,METHOD_2,METHOD_3,METHOD_4,

label,bs,fromDir,rootDirStore,fatType,FatType,FAT32,waldheinz,fat,Fat16BootSector,
IDENT_0,IDENT_1,IDENT_2,IDENT_3,IDENT_4,IDENT_5,IDENT_6,IDENT_7,IDENT_8,IDENT_9,







"setVolumeLabel (valid)","01234567890",
STRING_0,STRING_1,

























