testDeleteUserDataOptionsBuilder,customerId,
METHOD_0,METHOD_1,

customerId,watson,assistant,DeleteUserDataOptions,deleteOptions,
IDENT_0,IDENT_1,IDENT_2,IDENT_3,IDENT_4,







"customer_id",
STRING_0,

























