testDouble,executeScript,
METHOD_0,METHOD_1,

webfolder,ui4j,JavaScriptEngineTest,
IDENT_0,IDENT_1,IDENT_2,







"'20.20'",
STRING_0,

























