testGetResourceMap,ResourceRequestProcessor,getResourcesMap,
METHOD_0,METHOD_1,METHOD_2,

webpagebytes,cms,ResourceRequestProcessor,resourcesMap,
IDENT_0,IDENT_1,IDENT_2,IDENT_3,


































