testSelectOnTypedBean,Weld,initialize,
METHOD_0,METHOD_1,METHOD_2,

weld,environment,se,enhanced,selectType,TypedBean,WeldContainer,annotations,
IDENT_0,IDENT_1,IDENT_2,IDENT_3,IDENT_4,IDENT_5,IDENT_6,IDENT_7,


































