testGettingAllScopesInApplication,Weld,initialize,getScopes,
METHOD_0,METHOD_1,METHOD_2,METHOD_3,

weld,environment,se,WeldContainer,WeldManager,wm,Annotation,scopes,
IDENT_0,IDENT_1,IDENT_2,IDENT_3,IDENT_4,IDENT_5,IDENT_6,IDENT_7,


































