largeData,ByteArrayResource,readText,openStream,
METHOD_0,METHOD_1,METHOD_2,METHOD_3,

citrus,resourceName,
IDENT_0,IDENT_1,

1024,
INT_0,




"largeData.txt","\\r|\\n|\\r\\n","ResourceListerContext[",
STRING_0,STRING_1,STRING_2,

























