testArrayCovariance2,GenericArrayTypeImpl,getRules,
METHOD_0,METHOD_1,METHOD_2,

type1,weld,reflection,enterprise,TypeLiteral,type2,resolution,BeanTypeAssignabilityRules,
IDENT_0,IDENT_1,IDENT_2,IDENT_3,IDENT_4,IDENT_5,IDENT_6,IDENT_7,


































