whenWriteUsingCharSink_thenWritten,asCharSink,
METHOD_0,METHOD_1,

expectedValue,mysite,guava,CharSink,sink,Files,Charsets,OutputStream,wb,os,
IDENT_0,IDENT_1,IDENT_2,IDENT_3,IDENT_4,IDENT_5,IDENT_6,IDENT_7,IDENT_8,IDENT_9,







"Hello world","test.txt",
STRING_0,STRING_1,

























