shouldNotBeZero,Money,decimal,isZero,signum,
METHOD_0,METHOD_1,METHOD_2,METHOD_3,METHOD_4,

wesabe,money,Money,oneDollar,USD,amount,
IDENT_0,IDENT_1,IDENT_2,IDENT_3,IDENT_4,IDENT_5,







"1.00",
STRING_0,

























