shouldHaveTheSameHashCodeAsZeroDollars,Money,decimal,
METHOD_0,METHOD_1,METHOD_2,

wesabe,money,Money,zeroDollars,USD,anotherZeroDollars,Objects,currencyCode,rate,
IDENT_0,IDENT_1,IDENT_2,IDENT_3,IDENT_4,IDENT_5,IDENT_6,IDENT_7,IDENT_8,







"0.00",
STRING_0,

























