duplicateStructuresButDifferentElementNames,Converter,getElements,
METHOD_0,METHOD_1,METHOD_2,

puck,thrifty,Converter,datatype,ObjectElement,elemMap,
IDENT_0,IDENT_1,IDENT_2,IDENT_3,IDENT_4,IDENT_5,







"{ \"person1\" : { \"fName\" : \"text\", \"lName\" : \"text\" }, \"person2\" : { \"fName\" : \"text\", \"lName\" : \"text\" } }",
STRING_0,

























