SerializedObjectCodec,await,
METHOD_0,METHOD_1,

lambdaworks,RedisConnection,CustomCodecTest,K,
IDENT_0,IDENT_1,IDENT_2,IDENT_3,







"one","two",
STRING_0,STRING_1,

























