testGetQuantityValueNoUnit,makeQuantityValue,getQuantityValue,
METHOD_0,METHOD_1,METHOD_2,

nv,lb,ub,wikidata,wdtk,QuantityValue,o1,Datamodel,o2,numericValue,lowerBound,upperBound,
IDENT_0,IDENT_1,IDENT_2,IDENT_3,IDENT_4,IDENT_5,IDENT_6,IDENT_7,IDENT_8,IDENT_9,IDENT_10,IDENT_11,







"0.123456789012345678901234567890123456789","0.123456789012345678901234567890123456788","0.123456789012345678901234567890123456790",
STRING_0,STRING_1,STRING_2,

























