testUnknownAction,ClientConfiguration,getActions,
METHOD_0,METHOD_1,METHOD_2,

wikidata,wdtk,ClientConfiguration,actions,
IDENT_0,IDENT_1,IDENT_2,IDENT_3,







"-a","notImplemented",
STRING_0,STRING_1,

























