testOfflineModeArgumentsShort,ClientConfiguration,getOfflineMode,
METHOD_0,METHOD_1,METHOD_2,

wikidata,wdtk,ClientConfiguration,offlineMode,
IDENT_0,IDENT_1,IDENT_2,IDENT_3,







"-n",
STRING_0,

























