trueIsParsed,setupResponse,getContentAsString,
METHOD_0,METHOD_1,METHOD_2,

parsed,responseHandler,jetty,ContentResponse,mutationCount,Matcher,wikidata,rdf,tool,UpdateCountResponse,ELAPSED_LINE_FLUSH,ELAPSED_LINE_CLAUSES,ELAPSED_LINE,COMMIT_LINE,BULK_UPDATE_LINE,
IDENT_0,IDENT_1,IDENT_2,IDENT_3,IDENT_4,IDENT_5,IDENT_6,IDENT_7,IDENT_8,IDENT_9,IDENT_10,IDENT_11,IDENT_12,IDENT_13,IDENT_14,







"{\n"," \"head\" : { },\n"," \"boolean\" : true\n","}","\\r?\\n","total = {} elapsed = {} flush = {} batch = {} where = {} delete = {} insert = {}","total = {} elapsed = {} where = {} delete = {} insert = {}","elapsed = {}","total = {} mutation count = {} ","bulk updated {} items in {} millis","Couldn't find the mutation count!",
STRING_0,STRING_1,STRING_2,STRING_3,STRING_4,STRING_5,STRING_6,STRING_7,STRING_8,STRING_9,STRING_10,

























