testEncodeComplexSet,DEREncoder,startSet,encodeObjectIdentifier,encodeOctetString,encodeNull,encodeIA5String,endSet,getEncoded,clone,
METHOD_0,METHOD_1,METHOD_2,METHOD_3,METHOD_4,METHOD_5,METHOD_6,METHOD_7,METHOD_8,METHOD_9,

asn1,DEREncoder,encoder,encoded,
IDENT_0,IDENT_1,IDENT_2,IDENT_3,

35,69,103,119,85,51,17,49,67,42,123,82,34,81,58,86,80,36,18,22,14,116,104,105,115,32,97,101,13,64,114,46,99,111,109,
INT_0,INT_1,INT_2,INT_3,INT_4,INT_5,INT_6,INT_7,INT_8,INT_9,INT_10,INT_11,INT_12,INT_13,INT_14,INT_15,INT_16,INT_17,INT_18,INT_19,INT_20,INT_21,INT_22,INT_23,INT_24,INT_25,INT_26,INT_27,INT_28,INT_29,INT_30,INT_31,INT_32,INT_33,INT_34,




"1.2.123.1234","2.1.58.5456.36","this is a test","test1@rsa.com",
STRING_0,STRING_1,STRING_2,STRING_3,

























