testHowdy,InitialContext,lookup,sayHowdy,
METHOD_0,METHOD_1,METHOD_2,METHOD_3,

naming,InitialContext,swarm,ejb,MySingleton,howdy,
IDENT_0,IDENT_1,IDENT_2,IDENT_3,IDENT_4,IDENT_5,







"java:module/MySingletonBean","howdy!",
STRING_0,STRING_1,

























