testFlush,DEREncoder,startSequence,encodeIA5String,encodeOctetString,startSet,endSequence,flush,getEncoded,clone,
METHOD_0,METHOD_1,METHOD_2,METHOD_3,METHOD_4,METHOD_5,METHOD_6,METHOD_7,METHOD_8,METHOD_9,

asn1,DEREncoder,encoder,encoded,
IDENT_0,IDENT_1,IDENT_2,IDENT_3,

35,69,103,119,85,51,17,48,84,22,11,116,101,115,32,114,105,110,49,59,97,14,104,13,64,46,99,111,109,
INT_0,INT_1,INT_2,INT_3,INT_4,INT_5,INT_6,INT_7,INT_8,INT_9,INT_10,INT_11,INT_12,INT_13,INT_14,INT_15,INT_16,INT_17,INT_18,INT_19,INT_20,INT_21,INT_22,INT_23,INT_24,INT_25,INT_26,INT_27,INT_28,




"test string","this is a test","testing","again","test1@rsa.com",
STRING_0,STRING_1,STRING_2,STRING_3,STRING_4,

























