activeSessions,getActiveSessions,singleton,succ,
METHOD_0,METHOD_1,METHOD_2,METHOD_3,

lru,FastConcurrentDirectDeque,E,
IDENT_0,IDENT_1,IDENT_2,







"expected",
STRING_0,

























