testRejectedOnOffAttribute,ModelNode,validateDeprecatedProperites,
METHOD_0,METHOD_1,METHOD_2,

dmr,ModelNode,jacorb,TransformUtils,deque,
IDENT_0,IDENT_1,IDENT_2,IDENT_3,IDENT_4,







"monitoring","on",
STRING_0,STRING_1,

























