testJobOperatorIsAvailable,getJobOperator,
METHOD_0,METHOD_1,

JobOperator,operator,BatchRuntime,jobOperator,
IDENT_0,IDENT_1,IDENT_2,IDENT_3,


































