test52,createGraph,
METHOD_0,METHOD_1,

inria,corese,Graph,QueryProcess,kgram,Mappings,sparql,EngineException,
IDENT_0,IDENT_1,IDENT_2,IDENT_3,IDENT_4,IDENT_5,IDENT_6,IDENT_7,







"prefix : <http://example.org/> ",":d :p :e ",":a :p :b, :c .",":b :q :d ",":c :q :d ",":e :q :f ","} ","prefix : <http://example.org/>","select * where { :a (:p/:q)+ ?y }",
STRING_0,STRING_1,STRING_2,STRING_3,STRING_4,STRING_5,STRING_6,STRING_7,STRING_8,

























