testNumber,intValue,
METHOD_0,METHOD_1,

inria,corese,Graph,QueryProcess,kgram,Mappings,sparql,IDatatype,dt,lvalue,
IDENT_0,IDENT_1,IDENT_2,IDENT_3,IDENT_4,IDENT_5,IDENT_6,IDENT_7,IDENT_8,IDENT_9,







"select (kg:number() as ?n) (sum(?n) as ?sum) where {","values ?e { unnest (xt:iota(5)) }","}","?sum",
STRING_0,STRING_1,STRING_2,STRING_3,

























