testUnnestSelect2,
METHOD_0,

inria,corese,Graph,GraphStore,QueryProcess,kgram,Mappings,
IDENT_0,IDENT_1,IDENT_2,IDENT_3,IDENT_4,IDENT_5,IDENT_6,







"values (?y ?x) {unnest(us:test())}","}","function us:test(){","let (?m = select * where { ","values ?x {unnest(xt:iota(2))} ","values ?z {unnest(xt:iota(1))} ","values ?y {unnest(xt:iota(2))}})","{?m}",
STRING_0,STRING_1,STRING_2,STRING_3,STRING_4,STRING_5,STRING_6,STRING_7,

























