testNoGlobal,getNode,
METHOD_0,METHOD_1,

inria,corese,Graph,QueryProcess,qq,kgram,Mappings,
IDENT_0,IDENT_1,IDENT_2,IDENT_3,IDENT_4,IDENT_5,IDENT_6,







"insert data { ","<John> rdf:value 1, 2 .","}","select *","where {","bind (xt:test(?x) as ?z)","?x ?p ?y ","function xt:test(?x) { ?y } ","?z",
STRING_0,STRING_1,STRING_2,STRING_3,STRING_4,STRING_5,STRING_6,STRING_7,STRING_8,

























