testLetQuery2,createGraph,
METHOD_0,METHOD_1,

inria,corese,Graph,QueryProcess,kgram,Mappings,
IDENT_0,IDENT_1,IDENT_2,IDENT_3,IDENT_4,IDENT_5,







"us:Mary a us:Woman .","us:John us:child us:Jim, us:Jane, us:Janis .","us:Janis a us:Woman ;","us:child us:James, us:Sylvia .","}","values ?e { unnest(us:pattern()) }"," maplist(us:collect, ?sol) ","function us:collect(?map){","let ((?y, ?t) = ?map){","xt:list(?y, coalesce(?t, us:Person))",
STRING_0,STRING_1,STRING_2,STRING_3,STRING_4,STRING_5,STRING_6,STRING_7,STRING_8,STRING_9,

























