testMain,eval,intValue,
METHOD_0,METHOD_1,METHOD_2,

inria,corese,GraphStore,QueryProcess,sparql,IDatatype,dt,lvalue,
IDENT_0,IDENT_1,IDENT_2,IDENT_3,IDENT_4,IDENT_5,IDENT_6,IDENT_7,







"insert data {","kg:display(?x); kg:display(?s);","}","us:test()","function us:test(){","let (select ?x (us:surface(?x) as ?s) where {?x a ?t} ) {","?s","}}","function us:surface(?x){","let (select * where {?x us:length ?l ; us:width ?w }){",
STRING_0,STRING_1,STRING_2,STRING_3,STRING_4,STRING_5,STRING_6,STRING_7,STRING_8,STRING_9,

























