testSystem,getLabel,
METHOD_0,METHOD_1,

inria,corese,GraphStore,GraphStoreInit,QueryProcess,kgram,Mappings,sparql,IDatatype,dt,label,
IDENT_0,IDENT_1,IDENT_2,IDENT_3,IDENT_4,IDENT_5,IDENT_6,IDENT_7,IDENT_8,IDENT_9,IDENT_10,







"insert data { graph kg:system { ","kg:kgram kg:listen true ","kg:store sp:query true ","}}","select * where {?x ?p ?y}","select ?res where {","graph kg:query {","?q a sp:Select","}","?res",
STRING_0,STRING_1,STRING_2,STRING_3,STRING_4,STRING_5,STRING_6,STRING_7,STRING_8,STRING_9,

























