testReturn,intValue,
METHOD_0,METHOD_1,

inria,corese,Graph,QueryProcess,kgram,Mappings,sparql,IDatatype,dt,lvalue,
IDENT_0,IDENT_1,IDENT_2,IDENT_3,IDENT_4,IDENT_5,IDENT_6,IDENT_7,IDENT_8,IDENT_9,







"select (us:fun(5) as ?n) where {}","function us:fun(?n) {","for (?x in xt:iota(?n)){","if (?x = ?n){","return (?x)}","}","?n",
STRING_0,STRING_1,STRING_2,STRING_3,STRING_4,STRING_5,STRING_6,

























