testEscapeDoubleQuote,escapeDoubleQuote,
METHOD_0,METHOD_1,

expectedJavascript,generatedJavascript,odlabs,wiquery,JsUtils,JsUtilsTestCase,CharSequence,stringToDoubleQuote,
IDENT_0,IDENT_1,IDENT_2,IDENT_3,IDENT_4,IDENT_5,IDENT_6,IDENT_7,







"\\\"Hello\\\"","\"Hello\"","\"","\\\"",
STRING_0,STRING_1,STRING_2,STRING_3,

























