deveRetornarNuloAoPassarCodigoInvalido,valueOfCodigo,getCodigo,
METHOD_0,METHOD_1,METHOD_2,

fincatto,documentofiscal,nfe310,NFOrigemProcesso,origemProcesso,codigo,
IDENT_0,IDENT_1,IDENT_2,IDENT_3,IDENT_4,IDENT_5,


































