testAttr,JsStatement,$,chain,attr,
METHOD_0,METHOD_1,METHOD_2,METHOD_3,METHOD_4,

expectedJavascript,generatedJavascript,odlabs,wiquery,AttributesHelper,AttributesHelperTestCase,
IDENT_0,IDENT_1,IDENT_2,IDENT_3,IDENT_4,IDENT_5,







"$('div').attr('title', 'a title');","div","title","a title",
STRING_0,STRING_1,STRING_2,STRING_3,

























