testCheckMergeRight,createLeaf,checkMergeable,getKeys,
METHOD_0,METHOD_1,METHOD_2,METHOD_3,

comp,bplustree,BTreeNode,left,right,leftCount,MAX_LEAFS,rightCount,
IDENT_0,IDENT_1,IDENT_2,IDENT_3,IDENT_4,IDENT_5,IDENT_6,IDENT_7,


































