deveObterStatusComoFoiSetado,NFProtocoloInfo,setStatus,
METHOD_0,METHOD_1,METHOD_2,

fincatto,documentofiscal,nfe310,NFProtocoloInfo,protocoloInfo,
IDENT_0,IDENT_1,IDENT_2,IDENT_3,IDENT_4,







"100",
STRING_0,

























