testSetOrderableChildren,getTree,addChild,setOrderableChildren,getChildren,
METHOD_0,METHOD_1,METHOD_2,METHOD_3,METHOD_4,

Tree,childNames,
IDENT_0,IDENT_1,







"test2","c","d",
STRING_0,STRING_1,STRING_2,

























