deveObterUriComoFoiSetado,NFReference,setUri,getUri,
METHOD_0,METHOD_1,METHOD_2,METHOD_3,

fincatto,documentofiscal,nfe310,nota,assinatura,NFReference,
IDENT_0,IDENT_1,IDENT_2,IDENT_3,IDENT_4,IDENT_5,







"uri",
STRING_0,

























