testString,getDeepObjectSize,
METHOD_0,METHOD_1,

sizeA,libra,Libra,sizeB,ReflectionLibraVisitor,
IDENT_0,IDENT_1,IDENT_2,IDENT_3,IDENT_4,







"Hello world",
STRING_0,

























