testWriteLen,writeInt,arraycopy,getWriteBytes,
METHOD_0,METHOD_1,METHOD_2,METHOD_3,

framedData,workiva,frugal,ProtocolUtils,unframed,
IDENT_0,IDENT_1,IDENT_2,IDENT_3,IDENT_4,







"foooooooo",
STRING_0,

























