source_uri_04,createGraphMem,
METHOD_0,METHOD_1,

Graph,sparql,GraphFactory,riot,RDFParser,Paths,TestRDFParser,DIR,pmap,
IDENT_0,IDENT_1,IDENT_2,IDENT_3,IDENT_4,IDENT_5,IDENT_6,IDENT_7,IDENT_8,







"data.ttl",
STRING_0,

























