noSuchColName,executeQuery,getInt,getDatabase,step,throwex,
METHOD_0,METHOD_1,METHOD_2,METHOD_3,METHOD_4,METHOD_5,

stat,open,lastCol,maxRows,statusCode,pointer,SQLITE_DONE,SQLITE_ROW,SQLITE_BUSY,
IDENT_0,IDENT_1,IDENT_2,IDENT_3,IDENT_4,IDENT_5,IDENT_6,IDENT_7,IDENT_8,







"select 1;","noSuchColName",
STRING_0,STRING_1,

























