watch,multi,createJedis,sendCommand,
METHOD_0,METHOD_1,METHOD_2,METHOD_3,

jedis,clients,Transaction,Jedis,jedis2,EXEC,isInMulti,isInWatch,
IDENT_0,IDENT_1,IDENT_2,IDENT_3,IDENT_4,IDENT_5,IDENT_6,IDENT_7,







"bar2",
STRING_0,

























