evalsha,eval,
METHOD_0,METHOD_1,

jedis,sha1,
IDENT_0,IDENT_1,







"return redis.call('get','foo')","6b1bf486c81ceb7edf3c093f4c48582e38c0e791",
STRING_0,STRING_1,

























