testCrawlAccount,crawlAccount,getAddress,
METHOD_0,METHOD_1,METHOD_2,

dw,ccm,wechat,smartbind,WechatAccount,account,binder,
IDENT_0,IDENT_1,IDENT_2,IDENT_3,IDENT_4,IDENT_5,IDENT_6,


































