count2,greaterThan,
METHOD_0,METHOD_1,

studentDBService,fastquery,StudentDBServiceTest,
IDENT_0,IDENT_1,IDENT_2,







"i=",
STRING_0,

























