testValuesChangingOverTime,addValue,getLastValue,
METHOD_0,METHOD_1,METHOD_2,

metricName,SortedMap,
IDENT_0,IDENT_1,







"TestMetric",
STRING_0,

























