testSave,UserInfo,findById,
METHOD_0,METHOD_1,METHOD_2,

age,fastquery,UserInfo,u,MethodQueryTest,userInfoDBService,effect,studentDBService,
IDENT_0,IDENT_1,IDENT_2,IDENT_3,IDENT_4,IDENT_5,IDENT_6,IDENT_7,

36,23,
INT_0,INT_1,




"Jsxxv",
STRING_0,

























