delete_NoId,
METHOD_0,

TestConstants,PERSON,at,tuwien,infosys,jcloudscale,DatastoreException,
IDENT_0,IDENT_1,IDENT_2,IDENT_3,IDENT_4,IDENT_5,IDENT_6,


































