ignoreWithCustomDelimters,withPlaceholderSupportUsingDelimiters,withTest,hasDifferences,
METHOD_0,METHOD_1,METHOD_2,METHOD_3,

xmlunit,diff,Diff,placeholder,PlaceholderSupport,DiffBuilder,differences,
IDENT_0,IDENT_1,IDENT_2,IDENT_3,IDENT_4,IDENT_5,IDENT_6,







"<elem1><elem11>#[xmlunit.ignore]</elem11></elem1>","<elem1><elem11>abc</elem11></elem1>","#\\[","\\]",
STRING_0,STRING_1,STRING_2,STRING_3,

























