testCompileInvalidRegex,RegexTool,compile,
METHOD_0,METHOD_1,METHOD_2,

velocity,RegexTool,tool,Pattern,PatternSyntaxException,
IDENT_0,IDENT_1,IDENT_2,IDENT_3,IDENT_4,







"*",
STRING_0,

























