findAllNoMatch,RegexTool,findAll,
METHOD_0,METHOD_1,METHOD_2,

velocity,RegexTool,tool,RegexResult,
IDENT_0,IDENT_1,IDENT_2,IDENT_3,







"nothing here","something",
STRING_0,STRING_1,

























