matchesTest,compile,
METHOD_0,METHOD_1,

xuxueli,crawler,RegexUtil,Pattern,Matcher,
IDENT_0,IDENT_1,IDENT_2,IDENT_3,IDENT_4,







"https://my\\.oschina\\.net/xuxueli/blog/\\d+","https://my.oschina.net/xuxueli/blog/690978",
STRING_0,STRING_1,

























