testPostPublicMessageWithEmptyMessage,setupForPublicMessage,postPublicMessage,getBody,
METHOD_0,METHOD_1,METHOD_2,METHOD_3,

eventstream,Event,postedMessage,
IDENT_0,IDENT_1,IDENT_2,


































