convertFromString,getComponentUnderTest,convertToType,getInstanceId,
METHOD_0,METHOD_1,METHOD_2,METHOD_3,

InstanceId,mocker,instanceIdManager,
IDENT_0,IDENT_1,IDENT_2,







"b6ad6165-daaf-41a1-8a3f-9aa81451c402",
STRING_0,

























