testFilterStack_02,AlwaysAcceptFilterStack,canRead,
METHOD_0,METHOD_1,METHOD_2,

Predicate,FilterStack,filterStack,TestIter,permissions,Statement,securedItem,selector,
IDENT_0,IDENT_1,IDENT_2,IDENT_3,IDENT_4,IDENT_5,IDENT_6,IDENT_7,


































