toURI,VfsResourceReference,getURI,
METHOD_0,METHOD_1,METHOD_2,

vfs,VfsResourceReference,
IDENT_0,IDENT_1,







"scheme:specific","a/b","scheme:specific/a/b","%s/%s",
STRING_0,STRING_1,STRING_2,STRING_3,

























