testValid,setDocument,findElements,tagName,
METHOD_0,METHOD_1,METHOD_2,METHOD_3,

ValidationError,WebElement,By,
IDENT_0,IDENT_1,IDENT_2,







"/html5-valid.html","tr","td",
STRING_0,STRING_1,STRING_2,

























