sameElts_05,sameElts,containsAll,
METHOD_0,METHOD_1,METHOD_2,

x1,x2,right,left,
IDENT_0,IDENT_1,IDENT_2,IDENT_3,







"c",
STRING_0,

























