enterToSubstate,enter,exit,enterSequence_main_region_default,
METHOD_0,METHOD_1,METHOD_2,METHOD_3,

statemachine,vergleich,initialized,
IDENT_0,IDENT_1,IDENT_2,

4L,
INT_0,




"The state machine needs to be initialized first by calling the init() function.",
STRING_0,

























