testRelToString,getRelValue,IconEntry,DigestURL,relToString,
METHOD_0,METHOD_1,METHOD_2,METHOD_3,METHOD_4,

rels,IconLinkRelations,ICON,icon,yacy,cora,sizes,relStr,relValue,
IDENT_0,IDENT_1,IDENT_2,IDENT_3,IDENT_4,IDENT_5,IDENT_6,IDENT_7,IDENT_8,







"http://yacy.net",
STRING_0,

























