testIncrementVariableAssignment,executeWithDefaultScope,getIntValue,getVariable,
METHOD_0,METHOD_1,METHOD_2,METHOD_3,










"intVar = intVar++","intVar",
STRING_0,STRING_1,

























