IntIndexToIndexMap,on,
METHOD_0,METHOD_1,

yandex,yoctodb,IndexToIndexMap,idx,Joiner,conditions,sorts,skip,limit,
IDENT_0,IDENT_1,IDENT_2,IDENT_3,IDENT_4,IDENT_5,IDENT_6,IDENT_7,IDENT_8,







"SimpleSelect{","conditions=",',',", sorts=",", skip=",", limit=",'}',
STRING_0,STRING_1,STRING_2,STRING_3,STRING_4,STRING_5,STRING_6,

























