testGetShortWithIndex,getShort,
METHOD_0,METHOD_1,

primitives,Shorts,yandex,yoctodb,Buffer,
IDENT_0,IDENT_1,IDENT_2,IDENT_3,IDENT_4,

32765,
INT_0,































