enabledMatcherShouldCheckIsEnabledProperty,enabled,EnabledMatcher,
METHOD_0,METHOD_1,METHOD_2,

ru,yandex,qatools,webdriver,
IDENT_0,IDENT_1,IDENT_2,IDENT_3,


































