testGetPathToRoot,getPathToRoot,newLinkedList,getThis,getParent,
METHOD_0,METHOD_1,METHOD_2,METHOD_3,METHOD_4,

elderList,
IDENT_0,


































