test_type,getLong,isBlank,asDataXException,
METHOD_0,METHOD_1,METHOD_2,METHOD_3,

datax,DataXException,CommonErrorCode,CONFIG_ERROR,
IDENT_0,IDENT_1,IDENT_2,IDENT_3,







"{\"a\": 1}",". [%s] , : %s. .",
STRING_0,STRING_1,

























