zerosIteratorTest,zero,nextSetBit,
METHOD_0,METHOD_1,METHOD_2,

yandex,yoctodb,BitSet,LongArrayBitSet,LongArrayBitSetTest,SIZE,fromIndexInclusive,
IDENT_0,IDENT_1,IDENT_2,IDENT_3,IDENT_4,IDENT_5,IDENT_6,


































