test_recent_indexes_is_always_the_limit_Stack,stack,
METHOD_0,METHOD_1,

recentIndexes,deque,
IDENT_0,IDENT_1,







"1down","2down","3down","4down","5down","6down","7down",
STRING_0,STRING_1,STRING_2,STRING_3,STRING_4,STRING_5,STRING_6,

























