getByUrlTest,print,getByUrl,findByUrl,isNull,NullPointerException,
METHOD_0,METHOD_1,METHOD_2,METHOD_3,METHOD_4,METHOD_5,

ua,alexcoffee,product,Product,ProductServiceImplTest,productService,
IDENT_0,IDENT_1,IDENT_2,IDENT_3,IDENT_4,IDENT_5,







"-> getByUrl() - ","OK!","No product URL!","Can't find product by url ","!",
STRING_0,STRING_1,STRING_2,STRING_3,STRING_4,

























