shouldReturnFalseIfTypesAreDifferent,Token,
METHOD_0,METHOD_1,

zafarkhaja,semver,Lexer,Token,t1,EQUAL,t2,NOT_EQUAL,Version,
IDENT_0,IDENT_1,IDENT_2,IDENT_3,IDENT_4,IDENT_5,IDENT_6,IDENT_7,IDENT_8,







"=","!=",
STRING_0,STRING_1,

























