testMostRepeatedKeyInBST,MostRepeatedKeyInBST,BST,mostRepeatedBST,
METHOD_0,METHOD_1,METHOD_2,METHOD_3,

guge,MostRepeatedKeyInBST,most,BST,bst,counts,
IDENT_0,IDENT_1,IDENT_2,IDENT_3,IDENT_4,IDENT_5,


































