checkMigrationsHasRun,getConnection,createStatement,executeQuery,
METHOD_0,METHOD_1,METHOD_2,METHOD_3,

Connection,embeddedDatabaseRule,Statement,resultSet,
IDENT_0,IDENT_1,IDENT_2,IDENT_3,







"SELECT * FROM USER",
STRING_0,

























