graph_txn_2,getDefaultGraph,parseTriple,getTransactionHandler,
METHOD_0,METHOD_1,METHOD_2,METHOD_3,

Graph,dsg,Triple,sparql,sse,SSE,g2,riot,Lang,RDFWriterRegistry,langToFormat,RDFFormat,fmt,
IDENT_0,IDENT_1,IDENT_2,IDENT_3,IDENT_4,IDENT_5,IDENT_6,IDENT_7,IDENT_8,IDENT_9,IDENT_10,IDENT_11,IDENT_12,







"(:S :P :O)",
STRING_0,

























