TestLatin1String,asJSON,formatValue,
METHOD_0,METHOD_1,METHOD_2,

zendesk,maxwell,columndef,ColumnDef,producer,MaxwellOutputConfig,
IDENT_0,IDENT_1,IDENT_2,IDENT_3,IDENT_4,IDENT_5,

128,
INT_0,




"latin1","varchar",
STRING_0,STRING_1,

























