testSRandMemberCount,sAdd,sRandMember,getResults,
METHOD_0,METHOD_1,METHOD_2,METHOD_3,

tinygroup,Parameter,
IDENT_0,IDENT_1,







"myset","baz",
STRING_0,STRING_1,

























