testCacheGetShouldRetunInstanceOfCorrectType,assumeThat,instanceOf,
METHOD_0,METHOD_1,METHOD_2,

Assume,IsInstanceOf,RedisCache,redisCache,ValueWrapper,wrapper,
IDENT_0,IDENT_1,IDENT_2,IDENT_3,IDENT_4,IDENT_5,


































