testSetRange,assumeTrue,
METHOD_0,METHOD_1,

K,key1,keyFactory,V,value1,valueFactory,value2,Assume,valueOps,
IDENT_0,IDENT_1,IDENT_2,IDENT_3,IDENT_4,IDENT_5,IDENT_6,IDENT_7,IDENT_8,


































