doGet,COkHttpClient,Task,toDocument,
METHOD_0,METHOD_1,METHOD_2,METHOD_3,

zhangyingwei,cockroach,okhttp,COkHttpClient,executer,TaskResponse,resp,cssSelect,
IDENT_0,IDENT_1,IDENT_2,IDENT_3,IDENT_4,IDENT_5,IDENT_6,IDENT_7,







"https://luolei.org",
STRING_0,

























