testDecrementAndGet,assumeTrue,isJredis,isJedis,decrementAndGet,increment,intValue,
METHOD_0,METHOD_1,METHOD_2,METHOD_3,METHOD_4,METHOD_5,METHOD_6,

Assume,ConnectionUtils,doubleCounter,
IDENT_0,IDENT_1,IDENT_2,


































