testInsertUserRole,Role,setRoleList,countRowsInTable,insertUserRole,
METHOD_0,METHOD_1,METHOD_2,METHOD_3,METHOD_4,

renren,infra,xweb,Role,roleList,role,role2,userDao,nowcount,
IDENT_0,IDENT_1,IDENT_2,IDENT_3,IDENT_4,IDENT_5,IDENT_6,IDENT_7,IDENT_8,

2L,
INT_0,




"xweb_user_role",
STRING_0,

























