testZSS528,getTo,focusSheet,jq,height,click,waitUntilProcessEnd,getTimeoutL0,
METHOD_0,METHOD_1,METHOD_2,METHOD_3,METHOD_4,METHOD_5,METHOD_6,METHOD_7,

zkoss,zss,SpreadsheetWidget,ss,height,Setup,jqFactory,selector,
IDENT_0,IDENT_1,IDENT_2,IDENT_3,IDENT_4,IDENT_5,IDENT_6,IDENT_7,







"/issue3/528-wrap.zul","@Row:eq(0)","@Row:eq(0) @Cell:eq(1)","@button:eq(1)","'",
STRING_0,STRING_1,STRING_2,STRING_3,STRING_4,

























