jq,click,waitResponse,widget,eval,Widget,
METHOD_0,METHOD_1,METHOD_2,METHOD_3,METHOD_4,METHOD_5,

zkoss,zktest,zats,ztl,JQuery,lis,lbs,ms,uuid,
IDENT_0,IDENT_1,IDENT_2,IDENT_3,IDENT_4,IDENT_5,IDENT_6,IDENT_7,IDENT_8,







".z-listitem",".z-label","@button","_value","[",", ","_visible","true",
STRING_0,STRING_1,STRING_2,STRING_3,STRING_4,STRING_5,STRING_6,STRING_7,

























