exprListTest_MultipleArg,none,Change,
METHOD_0,METHOD_1,METHOD_2,

arq,querybuilder,ExprList,rdfxml,xmloutput,XMLOutputTestBase,
IDENT_0,IDENT_1,IDENT_2,IDENT_3,IDENT_4,IDENT_5,


































