testConstructorBigInteger,ExtendedPanId,
METHOD_0,METHOD_1,

zsmartsystems,zigbee,ExtendedPanId,sequence,
IDENT_0,IDENT_1,IDENT_2,IDENT_3,

110,
INT_0,




"0017880100DC880B","ChangeNetworkStateResponse [sequence=",", status=",", state=",']',
STRING_0,STRING_1,STRING_2,STRING_3,STRING_4,

























