checkServerIsRunning,
METHOD_0,

isRunning,mainTarget,MediaType,WILDCARD,eftp,ftpserver,
IDENT_0,IDENT_1,IDENT_2,IDENT_3,IDENT_4,IDENT_5,


































