serviceInjectedInAbstractModel,getServiceInjectedInSuperclass,
METHOD_0,METHOD_1,

airhacks,afterburner,lifecycle,ConcreteService,injectedService,cut,
IDENT_0,IDENT_1,IDENT_2,IDENT_3,IDENT_4,IDENT_5,


































