equalsContractReflexive,AckImpl,
METHOD_0,METHOD_1,

aerogear,simplepush,Ack,
IDENT_0,IDENT_1,IDENT_2,

10L,
INT_0,




"ch1",
STRING_0,

























