constructorInvalidDate,InstanceProfileCredentials,
METHOD_0,METHOD_1,

thrown,aliyuncs,ak,sk,expiration,duration,InstanceProfileCredentials,credentials,
IDENT_0,IDENT_1,IDENT_2,IDENT_3,IDENT_4,IDENT_5,IDENT_6,IDENT_7,

600L,
INT_0,




"ak","sk","token","2018-12-12-12:12:12",
STRING_0,STRING_1,STRING_2,STRING_3,

























