testEscapedLiterals,
METHOD_0,

grammar,expecting,
IDENT_0,IDENT_1,







"lexer grammar T;\n","A : \'\\\"\' ;\n","B : \'\\\\\\\"\' ;\n",
STRING_0,STRING_1,STRING_2,

























