parseBadOption,createMock,
METHOD_0,METHOD_1,

xbase,Procedures,Procedure1,mocks,jknack,antlr4ide,ToolOptions,
IDENT_0,IDENT_1,IDENT_2,IDENT_3,IDENT_4,IDENT_5,IDENT_6,







"Unknown command-line option: '-bad'","-bad",
STRING_0,STRING_1,

























