testInvalidConstruction,MessageEndpointProxy,
METHOD_0,METHOD_1,

ra,mockEndpoint,
IDENT_0,IDENT_1,







"An exception should have been thrown",
STRING_0,

























