testCastArray,castValue,
METHOD_0,METHOD_1,

schemas,transforms,Cast,FieldType,INT16,INT32,
IDENT_0,IDENT_1,IDENT_2,IDENT_3,IDENT_4,IDENT_5,


































