prepared_statement_execution_02,getConnection,prepareStatement,executeQuery,
METHOD_0,METHOD_1,METHOD_2,METHOD_3,

connections,JenaConnection,statements,PreparedStatement,sparqlStr,
IDENT_0,IDENT_1,IDENT_2,IDENT_3,IDENT_4,







"SELECT * WHERE { ?s ?p ?o }",
STRING_0,

























