testFromBytesSmall,fromBytes,
METHOD_0,METHOD_1,

LocalDateTime,localDateTime,LocalDateTimeConverter,
IDENT_0,IDENT_1,IDENT_2,

11,88,
INT_0,INT_1,































