testGetParent,SchemagenOptions,getParent,
METHOD_0,METHOD_1,METHOD_2,

schemagen,SchemagenOptions,so,
IDENT_0,IDENT_1,IDENT_2,


































