openBundleInputStream,openBundle,checkWorkflowrunBundle,
METHOD_0,METHOD_1,METHOD_2,

taverna,robundle,Bundle,Bundles,
IDENT_0,IDENT_1,IDENT_2,IDENT_3,







"/workflowrun.bundle.zip",
STRING_0,

























