testConvertUrlWithNoPort,fromPath,toPath,
METHOD_0,METHOD_1,METHOD_2,

expectedPath,actualPath,
IDENT_0,IDENT_1,







"hdfs://foo.com",
STRING_0,

























