testCharacter,roundTrip,Character,
METHOD_0,METHOD_1,METHOD_2,

Character,juneau,rttests,
IDENT_0,IDENT_1,IDENT_2,







'a',
STRING_0,

























