testIsTrueOPT1,SchemagenOptions,setOption,isTrue,hasParent,getParent,
METHOD_0,METHOD_1,METHOD_2,METHOD_3,METHOD_4,METHOD_5,

schemagen,SchemagenOptions,so0,OPT,DOS,option,
IDENT_0,IDENT_1,IDENT_2,IDENT_3,IDENT_4,IDENT_5,


































