testInt64Annotations,PrimitiveType,required,named,
METHOD_0,METHOD_1,METHOD_2,METHOD_3,

parquet,OriginalType,TIME_MICROS,TIMESTAMP_MILLIS,TIMESTAMP_MICROS,UINT_64,INT_64,logicalType,PrimitiveType,REQUIRED,INT64,Types,
IDENT_0,IDENT_1,IDENT_2,IDENT_3,IDENT_4,IDENT_5,IDENT_6,IDENT_7,IDENT_8,IDENT_9,IDENT_10,IDENT_11,







"col",
STRING_0,

























