testODataApplicationException2,ODataApplicationException,
METHOD_0,METHOD_1,

ODataApplicationException,ENGLISH,
IDENT_0,IDENT_1,

500,
INT_0,




"Exception","Error","500",
STRING_0,STRING_1,STRING_2,

























