test_canBeNewed,RangerAuthorizationCoprocessor,
METHOD_0,METHOD_1,

ranger,RangerAuthorizationCoprocessor,_coprocessor,
IDENT_0,IDENT_1,IDENT_2,


































