testGetNewLoggingScopeWithParam,getNewLoggingScope,
METHOD_0,METHOD_1,

reef,LoggingScope,ls,logFactory,
IDENT_0,IDENT_1,IDENT_2,IDENT_3,







"test first string = {0}, second = {1}","first","second",
STRING_0,STRING_1,STRING_2,

























