testFindUncoveredHttpMethods09,findUncoveredHttpMethods,
METHOD_0,METHOD_1,

descriptor,SecurityConstraint,TestSecurityConstraint,GET_ONLY,GET_OMIT,DUMMY_LOG,
IDENT_0,IDENT_1,IDENT_2,IDENT_3,IDENT_4,IDENT_5,


































