testAvailableSourceTypes,
METHOD_0,

aureliano,evtbridge,DocumentationSourceTypes,JSON,YAML,
IDENT_0,IDENT_1,IDENT_2,IDENT_3,IDENT_4,


































