should_have_correct_value_when_value_returned,toOptional,
METHOD_0,METHOD_1,

bar,benjiweber,Exceptions,
IDENT_0,IDENT_1,IDENT_2,


































