testPartition,parseSql,newHashSet,
METHOD_0,METHOD_1,METHOD_2,

lombok,visitor,n3r,eql,dbfieldcryptor,MySqlSensitiveFieldsParser,partitionSql,Sets,
IDENT_0,IDENT_1,IDENT_2,IDENT_3,IDENT_4,IDENT_5,IDENT_6,IDENT_7,







"TF_B_BESPEAK_INFO.LINK_ADDR","TF_B_BESPEAK_INFO.PSPT_NO",
STRING_0,STRING_1,

























