testCreateNewDataStore,createNewDataStore,
METHOD_0,METHOD_1,

dsFactory,Serializable,EMPTY_MAP,UnsupportedOperationException,
IDENT_0,IDENT_1,IDENT_2,IDENT_3,







"Expected UOE as we can't create new datastores",
STRING_0,

























