testComparison,ObjectMap,getConfigName,
METHOD_0,METHOD_1,METHOD_2,

juneau,ObjectMap,m1,m2,ConfigMap,Import,ir,
IDENT_0,IDENT_1,IDENT_2,IDENT_3,IDENT_4,IDENT_5,IDENT_6,







"{ firstName:'John', lastName:'Smith', age:123, isDeceased:false }","{ age:123, isDeceased:false, lastName:'Smith', firstName:'John' }",
STRING_0,STRING_1,

























