testRead,fromJson,
METHOD_0,METHOD_1,

bramp,FractionAdapterTest,TestData,readTests,Fraction,
IDENT_0,IDENT_1,IDENT_2,IDENT_3,IDENT_4,


































