ipv6Test2,compile,
METHOD_0,METHOD_1,

Pattern,pattern1,ips1,ips2,Matcher,
IDENT_0,IDENT_1,IDENT_2,IDENT_3,IDENT_4,







"/2001:DB8:2de:00:00:00:00:e13:20080","/1:::20080","::120.0.0.1","/2001:DB8:2de:0:0:0:0:e13:20080","/5e:0:0:0:0:0:5668:eeee:20080","/0:0:0:0:0:0:0:1:51421","2001:DB8:2de:0:0:0:0:e13","11:11:e:1EEE:11:11:200.200.200.200","5e::5668:eeee","fc00::7",
STRING_0,STRING_1,STRING_2,STRING_3,STRING_4,STRING_5,STRING_6,STRING_7,STRING_8,STRING_9,

























