testConstructor_LineElement,WedgeLineElement,LineElement,
METHOD_0,METHOD_1,METHOD_2,

IRenderingElement,Color,red,TYPE,DASHED,Direction,toFirst,orange,
IDENT_0,IDENT_1,IDENT_2,IDENT_3,IDENT_4,IDENT_5,IDENT_6,IDENT_7,


































