setUp,ValueFactoryImpl,SeverNativeHBaseDataLayer,clear,
METHOD_0,METHOD_1,METHOD_2,METHOD_3,

valueFactory,openrdf,dl,erdf,datalayer,vu,HBaseConnection,REST,
IDENT_0,IDENT_1,IDENT_2,IDENT_3,IDENT_4,IDENT_5,IDENT_6,IDENT_7,


































