testRebondTool_double_double_double,RebondTool,
METHOD_0,METHOD_1,

rebond,RebondTool,rebonder,
IDENT_0,IDENT_1,IDENT_2,










0.5,
FLOAT_0,






















