containsFullySurroundedInterval,DiscreteInterval,
METHOD_0,METHOD_1,

fishwife,jrugged,interval,DiscreteInterval,i1,
IDENT_0,IDENT_1,IDENT_2,IDENT_3,IDENT_4,


































