hasAddressAnnotation,getAnnotation,enabled,
METHOD_0,METHOD_1,METHOD_2,

patientdiscovery,_10,gateway,NhinPatientDiscoveryDeferredResponse,soap,Addressing,addressing,
IDENT_0,IDENT_1,IDENT_2,IDENT_3,IDENT_4,IDENT_5,IDENT_6,


































