testInvalidViewHandling,getView,
METHOD_0,METHOD_1,

designDoc,viewName,views,View,ClientViewTest,
IDENT_0,IDENT_1,IDENT_2,IDENT_3,IDENT_4,







"invalid_design","invalid_view",
STRING_0,STRING_1,

























