testS2v,SivMode,s2v,
METHOD_0,METHOD_1,METHOD_2,

macKey,ad,plaintext,cryptomator,siv,
IDENT_0,IDENT_1,IDENT_2,IDENT_3,IDENT_4,

254,253,252,251,250,249,248,247,246,245,244,243,242,241,240,17,18,19,21,22,23,24,25,26,27,28,29,30,31,32,33,34,35,36,37,38,39,51,68,85,102,119,136,153,170,187,204,221,238,133,99,45,198,232,127,149,205,46,147,
INT_0,INT_1,INT_2,INT_3,INT_4,INT_5,INT_6,INT_7,INT_8,INT_9,INT_10,INT_11,INT_12,INT_13,INT_14,INT_15,INT_16,INT_17,INT_18,INT_19,INT_20,INT_21,INT_22,INT_23,INT_24,INT_25,INT_26,INT_27,INT_28,INT_29,INT_30,INT_31,INT_32,INT_33,INT_34,INT_35,INT_36,INT_37,INT_38,INT_39,INT_40,INT_41,INT_42,INT_43,INT_44,INT_45,INT_46,INT_47,INT_48,INT_49,INT_50,INT_51,INT_52,INT_53,INT_54,INT_55,INT_56,INT_57,INT_58,































