testGetTables,setTable,getTables,
METHOD_0,METHOD_1,METHOD_2,

namespace,mgr,goodNetwork,cytoscape,CyNode,table1,CyTable,tables,
IDENT_0,IDENT_1,IDENT_2,IDENT_3,IDENT_4,IDENT_5,IDENT_6,IDENT_7,


































