test1701822,DefaultBoxAndWhiskerCategoryDataset,BoxAndWhiskerItem,
METHOD_0,METHOD_1,METHOD_2,

statistics,DefaultBoxAndWhiskerCategoryDataset,NullPointerException,
IDENT_0,IDENT_1,IDENT_2,







"ROW1","COLUMN1","COLUMN2",
STRING_0,STRING_1,STRING_2,

3.0,4.0,5.0,6.0,8.0,7.0,
FLOAT_0,FLOAT_1,FLOAT_2,FLOAT_3,FLOAT_4,FLOAT_5,






















