testPatternGroupsNoScheme,
METHOD_0,

Matcher,HadoopResourceBuilder,RESOURCE_SCHEME_PATTERN,
IDENT_0,IDENT_1,IDENT_2,







"/foo/bar.txt",
STRING_0,

























