testCleanDatabase,listAll,getOwner,
METHOD_0,METHOD_1,METHOD_2,

Anchor,anchors,anchorDao,anchor,
IDENT_0,IDENT_1,IDENT_2,IDENT_3,


































