testQueryAppTopology,queryAppTopology,keySet,
METHOD_0,METHOD_1,METHOD_2,

appId,sohu,constant,AppTopology,appTopologyMap,appStatsCenter,appTopology,
IDENT_0,IDENT_1,IDENT_2,IDENT_3,IDENT_4,IDENT_5,IDENT_6,

999,
INT_0,




"key: {}, value: {}",
STRING_0,

























