testCanValidate,readFileToString,getClient,dispatch,
METHOD_0,METHOD_1,METHOD_2,METHOD_3,

orders,FileUtils,muleContext,MuleMessage,
IDENT_0,IDENT_1,IDENT_2,IDENT_3,

15000,
INT_0,




"src/test/resources/orders.xml","http://localhost:8080/orders","jms://topic:orders.submitted",
STRING_0,STRING_1,STRING_2,

























