testAddRecord_invalidType,testCleanDatabase,createARecord,setType,
METHOD_0,METHOD_1,METHOD_2,METHOD_3,

DNSRecord,DNSRecordUtils,ANY,exceptionOccured,dnsDao,ConfigurationStoreException,
IDENT_0,IDENT_1,IDENT_2,IDENT_3,IDENT_4,IDENT_5,

86400L,
INT_0,




"example.domain.com","127.0.0.1",
STRING_0,STRING_1,

























