testGetReceievedAddressesTest_emptyMessageId_returnEmpty,getReceivedAddresses,
METHOD_0,METHOD_1,

addresses,retAddresses,notifDao,
IDENT_0,IDENT_1,IDENT_2,







"gm2552@cerner.com",
STRING_0,

























