sb08_ResponseHeader_onPojo_value,getResponseInfo,getHeader,
METHOD_0,METHOD_1,METHOD_2,

juneau,HeaderInfo,ResponseHeaderAnnotationTest,headerMap,
IDENT_0,IDENT_1,IDENT_2,IDENT_3,







"/sb08","get","H",
STRING_0,STRING_1,STRING_2,

























