toRst,ConfigDef,define,
METHOD_0,METHOD_1,METHOD_2,

ConfigDef,def,STRING,ValidString,Importance,HIGH,INT,MEDIUM,LIST,LOW,expectedRst,
IDENT_0,IDENT_1,IDENT_2,IDENT_3,IDENT_4,IDENT_5,IDENT_6,IDENT_7,IDENT_8,IDENT_9,IDENT_10,







"opt1","``opt1``\n","docs2","docs1"," * Type: int\n"," * Type: string\n"," * Default: a\n"," docs3\n"," * Type: list\n",
STRING_0,STRING_1,STRING_2,STRING_3,STRING_4,STRING_5,STRING_6,STRING_7,STRING_8,

























