testStringHashCode,compileAndInstallMethod,findMethod,executeVarargs,
METHOD_0,METHOD_1,METHOD_2,METHOD_3,

expectedResult,jdk,vm,ci,InstalledCode,installedCode,
IDENT_0,IDENT_1,IDENT_2,IDENT_3,IDENT_4,IDENT_5,







"Hello World","hashCode",
STRING_0,STRING_1,

























