testConstant,getDeclaredMethod,
METHOD_0,METHOD_1,

MethodHandle,mh,lookup,SpecialStatic,t3,
IDENT_0,IDENT_1,IDENT_2,IDENT_3,IDENT_4,







"getMethodHandle",
STRING_0,

























