noErrorsOrWarnings,findMarkers,
METHOD_0,METHOD_1,

IMarker,markers,testProject,pde,ds,annotations,DS_PROBLEM_MARKER,IResource,DEPTH_INFINITE,
IDENT_0,IDENT_1,IDENT_2,IDENT_3,IDENT_4,IDENT_5,IDENT_6,IDENT_7,IDENT_8,


































