testRangeFilter,RangeFilter,
METHOD_0,METHOD_1,

linuxtools,systemtap,graphing,RangeFilter,INSIDE_BOUNDS,
IDENT_0,IDENT_1,IDENT_2,IDENT_3,IDENT_4,


































