test_getIconDepth,Display,getIconDepth,dispose,
METHOD_0,METHOD_1,METHOD_2,METHOD_3,

Display,display,depth,
IDENT_0,IDENT_1,IDENT_2,


































