checkDefaults,GridEditorInput,Grid,
METHOD_0,METHOD_1,METHOD_2,

ice,GridEditorInput,rows,columns,Grid,
IDENT_0,IDENT_1,IDENT_2,IDENT_3,IDENT_4,


































