kapuaMissingPayloadConstructor,KapuaMissingPayloadImpl,
METHOD_0,METHOD_1,

kapua,lifecycle,KapuaMissingPayload,kapuaMissingPayload,
IDENT_0,IDENT_1,IDENT_2,IDENT_3,


































