testDiagMult_Vec_Matrix,DenseMatrix,DenseVector,diagMult,
METHOD_0,METHOD_1,METHOD_2,METHOD_3,

jsat,Matrix,A,Vec,
IDENT_0,IDENT_1,IDENT_2,IDENT_3,

32,28,18,30,24,21,14,
INT_0,INT_1,INT_2,INT_3,INT_4,INT_5,INT_6,




"diagMult",
STRING_0,

























