shouldInstantiateBean,ObjenesisStd,getInstantiatorOf,
METHOD_0,METHOD_1,METHOD_2,

objenesis,Objenesis,instantiator,ObjectInstantiator,Instantiator,
IDENT_0,IDENT_1,IDENT_2,IDENT_3,IDENT_4,


































