testPOI,hasOOXMLHeader,
METHOD_0,METHOD_1,

inputStream,be,fedict,eid,applet,signer,OOXMLSignatureVerifierTest,POIXMLDocument,
IDENT_0,IDENT_1,IDENT_2,IDENT_3,IDENT_4,IDENT_5,IDENT_6,IDENT_7,







"/hello-world-unsigned.docx",
STRING_0,

























