getNonExistingPatientData,getPatientData,DateTime,
METHOD_0,METHOD_1,METHOD_2,

marand,thinkmed,medications,connector,PatientDataForMedicationsDto,patientData,patientDataProvider,
IDENT_0,IDENT_1,IDENT_2,IDENT_3,IDENT_4,IDENT_5,IDENT_6,

2015,
INT_0,




"999",
STRING_0,

























