givenIP_whenReturnsNetworkInterface_thenCorrect,getByInetAddress,getByAddress,
METHOD_0,METHOD_1,METHOD_2,

ip,networking,NetworkInterface,nif,InetAddress,
IDENT_0,IDENT_1,IDENT_2,IDENT_3,IDENT_4,

127,
INT_0,































