testSaveSingleObjectWithNoType,createObjectNode,createUser,setUserId,valueToTree,
METHOD_0,METHOD_1,METHOD_2,METHOD_3,METHOD_4,

JsonNode,emfjson,u1,ModelFactory,eINSTANCE,
IDENT_0,IDENT_1,IDENT_2,IDENT_3,IDENT_4,







"userId","Paul",
STRING_0,STRING_1,

























