givenHostName_whenReturnsNetworkInterface_thenCorrect,getByInetAddress,getByName,
METHOD_0,METHOD_1,METHOD_2,

networking,NetworkInterface,nif,InetAddress,
IDENT_0,IDENT_1,IDENT_2,IDENT_3,







"localhost",
STRING_0,

























