whenSaturatedPowTwoLongValues_shouldPowThemAndReturnIntMinIfUnderflow,saturatedPow,
METHOD_0,METHOD_1,

LongMath,MIN_VALUE,
IDENT_0,IDENT_1,


































