whenSaturatedSubstractTwoIntegerValues_shouldSubstractThemAndReturnTheResult,saturatedSubtract,
METHOD_0,METHOD_1,

IntMath,
IDENT_0,


































