whenLog10BigIntegerValues_shouldLog10ThemAndReturnTheResultForCeilingRounding,log10,
METHOD_0,METHOD_1,

BigIntegerMath,RoundingMode,CEILING,
IDENT_0,IDENT_1,IDENT_2,







"30",
STRING_0,

























