whenDivideTwoIntegerValues_shouldDivideThemAndReturnTheResultForCeilingRounding,divide,
METHOD_0,METHOD_1,

IntMath,RoundingMode,CEILING,
IDENT_0,IDENT_1,IDENT_2,


































