givenString_whenCallingStringToCharArray_shouldConvertToCharArray,toCharArray,
METHOD_0,METHOD_1,

givenString,expectedCharArray,
IDENT_0,IDENT_1,







"characters",'c','h','a','r','t','e','s',
STRING_0,STRING_1,STRING_2,STRING_3,STRING_4,STRING_5,STRING_6,STRING_7,

























