whenSaturatedMultiplyTwoIntegerValues_shouldMultiplyThemAndReturnIntMinIfUnderflow,saturatedMultiply,
METHOD_0,METHOD_1,

IntMath,MIN_VALUE,
IDENT_0,IDENT_1,


































