whenCheckedMultiplyTwoIntegerValues_shouldMultiplyThemAndReturnTheResultIfNotOverflow,checkedMultiply,
METHOD_0,METHOD_1,

IntMath,
IDENT_0,


































