whenInserting_thenInserted,QueryRunner,
METHOD_0,METHOD_1,

dbutils,QueryRunner,insertSQL,numRowsInserted,
IDENT_0,IDENT_1,IDENT_2,IDENT_3,







"INSERT INTO employee (firstname,lastname,salary, hireddate) VALUES (?, ?, ?, ?)","Leia","Kane",
STRING_0,STRING_1,STRING_2,

60000.6,
FLOAT_0,






















