whenQueryExecuted_thenOK,openSession,createNativeQuery,getResultList,
METHOD_0,METHOD_1,METHOD_2,METHOD_3,

Session,sessionFactory,NativeQuery,
IDENT_0,IDENT_1,IDENT_2,







"select name from PRODUCT",
STRING_0,

























