whenSwitchWorksAsMatcher_thenCorrect,
METHOD_0,










"zero","one","two","three","unknown",
STRING_0,STRING_1,STRING_2,STRING_3,STRING_4,

























