whenMatchesDefault_thenCorrect,Match,Case,$,
METHOD_0,METHOD_1,METHOD_2,METHOD_3,

vavr,API,
IDENT_0,IDENT_1,







"one","two","three","unknown",
STRING_0,STRING_1,STRING_2,STRING_3,

























