testGetUri,GeneratorBaseImpl,getPublishUri,
METHOD_0,METHOD_1,METHOD_2,

ewcms,publication,UriRuleable,freemarker,GeneratorBaseTest,GeneratorBaseImpl,
IDENT_0,IDENT_1,IDENT_2,IDENT_3,IDENT_4,IDENT_5,







"/index.html",
STRING_0,

























