testToStringWithValueNullCustomFacts,StringWithCustomFacts,getCustomFacts,
METHOD_0,METHOD_1,METHOD_2,

gedcom4j,StringWithCustomFacts,swct,customFacts,
IDENT_0,IDENT_1,IDENT_2,IDENT_3,







"Foo",
STRING_0,

























