testEqualsSameObject,MPDSavedPlaylist,
METHOD_0,METHOD_1,

bff,javampd,playlist,MPDSavedPlaylist,
IDENT_0,IDENT_1,IDENT_2,IDENT_3,







"playlist1",
STRING_0,

























