perform,
METHOD_0,

ints,galperin,javase8,capitel3,C3E20,parseInt,
IDENT_0,IDENT_1,IDENT_2,IDENT_3,IDENT_4,IDENT_5,







"3",
STRING_0,

























