testNullResumableUploadURI_succeeds,BatchJobUploadStatus,
METHOD_0,METHOD_1,

ads,adwords,BatchJobUploadStatus,
IDENT_0,IDENT_1,IDENT_2,

100L,
INT_0,































