testFromInvalidString,fromString,
METHOD_0,METHOD_1,

serialized,geoserver,AuthorityURLInfoInfoListConverter,
IDENT_0,IDENT_1,IDENT_2,







"[{\"name:\"auth1\",\"href\":\"http://geoserver.org/auth1?\"},]","Expected IAE",
STRING_0,STRING_1,

























