genericArgsOnMethodAndContainingClassButMethodIsStatic,setAllButLast,setLast,
METHOD_0,METHOD_1,METHOD_2,

numbers,callbuilder,CopyAppender,
IDENT_0,IDENT_1,IDENT_2,


































