test_Constructor,
METHOD_0,

geolatte,transformer,DefaultFilter,testobjects,ProgrammableFilter,
IDENT_0,IDENT_1,IDENT_2,IDENT_3,IDENT_4,







"Should not throw an exception",
STRING_0,

























