testFindAll,findAll,
METHOD_0,METHOD_1,

hantsylab,ee7,blog,Comment,foundComments,comments,
IDENT_0,IDENT_1,IDENT_2,IDENT_3,IDENT_4,IDENT_5,


































