testFindByKeywordNotFound,findByKeyword,
METHOD_0,METHOD_1,

hantsylab,ee7,blog,foundUsers,users,
IDENT_0,IDENT_1,IDENT_2,IDENT_3,IDENT_4,







"test123",
STRING_0,

























