testGetValue,Value,
METHOD_0,METHOD_1,

expectedValue,hazelcast,Value,
IDENT_0,IDENT_1,IDENT_2,

100L,
INT_0,




"Some value",
STRING_0,

























