getConference,findAll,
METHOD_0,METHOD_1,

hantsylabs,spring,PostRepositoryTest,Post,saved,posts,
IDENT_0,IDENT_1,IDENT_2,IDENT_3,IDENT_4,IDENT_5,







"==================test case: getConference=========================",
STRING_0,

























