testOrWithNull,testExpr,Values,
METHOD_0,METHOD_1,METHOD_2,

hortonworks,streamline,Values,
IDENT_0,IDENT_1,IDENT_2,







"UNKNOWN OR TRUE","UNKNOWN OR FALSE","UNKNOWN OR UNKNOWN","TRUE OR TRUE","TRUE OR FALSE","TRUE OR UNKNOWN","FALSE OR TRUE","FALSE OR FALSE","FALSE OR UNKNOWN",
STRING_0,STRING_1,STRING_2,STRING_3,STRING_4,STRING_5,STRING_6,STRING_7,STRING_8,

























