testLoop,Loop,
METHOD_0,METHOD_1,

pb,x12,Loop,loop,
IDENT_0,IDENT_1,IDENT_2,IDENT_3,







'~','*',':',"ISA",
STRING_0,STRING_1,STRING_2,STRING_3,

























