testCfStringStringStringInteger,Cf,
METHOD_0,METHOD_1,

pb,x12,Cf,cf,
IDENT_0,IDENT_1,IDENT_2,IDENT_3,







"1000A","NM1","41",
STRING_0,STRING_1,STRING_2,

























