testBug50826,getTomcatInstance,getBuildDirectory,addWebapp,destroy,
METHOD_0,METHOD_1,METHOD_2,METHOD_3,METHOD_4,

catalina,startup,Tomcat,contextPath,appDir,
IDENT_0,IDENT_1,IDENT_2,IDENT_3,IDENT_4,







"/examples","webapps",
STRING_0,STRING_1,

























