getForObject,
METHOD_0,

syncope,DerivedSchemaTO,derivedSchemaTO,restTemplate,BASE_URL,
IDENT_0,IDENT_1,IDENT_2,IDENT_3,IDENT_4,







"derivedSchema/user/read/cn.json",
STRING_0,

























