testCommaDelimitedListToStringArrayEmptyList,listToCommaDelimitedString,
METHOD_0,METHOD_1,

catalina,RemoteIpFilter,
IDENT_0,IDENT_1,


































