testCoerceEnumAToEnumB,coerceToEnum,
METHOD_0,METHOD_1,

ELSupport,TestELSupport,TestEnumA,VALA1,TestEnumB,ELException,ele,
IDENT_0,IDENT_1,IDENT_2,IDENT_3,IDENT_4,IDENT_5,IDENT_6,


































