shouldFindKeyValueStores,mockThread,stores,keyValueStore,
METHOD_0,METHOD_1,METHOD_2,METHOD_3,

ReadOnlyKeyValueStore,kvStores,QueryableStoreTypes,
IDENT_0,IDENT_1,IDENT_2,







"kv-store",
STRING_0,

























