fixPdfTest07,PdfReader,PdfDocument,
METHOD_0,METHOD_1,METHOD_2,

filename,PdfReaderTest,sourceFolder,PdfReader,ClassCastException,
IDENT_0,IDENT_1,IDENT_2,IDENT_3,IDENT_4,







"XRefSectionWithFreeReferences1.pdf",
STRING_0,

























