testConstructor,SuppressWarnings,getDeclaredConstructors,setAccessible,
METHOD_0,METHOD_1,METHOD_2,METHOD_3,

j256,ormlite,Constructor,constructors,LoggerFactory,
IDENT_0,IDENT_1,IDENT_2,IDENT_3,IDENT_4,







"rawtypes",
STRING_0,

























