hitDependencyScreen,newCall,
METHOD_0,METHOD_1,

okhttp3,Request,queryUrl,okHttpClient,
IDENT_0,IDENT_1,IDENT_2,IDENT_3,







"api/dependencies?endTs=0",
STRING_0,

























