testWriteCancelIncompleteMessage,safeClose,testWriteCancel,
METHOD_0,METHOD_1,METHOD_2,

remoting3,ChannelTestBase,TEST_FILE_LENGTH,xnio,IoUtils,
IDENT_0,IDENT_1,IDENT_2,IDENT_3,IDENT_4,







"/test-content.bin",
STRING_0,

























