testULFromInts,UL,newULFromInts,
METHOD_0,METHOD_1,METHOD_2,

jcodec,containers,mxf,UL,fromInts,
IDENT_0,IDENT_1,IDENT_2,IDENT_3,IDENT_4,

11,
INT_0,































