testEquals,Day,Hour,Minute,Second,Millisecond,
METHOD_0,METHOD_1,METHOD_2,METHOD_3,METHOD_4,METHOD_5,

Day,day1,MonthConstants,MARCH,Hour,hour1,Minute,minute1,Second,second1,Millisecond,milli1,day2,hour2,minute2,second2,milli2,
IDENT_0,IDENT_1,IDENT_2,IDENT_3,IDENT_4,IDENT_5,IDENT_6,IDENT_7,IDENT_8,IDENT_9,IDENT_10,IDENT_11,IDENT_12,IDENT_13,IDENT_14,IDENT_15,IDENT_16,

29,2002,34,999,
INT_0,INT_1,INT_2,INT_3,































