canReadJMX,loadTree,
METHOD_0,METHOD_1,

jmx,jorphan,HashTree,jmeter,SaveService,
IDENT_0,IDENT_1,IDENT_2,IDENT_3,IDENT_4,







"src/test/resources/simple_prometheus_example.jmx",
STRING_0,

























