testSyncConsume,TestChannelCallback,receive,receiveMessage,
METHOD_0,METHOD_1,METHOD_2,METHOD_3,

rabbitmq,AMQP,Queue,BindOk,bindOk,joshdevins,ha,
IDENT_0,IDENT_1,IDENT_2,IDENT_3,IDENT_4,IDENT_5,IDENT_6,







"testQueue",
STRING_0,

























