mockNonAbstractMethodsInEnumWithAbstractMethod,Expectations,
METHOD_0,METHOD_1,

mockit,tm,anyLong,SECONDS,
IDENT_0,IDENT_1,IDENT_2,IDENT_3,

10000,
INT_0,































