fakeAClass,getComponentCount,Applet,
METHOD_0,METHOD_1,METHOD_2,

mockit,MockUp,Applet,Mock,
IDENT_0,IDENT_1,IDENT_2,IDENT_3,

123,
INT_0,































