testTransactionIdByteArray,TransactionId,
METHOD_0,METHOD_1,

jscep,TransactionId,transA,transB,
IDENT_0,IDENT_1,IDENT_2,IDENT_3,


































