testLookAt,lookAt,Vec3,Mat4,
METHOD_0,METHOD_1,METHOD_2,METHOD_3,

hackoeur,jglm,Mat4,got,Matrices,
IDENT_0,IDENT_1,IDENT_2,IDENT_3,IDENT_4,










1.0F,2.0F,3.0F,4.0F,5.0F,6.0F,7.0F,8.0F,9.0F,0.40824646F,0.7071011F,0.57734823F,0.0F,0.8164929F,1.4142022F,3.4640894F,
FLOAT_0,FLOAT_1,FLOAT_2,FLOAT_3,FLOAT_4,FLOAT_5,FLOAT_6,FLOAT_7,FLOAT_8,FLOAT_9,FLOAT_10,FLOAT_11,FLOAT_12,FLOAT_13,FLOAT_14,FLOAT_15,






















