testDoMainWithDefaultName,Main,doMain,
METHOD_0,METHOD_1,METHOD_2,

updateCenterFile,simpleupdatesite,Main,main,
IDENT_0,IDENT_1,IDENT_2,IDENT_3,







"./src/test/resources/tmp","update-center.json","-u","http://hellworld.com","-f",
STRING_0,STRING_1,STRING_2,STRING_3,STRING_4,

























