testNewWithVec4,Vec4,Mat4,
METHOD_0,METHOD_1,METHOD_2,

hackoeur,jglm,Vec4,v3,Mat4,m1,m2,
IDENT_0,IDENT_1,IDENT_2,IDENT_3,IDENT_4,IDENT_5,IDENT_6,










1.0F,2.0F,3.0F,4.0F,5.0F,6.0F,7.0F,8.0F,9.0F,10.0F,11.0F,12.0F,13.0F,14.0F,15.0F,16.0F,
FLOAT_0,FLOAT_1,FLOAT_2,FLOAT_3,FLOAT_4,FLOAT_5,FLOAT_6,FLOAT_7,FLOAT_8,FLOAT_9,FLOAT_10,FLOAT_11,FLOAT_12,FLOAT_13,FLOAT_14,FLOAT_15,






















