testKieBase,getBean,
METHOD_0,METHOD_1,

KieBase,kbase,spring,KieSpringBasics2Test,
IDENT_0,IDENT_1,IDENT_2,IDENT_3,







"drl_kiesample3",
STRING_0,

























