shouldConsolidationInSequence,wrappedBuffer,copy,release,
METHOD_0,METHOD_1,METHOD_2,METHOD_3,

ByteBuf,currentBuffer,copy,
IDENT_0,IDENT_1,IDENT_2,







"=","c","&","3","d","4","e","5",
STRING_0,STRING_1,STRING_2,STRING_3,STRING_4,STRING_5,STRING_6,STRING_7,

0.,1.,
FLOAT_0,FLOAT_1,






















