testDepth5,RecursiveMapIterator,newHashSet,
METHOD_0,METHOD_1,METHOD_2,

d5,kitesdk,filesystem,TestMultiLevelIterator,l1,Sets,
IDENT_0,IDENT_1,IDENT_2,IDENT_3,IDENT_4,IDENT_5,


































