whenCreatedWithInt_equalsAnotherWithSameValue,IntOrString,
METHOD_0,METHOD_1,

kubernetes,custom,IntOrString,intOrString1,intOrString2,
IDENT_0,IDENT_1,IDENT_2,IDENT_3,IDENT_4,

17,
INT_0,































