testConstructorCenter2,Coordinate,Area,
METHOD_0,METHOD_1,METHOD_2,

nx42,maps4cim,gis,Coordinate,center,Area,
IDENT_0,IDENT_1,IDENT_2,IDENT_3,IDENT_4,IDENT_5,










48.0,10.0,47.0,9.5,49.0,10.5,
FLOAT_0,FLOAT_1,FLOAT_2,FLOAT_3,FLOAT_4,FLOAT_5,






















