localDateIsAfter,
METHOD_0,

LocalDate,ld,tool,DateAndTimes,LD_20150618,ld2,LD_20150807,isAfter0618,
IDENT_0,IDENT_1,IDENT_2,IDENT_3,IDENT_4,IDENT_5,IDENT_6,IDENT_7,


































