testDUKPTSSNEncrypt,DUKPTEncryption,getLocalPort,post,
METHOD_0,METHOD_1,METHOD_2,METHOD_3,

kunai,keyvault,DUKPTEncryption,encryption,IntegrationTest,RULE,
IDENT_0,IDENT_1,IDENT_2,IDENT_3,IDENT_4,IDENT_5,







"078-05-1120","http://localhost:","/dukpttoencrypt?type=ssn",
STRING_0,STRING_1,STRING_2,

























