average_from_list_of_numbers_with_google_guava,mean,
METHOD_0,METHOD_1,

average,DoubleMath,levelup,AverageFromList,NUMBERS_FOR_AVERAGE,
IDENT_0,IDENT_1,IDENT_2,IDENT_3,IDENT_4,


































