join_two_object_arrays_in_java_with_apache_commons,
METHOD_0,

allStateCapitals,ArrayUtils,firstHalfStateCapital,secondHalfStateCapital,
IDENT_0,IDENT_1,IDENT_2,IDENT_3,


































