drop_last_element_java,copyOf,
METHOD_0,METHOD_1,

lastElementRemoved,removedElement,levelup,RemoveLastElementInArray,
IDENT_0,IDENT_1,IDENT_2,IDENT_3,







"one","two","three",
STRING_0,STRING_1,STRING_2,

























