remove_element_from_array_to_arraylist,
METHOD_0,

daysOfWeek,daysOfWeekAsList,levelup,RemoveElementFromList,
IDENT_0,IDENT_1,IDENT_2,IDENT_3,







"Sunday","Monday","Tuesday","Wednesday","Thursday","Friday","Saturday",
STRING_0,STRING_1,STRING_2,STRING_3,STRING_4,STRING_5,STRING_6,

























