get_first_element_in_list_with_apachecommons,
METHOD_0,

strings,firstElement,CollectionUtils,
IDENT_0,IDENT_1,IDENT_2,







"one","two","three",
STRING_0,STRING_1,STRING_2,

























