get_last_element_in_list_with_java,
METHOD_0,

strings,lastElement,
IDENT_0,IDENT_1,







"one","two","three",
STRING_0,STRING_1,STRING_2,

























