return_empty_map_apache_commons,SuppressWarnings,
METHOD_0,METHOD_1,

levelup,emptyMap,MapUtils,EMPTY_MAP,
IDENT_0,IDENT_1,IDENT_2,IDENT_3,







"unchecked",
STRING_0,

























