return_empty_iterator_java,SuppressWarnings,emptyIterator,
METHOD_0,METHOD_1,METHOD_2,

levelup,strings,IteratorUtils,
IDENT_0,IDENT_1,IDENT_2,







"unchecked",
STRING_0,

























