count_non_empty_strings_java,removeAll,
METHOD_0,METHOD_1,

valentineSayings,
IDENT_0,







"crush","blind date","puppy luv","mr right","first kiss","4 ever yours",
STRING_0,STRING_1,STRING_2,STRING_3,STRING_4,STRING_5,

























