calculate_elapsed_time_nano_in_java,nanoTime,
METHOD_0,METHOD_1,

startTime,estimatedTime,levelup,MeasureElapsedTime,
IDENT_0,IDENT_1,IDENT_2,IDENT_3,







"time: ",
STRING_0,

























