is_null_or_empty,isNullOrEmpty,
METHOD_0,METHOD_1,

outputVal,stringToCheck,Strings,
IDENT_0,IDENT_1,IDENT_2,







"abc","do some work",
STRING_0,STRING_1,

























