permutations,
METHOD_0,

vals,primitives,Ints,orderPerm,Collections2,levelup,guava,Collections2Example,
IDENT_0,IDENT_1,IDENT_2,IDENT_3,IDENT_4,IDENT_5,IDENT_6,IDENT_7,


































