read_file_array_list_java7,readAllLines,defaultCharset,
METHOD_0,METHOD_1,METHOD_2,

teams,Files,worldSeriesWinners,charset,Charset,
IDENT_0,IDENT_1,IDENT_2,IDENT_3,IDENT_4,


































