generate_random_number_in_range_java8,Random,ints,limit,boxed,
METHOD_0,METHOD_1,METHOD_2,METHOD_3,METHOD_4,

Random,randomNumbers,Collectors,levelup,number,GenerateRandomNumberInRange,
IDENT_0,IDENT_1,IDENT_2,IDENT_3,IDENT_4,IDENT_5,


































