split_string_comma_space_using_apache_commons,
METHOD_0,

elementsInString,levelup,SplitStringByComma,
IDENT_0,IDENT_1,IDENT_2,







"Yo,Gabba, Gabba, Keep Trying",",",
STRING_0,STRING_1,

























