stream_of_strings_to_array,
METHOD_0,

stringArray,Stream,levelup,ConvertStreamToArray,
IDENT_0,IDENT_1,IDENT_2,IDENT_3,







"One","Two","Three",
STRING_0,STRING_1,STRING_2,

























