givenValues_whenCtor_thenNoIssues,ResultOutput,
METHOD_0,METHOD_1,

testId,comment,scenarioResults,
IDENT_0,IDENT_1,IDENT_2,







"testId","passed","comment","key1","value1","key2","value2",
STRING_0,STRING_1,STRING_2,STRING_3,STRING_4,STRING_5,STRING_6,

























