filter_and_truncate,limit,
METHOD_0,METHOD_1,

levelup,StreamFilterAndSlice,Post,firstTwoPosts,posts,Collectors,
IDENT_0,IDENT_1,IDENT_2,IDENT_3,IDENT_4,IDENT_5,


































