whenHavingTwoTypesWithTheSameId_theyShouldBeEqual,setCostPerTime,
METHOD_0,METHOD_1,

vehicle,VehicleTypeImpl,type2,
IDENT_0,IDENT_1,IDENT_2,







"type",
STRING_0,

























