testGetTableBlackList,TableACL,getTableBlackList,newHashSet,
METHOD_0,METHOD_1,METHOD_2,METHOD_3,

kylin,acl,TableACL,tableACL,MetadataConstants,TYPE_USER,TYPE_GROUP,tableBlackList,Sets,envs,tag,
IDENT_0,IDENT_1,IDENT_2,IDENT_3,IDENT_4,IDENT_5,IDENT_6,IDENT_7,IDENT_8,IDENT_9,IDENT_10,







"u1","t1","t2","u2","g1","t3","t4","t5","g2","t6",
STRING_0,STRING_1,STRING_2,STRING_3,STRING_4,STRING_5,STRING_6,STRING_7,STRING_8,STRING_9,

























