whenSubtractingTwoOneDimensionalCapacities_itShouldReturnCorrectCapacityValues,addDimension,subtract,
METHOD_0,METHOD_1,METHOD_2,

Capacity,cap1,cap2,
IDENT_0,IDENT_1,IDENT_2,


































