whenTwoServicesHaveTheSameId_theirReferencesShouldBeUnEqual,addSizeDimension,setLocation,
METHOD_0,METHOD_1,METHOD_2,

Service,one,Location,two,
IDENT_0,IDENT_1,IDENT_2,IDENT_3,







"service","fo",
STRING_0,STRING_1,

























