shouldAllowZeroAmount,Transfer,
METHOD_0,METHOD_1,

transfer,jayway,ConstraintViolation,constraintViolations,TransferTest,
IDENT_0,IDENT_1,IDENT_2,IDENT_3,IDENT_4,


































