shouldAllowZeroAmount,Amount,
METHOD_0,METHOD_1,

amount,jayway,ConstraintViolation,constraintViolations,AmountTest,
IDENT_0,IDENT_1,IDENT_2,IDENT_3,IDENT_4,


































