getBeanofDifferentTypeTest,getBean,
METHOD_0,METHOD_1,

ClientService,clientService,applicationContext,
IDENT_0,IDENT_1,IDENT_2,


































