testInitialized,TestClass,
METHOD_0,METHOD_1,

mirkosertic,bytecoder,ClassInitializerTest,TestClass,
IDENT_0,IDENT_1,IDENT_2,IDENT_3,


































