equalIfValueEqual,MutableInteger,
METHOD_0,METHOD_1,

mpatric,mp3agic,MutableInteger,eight,eightAgain,
IDENT_0,IDENT_1,IDENT_2,IDENT_3,IDENT_4,


































