equalIfIdIsNullOnBoth,ID3v2ChapterFrameData,
METHOD_0,METHOD_1,

mpatric,mp3agic,ID3v2ChapterFrameData,frameData1,frameData2,
IDENT_0,IDENT_1,IDENT_2,IDENT_3,IDENT_4,

380,400,
INT_0,INT_1,































