should_be_equal_when_having_0_value,QualityMeasure,
METHOD_0,METHOD_1,

norad,visuwall,quality,QualityMeasure,qm1,qm2,
IDENT_0,IDENT_1,IDENT_2,IDENT_3,IDENT_4,IDENT_5,


































