testGetCallerClass,getCallerClass,
METHOD_0,METHOD_1,

StackLocatorTest,stackLocator,StackLocatorUtil,anchor,
IDENT_0,IDENT_1,IDENT_2,IDENT_3,


































