testReturnsPayloadWhenMatchesIfNoCaptureGroupDefinedTextArgument,
METHOD_0,

regexFuntion,
IDENT_0,







"TEST\\w+TEST","TESTfooTEST",
STRING_0,STRING_1,

























