findMultipleItems,CategoricalInput,indexes,extractInputIds,
METHOD_0,METHOD_1,METHOD_2,METHOD_3,

graphalgo,similarity,CategoricalInput,ids,indexes,SimilarityInput,
IDENT_0,IDENT_1,IDENT_2,IDENT_3,IDENT_4,IDENT_5,

5L,9L,
INT_0,INT_1,































