Lexical,LIT,sort,
METHOD_0,METHOD_1,METHOD_2,

mysema,rdfbean,LIT,lit1,lit2,lit3,NODE,NODEComparatorTest,comparator,
IDENT_0,IDENT_1,IDENT_2,IDENT_3,IDENT_4,IDENT_5,IDENT_6,IDENT_7,IDENT_8,







"x","y","z",
STRING_0,STRING_1,STRING_2,

























