testPoms,generateMavenProjectModel,
METHOD_0,METHOD_1,

ochafik,jnaerator,JNAeratorConfig,Runtime,pom,th,
IDENT_0,IDENT_1,IDENT_2,IDENT_3,IDENT_4,IDENT_5,







"com.mycompany","myartifact","1.0-SNAPSHOT",
STRING_0,STRING_1,STRING_2,

























