testGetMapByIds,getMapByIds,
METHOD_0,METHOD_1,

baidu,beidou,sample,Company,companyMgr,
IDENT_0,IDENT_1,IDENT_2,IDENT_3,IDENT_4,

88,99,
INT_0,INT_1,































