testView1,getPage,getElementsByTagName,
METHOD_0,METHOD_1,METHOD_2,

gargoylesoftware,htmlunit,HtmlPage,webClient,webUrl,DomElement,div,
IDENT_0,IDENT_1,IDENT_2,IDENT_3,IDENT_4,IDENT_5,IDENT_6,







"resources/person","div",
STRING_0,STRING_1,

























