allMissing,expectMessage,CategoricalInput,indexes,extractInputIds,
METHOD_0,METHOD_1,METHOD_2,METHOD_3,METHOD_4,

expectedEx,graphalgo,similarity,CategoricalInput,ids,indexes,SimilarityInput,
IDENT_0,IDENT_1,IDENT_2,IDENT_3,IDENT_4,IDENT_5,IDENT_6,

10L,11L,29L,
INT_0,INT_1,INT_2,




"Node ids [10, 11, -1, 29] do not exist in node ids list",
STRING_0,

























