testGetCreationTime,createPersistent,getCreationTime,
METHOD_0,METHOD_1,METHOD_2,

_client,creationTime,
IDENT_0,IDENT_1,







"/a",
STRING_0,

























