testIPv4CorrectAddress,DefaultSocks5CommandRequest,
METHOD_0,METHOD_1,

socksx,v5,Socks5CommandType,BIND,Socks5AddressType,IPv4,
IDENT_0,IDENT_1,IDENT_2,IDENT_3,IDENT_4,IDENT_5,







"54.54.1111.253",
STRING_0,

























