shouldReturnLong,updateReturnsLong,
METHOD_0,METHOD_1,

rows,submitted,dml_return_types,
IDENT_0,IDENT_1,IDENT_2,







"shouldReturnLong",
STRING_0,

























