test_drain_shouldPass1,drain,
METHOD_0,METHOD_1,

bytesOriginal,lengthMax,bytesDrained,bb,StreamUtil,
IDENT_0,IDENT_1,IDENT_2,IDENT_3,IDENT_4,


































