tesStringOneArgLocaleFrance_StringFormattedMessage,FormattedMessage,getFormattedMessage,
METHOD_0,METHOD_1,METHOD_2,

testMsg,FormattedMessage,FRANCE,E,messageText,
IDENT_0,IDENT_1,IDENT_2,IDENT_3,IDENT_4,







"Test message e = %+10.4f","Test message e = +2,7183",
STRING_0,STRING_1,

























