testGetBoundaries,getInternalState,
METHOD_0,METHOD_1,

o3project,odenos,federator,FederatorBoundary,powermock,Whitebox,
IDENT_0,IDENT_1,IDENT_2,IDENT_3,IDENT_4,IDENT_5,







"boundaries",
STRING_0,

























