testLookup,getLocalService,
METHOD_0,METHOD_1,

pictures,tiles,PictureTilingService,pts,Framework,
IDENT_0,IDENT_1,IDENT_2,IDENT_3,IDENT_4,


































