testToString,
METHOD_0,

expectedString,
IDENT_0,







"[packetId=packet_id","nodeId=node_id","portIds=[]","portExceptIds=[]","data={1}","attributes={}","packet_id",",",
STRING_0,STRING_1,STRING_2,STRING_3,STRING_4,STRING_5,STRING_6,STRING_7,

























