testEquality,RelativeTimeout,
METHOD_0,METHOD_1,

ops4j,pax,exam,RelativeTimeout,rel1,rel2,
IDENT_0,IDENT_1,IDENT_2,IDENT_3,IDENT_4,IDENT_5,


































