testDurationComparator,sort,DurationComparator,
METHOD_0,METHOD_1,METHOD_2,

paths,opentripplanner,routing,
IDENT_0,IDENT_1,IDENT_2,


































