shouldCreateImage,postResponse,queryParam,
METHOD_0,METHOD_1,METHOD_2,










"images","create","fromImage","alpine:3.2","tag","3.2",
STRING_0,STRING_1,STRING_2,STRING_3,STRING_4,STRING_5,

























