includedBasedOnCustomExpressionSyntax,getContextualReference,
METHOD_0,METHOD_1,

deltaspike,exclude,CustomExpressionBasedBean,BeanProvider,
IDENT_0,IDENT_1,IDENT_2,IDENT_3,


































