testNewFactoryNegative,newFactory,
METHOD_0,METHOD_1,

jdk,incubator,sql2,DataSourceFactory,
IDENT_0,IDENT_1,IDENT_2,IDENT_3,







"NOT A FACTORY NAME",
STRING_0,

























