testAround,around,Point,
METHOD_0,METHOD_1,METHOD_2,

Point,pixels,tddinaction,swing,plotmap,Pixels,
IDENT_0,IDENT_1,IDENT_2,IDENT_3,IDENT_4,IDENT_5,


































