testConnection,openConnection,getResponseCode,
METHOD_0,METHOD_1,METHOD_2,

baseUrl,serviceUrl,HttpURLConnection,responseCode,
IDENT_0,IDENT_1,IDENT_2,IDENT_3,







"service.url","v1/restaurants/1",
STRING_0,STRING_1,

























