test_Locale_hr_HR_render,ThymeleafTemplateEngine,ModelAndView,
METHOD_0,METHOD_1,METHOD_2,

templateVariable,thymeleaf,
IDENT_0,IDENT_1,







"Dobrodoli","<p>%s</p>","home","hr","HR",
STRING_0,STRING_1,STRING_2,STRING_3,STRING_4,

























