testAlphanumericComparator,clone,sort,
METHOD_0,METHOD_1,METHOD_2,

sorted,alphanumericComparator,
IDENT_0,IDENT_1,







"b1","a11a","a11","a2","a2b","a02b","a2a","a1",
STRING_0,STRING_1,STRING_2,STRING_3,STRING_4,STRING_5,STRING_6,STRING_7,

























