test_filter_list,eval,keySet,sort,
METHOD_0,METHOD_1,METHOD_2,METHOD_3,

FilterModule,_filterList,
IDENT_0,IDENT_1,







"return filter_list();",
STRING_0,

























