iteratorTest,WordIndex,
METHOD_0,METHOD_1,

typology,indexes,WordIndex,wi,indexFile,word,
IDENT_0,IDENT_1,IDENT_2,IDENT_3,IDENT_4,IDENT_5,


































