testFindGroupOverflow,RE2,
METHOD_0,METHOD_1,

logentries,re2_test,RE2,RE2Matcher,
IDENT_0,IDENT_1,IDENT_2,IDENT_3,







"(www\\.)?dandelion\\.eu","https://dandelion.eu/datatxt",
STRING_0,STRING_1,

























