testIterator,RE2,
METHOD_0,METHOD_1,

MatchResult,mr,logentries,re2_test,
IDENT_0,IDENT_1,IDENT_2,IDENT_3,







"t","input text",
STRING_0,STRING_1,

























