shouldCallOriginalConstructorBodySomehow,ClassWithSomeConstructors,
METHOD_0,METHOD_1,

robolectric,RealApisTest,ClassWithSomeConstructors,
IDENT_0,IDENT_1,IDENT_2,







"my name",
STRING_0,

























