testFindInstanceStaticMethod,findInstanceMethod,
METHOD_0,METHOD_1,

MethodHandle,mh,jmethods,catatumbo,IntrospectionUtils,ImmutablePhone,
IDENT_0,IDENT_1,IDENT_2,IDENT_3,IDENT_4,IDENT_5,







"getCountryCode",
STRING_0,

























