test3,toURI,toPath,createL1cProductMetadata,VirtualPath,getTiles,
METHOD_0,METHOD_1,METHOD_2,METHOD_3,METHOD_4,METHOD_5,

psd12RootXmlFileName,esa,s2tbx,dataio,s2,l1c,IL1cProductMetadata,productMetadata,L1cMetadataFactory,tiles,granuleName,
IDENT_0,IDENT_1,IDENT_2,IDENT_3,IDENT_4,IDENT_5,IDENT_6,IDENT_7,IDENT_8,IDENT_9,IDENT_10,







"l1c/metadata/S2A_OPER_MTD_SAFL1C_PDMC_20130621T120000_R065_V20091211T165928_20091211T170025.xml",
STRING_0,

























