testCreate,LocalizerFacade,
METHOD_0,METHOD_1,

i18nservice,LocalizerFacade,lf,localizer,
IDENT_0,IDENT_1,IDENT_2,IDENT_3,







"locale",
STRING_0,

























