test01WindowDecor,GLCapabilities,
METHOD_0,METHOD_1,

jogamp,opengl,GLCapabilities,caps,newt,TestGLWindows03NEWTAnimResize,glp,
IDENT_0,IDENT_1,IDENT_2,IDENT_3,IDENT_4,IDENT_5,IDENT_6,


































