testDeleteStudent,deleteStudent,
METHOD_0,METHOD_1,

deleteStudent,mybatis3,StudentServiceTest,studentService,
IDENT_0,IDENT_1,IDENT_2,IDENT_3,







"deleteStudent:",
STRING_0,

























