addTest,Label,
METHOD_0,METHOD_1,

javafx,scene,Label,label,label2,saxsys,leakscanner,WeakRef,label2Ref,leakedMap,TreeItem,
IDENT_0,IDENT_1,IDENT_2,IDENT_3,IDENT_4,IDENT_5,IDENT_6,IDENT_7,IDENT_8,IDENT_9,IDENT_10,







"Label 1","Label 2",
STRING_0,STRING_1,

























