testFindAllStudents,findAllStudents,
METHOD_0,METHOD_1,

mybatis3,Student,students,studentService,student,
IDENT_0,IDENT_1,IDENT_2,IDENT_3,IDENT_4,


































