testCreateBeanInvokesModelCreation,stub,toReturn,getInstance_,
METHOD_0,METHOD_1,METHOD_2,METHOD_3,

dspot,declex,usemodel,ModelUser_,RuntimeEnvironment,
IDENT_0,IDENT_1,IDENT_2,IDENT_3,IDENT_4,







"getModel_",
STRING_0,

























