checkCreation,MessageBusHandler,
METHOD_0,METHOD_1,

smart_tools,smartactors,message_bus,imessage_bus_handler,IMessageBusHandler,message_bus_handler,chain,iaction,IAction,
IDENT_0,IDENT_1,IDENT_2,IDENT_3,IDENT_4,IDENT_5,IDENT_6,IDENT_7,IDENT_8,


































