test4,DEPTH_FIRST_SEARCH,depth_first_search,
METHOD_0,METHOD_1,METHOD_2,

java_programs,nodef,resultStr,
IDENT_0,IDENT_1,IDENT_2,







"Path found!","Path not found!",
STRING_0,STRING_1,

























