testDropScript,clean,relaxed,
METHOD_0,METHOD_1,METHOD_2,

h,cleanHtml,Jsoup,safety,Whitelist,
IDENT_0,IDENT_1,IDENT_2,IDENT_3,IDENT_4,







"<SCRIPT SRC=//ha.ckers.org/.j><SCRIPT>alert(/XSS/.source)</SCRIPT>",
STRING_0,

























