testLookupNonExistant,lookup,getPattern,
METHOD_0,METHOD_1,METHOD_2,

strLookup,MarkerLookupTest,ABSENT_MARKER_NAME,FixedDateFormat,FixedFormat,nameOrPattern,
IDENT_0,IDENT_1,IDENT_2,IDENT_3,IDENT_4,IDENT_5,


































