test1,shortest_path_length,
METHOD_0,METHOD_1,

spl,java_testcases,SHORTEST_PATH_LENGTH_TEST,length_by_edge,node0,node1,
IDENT_0,IDENT_1,IDENT_2,IDENT_3,IDENT_4,IDENT_5,


































