translatesCollectionOfEnumsCorrectly,readValue,
METHOD_0,METHOD_1,

webmvc,JacksonSerializersUnitTests,Sample,SampleEnum,VALUE,
IDENT_0,IDENT_1,IDENT_2,IDENT_3,IDENT_4,







"{ \"collection\" : [ \"value\" ] }",
STRING_0,

























