findSessionsOnDayEdge,findSessionsOnDay,LocalDate,
METHOD_0,METHOD_1,METHOD_2,

springsource,greenhouse,EventSession,sessions,eventRepository,
IDENT_0,IDENT_1,IDENT_2,IDENT_3,IDENT_4,

2010,19,
INT_0,INT_1,































