bindsDateParameterForManuallyDefinedQueryCorrectly,findByCreatedAtLessThanManually,
METHOD_0,METHOD_1,

boyd,createdAt,
IDENT_0,IDENT_1,


































