testEquals,fromUTF8,
METHOD_0,METHOD_1,

netty4,zmtp,ZMTPMessage,m1,ZMTPMessageTest,ALLOC,m2,
IDENT_0,IDENT_1,IDENT_2,IDENT_3,IDENT_4,IDENT_5,IDENT_6,







"hello","world",
STRING_0,STRING_1,

























