testGetWeatherByCity,getWeatherByCity,
METHOD_0,METHOD_1,

weatherInformation,travelGateway,City,ATLANTA,samples,travel,TravelGatewayTest,
IDENT_0,IDENT_1,IDENT_2,IDENT_3,IDENT_4,IDENT_5,IDENT_6,







"Weather information for Atlanta:\n\n","\n\n",
STRING_0,STRING_1,

























