decodeExtended,SWFDecoder,ButtonSound,
METHOD_0,METHOD_1,METHOD_2,

extended,flagstone,coder,SWFDecoder,decoder,button,
IDENT_0,IDENT_1,IDENT_2,IDENT_3,IDENT_4,IDENT_5,


































