testPredefinedFormatWithoutTimezone,getPattern,
METHOD_0,METHOD_1,

FixedDateFormat,FixedFormat,DatePatternConverter,
IDENT_0,IDENT_1,IDENT_2,


































