testing2,ConverterEnum,ordinal,
METHOD_0,METHOD_1,METHOD_2,

specrunner,converters,ConverterEnum,ce,enumeration,ItemStatus,
IDENT_0,IDENT_1,IDENT_2,IDENT_3,IDENT_4,IDENT_5,







"ordinal",
STRING_0,

























