testGetNameConnectionIsNull,TalendCWMService,getReadableName,
METHOD_0,METHOD_1,METHOD_2,

TalendCWMService,talendCWMService,passedNamed,actualName,
IDENT_0,IDENT_1,IDENT_2,IDENT_3,







"name1",
STRING_0,

























