encodePassword,StandardPasswordEncoder,
METHOD_0,METHOD_1,

password,StandardPasswordEncoder,encoder,SecurityAclTest,USER_ADMIN,
IDENT_0,IDENT_1,IDENT_2,IDENT_3,IDENT_4,


































