testEqualsWithDifferentTypes,Constant,
METHOD_0,METHOD_1,

symbol,Constant,c1,c2,DataTypeManager,DefaultDataClasses,OBJECT,
IDENT_0,IDENT_1,IDENT_2,IDENT_3,IDENT_4,IDENT_5,IDENT_6,


































