testAbbreviatorPatterns,getAbbreviator,abbreviate,
METHOD_0,METHOD_1,METHOD_2,

NameAbbreviator,abbreviator,destination,
IDENT_0,IDENT_1,IDENT_2,


































