testSetup,DefaultHelpCommand,getParameters,getDescription,getPermission,
METHOD_0,METHOD_1,METHOD_2,METHOD_3,METHOD_4,

world,bentobox,CompositeCommand,DefaultHelpCommand,dhc,
IDENT_0,IDENT_1,IDENT_2,IDENT_3,IDENT_4,


































