testingPrivateMethodWithReflection,SomeClass,invokeMethod,
METHOD_0,METHOD_1,METHOD_2,

practicalunittesting,chp07,privatemethods,SomeClass,sut,powermock,Whitebox,
IDENT_0,IDENT_1,IDENT_2,IDENT_3,IDENT_4,IDENT_5,IDENT_6,

302483L,
INT_0,




"privateMethod",
STRING_0,

























