testCustomClock,getClock,createClock,
METHOD_0,METHOD_1,METHOD_2,

ClockFactory,PROPERTY_NAME,ClockFactoryTest,MyClock,
IDENT_0,IDENT_1,IDENT_2,IDENT_3,


































