testOpen_nonexisting,CTFTrace,CTFTraceReader,
METHOD_0,METHOD_1,METHOD_2,

tracecompass,ctf,CTFTrace,CTFTraceReader,
IDENT_0,IDENT_1,IDENT_2,IDENT_3,







"badfile.bad",
STRING_0,

























