testValidNonExistingDirectory,DirectoryTaskOutput,
METHOD_0,METHOD_1,

sejda,DirectoryTaskOutput,
IDENT_0,IDENT_1,







"I dont exist",
STRING_0,

























