doGetRequest,
METHOD_0,

li3huo,HttpServerTest,HttpTool,urlConsole,
IDENT_0,IDENT_1,IDENT_2,IDENT_3,







"action","status",
STRING_0,STRING_1,

























