testOps,Vector,subtract,multiply,divide,
METHOD_0,METHOD_1,METHOD_2,METHOD_3,METHOD_4,

tridentsdk,Vector,VectorsTest,CHANGE_TO,vec,CHANGE_TO_I,
IDENT_0,IDENT_1,IDENT_2,IDENT_3,IDENT_4,IDENT_5,


































