testNewAudience,writeValueAsString,readTree,
METHOD_0,METHOD_1,METHOD_2,

expectedAudienceString,parsedJson,urbanairship,createandsend,CreateAndSendEmailTest,PUSH_OBJECT_MAPPER,audience,JsonNode,
IDENT_0,IDENT_1,IDENT_2,IDENT_3,IDENT_4,IDENT_5,IDENT_6,IDENT_7,







"{\"create_and_send\":[{\"ua_address\":\"new@email.com\",\"ua_commercial_opted_in\":\"2018-11-29T10:34:22\"},{\"ua_address\":\"ben@icetown.com\",\"ua_transactional_opted_in\":\"2018-11-29T12:45:10\"}]}",
STRING_0,

























