testEscapeHtml1,escapeHtml,
METHOD_0,METHOD_1,

jp,vmi,selenese,EscapeUtils,
IDENT_0,IDENT_1,IDENT_2,IDENT_3,







"&lt;abc&gt;&amp;&quot;&#39;&#92;<br>\n","<abc>&\"\'\\\r\n","* HTML1\n exp: [","]\n act: [",
STRING_0,STRING_1,STRING_2,STRING_3,

























