whenReadUsingCharSource_thenRead,asCharSource,
METHOD_0,METHOD_1,

expectedValue,CharSource,Files,Charsets,
IDENT_0,IDENT_1,IDENT_2,IDENT_3,







"Hello world","src/test/resources/test1.in",
STRING_0,STRING_1,

























