shouldSortFromLowToHigh,sort,
METHOD_0,METHOD_1,

priorities,ro,isdc,wro,TestProviderPriority,MEDIUM_HIGH,HIGH,LOW,MEDIUM,Ordered,DESCENDING_COMPARATOR,
IDENT_0,IDENT_1,IDENT_2,IDENT_3,IDENT_4,IDENT_5,IDENT_6,IDENT_7,IDENT_8,IDENT_9,IDENT_10,


































