testGetParamType2,getMethod,getParamType,
METHOD_0,METHOD_1,METHOD_2,

fastquery,JudgeTest,where,Judge,
IDENT_0,IDENT_1,IDENT_2,IDENT_3,







"todo1","aa",
STRING_0,STRING_1,

























