testImplode,implode,
METHOD_0,METHOD_1,

expectedJavascript,generatedJavascript,odlabs,wiquery,JsUtils,MouseEvent,CLICK,DBLCLICK,JsUtilsTestCase,
IDENT_0,IDENT_1,IDENT_2,IDENT_3,IDENT_4,IDENT_5,IDENT_6,IDENT_7,IDENT_8,







"'click dblclick'",
STRING_0,

























