testMoreHotpIMF,arraycopy,transmitCommand,
METHOD_0,METHOD_1,METHOD_2,

imf,pkgYkneoOath,YkneoOath,PUT_INS,offs,NAME_TAG,KEY_TAG,OathObj,HMAC_SHA1,HOTP_TYPE,IMF_TAG,apdu,simulator,calc,CALCULATE_INS,CHALLENGE_TAG,resp,T_RESPONSE_TAG,
IDENT_0,IDENT_1,IDENT_2,IDENT_3,IDENT_4,IDENT_5,IDENT_6,IDENT_7,IDENT_8,IDENT_9,IDENT_10,IDENT_11,IDENT_12,IDENT_13,IDENT_14,IDENT_15,IDENT_16,IDENT_17,

49,51,52,53,54,55,56,57,48,256,65,126,234,144,
INT_0,INT_1,INT_2,INT_3,INT_4,INT_5,INT_6,INT_7,INT_8,INT_9,INT_10,INT_11,INT_12,INT_13,




"kaka",'k','a',
STRING_0,STRING_1,STRING_2,

























