testSamplingOnAlwaysSamples,
METHOD_0,

yammer,telemetry,tracing,Sampling,sampler,ON,
IDENT_0,IDENT_1,IDENT_2,IDENT_3,IDENT_4,IDENT_5,


































