testParseNumberInputWidth6,toGeneralText,doubleValue,
METHOD_0,METHOD_1,METHOD_2,

zkoss,zss,ToGeneralTextTest,VAL6,ss,NumberToGeneralTextConverter,Number,US,
IDENT_0,IDENT_1,IDENT_2,IDENT_3,IDENT_4,IDENT_5,IDENT_6,IDENT_7,







"Exception:","->",
STRING_0,STRING_1,

























