testHappyPathValidationForWholeObject,
METHOD_0,

constraintViolations,renren,infra,xweb,TestTest,
IDENT_0,IDENT_1,IDENT_2,IDENT_3,IDENT_4,


































