toStringByteArrayNullEncodingZeroBufSz,copy,
METHOD_0,METHOD_1,

probe,sw,IOUtil,encoding,bufferSize,
IDENT_0,IDENT_1,IDENT_2,IDENT_3,IDENT_4,







"A string ⍅ï",
STRING_0,

























