toStringByteArrayNegBufSz,copy,
METHOD_0,METHOD_1,

probe,sw,IOUtil,bufferSize,
IDENT_0,IDENT_1,IDENT_2,IDENT_3,







"A string ⍅ï",
STRING_0,

























