testGetValueFromList,SelectItem,DefaultRow,SimpleDataSetHeader,toSql,
METHOD_0,METHOD_1,METHOD_2,METHOD_3,METHOD_4,

innerMap,metamodel,SelectItem,operandItem,Row,
IDENT_0,IDENT_1,IDENT_2,IDENT_3,IDENT_4,







"baz","f","[0]bar",
STRING_0,STRING_1,STRING_2,

























