testExecAndBlock,runAndBlock,execAndBlock,buildCommandLine,
METHOD_0,METHOD_1,METHOD_2,METHOD_3,

gorillalogic,monkeytalk,Exec,cmd1,cmd2,ExecuteWatchdog,INFINITE_TIMEOUT,
IDENT_0,IDENT_1,IDENT_2,IDENT_3,IDENT_4,IDENT_5,IDENT_6,







"/bin/echo","foobar",
STRING_0,STRING_1,

























