testGetOneLatestIndex,setup,getLatestIndices,getIndices,
METHOD_0,METHOD_1,METHOD_2,METHOD_3,

existingIndices,metron,ElasticsearchColumnMetadataDao,includeIndices,latestIndices,indices,esClient,prefixEnd,INDEX_NAME_DELIMITER,prefix,latestIndex,
IDENT_0,IDENT_1,IDENT_2,IDENT_3,IDENT_4,IDENT_5,IDENT_6,IDENT_7,IDENT_8,IDENT_9,IDENT_10,







"bro_index_2017.10.03.19","bro_index_2017.10.03.20","bro_index_2017.10.03.21","snort_index_2017.10.03.19","snort_index_2017.10.03.20","snort_index_2017.10.03.21","bro","Getting latest indices; indices={}",
STRING_0,STRING_1,STRING_2,STRING_3,STRING_4,STRING_5,STRING_6,STRING_7,

























