testNotValid,Syslog3164Parser,configure,parseOptionalResult,
METHOD_0,METHOD_1,METHOD_2,METHOD_3,

Consumer,metron,parsers,syslog,Syslog3164Parser,
IDENT_0,IDENT_1,IDENT_2,IDENT_3,IDENT_4,







"not valid",
STRING_0,

























