testReadFromInputStream,OutputStreamCallback,fillBuffer,
METHOD_0,METHOD_1,METHOD_2,

flowfile,FlowFile,flowFile,OutputStream,StreamUtils,destination,
IDENT_0,IDENT_1,IDENT_2,IDENT_3,IDENT_4,IDENT_5,







"hello, world",
STRING_0,

























