shouldSetValidGroups,setGroups,getGroups,unmodifiableSet,
METHOD_0,METHOD_1,METHOD_2,METHOD_3,

victim,EMPTY_LIST,groups,
IDENT_0,IDENT_1,IDENT_2,


































