valueToString,randomUUID,expectTypeErrorInValueToString,
METHOD_0,METHOD_1,METHOD_2,

uuid,entitySet,
IDENT_0,IDENT_1,







'A',"ClientInlineEntitySet [entitySet=","super[","]]",
STRING_0,STRING_1,STRING_2,STRING_3,

























