nullForCompatibleTypeMustResultInEdmException,compatibleTo,
METHOD_0,METHOD_1,

edm,EdmType,startType,targetType,
IDENT_0,IDENT_1,IDENT_2,IDENT_3,


































