testAnnotationGroup,getAnnotationsGroup,FullQualifiedName,getAnnotations,
METHOD_0,METHOD_1,METHOD_2,METHOD_3,

edm,CsdlAnnotations,annotations,
IDENT_0,IDENT_1,IDENT_2,







"Org.OData.AnnoatationTest.TagX",
STRING_0,

























