testDefaultCondition,defaultCondition,isDefault,
METHOD_0,METHOD_1,METHOD_2,

oozie,fluentjob,Condition,defaultCondition,
IDENT_0,IDENT_1,IDENT_2,IDENT_3,


































