testWithWriter,PipesBuilder,withWriter,getWriter,
METHOD_0,METHOD_1,METHOD_2,METHOD_3,

oozie,fluentjob,PipesBuilder,Pipes,pipes,
IDENT_0,IDENT_1,IDENT_2,IDENT_3,IDENT_4,







"writer",
STRING_0,

























