testDifferentCaseLookup,StringList,getCaseInsensitive,
METHOD_0,METHOD_1,METHOD_2,

opennlp,StringList,entry1,entry2,dictionary,Dictionary,dict,
IDENT_0,IDENT_1,IDENT_2,IDENT_3,IDENT_4,IDENT_5,IDENT_6,







"1a","1b","1A","1B",
STRING_0,STRING_1,STRING_2,STRING_3,

























