testSerialization,getCaseInsensitive,StringList,Dictionary,getTokenSpans,
METHOD_0,METHOD_1,METHOD_2,METHOD_3,METHOD_4,

opennlp,dictionary,Dictionary,a1,a2,a3,a5,recreated,tokenize,TokenSample,
IDENT_0,IDENT_1,IDENT_2,IDENT_3,IDENT_4,IDENT_5,IDENT_6,IDENT_7,IDENT_8,IDENT_9,







"a1","a2","a3","a5",
STRING_0,STRING_1,STRING_2,STRING_3,

























