testDecodeOtherFirst,Span,endsWith,extractNameType,
METHOD_0,METHOD_1,METHOD_2,METHOD_3,

encoded,opennlp,namefind,BilouCodecTest,OTHER,A_UNIT,Span,A_TYPE,spans,li,chunkTag,BioCodec,START,CONTINUE,
IDENT_0,IDENT_1,IDENT_2,IDENT_3,IDENT_4,IDENT_5,IDENT_6,IDENT_7,IDENT_8,IDENT_9,IDENT_10,IDENT_11,IDENT_12,IDENT_13,


































