testContainsWithHigherIntersect,Span,getStart,getEnd,
METHOD_0,METHOD_1,METHOD_2,METHOD_3,

opennlp,Span,
IDENT_0,IDENT_1,

500,900,
INT_0,INT_1,































