testCompareToEqualsNullType2,Span,getStart,getEnd,
METHOD_0,METHOD_1,METHOD_2,METHOD_3,

opennlp,Span,
IDENT_0,IDENT_1,

30,
INT_0,































