retrieveNumberOfPages,getNumberOfPages,getDocumentCatalog,getPages,getCount,
METHOD_0,METHOD_1,METHOD_2,METHOD_3,METHOD_4,

pdfbox,pdmodel,PDDocument,TestPDDocumentCatalog,
IDENT_0,IDENT_1,IDENT_2,IDENT_3,







"test.unc.pdf",
STRING_0,

























