testArrayUpsertTimeWithNulls2,getConnection,getUrl,generateUniqueName,createStatement,prepareStatement,executeQuery,createArrayOf,Time,getArray,UnsupportedOperationException,
METHOD_0,METHOD_1,METHOD_2,METHOD_3,METHOD_4,METHOD_5,METHOD_6,METHOD_7,METHOD_8,METHOD_9,METHOD_10,

end2end,Connection,DriverManager,t12,PreparedStatement,Array,Time,
IDENT_0,IDENT_1,IDENT_2,IDENT_3,IDENT_4,IDENT_5,IDENT_6,

1432102334184L,
INT_0,




"CREATE TABLE "," ( k VARCHAR PRIMARY KEY, a TIME[])","UPSERT INTO "," VALUES('a',ARRAY[TO_TIME('1970-01-01 00:00:00.000'), TO_TIME('2015-05-20 06:12:14.184'),null,TO_TIME('2015-05-20 06:12:14.184'),null])","Select a from "," where k = 'a'","TIME","Currently not supported",
STRING_0,STRING_1,STRING_2,STRING_3,STRING_4,STRING_5,STRING_6,STRING_7,

























