testExceptionCode,fromErrorCode,getErrorCode,
METHOD_0,METHOD_1,METHOD_2,

SQLExceptionCode,AGGREGATE_IN_GROUP_BY,errorCode,
IDENT_0,IDENT_1,IDENT_2,


































