testRestoreDirInput,UpdateStatisticsTool,parseArgs,getRestoreDir,
METHOD_0,METHOD_1,METHOD_2,METHOD_3,

stats,UpdateStatisticsTool,tool,restoreDir,
IDENT_0,IDENT_1,IDENT_2,IDENT_3,







"-t","table1","-d","fs:/path",
STRING_0,STRING_1,STRING_2,STRING_3,

























