should_return_this_if_actual_is_equal_to_expected,isEqualTo,assertEqualTo,
METHOD_0,METHOD_1,METHOD_2,

fest,assertions,BigDecimalAssert,returned,
IDENT_0,IDENT_1,IDENT_2,IDENT_3,


































