testCreatePropertySets,
METHOD_0,

hpsf,NoPropertySetStreamException,SummaryInformation,poiFiles,PropertySetFactory,MarkUnsupportedException,
IDENT_0,IDENT_1,IDENT_2,IDENT_3,IDENT_4,IDENT_5,


































