should_return_this,isFalse,isEqualTo,
METHOD_0,METHOD_1,METHOD_2,

fest,assertions,BooleanAssert,returned,
IDENT_0,IDENT_1,IDENT_2,IDENT_3,


































