should_return_this,assertContains,
METHOD_0,METHOD_1,

fest,assertions,ByteArrayAssert,returned,arrays,
IDENT_0,IDENT_1,IDENT_2,IDENT_3,IDENT_4,


































