testGetBodyLength,createBytesMessage,writeLong,reset,getBodyLength,initializeReading,
METHOD_0,METHOD_1,METHOD_2,METHOD_3,METHOD_4,METHOD_5,

qpid,JmsBytesMessage,facade,
IDENT_0,IDENT_1,IDENT_2,

5L,
INT_0,































