testEraseQueryIgnoresQueryInCompositeURI,eraseQuery,replaceQuery,
METHOD_0,METHOD_1,METHOD_2,

updated,qpid,PropertyUtil,
IDENT_0,IDENT_1,IDENT_2,







"failover:(amqp://example.com:5672?amqp.traceFrames=true)",
STRING_0,

























