testStripPrefixNullPrefix,stripPrefix,
METHOD_0,METHOD_1,

qpid,PropertyUtil,prefix,
IDENT_0,IDENT_1,IDENT_2,







"prefixed.option",
STRING_0,

























