should_return_this,isLowerCase,assertLowerCase,
METHOD_0,METHOD_1,METHOD_2,

fest,assertions,CharacterAssert,returned,characters,
IDENT_0,IDENT_1,IDENT_2,IDENT_3,IDENT_4,


































