testGetView,RfParametersPresenterImpl,getView,
METHOD_0,METHOD_1,METHOD_2,

oswego,csc480_hci521_2013,presenters,RfParametersPresenter,RfParametersPresenterTest,View,
IDENT_0,IDENT_1,IDENT_2,IDENT_3,IDENT_4,IDENT_5,







"getView",
STRING_0,

























