testGetObject,JmsObjectMessage,getObject,
METHOD_0,METHOD_1,METHOD_2,

rocketmq,JmsObjectMessage,jmsObjectMessage,JmsObjectMessageTest,JMSException,
IDENT_0,IDENT_1,IDENT_2,IDENT_3,IDENT_4,







"jack",
STRING_0,

























