testHmacSha256,hmacSha,
METHOD_0,METHOD_1,

hmac,Crypto,HMACType,HMACSHA256,
IDENT_0,IDENT_1,IDENT_2,IDENT_3,

69,128,94,46,40,43,24,76,93,28,70,101,124,111,56,38,103,41,83,53,45,36,21,73,32,
INT_0,INT_1,INT_2,INT_3,INT_4,INT_5,INT_6,INT_7,INT_8,INT_9,INT_10,INT_11,INT_12,INT_13,INT_14,INT_15,INT_16,INT_17,INT_18,INT_19,INT_20,INT_21,INT_22,INT_23,INT_24,




"abcd1234","your mother is a hedgehog",
STRING_0,STRING_1,

























