testManyEntries,newHashMap,wrap,unwrap,clean,
METHOD_0,METHOD_1,METHOD_2,METHOD_3,METHOD_4,

Maps,blob,crypter,resourceMap,
IDENT_0,IDENT_1,IDENT_2,IDENT_3,







"Missing resource: ",
STRING_0,

























