parseWrongTimeZone,parseRfc1123Date,parseDateTime,toDate,
METHOD_0,METHOD_1,METHOD_2,METHOD_3,

expires,DateUtil,RFC1123_DATE_FORMAT,dateStr,
IDENT_0,IDENT_1,IDENT_2,IDENT_3,







"Mon, 12 May 2008 09:23:29 PDT",
STRING_0,

























