jsonArraySupport,addVariable,JSONArray,cast,
METHOD_0,METHOD_1,METHOD_2,METHOD_3,

ValueExpression,
IDENT_0,







"array","[1, 2]","${array[0] + array[1]}",
STRING_0,STRING_1,STRING_2,

























