setResponseString,HttpResponseBuilder,getResponseAsString,wrap,codePointAt,
METHOD_0,METHOD_1,METHOD_2,METHOD_3,METHOD_4,

gadgets,HttpResponse,resp,responseString,encoding,responseBytes,
IDENT_0,IDENT_1,IDENT_2,IDENT_3,IDENT_4,IDENT_5,

65279,
INT_0,































