testIsTokenEndpointResponse_1,isTokenEndpointResponse,
METHOD_0,METHOD_1,

gadgets,oauth2,CodeGrantTypeHandler,CodeGrantTypeHandlerTest,cgth,
IDENT_0,IDENT_1,IDENT_2,IDENT_3,IDENT_4,


































