testIsAllowModuleOverride_2,isAllowModuleOverride,
METHOD_0,METHOD_1,

gadgets,oauth2,OAuth2ClientTest,client2,allowModuleOverride,
IDENT_0,IDENT_1,IDENT_2,IDENT_3,IDENT_4,


































