should_use_TypeRef_to_write_property,ofType,
METHOD_0,METHOD_1,

fest,Reflection_property_Test,Reflection,TypeRef,
IDENT_0,IDENT_1,IDENT_2,IDENT_3,







"Yoda",
STRING_0,

























