testSplitJsSupported,DefaultConfig,isSplitJsEnabled,
METHOD_0,METHOD_1,METHOD_2,

defaultRewriterFeature,gadgets,rewrite,ContentRewriterFeature,TAGS,enableSplitJs,
IDENT_0,IDENT_1,IDENT_2,IDENT_3,IDENT_4,IDENT_5,







"0",
STRING_0,

























