beforeAllAttempts,SimpleAuthenticationInfo,
METHOD_0,METHOD_1,

shiro,authc,AuthenticationInfo,authenticationInfo,pam,AuthenticationToken,
IDENT_0,IDENT_1,IDENT_2,IDENT_3,IDENT_4,IDENT_5,


































