should_return_empty_List_if_given_Iterable_is_empty,nonNullElementsIn,isNullOrEmpty,
METHOD_0,METHOD_1,METHOD_2,

Iterable,fest,Iterables,nonNull,
IDENT_0,IDENT_1,IDENT_2,IDENT_3,


































