testDetectUser,TwitterDocumentClassifier,detectClasses,
METHOD_0,METHOD_1,METHOD_2,

detected,twitter,pojo,
IDENT_0,IDENT_1,IDENT_2,


































