should_return_null_if_object_does_not_belong_to_given_type,castIfBelongsToType,isAssignableFrom,cast,
METHOD_0,METHOD_1,METHOD_2,METHOD_3,

casted,fest,Objects,
IDENT_0,IDENT_1,IDENT_2,


































