should_return_Set_containing_all_elements_in_array,newLinkedHashSet,checkNotNull,
METHOD_0,METHOD_1,METHOD_2,

LinkedHashSet,fest,Sets,Preconditions,
IDENT_0,IDENT_1,IDENT_2,IDENT_3,







"One","Two",
STRING_0,STRING_1,

























