testSchemaSchema,getRootColumns,Stack,push,visit,deleteCharAt,
METHOD_0,METHOD_1,METHOD_2,METHOD_3,METHOD_4,METHOD_5,

tajo,schema2,SchemaBuilder,Stack,Expr,stack,TajoException,nameBuilder,
IDENT_0,IDENT_1,IDENT_2,IDENT_3,IDENT_4,IDENT_5,IDENT_6,IDENT_7,


































