normalizeName,forLanguageTag,
METHOD_0,METHOD_1,

languageA,tika,language,detect,LanguageNames,languageB,localeA,languageTagA,localeB,languageTagB,
IDENT_0,IDENT_1,IDENT_2,IDENT_3,IDENT_4,IDENT_5,IDENT_6,IDENT_7,IDENT_8,IDENT_9,







"zh-yue","yue",
STRING_0,STRING_1,

























