testParseEmpty,BodyContentHandler,HtmlParser,Metadata,ParseContext,
METHOD_0,METHOD_1,METHOD_2,METHOD_3,METHOD_4,

sax,ContentHandler,tika,resourceId,started,
IDENT_0,IDENT_1,IDENT_2,IDENT_3,IDENT_4,







"FileStarted [resourceId=",", started=",
STRING_0,STRING_1,

























