parseOfficeWord,Metadata,OfficeParser,getXML,getTestDocument,
METHOD_0,METHOD_1,METHOD_2,METHOD_3,METHOD_4,

tika,Metadata,Parser,charset,Charset,StandardCharsets,US_ASCII,
IDENT_0,IDENT_1,IDENT_2,IDENT_3,IDENT_4,IDENT_5,IDENT_6,







"test.doc",
STRING_0,

























