testListAttributeListOfAttribute,Attribute,ListAttribute,
METHOD_0,METHOD_1,METHOD_2,

tiles,Attribute,ListAttribute,attribute,
IDENT_0,IDENT_1,IDENT_2,IDENT_3,







"value1","value2",
STRING_0,STRING_1,

























