testGetMajorVersion,getMajorVersion,ServletContextAdapter,
METHOD_0,METHOD_1,METHOD_2,

servletContext,tiles,ServletContextAdapter,rootContext,
IDENT_0,IDENT_1,IDENT_2,IDENT_3,


































