testGetResource,ServletContextAdapter,
METHOD_0,METHOD_1,

servletContext,tiles,ServletContextAdapter,
IDENT_0,IDENT_1,IDENT_2,







"file:///temporary","whatever",
STRING_0,STRING_1,

























