shouldHandleList,assumeThat,serializeDeserialize,writeValue,readValue,
METHOD_0,METHOD_1,METHOD_2,METHOD_3,METHOD_4,

Assume,StringStartsWith,shaded,ObjectMapper,inputStream,
IDENT_0,IDENT_1,IDENT_2,IDENT_3,IDENT_4,

5L,
INT_0,




"v3",
STRING_0,

























