shouldRemoveAKeyAndReturnEmpty,
METHOD_0,

kvs,gremlin,structure,ElementHelper,ObjectWritable,
IDENT_0,IDENT_1,IDENT_2,IDENT_3,IDENT_4,







"this",
STRING_0,

























