shouldIterate,AtomicInteger,addToQueue,incrementAndGet,
METHOD_0,METHOD_1,METHOD_2,METHOD_3,

itty,resultSet,AtomicInteger,counter,
IDENT_0,IDENT_1,IDENT_2,IDENT_3,


































