shouldGenerateCorrectSqlForMathOperations15,getSqlFrom,plus,bracket,divideBy,literal,expectedSqlForMathOperations15,
METHOD_0,METHOD_1,METHOD_2,METHOD_3,METHOD_4,METHOD_5,METHOD_6,

testDialect,alfasoftware,morf,SqlUtils,
IDENT_0,IDENT_1,IDENT_2,IDENT_3,







"c","a + (b + c) / 2",
STRING_0,STRING_1,

























