shouldPrintTheFeatureList,getSimpleName,features,
METHOD_0,METHOD_1,METHOD_2,

gremlin,structure,FeatureSupportTest,
IDENT_0,IDENT_1,IDENT_2,







"Printing Features of %s for reference: ",":",
STRING_0,STRING_1,

























