shouldAutotypeBooleanProperties,addVertex,
METHOD_0,METHOD_1,

gremlin,structure,Vertex,VertexProperty,Cardinality,single,best,
IDENT_0,IDENT_1,IDENT_2,IDENT_3,IDENT_4,IDENT_5,IDENT_6,







"boolean",
STRING_0,

























