testJoinSingleElement,LinkedHashSet,
METHOD_0,METHOD_1,

separator,catalina,CorsFilter,joinSeparator,isFirst,
IDENT_0,IDENT_1,IDENT_2,IDENT_3,IDENT_4,







",","world",
STRING_0,STRING_1,

























