testCommaDelimitedListToStringArrayEmptyList,listToCommaDelimitedString,
METHOD_0,METHOD_1,

catalina,RemoteIpFilter,stringList,
IDENT_0,IDENT_1,IDENT_2,







", ",
STRING_0,

























