testPerformance,testPerformanceImpl,
METHOD_0,METHOD_1,

maxTime,jsse,openssl,Cipher,idMap,cipherId,
IDENT_0,IDENT_1,IDENT_2,IDENT_3,IDENT_4,IDENT_5,

5000,
INT_0,




"testPerformance() test completed in "," ms","testPerformance() test rerun completed in ",
STRING_0,STRING_1,STRING_2,

























