testBug56568b,getTomcatInstanceTestWebapp,methodUrl,getPort,ByteChunk,getConnector,getLocalPort,
METHOD_0,METHOD_1,METHOD_2,METHOD_3,METHOD_4,METHOD_5,METHOD_6,

rc,
IDENT_0,

500000,
INT_0,




"http://localhost:","/test/jsp/error.jsp","PUT",
STRING_0,STRING_1,STRING_2,

























