lookupValidator,InitialContext,lookup,getThreadContext,
METHOD_0,METHOD_1,METHOD_2,METHOD_3,

Validator,naming,Name,
IDENT_0,IDENT_1,IDENT_2,







"java:comp/Validator",
STRING_0,

























