noTimerForABeanWhichDidntCreatedAny,addAsResource,
METHOD_0,METHOD_1,

shrinkwrap,ShrinkWrap,WebArchive,EmptyAsset,
IDENT_0,IDENT_1,IDENT_2,IDENT_3,







"javaagent.war",
STRING_0,

























