testEqualsNew,Scope,
METHOD_0,METHOD_1,

tuscany,sca,scope,Scope,foo,foo2,implementation,spring,SpringImplementation,
IDENT_0,IDENT_1,IDENT_2,IDENT_3,IDENT_4,IDENT_5,IDENT_6,IDENT_7,IDENT_8,







"FOO",
STRING_0,

























