testSayHello,getService,sayHello,wait,
METHOD_0,METHOD_1,METHOD_2,METHOD_3,

tuscany,sca,OneWayService,OneWayServiceImpl,lock,
IDENT_0,IDENT_1,IDENT_2,IDENT_3,IDENT_4,

5000,
INT_0,

synchronized,
MOD_0,

"OneWayClient","petra","Hello ",
STRING_0,STRING_1,STRING_2,

























