testRequiredFalseReference,getDReference,dFoo,
METHOD_0,METHOD_1,METHOD_2,

tuscany,sca,itest,references,AutoWiredReferenceTestCase,acomponent,
IDENT_0,IDENT_1,IDENT_2,IDENT_3,IDENT_4,IDENT_5,







"DComponent",
STRING_0,

























