getRunners,getUrl,getDynamicProperties,
METHOD_0,METHOD_1,METHOD_2,

usergrid,chop,webapp,RunnerDaoTest,Runner,ESSuiteTest,runnerDao,USER_2,COMMIT_ID_2,MODULE_ID_2,runnersAfter,
IDENT_0,IDENT_1,IDENT_2,IDENT_3,IDENT_4,IDENT_5,IDENT_6,IDENT_7,IDENT_8,IDENT_9,IDENT_10,







"\n===RunnerDaoTest.delete===\n","Runners before delete: ",
STRING_0,STRING_1,

























