testReduceEmpty,reduce,toBlocking,last,
METHOD_0,METHOD_1,METHOD_2,METHOD_3,

rx,Observable,integer,integer2,
IDENT_0,IDENT_1,IDENT_2,IDENT_3,


































