testBatchCreate,testBatchRequest,getEntity,
METHOD_0,METHOD_1,METHOD_2,

LinkedHashMap,usergrid,ServiceAction,POST,
IDENT_0,IDENT_1,IDENT_2,IDENT_3,







"username","test_user_1","email","user1@test.com","test_user_2","test_user_3","users",
STRING_0,STRING_1,STRING_2,STRING_3,STRING_4,STRING_5,STRING_6,

























