testMimeHeaderUnfoldWS_2,unfoldWhitespace,toCharArray,
METHOD_0,METHOD_1,METHOD_2,

chars,character,AttachmentUtils,SPACE,HTAB,
IDENT_0,IDENT_1,IDENT_2,IDENT_3,IDENT_4,


































