reloadRepositories,httpGet,releaseConnection,
METHOD_0,METHOD_1,METHOD_2,

httpclient,GetMethod,
IDENT_0,IDENT_1,







"/notebook-repositories/reload",
STRING_0,

























