testConvertDateToString,GregorianCalendar,convertDateToString,getDateTime,getDatePattern,
METHOD_0,METHOD_1,METHOD_2,METHOD_3,METHOD_4,

appfuse,cal,DateUtil,aDate,
IDENT_0,IDENT_1,IDENT_2,IDENT_3,

2005,
INT_0,































