testCreate,
METHOD_0,

sandia,cognition,learning,baseline,ConstantLearner,matrix,rowIndex,columnIndex,
IDENT_0,IDENT_1,IDENT_2,IDENT_3,IDENT_4,IDENT_5,IDENT_6,IDENT_7,







"some value",
STRING_0,

























