testAsTerm,DefaultTerm,asTerm,
METHOD_0,METHOD_1,METHOD_2,

sandia,cognition,term,DefaultTerm,
IDENT_0,IDENT_1,IDENT_2,IDENT_3,


































