testNonIntegerArgs,NumberConstant,Mod,QueryContext,eval,Row,
METHOD_0,METHOD_1,METHOD_2,METHOD_3,METHOD_4,METHOD_5,

araqne,logdb,Expression,num,divisor,Mod,mod,
IDENT_0,IDENT_1,IDENT_2,IDENT_3,IDENT_4,IDENT_5,IDENT_6,










10.3F,
FLOAT_0,






















