testEq,parseExpr,eval,forString,
METHOD_0,METHOD_1,METHOD_2,METHOD_3,

araqne,logdb,Expression,Row,valueExpr,ip,ToIp,InetAddresses,
IDENT_0,IDENT_1,IDENT_2,IDENT_3,IDENT_4,IDENT_5,IDENT_6,IDENT_7,

4294967295L,
INT_0,




"1 == 0",
STRING_0,

























