testEscape2,SearchParser,setQueryParserService,Output,setOutput,QueryCommandPipe,Row,onPush,
METHOD_0,METHOD_1,METHOD_2,METHOD_3,METHOD_4,METHOD_5,METHOD_6,METHOD_7,

araqne,logdb,SearchParser,queryParserService,Search,SearchParserTest,Output,Row,last,
IDENT_0,IDENT_1,IDENT_2,IDENT_3,IDENT_4,IDENT_5,IDENT_6,IDENT_7,IDENT_8,







"search in (method,\"<iframe src=\\\"http://www.w3schools.com\\\">,,,,,,\\\"<,,</iframe>\"2,,\\\"<,,</iframe>\"0<<<\\\"<,,</iframe>\") and d_port == \"21\"","d_port","21","method","<iframe src=\"http://www.w3schools.com\">,,,,,,\"<,,</iframe>\"1,,\"<\"<<<\"<,,</iframe>",
STRING_0,STRING_1,STRING_2,STRING_3,STRING_4,

























