testCreateHeaderWithSemicolon,setDelimiter,createHeader,
METHOD_0,METHOD_1,METHOD_2,

exporter,fDelimiter,
IDENT_0,IDENT_1,







';',"One","Two","Three","\"One\";\"Two\";\"Three\"","\"",
STRING_0,STRING_1,STRING_2,STRING_3,STRING_4,STRING_5,

























