getStringCharacters2,getStringCharacters,
METHOD_0,METHOD_1,

archimatetool,editor,amount,
IDENT_0,IDENT_1,IDENT_2,







"*",
STRING_0,

























