getMatchingStringTest,getMatchingStrings,toUpperCase,
METHOD_0,METHOD_1,METHOD_2,

tables,matchList,strider,datadefender,CommonUtils,ENGLISH,CommonUtilsTest,fileName,
IDENT_0,IDENT_1,IDENT_2,IDENT_3,IDENT_4,IDENT_5,IDENT_6,IDENT_7,







"INTER.*","TEST.*","INTER_TEST",".",
STRING_0,STRING_1,STRING_2,STRING_3,

























