testExercise7filter,forEach,UnsupportedOperationException,
METHOD_0,METHOD_1,METHOD_2,

learnrxjava,ComposableList,slr,ComposableListSolutions,Predicate,ComposableListExercises,itemInList,
IDENT_0,IDENT_1,IDENT_2,IDENT_3,IDENT_4,IDENT_5,IDENT_6,







"----------- testExercise7 filter ----------------","Not implemented yet.",
STRING_0,STRING_1,

























