testGetSetLabelsDisplayedKO,setLabelsDisplayed,getLabelsDisplayed,
METHOD_0,METHOD_1,METHOD_2,

shape,PlottingStyle,ALL,labelsDisplayed,
IDENT_0,IDENT_1,IDENT_2,IDENT_3,


































