testNotValidEquation,setPlotEquation,getPlotEquation,
METHOD_0,METHOD_1,METHOD_2,

shape,equation,
IDENT_0,IDENT_1,







"x",
STRING_0,

























