testParse,buildForTest,Material,
METHOD_0,METHOD_1,METHOD_2,

otter,canal,mysql,packets,MysqlGTIDSet,cases,MysqlGTIDSetTest,
IDENT_0,IDENT_1,IDENT_2,IDENT_3,IDENT_4,IDENT_5,IDENT_6,







"726757ad-4455-11e8-ae04-0242ac110002:1","726757ad-4455-11e8-ae04-0242ac110002","726757ad-4455-11e8-ae04-0242ac110002:1-3","726757ad-4455-11e8-ae04-0242ac110002:1-3:4","726757ad-4455-11e8-ae04-0242ac110002:1-3:7-9","726757ad-4455-11e8-ae04-0242ac110002:1-3,726757ad-4455-11e8-ae04-0242ac110003:4","726757ad-4455-11e8-ae04-0242ac110003",
STRING_0,STRING_1,STRING_2,STRING_3,STRING_4,STRING_5,STRING_6,

























