shouldGetCorrectMetadata,TestCube,addMetadata,TestMetadataImpl,getMetadata,
METHOD_0,METHOD_1,METHOD_2,METHOD_3,METHOD_4,

arquillian,cube,Cube,CubeMetadataTest,TestMetadata,X,
IDENT_0,IDENT_1,IDENT_2,IDENT_3,IDENT_4,IDENT_5,


































