tagAbiPairComparisionWhenEqual,TagAbiPair,
METHOD_0,METHOD_1,

arquillian,droidium,TagAbiPair,tagAbiPair1,TAG,DEFAULT,ABI,ARMEABI,tagAbiPair2,Target,
IDENT_0,IDENT_1,IDENT_2,IDENT_3,IDENT_4,IDENT_5,IDENT_6,IDENT_7,IDENT_8,IDENT_9,


































