testPrecedenceOrder,createList,sort,
METHOD_0,METHOD_1,METHOD_2,

arquillian,drone,Sortable,sortable1,sortable2,sortable3,PrecedenceComparator,
IDENT_0,IDENT_1,IDENT_2,IDENT_3,IDENT_4,IDENT_5,IDENT_6,


































