getByCodeWithLowerCaseAlpha2CodeShouldReturnCountry,getByCode,getAlpha2,
METHOD_0,METHOD_1,METHOD_2,

iban4j,CountryCode,newCode,
IDENT_0,IDENT_1,IDENT_2,


































