search_selection_multiple,touch,getTempFileSystem,getBase,compile,normalize,endsWith,
METHOD_0,METHOD_1,METHOD_2,METHOD_3,METHOD_4,METHOD_5,METHOD_6,

FileSystem,FileStatus,directio,HadoopDataSourceUtil,FilePattern,
IDENT_0,IDENT_1,IDENT_2,IDENT_3,IDENT_4,







"a/a.csv","a/b.csv","a/c.csv","b/a.csv","b/b.csv","b/c.csv","c/a.csv","c/b.csv","c/c.csv","{a|b}/{b|c}.csv",
STRING_0,STRING_1,STRING_2,STRING_3,STRING_4,STRING_5,STRING_6,STRING_7,STRING_8,STRING_9,

























