createEmpty,ArrayListBuffer,begin,shrink,
METHOD_0,METHOD_1,METHOD_2,METHOD_3,

ArrayListBuffer,ArrayListBufferTest,Holder,sizeInList,
IDENT_0,IDENT_1,IDENT_2,IDENT_3,


































