AstSimpleName,addFirst,toMemberName,
METHOD_0,METHOD_1,METHOD_2,

dmdl,JavaName,jn,
IDENT_0,IDENT_1,IDENT_2,







"this is a test","is",
STRING_0,STRING_1,

























