terminated,fetch,ExpectConstant,Equals,
METHOD_0,METHOD_1,METHOD_2,METHOD_3,

lines,testdriver,
IDENT_0,IDENT_1,







"Hello, world!",
STRING_0,

























