null_value,withField,self,
METHOD_0,METHOD_1,METHOD_2,

RecordDefinition,def,CharSequence,
IDENT_0,IDENT_1,IDENT_2,







"A","B",
STRING_0,STRING_1,

























