output_header,createOutput,dump,deserialize,
METHOD_0,METHOD_1,METHOD_2,METHOD_3,

directio,AbstractTextStreamFormatTest,MockFormat,HeaderType,FORCE,ModelOutput,charset,StandardCharsets,
IDENT_0,IDENT_1,IDENT_2,IDENT_3,IDENT_4,IDENT_5,IDENT_6,IDENT_7,







"c","dummy","A","B","C","D","E","F",":",
STRING_0,STRING_1,STRING_2,STRING_3,STRING_4,STRING_5,STRING_6,STRING_7,STRING_8,

























