skip_empty_trim,withSkipEmptyInput,withTrimInput,withField,self,
METHOD_0,METHOD_1,METHOD_2,METHOD_3,METHOD_4,

RecordDefinition,def,CharSequence,
IDENT_0,IDENT_1,IDENT_2,







"A","B","C",
STRING_0,STRING_1,STRING_2,

























