header_force,withHeaderType,withField,self,BasicParameterTable,
METHOD_0,METHOD_1,METHOD_2,METHOD_3,METHOD_4,

RecordDefinition,def,HeaderType,FORCE,iterative,basic,
IDENT_0,IDENT_1,IDENT_2,IDENT_3,IDENT_4,IDENT_5,







"A","B","C","D",
STRING_0,STRING_1,STRING_2,STRING_3,

























