newInstance_home,putExec,putConf,getRoot,ConfigurationProvider,isLoaded,
METHOD_0,METHOD_1,METHOD_2,METHOD_3,METHOD_4,METHOD_5,

envp,folder,
IDENT_0,IDENT_1,







"bin/hadoop","conf/hadoop-env.sh","conf/core-site.xml","HADOOP_HOME","testing.conf","not added","added",
STRING_0,STRING_1,STRING_2,STRING_3,STRING_4,STRING_5,STRING_6,

























