writable_zero,DateOption,modify,restore,
METHOD_0,METHOD_1,METHOD_2,METHOD_3,

DateOption,option,restored,canGet,
IDENT_0,IDENT_1,IDENT_2,IDENT_3,


































