write_min,DecimalOption,modify,decimal,restore,
METHOD_0,METHOD_1,METHOD_2,METHOD_3,METHOD_4,

DecimalOption,option,MIN_VALUE,restored,canGet,
IDENT_0,IDENT_1,IDENT_2,IDENT_3,IDENT_4,


































