read_empty_file,readString,open,
METHOD_0,METHOD_1,METHOD_2,

JsonFormat,JsonFormatTest,Data,ModelInput,IOPTS,inputs,
IDENT_0,IDENT_1,IDENT_2,IDENT_3,IDENT_4,IDENT_5,







"<testing>","// comment only",
STRING_0,STRING_1,

























