DecimalOption,MockValue,AstSimpleName,addFirst,toMemberName,
METHOD_0,METHOD_1,METHOD_2,METHOD_3,METHOD_4,

DecimalOptionPropertyAdapter,DecimalOption,option,dmdl,JavaName,jn,
IDENT_0,IDENT_1,IDENT_2,IDENT_3,IDENT_4,IDENT_5,







"123.45","is",
STRING_0,STRING_1,

























