write_null_absent,withNullStyle,MockValue,IntOption,
METHOD_0,METHOD_1,METHOD_2,METHOD_3,

IntOptionPropertyAdapter,NullStyle,ABSENT,MockValue,canGet,
IDENT_0,IDENT_1,IDENT_2,IDENT_3,IDENT_4,







"ABSENT",
STRING_0,

























