false_format,generateJavaFromLines,restore,newModel,setOption,BooleanOption,
METHOD_0,METHOD_1,METHOD_2,METHOD_3,METHOD_4,METHOD_5,

dmdl,directio,tabular,ModelLoader,loaded,contents,
IDENT_0,IDENT_1,IDENT_2,IDENT_3,IDENT_4,IDENT_5,







"@directio.text.tabular("," false_format = 'B',",")","simple = {"," a : BOOLEAN;"," b : BOOLEAN;","};","Simple",
STRING_0,STRING_1,STRING_2,STRING_3,STRING_4,STRING_5,STRING_6,STRING_7,

























