nested,AstSimpleName,addFirst,toMemberName,
METHOD_0,METHOD_1,METHOD_2,METHOD_3,

dmdl,JavaName,jn,
IDENT_0,IDENT_1,IDENT_2,







"root","mkdir","a/b/c","is",
STRING_0,STRING_1,STRING_2,STRING_3,

























