skip_directory,describeTo,appendText,appendValue,
METHOD_0,METHOD_1,METHOD_2,METHOD_3,

BaseMatcher,directio,Description,
IDENT_0,IDENT_1,IDENT_2,







"root","a/b.txt","delete","exists ",
STRING_0,STRING_1,STRING_2,STRING_3,

























