verbose,addTransaction,useStageDir,touch,not,Not,
METHOD_0,METHOD_1,METHOD_2,METHOD_3,METHOD_4,METHOD_5,

stage,testdriver,ValuePredicate,predicate,
IDENT_0,IDENT_1,IDENT_2,IDENT_3,







"root","testing","a.txt","transaction","abort","-v","predicate must not be null",
STRING_0,STRING_1,STRING_2,STRING_3,STRING_4,STRING_5,STRING_6,

























