collectNearest_overlap,addPath,collectNearest,
METHOD_0,METHOD_1,METHOD_2,

Graph,Graphs,GraphsTest,CharSequence,
IDENT_0,IDENT_1,IDENT_2,IDENT_3,


































