collectNearest_dominants,addPath,collectNearest,
METHOD_0,METHOD_1,METHOD_2,

Graph,Graphs,GraphsTest,newBytes,newOffset,newKeyLength,newValueLength,
IDENT_0,IDENT_1,IDENT_2,IDENT_3,IDENT_4,IDENT_5,IDENT_6,


































