testWithNullTarget,MapExtractor,extract,
METHOD_0,METHOD_1,METHOD_2,

seovic,extractor,MapExtractor,
IDENT_0,IDENT_1,IDENT_2,







"prop","Extraction target is not a Map",
STRING_0,STRING_1,

























