testEscapeRoundTrip,escape,unescape,
METHOD_0,METHOD_1,METHOD_2,

atilika,kuromoji,DictionaryEntryLineParser,foundQuote,QUOTE,
IDENT_0,IDENT_1,IDENT_2,IDENT_3,IDENT_4,







"3,\"14","\"3,\"\"14\"",
STRING_0,STRING_1,

























