testDeserializesWhenNoGoalKey,fromJson,goals,
METHOD_0,METHOD_1,METHOD_2,

teamDataWithoutGoalsString,atlasapi,remotesite,opta,sports,SportsTeamData,
IDENT_0,IDENT_1,IDENT_2,IDENT_3,IDENT_4,IDENT_5,







"{ \"@value\": \"\", \"@attributes\": { \"Side\": \"Home\", \"TeamRef\": \"t110\" } }",
STRING_0,

























