testDeserializesObjectGoals,fromJson,goals,
METHOD_0,METHOD_1,METHOD_2,

goalsObjectString,atlasapi,remotesite,opta,sports,SportsTeamData,
IDENT_0,IDENT_1,IDENT_2,IDENT_3,IDENT_4,IDENT_5,







"{ \"Goal\": { \"@value\": \"\", \"@attributes\": { \"Period\": \"FirstHalf\", \"PlayerRef\": \"p15284\", \"Type\": \"Goal\" } }, \"@attributes\": { \"HalfScore\": \"1\", \"Score\": \"1\", \"Side\": \"Away\", \"TeamRef\": \"t31\" } }",
STRING_0,

























