convertToIntegerNull,toInteger,AtlasConversionException,intValue,
METHOD_0,METHOD_1,METHOD_2,METHOD_3,

Short,MIN_VALUE,atlasmap,
IDENT_0,IDENT_1,IDENT_2,







"Long %s is greater than Integer.MAX_VALUE or less than Integer.MIN_VALUE",
STRING_0,

























