renameFile,createFile,getParent,renameTo,
METHOD_0,METHOD_1,METHOD_2,METHOD_3,

origFileName,newfullfile,newfileName,fileManager,newName,
IDENT_0,IDENT_1,IDENT_2,IDENT_3,IDENT_4,







"myFullPath","new",
STRING_0,STRING_1,

























