readData_emptyData,fileExist,readAllLine,readData,
METHOD_0,METHOD_1,METHOD_2,METHOD_3,

filereader,cameraReader,traceFolder,sessionTable,
IDENT_0,IDENT_1,IDENT_2,IDENT_3,


































