readData1,fileExist,readAllLine,setFileReader,readData,
METHOD_0,METHOD_1,METHOD_2,METHOD_3,METHOD_4,

filereader,gpsEventReader,att,aro,peripheral,pojo,GpsInfo,sessionTable,
IDENT_0,IDENT_1,IDENT_2,IDENT_3,IDENT_4,IDENT_5,IDENT_6,IDENT_7,







"1.414011237411E9 UNKNOWN","1.414011237411E9 ACTIVE","1.414011282953E9 ACTIVE","1.414011295886E9 PhonyState","1.414011300035E9 ACTIVE","1.414011311924E9 STANDBY",
STRING_0,STRING_1,STRING_2,STRING_3,STRING_4,STRING_5,

























