getWifiActiveDuration,fileExist,readAllLine,setFileReader,readData,
METHOD_0,METHOD_1,METHOD_2,METHOD_3,METHOD_4,

filereader,wifi_events,traceDataReader,activeDuration,wifiActiveDuration,
IDENT_0,IDENT_1,IDENT_2,IDENT_3,IDENT_4,







"1.41142116305E9 CONNECTED 84:db:2f:0b:fe:f0 -74 Elevate-FEF0","1.412421163196E9 CONNECTED 00:24:36:a7:08:5a -47 The Rabbit Hole 5GHz",
STRING_0,STRING_1,

1.412361724E12,1.412361675045E12,
FLOAT_0,FLOAT_1,






















