isMacOS,
METHOD_0,

ismac,att,aro,Util,os,hasmac,
IDENT_0,IDENT_1,IDENT_2,IDENT_3,IDENT_4,IDENT_5,







"os.name","Mac",
STRING_0,STRING_1,

























