testGensym,gensym,
METHOD_0,METHOD_1,

att,research,xacml,std,IdentifierImpl,
IDENT_0,IDENT_1,IDENT_2,IDENT_3,IDENT_4,







"urn:gensym",
STRING_0,

























