testGetLevel_1,ValidationException,getLevel,
METHOD_0,METHOD_1,METHOD_2,

audit4j,ValidationException,level,
IDENT_0,IDENT_1,IDENT_2,


































