testNone,none,bitCount,
METHOD_0,METHOD_1,METHOD_2,

discord4j,PermissionSet,permSet,rawValue,
IDENT_0,IDENT_1,IDENT_2,IDENT_3,


































