shouldCheckCode,given,authorize,willReturn,checkCode,
METHOD_0,METHOD_1,METHOD_2,METHOD_3,METHOD_4,

secret,googleAuthenticator,totpAuthenticator,correct,verificationCodes,
IDENT_0,IDENT_1,IDENT_2,IDENT_3,IDENT_4,

21398,
INT_0,




"the_secret",
STRING_0,

























