shouldCompilePattern,safePatternCompile,getHash,getSalt,
METHOD_0,METHOD_1,METHOD_2,METHOD_3,

Pattern,xephi,authme,nickname,realName,lastIp,lastLogin,z,world,email,password,
IDENT_0,IDENT_1,IDENT_2,IDENT_3,IDENT_4,IDENT_5,IDENT_6,IDENT_7,IDENT_8,IDENT_9,IDENT_10,







"gr(a|e)ys?","Player : "," | "," ! IP : "," ! LastLogin : "," ! LastPosition : ",","," ! Email : "," ! Password : {",", ","}",
STRING_0,STRING_1,STRING_2,STRING_3,STRING_4,STRING_5,STRING_6,STRING_7,STRING_8,STRING_9,STRING_10,

























