testSymmetric6,GeoSpatialFeature,EuclideanDistance,distance,isEqual,abs,
METHOD_0,METHOD_1,METHOD_2,METHOD_3,METHOD_4,METHOD_5,

spimedb,spatial,GeoSpatialFeature,t1,t2,distance,EuclideanDistance,d1,d2,epsilon,
IDENT_0,IDENT_1,IDENT_2,IDENT_3,IDENT_4,IDENT_5,IDENT_6,IDENT_7,IDENT_8,IDENT_9,

45,
INT_0,







82.8627519,135.0,
FLOAT_0,FLOAT_1,






















