testSetFilter,StoreViewBuilder,setFilter,keySet,
METHOD_0,METHOD_1,METHOD_2,METHOD_3,

oswego,csc480_hci521_2013,h2o,urlbuilders,StoreViewBuilder,UrlEncoder,encoder,
IDENT_0,IDENT_1,IDENT_2,IDENT_3,IDENT_4,IDENT_5,IDENT_6,







"blerg","http://localhost:54321/StoreView.json?filter=blerg",'=','&',"://",":","?",
STRING_0,STRING_1,STRING_2,STRING_3,STRING_4,STRING_5,STRING_6,

























