testAlternativeIso8601Date,print,parseMillis,parseISO8601Date,
METHOD_0,METHOD_1,METHOD_2,METHOD_3,

formatted,alternateIso8601DateFormat,expectedDate,actualDate,DateUtils,ISO8601_DATE_PATTERN,dateString,ALTERNATE_ISO8601_DATE_PATTERN,
IDENT_0,IDENT_1,IDENT_2,IDENT_3,IDENT_4,IDENT_5,IDENT_6,IDENT_7,


































