testEmptyId,getEmptyId,
METHOD_0,METHOD_1,

mobileconnectors,amazonmobileanalytics,idresolver,Id,EMPTY_ID,
IDENT_0,IDENT_1,IDENT_2,IDENT_3,IDENT_4,


































