byteBuffer,wrap,ItemValueConformer,
METHOD_0,METHOD_1,METHOD_2,

bb,bytesTo,software,awssdk,dynamodb,cs1,cs2,
IDENT_0,IDENT_1,IDENT_2,IDENT_3,IDENT_4,IDENT_5,IDENT_6,


































