loadEmptyObject,ObjectMapper,readValue,jsonObjectToMap,
METHOD_0,METHOD_1,METHOD_2,METHOD_3,

ObjectMapper,JsonNode,dynamodbv2,AttributeValue,TestJacksonConvertorImpl,convertor,
IDENT_0,IDENT_1,IDENT_2,IDENT_3,IDENT_4,IDENT_5,







"{}",
STRING_0,

























