testWithExclusiveStartStreamArn,withExclusiveStartStreamArn,setExclusiveStartStreamArn,
METHOD_0,METHOD_1,METHOD_2,

TEST_STRING,exclusiveStartStreamArn,
IDENT_0,IDENT_1,


































