when_setAllDatasets_then_insituFilterActive,createDefaults,createResolver,hasInsituFilter,getInsitu,
METHOD_0,METHOD_1,METHOD_2,METHOD_3,METHOD_4,

n52,IoParameters,FilterResolver,
IDENT_0,IDENT_1,IDENT_2,


































