testBuildMetaDataThroughWith,
METHOD_0,

axonframework,messaging,MetaData,
IDENT_0,IDENT_1,IDENT_2,







"key","val",
STRING_0,STRING_1,

























