boundsMeasurementsToATimeWindow,wallTime,getMeasurements,
METHOD_0,METHOD_1,METHOD_2,

clock,reservoir,measurements,
IDENT_0,IDENT_1,IDENT_2,

5L,2L,10L,3L,15L,4L,20L,
INT_0,INT_1,INT_2,INT_3,INT_4,INT_5,INT_6,































