testListNotFound,findByPageId,
METHOD_0,METHOD_1,

codeboje,springbootbook,CommentModel,pageId,
IDENT_0,IDENT_1,IDENT_2,IDENT_3,







"sdfgsdwerwert",
STRING_0,

























