decodeBase64WithEmptyByteArraySuccess,decodeBase64Local,
METHOD_0,METHOD_1,

base64ToDecode,expectedTextResult,deps,Base64,
IDENT_0,IDENT_1,IDENT_2,IDENT_3,


































