encodeBase64StringEmptyCharactersSuccess,encodeBase64StringLocal,
METHOD_0,METHOD_1,

textToEncode,expectedBase64Result,deps,Base64,
IDENT_0,IDENT_1,IDENT_2,IDENT_3,


































