getValueFromJsonObjectGoodCase,StringReader,createReader,readObject,getValueFromJsonObject,getValueFromJsonString,getJsonString,
METHOD_0,METHOD_1,METHOD_2,METHOD_3,METHOD_4,METHOD_5,METHOD_6,

jsonString,StringReader,stringReader,JsonReader,jsonReader,Json,JsonObject,jsonObject,deps,Tools,retVal,NULL,JsonValue,jsonValue,
IDENT_0,IDENT_1,IDENT_2,IDENT_3,IDENT_4,IDENT_5,IDENT_6,IDENT_7,IDENT_8,IDENT_9,IDENT_10,IDENT_11,IDENT_12,IDENT_13,







"{\"deviceId\":\"xxx-device\",\"generationId\":\"111111111111111111\",\"etag\":\"MA==\",\"connectionState\":\"Disconnected\",\"status\":\"Disabled\",\"statusReason\":null,\"connectionStateUpdatedTime\":\"0001-01-01T00:00:00\",\"statusUpdatedTime\":\"0001-01-01T00:00:00\",\"lastActivityTime\":\"0001-01-01T00:00:00\",\"cloudToDeviceMessageCount\":0,\"authentication\":{\"symmetricKey\":{\"primaryKey\":\"AAABBBCCC111222333444000\",\"secondaryKey\":\"111222333444555AAABBBCCC\"}}}","generationId","111111111111111111",
STRING_0,STRING_1,STRING_2,

























