getValueFromJsonStringInputNull,getValueFromJsonString,replaceFirst,endsWith,
METHOD_0,METHOD_1,METHOD_2,METHOD_3,

deps,Tools,JsonString,retVal,jsonString,
IDENT_0,IDENT_1,IDENT_2,IDENT_3,IDENT_4,







"\"",
STRING_0,

























