testHmacsha1Signature,fromIntToByte,hmacsha1Signature,isEquale,
METHOD_0,METHOD_1,METHOD_2,METHOD_3,

expectedResult,aliyun,odps,account,SecurityUtils,
IDENT_0,IDENT_1,IDENT_2,IDENT_3,IDENT_4,

80,79,83,84,54,99,101,49,48,102,55,98,51,56,53,97,52,112,108,105,116,111,110,47,120,109,117,44,32,77,121,57,58,71,45,115,114,103,74,118,68,75,46,59,76,106,95,82,122,86,104,66,88,89,113,61,28,21,38,26,107,11,91,67,18,124,
INT_0,INT_1,INT_2,INT_3,INT_4,INT_5,INT_6,INT_7,INT_8,INT_9,INT_10,INT_11,INT_12,INT_13,INT_14,INT_15,INT_16,INT_17,INT_18,INT_19,INT_20,INT_21,INT_22,INT_23,INT_24,INT_25,INT_26,INT_27,INT_28,INT_29,INT_30,INT_31,INT_32,INT_33,INT_34,INT_35,INT_36,INT_37,INT_38,INT_39,INT_40,INT_41,INT_42,INT_43,INT_44,INT_45,INT_46,INT_47,INT_48,INT_49,INT_50,INT_51,INT_52,INT_53,INT_54,INT_55,INT_56,INT_57,INT_58,INT_59,INT_60,INT_61,INT_62,INT_63,INT_64,INT_65,































