setStatusIdSets,IotHubTransportMessage,setStatus,
METHOD_0,METHOD_1,METHOD_2,

actualData,IotHubTransportMessage,MessageType,DEVICE_TWIN,
IDENT_0,IDENT_1,IDENT_2,IDENT_3,







"12",
STRING_0,

























