hasNameFailsForNonMatchingName,MessageProperty,hasSameName,
METHOD_0,METHOD_1,METHOD_2,

MessageProperty,testHasName,expectedHasName,nameMatches,
IDENT_0,IDENT_1,IDENT_2,IDENT_3,







"test-name","test-value","test-mame",
STRING_0,STRING_1,STRING_2,

























