testUploadDeprecated,getDeprecatedCalls,getDefaultProject,getRestClient,
METHOD_0,METHOD_1,METHOD_2,METHOD_3,

aliyun,odps,OdpsDeprecatedLogger,deprecatedCalls,
IDENT_0,IDENT_1,IDENT_2,IDENT_3,







"ABC","/projects/","GET",
STRING_0,STRING_1,STRING_2,

























