getPropertyRejectsNonexistentProperty,hasSameName,
METHOD_0,METHOD_1,

MessageProperty,testValue,expectedValue,messageProperty,currentMessageProperty,
IDENT_0,IDENT_1,IDENT_2,IDENT_3,IDENT_4,

97,98,99,
INT_0,INT_1,INT_2,




"test-name",
STRING_0,

























