getBodyAsStringReturnsUtf8Body,
METHOD_0,

testBody,DEFAULT_IOTHUB_MESSAGE_CHARSET,expectedBody,MessageTest,UTF8,
IDENT_0,IDENT_1,IDENT_2,IDENT_3,IDENT_4,

97,98,99,
INT_0,INT_1,INT_2,































