encodeSignatureUsingBase64,encodeSignatureBase64,encodeBase64Local,
METHOD_0,METHOD_1,METHOD_2,

sig,SignatureHelperTest,UTF8,testBase64Sig,SignatureHelper,expectedBase64Sig,deps,Base64,
IDENT_0,IDENT_1,IDENT_2,IDENT_3,IDENT_4,IDENT_5,IDENT_6,IDENT_7,

90,109,57,118,89,70,121,
INT_0,INT_1,INT_2,INT_3,INT_4,INT_5,INT_6,




"foobar",
STRING_0,

























