listResourceGroups,resourceGroups,toPrimitiveInt,inner,diskSizeGB,
METHOD_0,METHOD_1,METHOD_2,METHOD_3,METHOD_4,

groupCount,fluentcore,
IDENT_0,IDENT_1,







"Group count: %s",
STRING_0,

























