withHostWhenHostIsNotEmpty,UrlBuilder,withHost,
METHOD_0,METHOD_1,METHOD_2,

implementation,UrlBuilder,
IDENT_0,IDENT_1,







"www.example.com","www.bing.com",
STRING_0,STRING_1,

























