testEmptyPermissionsResultsInZeroBits,noneOf,bitsFromPermissions,getFlagValue,
METHOD_0,METHOD_1,METHOD_2,METHOD_3,

EnumSet,windowsazure,AccessPolicyPermission,perms,bits,
IDENT_0,IDENT_1,IDENT_2,IDENT_3,IDENT_4,













|=,
OP_0,



















