multiDomainQueryExclusion,eval,inactive,mustNot,ids,emptySet,
METHOD_0,METHOD_1,METHOD_2,METHOD_3,METHOD_4,METHOD_5,

b2international,Expression,Expressions,SnomedDocument,Void,
IDENT_0,IDENT_1,IDENT_2,IDENT_3,IDENT_4,







"* {{ active=false }} MINUS * {{ term=\"clin find\" }}",
STRING_0,

























