testQueryAllProductsWithoutCategory,getProductLikeName,
METHOD_0,METHOD_1,

babyfish,Product,products,productService,
IDENT_0,IDENT_1,IDENT_2,IDENT_3,







"%",
STRING_0,

























