test_timeout,saveSession,getSession,
METHOD_0,METHOD_1,METHOD_2,

sessionData,groups,
IDENT_0,IDENT_1,







"for_test_timeout_1",
STRING_0,

























