test_valueOf,newMoneyWithCent,parseLong,
METHOD_0,METHOD_1,METHOD_2,

param1,cn,rapid_framework,typemapping,JdbcType,jdbcType,
IDENT_0,IDENT_1,IDENT_2,IDENT_3,IDENT_4,IDENT_5,







"BIGINT",
STRING_0,

























