test_array_args,checking,Expectations,allowing,bb,will,returnValue,aa,array_args,
METHOD_0,METHOD_1,METHOD_2,METHOD_3,METHOD_4,METHOD_5,METHOD_6,METHOD_7,METHOD_8,

jmock,csb,names,sexes,blogServiceBean,
IDENT_0,IDENT_1,IDENT_2,IDENT_3,IDENT_4,







"array_args()",
STRING_0,

























