when_nullId_then_handledWhenDetectSite,isSiteId,hasSuffix,
METHOD_0,METHOD_1,METHOD_2,

n52,GeometryType,
IDENT_0,IDENT_1,







"site",
STRING_0,

























