givenDetachedUser_whenAccessingEntityAssociations_thenCorrect,registerUser,getRoles,forEach,getPrivileges,
METHOD_0,METHOD_1,METHOD_2,METHOD_3,METHOD_4,

Role,Privilege,roles,
IDENT_0,IDENT_1,IDENT_2,


































