whenMap_thenOk,ofNullable,getEmail,orElse,
METHOD_0,METHOD_1,METHOD_2,METHOD_3,

stackify,optional,email,u,
IDENT_0,IDENT_1,IDENT_2,IDENT_3,







"anna@gmail.com","1234","default@gmail.com",
STRING_0,STRING_1,STRING_2,

























