whenEmptyValue_thenReturnDefault,ofNullable,orElse,getEmail,
METHOD_0,METHOD_1,METHOD_2,METHOD_3,

stackify,optional,user2,email,
IDENT_0,IDENT_1,IDENT_2,IDENT_3,







"anna@gmail.com","1234",
STRING_0,STRING_1,

























