whenFindMin_thenGetMinElementFromStream,orElseThrow,
METHOD_0,METHOD_1,

stackify,Employee,firstEmp,EmployeeTest,empList,e1,e2,NoSuchElementException,
IDENT_0,IDENT_1,IDENT_2,IDENT_3,IDENT_4,IDENT_5,IDENT_6,IDENT_7,


































