testBothEmpty,CompoundIterator,
METHOD_0,METHOD_1,

barrysw19,calculon,CompoundIterator,iter,iterators,
IDENT_0,IDENT_1,IDENT_2,IDENT_3,IDENT_4,


































