createDBandAddToTargetName,CreateDB,Add,docName,current,pre,
METHOD_0,METHOD_1,METHOD_2,METHOD_3,METHOD_4,METHOD_5,

il,basex,CreateTest,INPUTS,NAME,TARGET,DOCNAME,Token,
IDENT_0,IDENT_1,IDENT_2,IDENT_3,IDENT_4,IDENT_5,IDENT_6,IDENT_7,


































