nodeRegistersListeners,addStateListener,removeStateListener,
METHOD_0,METHOD_1,METHOD_2,

basho,riak,RiakNode,NodeStateListener,removed,stateListeners,
IDENT_0,IDENT_1,IDENT_2,IDENT_3,IDENT_4,IDENT_5,


































