upperCase_NullString,upperCase,isNullOrEmpty,toUpperCase,
METHOD_0,METHOD_1,METHOD_2,METHOD_3,

aliyun,oss,LOCALE_ENGLISH,
IDENT_0,IDENT_1,IDENT_2,


































