testNamedNativeQuery,Item,Order,persist,createNamedQuery,setParameter,getResultList,getResultListImpl,
METHOD_0,METHOD_1,METHOD_2,METHOD_3,METHOD_4,METHOD_5,METHOD_6,METHOD_7,

batoo,Item,i1,Order,o1,
IDENT_0,IDENT_1,IDENT_2,IDENT_3,IDENT_4,

30,
INT_0,




"item1","the item 1.","namedNativeQuery1",
STRING_0,STRING_1,STRING_2,

























