testEqualsEquivalent,endPoint,
METHOD_0,METHOD_1,

bazaarvoice,ostrich,ServiceEndPoint,endPoint1,endPoint2,serviceName,
IDENT_0,IDENT_1,IDENT_2,IDENT_3,IDENT_4,IDENT_5,







"Foo","server:80",
STRING_0,STRING_1,

























