testId,ServiceEndPointBuilder,withServiceName,withId,
METHOD_0,METHOD_1,METHOD_2,METHOD_3,

bazaarvoice,ostrich,ServiceEndPoint,endPoint,
IDENT_0,IDENT_1,IDENT_2,IDENT_3,







"service","id",
STRING_0,STRING_1,

























