testdontViewedAllbooks,Book,setViewedBooks,dontViewedAllbooks,viewedAllBooks,
METHOD_0,METHOD_1,METHOD_2,METHOD_3,METHOD_4,

designforcode,Book,notAllViewedBooks,book1,
IDENT_0,IDENT_1,IDENT_2,IDENT_3,







"Java",
STRING_0,

























