resultsInNullExtension,ExtensionEsModel,getAsMap,
METHOD_0,METHOD_1,METHOD_2,

n52,sos,statistics,ExtensionEsModel,shetland,ogc,ows,Extension,
IDENT_0,IDENT_1,IDENT_2,IDENT_3,IDENT_4,IDENT_5,IDENT_6,IDENT_7,


































