testConstructEmptyDocument,DocumentElement,getElements,
METHOD_0,METHOD_1,METHOD_2,

DocumentElement,myElements,
IDENT_0,IDENT_1,


































