testCollectionInClassWithRandom,construct,getElements,
METHOD_0,METHOD_1,METHOD_2,

qualitytest,blueprint,BlueprintTest_collection,WithCollection,wc,Blueprint,
IDENT_0,IDENT_1,IDENT_2,IDENT_3,IDENT_4,IDENT_5,


































