getStatus_no_status,getAttribute,
METHOD_0,METHOD_1,

HttpServletRequest,HttpStatus,statusCode,INTERNAL_SERVER_ERROR,
IDENT_0,IDENT_1,IDENT_2,IDENT_3,







"javax.servlet.error.status_code",
STRING_0,

























