getMessage_no_message,getAttribute,defaultIfBlank,
METHOD_0,METHOD_1,METHOD_2,

HttpServletRequest,
IDENT_0,







"javax.servlet.error.message","No message.",
STRING_0,STRING_1,

























