getAttribute,defaultIfBlank,
METHOD_0,METHOD_1,

HttpServletRequest,
IDENT_0,







"error","javax.servlet.error.message","No message.",
STRING_0,STRING_1,STRING_2,

























