getFileStores_shouldReturnOneFileStore,getFileStores,getSize,
METHOD_0,METHOD_1,METHOD_2,

FileStore,stores,gfs,
IDENT_0,IDENT_1,IDENT_2,


































