testGetScope,JavaScriptWithScopeElement,getScope,
METHOD_0,METHOD_1,METHOD_2,

JavaScriptWithScopeElement,JavaScriptWithScopeElementTest,SCOPE_1,myScope,
IDENT_0,IDENT_1,IDENT_2,IDENT_3,







"func code() {}",
STRING_0,

























