initWithRepository,initRepository,
METHOD_0,METHOD_1,

beijunyi,parallelgit,filesystem,GfsConfiguration,cfg,
IDENT_0,IDENT_1,IDENT_2,IDENT_3,IDENT_4,


































