testEntryExistWhenEntryExists_shouldReturnTrue,writeToCache,entryExists,findEntry,
METHOD_0,METHOD_1,METHOD_2,METHOD_3,

beijunyi,parallelgit,DirCache,CacheUtils,
IDENT_0,IDENT_1,IDENT_2,IDENT_3,







"/test_file.txt",
STRING_0,

























