testCreate,getGroup,randomAlphabetic,getResult,getJsonObject,success,
METHOD_0,METHOD_1,METHOD_2,METHOD_3,METHOD_4,METHOD_5,

belerweb,social,weixin,Group,RandomStringUtils,GroupTest,
IDENT_0,IDENT_1,IDENT_2,IDENT_3,IDENT_4,IDENT_5,


































