testUpdate,getGroup,randomAlphabetic,success,
METHOD_0,METHOD_1,METHOD_2,METHOD_3,

belerweb,social,Error,weixin,RandomStringUtils,
IDENT_0,IDENT_1,IDENT_2,IDENT_3,IDENT_4,







"weixin.groupid",
STRING_0,

























