testSetGroups,AnalyticProfile,setGroups,getGroups,
METHOD_0,METHOD_1,METHOD_2,METHOD_3,

gatein,AnalyticProfile,groups,
IDENT_0,IDENT_1,IDENT_2,







"setGroups","unine","jboss-team",
STRING_0,STRING_1,STRING_2,

























