testSetTrackId,AnalyticProfile,setTrackId,getTrackId,
METHOD_0,METHOD_1,METHOD_2,METHOD_3,

trackId,gatein,AnalyticProfile,
IDENT_0,IDENT_1,IDENT_2,







"setTrackId","XX-UUUUUU-94",
STRING_0,STRING_1,

























