testUnshortening,unshorten,
METHOD_0,METHOD_1,

uriToPrefix,shortUri,unshortenedUri,unima,dws,dbpediagraph,UriTransformer,URI_TO_PREFIX,
IDENT_0,IDENT_1,IDENT_2,IDENT_3,IDENT_4,IDENT_5,IDENT_6,IDENT_7,


































