testPasswordDifferentKeys,getSecretKeyGenerator,generateSecretKey,
METHOD_0,METHOD_1,METHOD_2,

bfh,unicrypt,schemes,encryption,AESEncryptionScheme,aes,KeyLength,KEY128,Mode,ECB,ByteArray,algebra,general,aes2,key2,prime,Factorization,
IDENT_0,IDENT_1,IDENT_2,IDENT_3,IDENT_4,IDENT_5,IDENT_6,IDENT_7,IDENT_8,IDENT_9,IDENT_10,IDENT_11,IDENT_12,IDENT_13,IDENT_14,IDENT_15,IDENT_16,







"00|00|00|00|00|00|00|00|00|00|00|00|00|00|00|00","This is the Test","Thas is the Test",
STRING_0,STRING_1,STRING_2,

























