testEncryptionDecryptionWithSamePasswords,getMessageSpace,getElement,getPasswordBasedKey,encrypt,decrypt,getDecryptionKeySpace,getEncryptionSpace,getDecryptionFunction,
METHOD_0,METHOD_1,METHOD_2,METHOD_3,METHOD_4,METHOD_5,METHOD_6,METHOD_7,METHOD_8,

bfh,unicrypt,schemes,encryption,AESEncryptionScheme,aes,KeyLength,KEY128,Mode,ECB,ByteArray,algebra,general,encryptedMessage,aes2,key2,expectedMessage,decryptionKey,ME,
IDENT_0,IDENT_1,IDENT_2,IDENT_3,IDENT_4,IDENT_5,IDENT_6,IDENT_7,IDENT_8,IDENT_9,IDENT_10,IDENT_11,IDENT_12,IDENT_13,IDENT_14,IDENT_15,IDENT_16,IDENT_17,IDENT_18,







"00|00|00|00|00|00|00|00|00|00|00|00|00|00|00|00","F3|44|81|EC|3C|C6|27|BA|CD|5D|C3|FB|08|F2|73|E6|97|98|C4|64|0B|AD|75|C7|C3|22|7D|B9|10|17|4E|72|96|AB|5C|2F|F6|12|D9|DF|AA|E8|C3|1F|30|C4|21|68|6A|11|8A|87|45|19|E6|4E|99|63|79|8A|50|3F|1D|35|CB|9F|CE|EC|81|28|6C|A3|E9|89|BD|97|9B|0C|B2|84|B2|6A|EB|18|74|E4|7C|A8|35|8F|F2|23|78|F0|91|44|58|C8|E0|0B|26|31|68|6D|54|EA|B8|4B|91|F0|AC|A1","This is the Test",
STRING_0,STRING_1,STRING_2,

























