test_inverted,reconvert,
METHOD_0,METHOD_1,

bfh,unicrypt,Alphabet,alphabet,alphabet1,alphabet2,alphabet3,biginteger,StringToBigInteger,
IDENT_0,IDENT_1,IDENT_2,IDENT_3,IDENT_4,IDENT_5,IDENT_6,IDENT_7,IDENT_8,

300,
INT_0,































