testEquals,Z,
METHOD_0,METHOD_1,

bfh,unicrypt,algebra,dualistic,Z,z1,z2,
IDENT_0,IDENT_1,IDENT_2,IDENT_3,IDENT_4,IDENT_5,IDENT_6,


































