timesTest,getFiniteField,getElement,insertAt,
METHOD_0,METHOD_1,METHOD_2,METHOD_3,

bfh,unicrypt,algebra,additive,ECZModPrime,ec,ECZModPrimeParameters,SECP192r1,dualistic,ZModPrime,zmod,ZModElement,x1,y1,x2,y2,ECZModElement,e1,e2,V,
IDENT_0,IDENT_1,IDENT_2,IDENT_3,IDENT_4,IDENT_5,IDENT_6,IDENT_7,IDENT_8,IDENT_9,IDENT_10,IDENT_11,IDENT_12,IDENT_13,IDENT_14,IDENT_15,IDENT_16,IDENT_17,IDENT_18,IDENT_19,







"5485061771863421489705328005527616201666672468700993602311","1420584749125414905060037760781943638553232619342051948120","6054377824002193228966197520487116476082215685270977710965","185752276793014565279863894475032511210116040995173884975",
STRING_0,STRING_1,STRING_2,STRING_3,

























