testInsert,BinaryFriend,Binary,findOne,newResultHandler,
METHOD_0,METHOD_1,METHOD_2,METHOD_3,METHOD_4,

jongo,BinaryTest,BinaryFriend,Binary,expectedId,ResultHandlerFactory,unmarshaller,
IDENT_0,IDENT_1,IDENT_2,IDENT_3,IDENT_4,IDENT_5,IDENT_6,







"friend2","#","{ _id: #}",
STRING_0,STRING_1,STRING_2,

























