happyCase,getTimeAsLocalDate,plusDays,setDueBy,getDueBy,
METHOD_0,METHOD_1,METHOD_2,METHOD_3,METHOD_4,

LocalDate,fiveDaysFromNow,isis,applib,clock,Clock,toDoItem,dueBy,
IDENT_0,IDENT_1,IDENT_2,IDENT_3,IDENT_4,IDENT_5,IDENT_6,IDENT_7,


































