testCollectionWithLoop8,UserGeneric,Person2,setSet,executeBackAndForth,getSet,
METHOD_0,METHOD_1,METHOD_2,METHOD_3,METHOD_4,METHOD_5,

testcase,UserGeneric,ug,Person2,p1,p2,
IDENT_0,IDENT_1,IDENT_2,IDENT_3,IDENT_4,IDENT_5,

2L,
INT_0,




"111","222",
STRING_0,STRING_1,

























