testCreateFastqWriter,createFastqWriter,IlluminaFastqWriter,
METHOD_0,METHOD_1,METHOD_2,

biojava,nbio,genome,fastq,FastqWriter,
IDENT_0,IDENT_1,IDENT_2,IDENT_3,IDENT_4,


































