testGetCDSLengthReverseAsc,setCoordinateSystem,getCDSLengthReverse,
METHOD_0,METHOD_1,METHOD_2,

exonStarts,exonEnds,cdsStart,cdsEnd,cdsDesired,biojava,nbio,genome,ChromosomeMappingTools,cdsTest,codingLength,tmp,
IDENT_0,IDENT_1,IDENT_2,IDENT_3,IDENT_4,IDENT_5,IDENT_6,IDENT_7,IDENT_8,IDENT_9,IDENT_10,IDENT_11,

70,60,80,55,75,
INT_0,INT_1,INT_2,INT_3,INT_4,










--,
OP_0,



















