testControlsStateChange,controlsStateChange,
METHOD_0,METHOD_1,

biopax,paxtools,BioPAXElement,Match,Searcher,model_P53,PatternBox,lastIndex,
IDENT_0,IDENT_1,IDENT_2,IDENT_3,IDENT_4,IDENT_5,IDENT_6,IDENT_7,


































