testWithComplexes,getByID,Pattern,withComplexes,
METHOD_0,METHOD_1,METHOD_2,METHOD_3,

biopax,paxtools,Match,Searcher,constraint,PhysicalEntity,ConBox,lastIndex,
IDENT_0,IDENT_1,IDENT_2,IDENT_3,IDENT_4,IDENT_5,IDENT_6,IDENT_7,







"http://pid.nci.nih.gov/biopaxpid_5511","PE","Complex",
STRING_0,STRING_1,STRING_2,

























