pendingIsClearedAfterCallToParseLine,parseLineMulti,isPending,parseLine,
METHOD_0,METHOD_1,METHOD_2,METHOD_3,

nextLine,csvParser,pending,
IDENT_0,IDENT_1,IDENT_2,







"This,\"is a \"good\" line\\\\ to parse","This","because we are using parseLineMulti.",
STRING_0,STRING_1,STRING_2,

























