testUncachedStatementReallyCloses,getProxyPreparedStatement,isClosed,
METHOD_0,METHOD_1,METHOD_2,

PreparedStatement,JdbcProxyFactory,
IDENT_0,IDENT_1,


































