testEval,CurtaParser,StringReader,jjtGetChild,eval,
METHOD_0,METHOD_1,METHOD_2,METHOD_3,METHOD_4,

bigo,curta,Operator,operator,Assign,Expression,CurtaNode,sourceRoot,variables,functions,
IDENT_0,IDENT_1,IDENT_2,IDENT_3,IDENT_4,IDENT_5,IDENT_6,IDENT_7,IDENT_8,IDENT_9,







"a = false; a","b = 1; b","c = 3.0; c",
STRING_0,STRING_1,STRING_2,

3.0,
FLOAT_0,






















