applyTest,isRenderTimeLimited,newSingleThreadExecutor,renderUnguarded,
METHOD_0,METHOD_1,METHOD_2,METHOD_3,

liqp,Template,rendered,protectionSettings,variables,Executors,templateSize,maxTemplateSizeBytes,
IDENT_0,IDENT_1,IDENT_2,IDENT_3,IDENT_4,IDENT_5,IDENT_6,IDENT_7,







"{ \"array\" : [\"x\", \"y\", \"z\"] }","{{ array | join:'' }}","x y z","{{ array | join:'@@@' }}","x@@@y@@@z","{{ x | join:'@@@' }}","template exceeds "," bytes",
STRING_0,STRING_1,STRING_2,STRING_3,STRING_4,STRING_5,STRING_6,STRING_7,

























