applyTest,isRenderTimeLimited,newSingleThreadExecutor,renderUnguarded,
METHOD_0,METHOD_1,METHOD_2,METHOD_3,

liqp,Template,rendered,protectionSettings,variables,Executors,templateSize,maxTemplateSizeBytes,
IDENT_0,IDENT_1,IDENT_2,IDENT_3,IDENT_4,IDENT_5,IDENT_6,IDENT_7,







"{"," \"words\" : [\"2\", \"13\", \"1\"{"," \"numbers\" : [2, 13, 1] ","{{ x | sort }}","{{ numbers | sort }}","{{ numbers | sort | last }}","13","{{ numbers | sort | first }}","template exceeds "," bytes",
STRING_0,STRING_1,STRING_2,STRING_3,STRING_4,STRING_5,STRING_6,STRING_7,STRING_8,STRING_9,

























