applyTest,isRenderTimeLimited,newSingleThreadExecutor,renderUnguarded,
METHOD_0,METHOD_1,METHOD_2,METHOD_3,

liqp,Template,rendered,protectionSettings,variables,Executors,templateSize,maxTemplateSizeBytes,
IDENT_0,IDENT_1,IDENT_2,IDENT_3,IDENT_4,IDENT_5,IDENT_6,IDENT_7,







"42","{ \"x\"42","{{ false | sort_natural }}","false","{{ x | sort_natural }}","{ \"x\": 42 }","99 A00000.0001 a01.1 a04 a1 a10 ","{ \"x\": [\"a1 \", \"A00000.0001 \", \"a01.1 \", \"a10 \", \"a04 \", \"99 \"] }","{ \"x\": [\"b \", \"A \", \"Cccc \", \"cccccccc \", \"Ddd \", \"d \", \"01 \", \"02 \", \"10 \", \"100 \"] }","template exceeds "," bytes",
STRING_0,STRING_1,STRING_2,STRING_3,STRING_4,STRING_5,STRING_6,STRING_7,STRING_8,STRING_9,STRING_10,

























