testReadString,readString,readInt,
METHOD_0,METHOD_1,METHOD_2,

testString,testBytes,rim,logdriver,AvroUtils,inputStream,bytesRead,limit,
IDENT_0,IDENT_1,IDENT_2,IDENT_3,IDENT_4,IDENT_5,IDENT_6,IDENT_7,

116,101,115,
INT_0,INT_1,INT_2,




"Not enough bytes to read the string.","UTF-8",
STRING_0,STRING_1,

























