testGetNamespace,begin,setNamespace,getNamespace,
METHOD_0,METHOD_1,METHOD_2,METHOD_3,

con,RDF,NAMESPACE,namespace,
IDENT_0,IDENT_1,IDENT_2,IDENT_3,







"rdf","_",
STRING_0,STRING_1,

























