testMultiPointListOfPoint2D,multiPoint,
METHOD_0,METHOD_1,

jsonDoc,Json,geoJson,GeoJson,Point2D,
IDENT_0,IDENT_1,IDENT_2,IDENT_3,IDENT_4,







"{ 'type': 'MultiPoint', 'coordinates': [ ","[100.0, 0.0], [101.0, 0.0], [101.0, 1.0], [100.0, 1.0], [100.0, 0.0] ] }",
STRING_0,STRING_1,

100.0,101.0,
FLOAT_0,FLOAT_1,






















