testJumpTo2,VirtualMemory,jumpTo,putLong,getLong,UnsupportedOperationException,
METHOD_0,METHOD_1,METHOD_2,METHOD_3,METHOD_4,METHOD_5,

questdb,cairo,VirtualMemory,mem,
IDENT_0,IDENT_1,IDENT_2,IDENT_3,

11,999,
INT_0,INT_1,










--,
OP_0,



















