removeWaitingUserShouldIgnoreUnknownUser,removeWaitingUser,isWaitingUser,
METHOD_0,METHOD_1,METHOD_2,

userCode,waitingList,users,
IDENT_0,IDENT_1,IDENT_2,

125,
INT_0,































