shouldStoreStepDefinition,getStep,
METHOD_0,METHOD_1,

uut,bmsantos,cola,story,MethodDetails,MethodDetailsTest,TYPE,STEP,step,
IDENT_0,IDENT_1,IDENT_2,IDENT_3,IDENT_4,IDENT_5,IDENT_6,IDENT_7,IDENT_8,


































