shouldPrepareProjectionArguments,getArguments,
METHOD_0,METHOD_1,

projectionValues,uut,bmsantos,cola,story,MethodDetails,MethodDetailsTest,STEP,arguments,
IDENT_0,IDENT_1,IDENT_2,IDENT_3,IDENT_4,IDENT_5,IDENT_6,IDENT_7,IDENT_8,







"pints","100","alcoholics","25",
STRING_0,STRING_1,STRING_2,STRING_3,

























