testContainsBounceProxy,addBounceProxy,ControlledBounceProxyInformation,containsBounceProxy,
METHOD_0,METHOD_1,METHOD_2,METHOD_3,

joynr,messaging,bpId,
IDENT_0,IDENT_1,IDENT_2,







"X.Y",
STRING_0,

























