testSetContent,ImageData,setContent,getContent,
METHOD_0,METHOD_1,METHOD_2,METHOD_3,

goodoldai,jeff,explanation,ImageData,
IDENT_0,IDENT_1,IDENT_2,IDENT_3,







"sample2.jpg",
STRING_0,

























