testSetInternationalizationFalse,setInternationalization,isInternationalization,
METHOD_0,METHOD_1,METHOD_2,

internationalization,simpleWizard,
IDENT_0,IDENT_1,


































