testEmptyTtl,main,chromedriver,ttl,setup,getBinaryPath,
METHOD_0,METHOD_1,METHOD_2,METHOD_3,METHOD_4,METHOD_5,

bonigarcia,wdm,WebDriverManager,binaryPath,binary,
IDENT_0,IDENT_1,IDENT_2,IDENT_3,IDENT_4,







"clear-preferences",
STRING_0,

























