testWrongVersion,setup,getBinaryPath,
METHOD_0,METHOD_1,METHOD_2,

bonigarcia,wdm,WebDriverManager,driverClass,binary,binaryPath,
IDENT_0,IDENT_1,IDENT_2,IDENT_3,IDENT_4,IDENT_5,


































