deleteRoles,getIdentityAPI,createRole,getNumberOfRoles,deleteRole,
METHOD_0,METHOD_1,METHOD_2,METHOD_3,METHOD_4,

developer,identity,Role,role1,role2,roleIds,numberOfRoles,
IDENT_0,IDENT_1,IDENT_2,IDENT_3,IDENT_4,IDENT_5,IDENT_6,







"manager","developer",
STRING_0,STRING_1,

























