getDocumentByIdTest,createDocumentMapping,getDocumentMapping,
METHOD_0,METHOD_1,METHOD_2,

SMappedDocument,sDocument,
IDENT_0,IDENT_1,


































