testDeleteFileNotDeleted,deleteFile,
METHOD_0,METHOD_1,

deleteFile,IOUtil,retries,attempts,sleepTime,InterruptedException,ignored,
IDENT_0,IDENT_1,IDENT_2,IDENT_3,IDENT_4,IDENT_5,IDENT_6,













--,
OP_0,



















