convertSUserToUserDoesntShowPassword,toUser,never,getPassword,
METHOD_0,METHOD_1,METHOD_2,METHOD_3,

identity,SUser,sUser,testUser,ModelConvertor,password,
IDENT_0,IDENT_1,IDENT_2,IDENT_3,IDENT_4,IDENT_5,


































