mustExecuteOnAbortOrCancelProcess_returns_true_if_stable_state,setStable,mustExecuteOnAbortOrCancelProcess,
METHOD_0,METHOD_1,METHOD_2,





































