test_is_not_PageFLowContext,setIsPageFlowContext,isPageFlowContext,
METHOD_0,METHOD_1,METHOD_2,

documentProposalListener,
IDENT_0,


































