testIsoJacksonLongDate,fromISO8601Jackson,fromISO8601Jackson_,paramBody,
METHOD_0,METHOD_1,METHOD_2,METHOD_3,

boon,Dates,date2,Str,
IDENT_0,IDENT_1,IDENT_2,IDENT_3,







"2014-05-29T08:54:09.764+0200","GET","http://",":","::","\nREQUEST_BODY\n\t",
STRING_0,STRING_1,STRING_2,STRING_3,STRING_4,STRING_5,

























