testGetCanonicalFile,ResourceFactory,getCanonicalFile,
METHOD_0,METHOD_1,METHOD_2,

bootique,
IDENT_0,







"./src/test/resources/io/bootique/config/test1.yml","user.dir","/src/test/resources/io/bootique/config/test1.yml",
STRING_0,STRING_1,STRING_2,

























