testSanitizerGoodStyle,sanitize,
METHOD_0,METHOD_1,

bordertech,wcomponents,HtmlSanitizerUtil,
IDENT_0,IDENT_1,IDENT_2,







"<p style=\"text-decoration: line-through;padding-left: 20.0px;\">content</p>",
STRING_0,

























