testSanitizerStyleBadDecoration,sanitize,
METHOD_0,METHOD_1,

bordertech,wcomponents,HtmlSanitizerUtil,
IDENT_0,IDENT_1,IDENT_2,







"<p style=\"text-decoration: all;\">content</p>","<p style=\"\">content</p>",
STRING_0,STRING_1,

























