testLaxScanElement,sanitize,
METHOD_0,METHOD_1,

bordertech,wcomponents,HtmlSanitizerUtil,lax,LAX_POLICY,STRICT_POLICY,
IDENT_0,IDENT_1,IDENT_2,IDENT_3,IDENT_4,IDENT_5,







"<input name=\"foo\" type=\"text\" value=\"bar\" />",
STRING_0,

























