testNoThresholds,literal,findFunction,intValue,ArithmeticException,
METHOD_0,METHOD_1,METHOD_2,METHOD_3,METHOD_4,

categoryValue,ff2,Function,fn,finder,denominator,
IDENT_0,IDENT_1,IDENT_2,IDENT_3,IDENT_4,IDENT_5,

42,
INT_0,




" testNoThresholds","categorize",
STRING_0,STRING_1,

























