testNonLiteralDefaultValue,literal,intValue,
METHOD_0,METHOD_1,METHOD_2,

Expression,defaultExpr,ff,Number,
IDENT_0,IDENT_1,IDENT_2,IDENT_3,

21,
INT_0,




" non-literal default value","env","doesnotexist",
STRING_0,STRING_1,STRING_2,

























