testAnd,bbox,literal,Envelope,
METHOD_0,METHOD_1,METHOD_2,METHOD_3,

Filter,ff,vividsolutions,Envelope,env,visitor,
IDENT_0,IDENT_1,IDENT_2,IDENT_3,IDENT_4,IDENT_5,







"geom","att","10",
STRING_0,STRING_1,STRING_2,

























