graphic,mark,literal,
METHOD_0,METHOD_1,METHOD_2,

style,GraphicalSymbol,symbols,styling,StyleTest,ff,Expression,opacity,rotation,AnchorPoint,anchor,Displacement,disp,Graphic,
IDENT_0,IDENT_1,IDENT_2,IDENT_3,IDENT_4,IDENT_5,IDENT_6,IDENT_7,IDENT_8,IDENT_9,IDENT_10,IDENT_11,IDENT_12,IDENT_13,







"square","circle",
STRING_0,STRING_1,

























