testInvalidParse,URN_Parser,getAuthorityCode,
METHOD_0,METHOD_1,METHOD_2,

urn,referencing,NoSuchAuthorityCodeException,
IDENT_0,IDENT_1,IDENT_2,







"urn:ogcx:def:CRS:EPSG:6.8:4326",
STRING_0,

























