testList,FormatController,nameIs,typeIs,
METHOD_0,METHOD_1,METHOD_2,METHOD_3,

ctrl,boundlessgeo,geoserver,controllers,geoServer,JSONArr,all,Iterators,Predicates,raw,
IDENT_0,IDENT_1,IDENT_2,IDENT_3,IDENT_4,IDENT_5,IDENT_6,IDENT_7,IDENT_8,IDENT_9,







"shapefile","h2","database",
STRING_0,STRING_1,STRING_2,

























