textTrimTest,
METHOD_0,

retQuery,allbegray,slack,SlackSearchQueryBuilder,
IDENT_0,IDENT_1,IDENT_2,IDENT_3,







" test message in:#dev ",
STRING_0,

























