testGetInPlace,LongPoint,checkBounds,copy,
METHOD_0,METHOD_1,METHOD_2,METHOD_3,

bramp,unsafe,LongPoint,tmp,UnsafeArrayListTest,AdditionalTests,TEST_SIZE,copier,dest,
IDENT_0,IDENT_1,IDENT_2,IDENT_3,IDENT_4,IDENT_5,IDENT_6,IDENT_7,IDENT_8,


































