givenValidCharset_whenSetUserAgent_thenValueIsStored,setUserAgent,getUserAgent,
METHOD_0,METHOD_1,METHOD_2,

userAgent,
IDENT_0,







"example agent string",
STRING_0,

























