level1MissPlus1,previousSetBit,IndexOutOfBoundsException,
METHOD_0,METHOD_1,METHOD_2,

zaxxer,sparsebits,SparseBitSet,SHIFT1,SHIFT3,bits,aSize,w1,w2,LENGTH2_SIZE,w3,LENGTH3_SIZE,w4,LENGTH4_SIZE,w,SHIFT2,MASK2,MASK3,LENGTH4,word,a2,a3,bitIdx,
IDENT_0,IDENT_1,IDENT_2,IDENT_3,IDENT_4,IDENT_5,IDENT_6,IDENT_7,IDENT_8,IDENT_9,IDENT_10,IDENT_11,IDENT_12,IDENT_13,IDENT_14,IDENT_15,IDENT_16,IDENT_17,IDENT_18,IDENT_19,IDENT_20,IDENT_21,IDENT_22,







"i=",
STRING_0,




%,--,
OP_0,OP_1,



















