testGetEntities,MockRedG,MockEntity1,addEntity,containsExactly,getEntities,unmodifiableList,
METHOD_0,METHOD_1,METHOD_2,METHOD_3,METHOD_4,METHOD_5,METHOD_6,

btc,redg,mocks,MockRedG,mockRedG,RedGEntity,
IDENT_0,IDENT_1,IDENT_2,IDENT_3,IDENT_4,IDENT_5,


































