testInvertDisparateIntervals,Interval,lt,gt,invert,TreeSet,union,isAll,none,
METHOD_0,METHOD_1,METHOD_2,METHOD_3,METHOD_4,METHOD_5,METHOD_6,METHOD_7,METHOD_8,

btrace,Interval,intervals,remainder,MIN_VALUE,sorted,
IDENT_0,IDENT_1,IDENT_2,IDENT_3,IDENT_4,IDENT_5,

11,
INT_0,




"Disparate Intervals",
STRING_0,

























