testElementaryTypes,Float,convertInput,
METHOD_0,METHOD_1,METHOD_2,

strings,budhash,cliche,Float,toClass,
IDENT_0,IDENT_1,IDENT_2,IDENT_3,IDENT_4,

1243,12432141231256L,
INT_0,INT_1,




"testElementaryTypes","aString","some-object","1243","12432141231256","12.6","true","one","two","three",
STRING_0,STRING_1,STRING_2,STRING_3,STRING_4,STRING_5,STRING_6,STRING_7,STRING_8,STRING_9,

12.6,12.6F,
FLOAT_0,FLOAT_1,






















