testSaveToString,getConfig,getTestValues,saveToString,getTestValuesString,
METHOD_0,METHOD_1,METHOD_2,METHOD_3,METHOD_4,

bukkit,FileConfiguration,
IDENT_0,IDENT_1,







"- 1\n","string: String Value\n","true-boolean: true\n","false-boolean: false\n","vector:\n"," x: 12345.67\n","list:\n","- 2\n","- 4\n","- 5\n",
STRING_0,STRING_1,STRING_2,STRING_3,STRING_4,STRING_5,STRING_6,STRING_7,STRING_8,STRING_9,

























