TestPlugin,FakeConversable,ConversationContext,getPlugin,
METHOD_0,METHOD_1,METHOD_2,METHOD_3,

bukkit,conversations,Conversable,conversable,ConversationContext,
IDENT_0,IDENT_1,IDENT_2,IDENT_3,IDENT_4,


































