testGetPathWithoutSchema,getPathWithoutScheme,toUri,
METHOD_0,METHOD_1,METHOD_2,

HadoopUtils,
IDENT_0,







"/foo/bar/baz",
STRING_0,

























