negatedSelectionExpression,Sequence,Property,Selection,Negate,compile,
METHOD_0,METHOD_1,METHOD_2,METHOD_3,METHOD_4,METHOD_5,

burt,jmespath,Expression,
IDENT_0,IDENT_1,IDENT_2,







"foo[?!bar]",
STRING_0,

























