setUserFileBufferBytesMaxInteger,
METHOD_0,

mConfiguration,PropertyKey,USER_FILE_BUFFER_BYTES,
IDENT_0,IDENT_1,IDENT_2,







"B",
STRING_0,

























