testGetItemDoPostDbLoading,getItem,
METHOD_0,METHOD_1,

cern,c2mon,ControlTag,tag,controlTagLoaderDAO,deviceClassMapper,
IDENT_0,IDENT_1,IDENT_2,IDENT_3,IDENT_4,IDENT_5,

1261L,
INT_0,































