test_Initial_Set,EntryProcessor,
METHOD_0,METHOD_1,

cache2k,Cache,EntryProcessor,MutableCacheEntry,_result,K,SPEC,entryProcessor,
IDENT_0,IDENT_1,IDENT_2,IDENT_3,IDENT_4,IDENT_5,IDENT_6,IDENT_7,

123,
INT_0,




"dummy","abc",
STRING_0,STRING_1,

























