should_not_get_innactive_watchers_of_a_question,Watcher,inactivate,
METHOD_0,METHOD_1,METHOD_2,

mamute,subscribedWatcher,watch,Watcher,watchers,question,argumento0,
IDENT_0,IDENT_1,IDENT_2,IDENT_3,IDENT_4,IDENT_5,IDENT_6,







"watcher","watcher@watcher.com",
STRING_0,STRING_1,

























