should_return_empty_sanitized_text_if_null,sanitize,
METHOD_0,METHOD_1,

htmlSanitized,sanitized,htmlSanitizer,
IDENT_0,IDENT_1,IDENT_2,


































