shouldInvokeMethodByInstanceFromClass,Dog,getMethod,
METHOD_0,METHOD_1,METHOD_2,

caelum,vraptor,ReflectionProviderTest,Dog,dog,reflectionProvider,
IDENT_0,IDENT_1,IDENT_2,IDENT_3,IDENT_4,IDENT_5,







"setName","Otto",
STRING_0,STRING_1,

























