shouldSerializeMaps,include,
METHOD_0,METHOD_1,

expectedResult,caelum,vraptor,xstream,XStreamXMLSerializationTest,
IDENT_0,IDENT_1,IDENT_2,IDENT_3,IDENT_4,







"<properties><map><entry><string>test</string><string>true</string></entry></map></properties>","true","map",
STRING_0,STRING_1,STRING_2,

























