enterSafeModeOnPrimaryMasterStart,notifyPrimaryMasterStarted,isInSafeMode,
METHOD_0,METHOD_1,METHOD_2,

mSafeModeManager,
IDENT_0,


































