shouldCallXStreamSerializationWithParams,
METHOD_0,

expectedResult,
IDENT_0,







"<message>\n"," <message>Just another object in memory</message>\n"," <category>success</category>\n","</message>","object","memory","success","message.cat",
STRING_0,STRING_1,STRING_2,STRING_3,STRING_4,STRING_5,STRING_6,STRING_7,

























