shouldParseDateTimeExtendFormat,toCalendar,getTimeZone,intercept,proxify,
METHOD_0,METHOD_1,METHOD_2,METHOD_3,METHOD_4,

parseIso8601,iso8601,GregorianCalendar,TimeZone,MILLISECOND,caelum,vraptor,MethodInvocation,SuperMethod,superMethod,alreadySetTheStrategy,NoStrategy,proxifier,
IDENT_0,IDENT_1,IDENT_2,IDENT_3,IDENT_4,IDENT_5,IDENT_6,IDENT_7,IDENT_8,IDENT_9,IDENT_10,IDENT_11,IDENT_12,

1982,35,
INT_0,INT_1,




"1982-06-10T05:35:10.000-03:00","GMT-03:00",
STRING_0,STRING_1,

























