testSerialize,serializeToBytes,getClassLoader,currentThread,getContextClassLoader,
METHOD_0,METHOD_1,METHOD_2,METHOD_3,METHOD_4,

ru,yandex,qatools,camelot,SerializeUtil,
IDENT_0,IDENT_1,IDENT_2,IDENT_3,IDENT_4,


































