testUpdateGroup,newGroup,saveGroup,createGroupQuery,groupId,singleResult,deleteGroup,
METHOD_0,METHOD_1,METHOD_2,METHOD_3,METHOD_4,METHOD_5,METHOD_6,

identity,Group,identityService,
IDENT_0,IDENT_1,IDENT_2,







"sales","Sales","Updated",
STRING_0,STRING_1,STRING_2,

























