noHostRegistered,getHost,
METHOD_0,METHOD_1,

candlepin,Consumer,consumerCurator,owner,
IDENT_0,IDENT_1,IDENT_2,IDENT_3,







"system-uuid-for-guest",
STRING_0,

























