caseInsensitiveGetHost,Consumer,getFacts,addGuestId,GuestId,getHost,
METHOD_0,METHOD_1,METHOD_2,METHOD_3,METHOD_4,METHOD_5,

candlepin,Consumer,owner,ct,consumerCurator,gConsumer1,guestHost,
IDENT_0,IDENT_1,IDENT_2,IDENT_3,IDENT_4,IDENT_5,IDENT_6,







"hostConsumer","testUser","guestConsumer1","virt.uuid","daf0fe10-956b-7b4e-b7dc-b383ce681ba8","DAF0FE10-956B-7B4E-B7DC-B383CE681BA8","Daf0fe10-956b-7b4e-b7dc-B383CE681ba8",
STRING_0,STRING_1,STRING_2,STRING_3,STRING_4,STRING_5,STRING_6,

























