factsSecondNull,Consumer,setFact,factsAreEqual,getFacts,
METHOD_0,METHOD_1,METHOD_2,METHOD_3,METHOD_4,

candlepin,Consumer,second,otherFacts,myVal,otherVal,
IDENT_0,IDENT_1,IDENT_2,IDENT_3,IDENT_4,IDENT_5,







"key1",
STRING_0,

























