testGetMasterPools,setupMasterPoolsTests,LinkedList,getMasterPools,
METHOD_0,METHOD_1,METHOD_2,METHOD_3,

candlepin,Pool,pools,poolCurator,
IDENT_0,IDENT_1,IDENT_2,IDENT_3,


































