testPutAddOnlyIfNotPresentOnDepA,namespacedKey,
METHOD_0,METHOD_1,

MemcacheService,SetPolicy,ADD_ONLY_IF_NOT_PRESENT,
IDENT_0,IDENT_1,IDENT_2,







"key-only-present","firstValue","secondValue",
STRING_0,STRING_1,STRING_2,

























