testPutAllAddOnlyIfNotPresent,putAll,
METHOD_0,METHOD_1,

firstValues,secondValues,MemcacheService,SetPolicy,ADD_ONLY_IF_NOT_PRESENT,
IDENT_0,IDENT_1,IDENT_2,IDENT_3,IDENT_4,







"key1","firstValue1","key2","firstValue2","secondValue1","secondValue2",
STRING_0,STRING_1,STRING_2,STRING_3,STRING_4,STRING_5,

























