itShouldReturnDayOfWeek,SimpleDateFormat,getDayOfWeek,setTime,
METHOD_0,METHOD_1,METHOD_2,METHOD_3,

dateInString,dayOfWeek,hydrograph,transformation,standardfunctions,DateFunctions,DAY_OF_WEEK,
IDENT_0,IDENT_1,IDENT_2,IDENT_3,IDENT_4,IDENT_5,IDENT_6,







"2011-02-01","yyyy-MM-dd",
STRING_0,STRING_1,

























