itShouldReturnCurrentDateTime,
METHOD_0,

hydrograph,transformation,standardfunctions,DateFunctions,
IDENT_0,IDENT_1,IDENT_2,IDENT_3,







"yyyyMMddHmmssS",
STRING_0,

























