testCharArrayCharSequence,MutableCharArray,
METHOD_0,METHOD_1,

carrot2,MutableCharArray,seq,bundle,
IDENT_0,IDENT_1,IDENT_2,IDENT_3,







"Dawid Weiss"," [bundle: ",
STRING_0,STRING_1,

























