recoverAfterSingleRestart,AlluxioURI,getClient,createFile,restartMasters,
METHOD_0,METHOD_1,METHOD_2,METHOD_3,METHOD_4,

AlluxioURI,testFile,mCluster,mClientPool,
IDENT_0,IDENT_1,IDENT_2,IDENT_3,







"/testFile",
STRING_0,

























