store_1,connectStore,
METHOD_0,METHOD_1,

talis,rdf,Store,HBaseRdfFactory,misc,TestAssembler,dir,StoreFactory,configFile,
IDENT_0,IDENT_1,IDENT_2,IDENT_3,IDENT_4,IDENT_5,IDENT_6,IDENT_7,IDENT_8,







"store.ttl",
STRING_0,

























