test_DoublesPair_of_PairDoubleDouble,DoublesPair,
METHOD_0,METHOD_1,

testng,Pair,ObjectsPair,DoublesPair,
IDENT_0,IDENT_1,IDENT_2,IDENT_3,










1.2,2.5,
FLOAT_0,FLOAT_1,






















