testSetServerName,Settings,setServerName,getServerName,
METHOD_0,METHOD_1,METHOD_2,METHOD_3,

holmes,Settings,settings,serverName,
IDENT_0,IDENT_1,IDENT_2,IDENT_3,







"serverName","newServerName",
STRING_0,STRING_1,

























