testSetPath,ConfigurationNode,setPath,
METHOD_0,METHOD_1,METHOD_2,

holmes,ConfigurationNode,
IDENT_0,IDENT_1,







"id","label","path","newPath",
STRING_0,STRING_1,STRING_2,STRING_3,

























