testGetPath,ConfigurationNode,
METHOD_0,METHOD_1,

holmes,ConfigurationNode,
IDENT_0,IDENT_1,







"id","label","path",
STRING_0,STRING_1,STRING_2,

























