testIsValidFileHidden,canRead,isFile,isHidden,isValidFile,
METHOD_0,METHOD_1,METHOD_2,METHOD_3,METHOD_4,

holmes,
IDENT_0,







"file",
STRING_0,

























