testCompare_DiffBondOrderSum,AtomType,setBondOrderSum,
METHOD_0,METHOD_1,METHOD_2,

AtomType,at1,at2,IChemObject,ChemObject,chemObj,Objects,identifier,
IDENT_0,IDENT_1,IDENT_2,IDENT_3,IDENT_4,IDENT_5,IDENT_6,IDENT_7,







"C",
STRING_0,

1.5,
FLOAT_0,






















