compareDiffSymbol,DebugElement,
METHOD_0,METHOD_1,

DebugElement,e1,e2,IChemObject,ChemObject,chemObj,Objects,identifier,
IDENT_0,IDENT_1,IDENT_2,IDENT_3,IDENT_4,IDENT_5,IDENT_6,IDENT_7,







"H","C",
STRING_0,STRING_1,

























