testDebugPDBAtom_IElement,DebugElement,getBuilder,ofClass,
METHOD_0,METHOD_1,METHOD_2,METHOD_3,

IElement,IAtom,IPDBAtom,
IDENT_0,IDENT_1,IDENT_2,


































