testUnsaturatedF,Expr,getOrder,bonds,
METHOD_0,METHOD_1,METHOD_2,METHOD_3,

isomorphism,Expr,UNSATURATED,IAtom,atom,IBond,bond,Order,SINGLE,IAtomContainer,atomContainer,
IDENT_0,IDENT_1,IDENT_2,IDENT_3,IDENT_4,IDENT_5,IDENT_6,IDENT_7,IDENT_8,IDENT_9,IDENT_10,


































