testGetMaximalStructures,StructureResonanceGenerator,getMaximalStructures,
METHOD_0,METHOD_1,METHOD_2,

StructureResonanceGenerator,gRI,maxStructures,
IDENT_0,IDENT_1,IDENT_2,


































