testBug3093644,parseSmiles,findMatchingAtomTypes,getAtomTypeName,
METHOD_0,METHOD_1,METHOD_2,METHOD_3,

smiles1,IAtomContainer,mol1,atomtype,CDKAtomTypeMatcherSMILESTest,smilesParser,IAtomType,types1,atomTypeMatcher,identifier,
IDENT_0,IDENT_1,IDENT_2,IDENT_3,IDENT_4,IDENT_5,IDENT_6,IDENT_7,IDENT_8,IDENT_9,







"[H]C5(CCC(N)=O)(C=1N=C(C=C4N=C(C(C)=C3[N-]C(C)(C2N=C(C=1(C))C(C)","(CCC(=O)NCC(C)O)C2([H])(CC(N)=O))C(C)(CC(N)=O)C3([H])(CCC(N)=O))","C(C)(CC(N)=O)C4([H])(CCC(N)=O))C5(C)(C)).[H][C-]([H])C3([H])(OC([H])","(N2C=NC=1C(N)=NC=NC=12)C([H])(O)C3([H])(O)).[Co+3]",
STRING_0,STRING_1,STRING_2,STRING_3,

























