paths_anthracene,anthracene,EdgeShortCycles,paths,
METHOD_0,METHOD_1,METHOD_2,METHOD_3,

anthracene,InitialCyclesTest,EdgeShortCycles,esc,paths,
IDENT_0,IDENT_1,IDENT_2,IDENT_3,IDENT_4,

11,13,
INT_0,INT_1,































