bioconnected_simpleCycle_limit_5,ofBiconnectedComponent,cyclohexane,numberOfCycles,
METHOD_0,METHOD_1,METHOD_2,METHOD_3,

InitialCycles,ic,InitialCyclesTest,paths,
IDENT_0,IDENT_1,IDENT_2,IDENT_3,


































