naphthaleneSize,TripletShortCycles,MinimumCycleBasis,naphthalene,
METHOD_0,METHOD_1,METHOD_2,METHOD_3,

TripletShortCycles,esssr,InitialCyclesTest,cells,
IDENT_0,IDENT_1,IDENT_2,IDENT_3,


































