testCyclic,JumboCyclicVertexSearch,cyclic,
METHOD_0,METHOD_1,METHOD_2,

ringsearch,CyclicVertexSearch,RegularCyclicVertexSearch,
IDENT_0,IDENT_1,IDENT_2,


































