testNewRing_int_String,getBuilder,
METHOD_0,METHOD_1,

IChemObjectBuilder,AbstractChemObjectBuilderTest,rootObject,IRing,ring,DefaultChemObjectBuilder,
IDENT_0,IDENT_1,IDENT_2,IDENT_3,IDENT_4,IDENT_5,







"C",
STRING_0,

























