testClone_Order,newChemObject,getBuilder,clone,setOrder,getOrder,
METHOD_0,METHOD_1,METHOD_2,METHOD_3,METHOD_4,METHOD_5,

IChemObject,IAtom,atom1,atom2,IBond,bond,Order,SINGLE,clone,DOUBLE,
IDENT_0,IDENT_1,IDENT_2,IDENT_3,IDENT_4,IDENT_5,IDENT_6,IDENT_7,IDENT_8,IDENT_9,







"C","O",
STRING_0,STRING_1,

























