testSetPoint3d_Point3d,Point3d,newChemObject,setSymbol,setPoint3d,getPoint3d,
METHOD_0,METHOD_1,METHOD_2,METHOD_3,METHOD_4,METHOD_5,

vecmath,Point3d,point3d,IPDBAtom,
IDENT_0,IDENT_1,IDENT_2,IDENT_3,







"C",
STRING_0,

3.0,
FLOAT_0,






















