testGetCurr,Atom,InvPair,getCurr,
METHOD_0,METHOD_1,METHOD_2,METHOD_3,

IAtom,atom,Elements,CARBON,smiles,InvPair,pair,curr,
IDENT_0,IDENT_1,IDENT_2,IDENT_3,IDENT_4,IDENT_5,IDENT_6,IDENT_7,

5L,
INT_0,































