testGetAllInOneContainer_IRingSet,getAllInOneContainer,getAtomCount,
METHOD_0,METHOD_1,METHOD_2,

IAtomContainer,manipulator,RingSetManipulator,ringset,atomCount,
IDENT_0,IDENT_1,IDENT_2,IDENT_3,IDENT_4,


































