diradical,chargeAdjunctText,abs,
METHOD_0,METHOD_1,METHOD_2,

unpaired,charge,generators,standard,StandardAtomGenerator,BULLET,sign,MINUS,PLUS,coefficient,
IDENT_0,IDENT_1,IDENT_2,IDENT_3,IDENT_4,IDENT_5,IDENT_6,IDENT_7,IDENT_8,IDENT_9,







'(',')',
STRING_0,STRING_1,

























