testSortMapByValueInDecendingOrder,sortMapByValueInDecendingOrder,sort,
METHOD_0,METHOD_1,METHOD_2,

TreeMap,smsd,ChemicalFilters,LinkedList,Comparator,entry1,LinkedHashMap,
IDENT_0,IDENT_1,IDENT_2,IDENT_3,IDENT_4,IDENT_5,IDENT_6,










3.0,4.0,
FLOAT_0,FLOAT_1,






















