testGetSymbolSecondAtom,BondEnergy,getSymbolSecondAtom,
METHOD_0,METHOD_1,METHOD_2,

smsd,BondEnergy,IBond,Order,SINGLE,symbol2,
IDENT_0,IDENT_1,IDENT_2,IDENT_3,IDENT_4,IDENT_5,

295,
INT_0,




"H","I",
STRING_0,STRING_1,

























