testGetMaxGasteigerIters,GasteigerPEPEPartialCharges,getMaxGasteigerIters,
METHOD_0,METHOD_1,METHOD_2,

charges,GasteigerPEPEPartialCharges,peoe,MX_ITERATIONS,
IDENT_0,IDENT_1,IDENT_2,IDENT_3,


































