testBug1279,SmilesParser,parseSmiles,atoms,getPoint2d,
METHOD_0,METHOD_1,METHOD_2,METHOD_3,METHOD_4,

smiles,SmilesParser,sp,silent,SilentChemObjectBuilder,IAtomContainer,mol,StructureDiagramGeneratorTest,IAtom,atom,point2d,
IDENT_0,IDENT_1,IDENT_2,IDENT_3,IDENT_4,IDENT_5,IDENT_6,IDENT_7,IDENT_8,IDENT_9,IDENT_10,







"[NH4+].CP(=O)(O)CCC(N)C(=O)[O-]",
STRING_0,

























