testPrestige,getCPForPrestigeTarget,defensePrestigeGain,round,
METHOD_0,METHOD_1,METHOD_2,METHOD_3,

defcp,cp,pokebattler,fight,calculator,FormulasTest,formulas,prestige,multiplier,defenseCP,
IDENT_0,IDENT_1,IDENT_2,IDENT_3,IDENT_4,IDENT_5,IDENT_6,IDENT_7,IDENT_8,IDENT_9,

500,
INT_0,




"-",
STRING_0,

2000.0,500.0,
FLOAT_0,FLOAT_1,






















