testGet_Object,PlainText,getTemplate,processTemplate,
METHOD_0,METHOD_1,METHOD_2,METHOD_3,

ninja,cero,sqltemplate,freemarker,Template,FreeMarker,
IDENT_0,IDENT_1,IDENT_2,IDENT_3,IDENT_4,IDENT_5,







"select * from emp",
STRING_0,

























