getVos,createVo,getParameter,
METHOD_0,METHOD_1,METHOD_2,

cz,metacentrum,perun,VosManagerEntryIntegrationTest,CLASS_NAME,Vo,vosManagerEntry,sess,myVo,vos,
IDENT_0,IDENT_1,IDENT_2,IDENT_3,IDENT_4,IDENT_5,IDENT_6,IDENT_7,IDENT_8,IDENT_9,







"getVos","[]",
STRING_0,STRING_1,

























