executeAnd,getCriterias,getClient,
METHOD_0,METHOD_1,METHOD_2,

object1,object2,object3,objectList1,objectList2,cetsoft,imcache,Criteria,andCriteria,actualObjects,
IDENT_0,IDENT_1,IDENT_2,IDENT_3,IDENT_4,IDENT_5,IDENT_6,IDENT_7,IDENT_8,IDENT_9,


































