nextBytes,getOffHeapByteBuffer,unlink,
METHOD_0,METHOD_1,METHOD_2,

expectedBytes,pointer,actualBytes,bufferStore,E,
IDENT_0,IDENT_1,IDENT_2,IDENT_3,IDENT_4,


































