readByte,setupInputStreamRead,
METHOD_0,METHOD_1,

theByte,cetsoft,imcache,RedisStreamReaderTest,SIZE,actualByte,inputStream,
IDENT_0,IDENT_1,IDENT_2,IDENT_3,IDENT_4,IDENT_5,IDENT_6,







'*',
STRING_0,

























