testValidNamesTag,scan,getIssues,getBugs,getBugList,
METHOD_0,METHOD_1,METHOD_2,METHOD_3,METHOD_4,

tagSrc,cflint,CFLintResult,lintresult,cfBugs,BugInfo,
IDENT_0,IDENT_1,IDENT_2,IDENT_3,IDENT_4,IDENT_5,







"<cfcomponent>\r\n","</cfcomponent>","NicComponentNm.cfc",
STRING_0,STRING_1,STRING_2,

























