testNotComplexTagBased,scan,getIssues,
METHOD_0,METHOD_1,METHOD_2,

cfcSrc,cflint,CFLintResult,lintresult,cfBugs,BugInfo,bugs,
IDENT_0,IDENT_1,IDENT_2,IDENT_3,IDENT_4,IDENT_5,IDENT_6,







"<cfcomponent>\r\n","<cffunction name=\"functionOne\">\r\n","<cfif a is 1>\r\n","<cfset b = 1>\r\n","<cfelse>\r\n","<cfset b = 2>\r\n","</cfif>\r\n","</cfcomponent>",
STRING_0,STRING_1,STRING_2,STRING_3,STRING_4,STRING_5,STRING_6,STRING_7,

























