testDotVarrd,runTagAttrDotVarTest,setUp,scan,getIssues,
METHOD_0,METHOD_1,METHOD_2,METHOD_3,METHOD_4,

tagName,attribute,cfcSrc,initVar,tag,attr,cflint,CFLintResult,lintresult,cfBugs,
IDENT_0,IDENT_1,IDENT_2,IDENT_3,IDENT_4,IDENT_5,IDENT_6,IDENT_7,IDENT_8,IDENT_9,







"zz.xx","zz","this.xx","<cfcomponent>\r\n","<cffunction name=\"test\">\r\n","=123/>\r\n"," <","=\"","0\">\r\n"," </",">\r\n","</cfcomponent>",
STRING_0,STRING_1,STRING_2,STRING_3,STRING_4,STRING_5,STRING_6,STRING_7,STRING_8,STRING_9,STRING_10,STRING_11,

























