test_GOOD,scan,getIssues,getBugs,getBugList,
METHOD_0,METHOD_1,METHOD_2,METHOD_3,METHOD_4,

cfcSrc,cflint,CFLintResult,lintresult,cfBugs,
IDENT_0,IDENT_1,IDENT_2,IDENT_3,IDENT_4,







"<customtag>",
STRING_0,

























