testOK,scan,getIssues,
METHOD_0,METHOD_1,METHOD_2,

scriptSrc,cflint,CFLintResult,lintresult,cfBugs,BugInfo,bugs,
IDENT_0,IDENT_1,IDENT_2,IDENT_3,IDENT_4,IDENT_5,IDENT_6,







"<cfscript>\r\n","function calc() {\r\n","var pi = 3.14;\r\n","var code = \"CODE\";\r\n","}\r\n","</cfscript>",
STRING_0,STRING_1,STRING_2,STRING_3,STRING_4,STRING_5,

























