testParseScriptMissingAssignment,parseScript,getMessages,
METHOD_0,METHOD_1,METHOD_2,

cfml,CFSCRIPTParser,ScriptBlockContext,scriptStatement,fCfmlParser,
IDENT_0,IDENT_1,IDENT_2,IDENT_3,IDENT_4,







"var x = 1; y =; createObject('java','java.lang.String');","whoops! ",
STRING_0,STRING_1,

























