test_,prepare,addToField,setBasicHP,startGame,proceedOneRound,isDead,isAlive,
METHOD_0,METHOD_1,METHOD_2,METHOD_3,METHOD_4,METHOD_5,METHOD_6,METHOD_7,

cfvbaibai,cardfantasy,func,SkillTestContext,CardInfo,
IDENT_0,IDENT_1,IDENT_2,IDENT_3,IDENT_4,

2499,
INT_0,




"+","+10",
STRING_0,STRING_1,

























