testLite,standard,copy,isLiteSystem,
METHOD_0,METHOD_1,METHOD_2,METHOD_3,

software,ion,system,IonSystemBuilder,IonSystem,lite,IonSystemLite,
IDENT_0,IDENT_1,IDENT_2,IDENT_3,IDENT_4,IDENT_5,IDENT_6,


































