setStackLevel_validValue_stackLevelEqualsValue,setStackLevel,getStackLevel,
METHOD_0,METHOD_1,METHOD_2,

validValue,stackLevel,
IDENT_0,IDENT_1,


































