validate_chargePointVendorAndChargePointModelIsSet_returnsTrue,setChargePointModel,setChargePointVendor,
METHOD_0,METHOD_1,METHOD_2,

stringLength20,
IDENT_0,


































