setType_availabilityType_typeIsSet,setType,
METHOD_0,METHOD_1,

chargetime,ocpp,AvailabilityType,availabilityType,Operative,
IDENT_0,IDENT_1,IDENT_2,IDENT_3,IDENT_4,


































