setConnectorId_zeroInteger_connectorIdIsSet,setConnectorId,getConnectorId,
METHOD_0,METHOD_1,METHOD_2,

zeroValue,connectorId,
IDENT_0,IDENT_1,


































