setInstance_StringIs50_nameIsSaved,aString,VariableType,setInstance,
METHOD_0,METHOD_1,METHOD_2,METHOD_3,

aString,chargetime,ocpp,basic,VariableType,sut,
IDENT_0,IDENT_1,IDENT_2,IDENT_3,IDENT_4,IDENT_5,


































