testLargeSquare,PrintCircular,printCircular,ordinal,
METHOD_0,METHOD_1,METHOD_2,METHOD_3,

charlesbihis,sandbox,printcircular,PrintCircular,printCircular,level,bounds,Direction,direction,RIGHT,UP,DOWN,LEFT,
IDENT_0,IDENT_1,IDENT_2,IDENT_3,IDENT_4,IDENT_5,IDENT_6,IDENT_7,IDENT_8,IDENT_9,IDENT_10,IDENT_11,IDENT_12,







"16","21","51","65","123456789192939495969798999989796959493929181716151413121111213141516171828384858687888878685848382726252423222232425262737475767777675747363534333343536465666656454444555","12","97","74","92","64",
STRING_0,STRING_1,STRING_2,STRING_3,STRING_4,STRING_5,STRING_6,STRING_7,STRING_8,STRING_9,




--,
OP_0,



















