testEffect4,segWords,StringReader,
METHOD_0,METHOD_1,METHOD_2,

words,segW,txt,wordSpilt,
IDENT_0,IDENT_1,IDENT_2,IDENT_3,







"|",
STRING_0,

























