Test,UrlResourceLoder,getInputStream,openConnection,
METHOD_0,METHOD_1,METHOD_2,METHOD_3,

ResourceLoader,resourceLoader,Resource,inputStream,URLConnection,
IDENT_0,IDENT_1,IDENT_2,IDENT_3,IDENT_4,







"tinyioc.xml",
STRING_0,

























