randomTest,getShortRandomString,Random,randomString,nextInt,
METHOD_0,METHOD_1,METHOD_2,METHOD_3,METHOD_4,

Random,longString,valid,maxLength,
IDENT_0,IDENT_1,IDENT_2,IDENT_3,

10000,
INT_0,




':',
STRING_0,




%,
OP_0,



















