shouldReturnNegativeNumber,getNumberBetween,nextInt,
METHOD_0,METHOD_1,METHOD_2,

dataFactory,MIN_VALUE,
IDENT_0,IDENT_1,







"Minimum must be less than minimum (min=%d, max=%d)",
STRING_0,

























