testDifferentElementsShouldNotBeEqual,findElements,tagName,
METHOD_0,METHOD_1,METHOD_2,

pages,simpleTestPage,WebElement,ps,By,
IDENT_0,IDENT_1,IDENT_2,IDENT_3,IDENT_4,







"p",
STRING_0,

























