testGetScreenshotAsBase64,getScreenshotAs,
METHOD_0,METHOD_1,

pages,simpleTestPage,screenshot,screenshoter,OutputType,BASE64,
IDENT_0,IDENT_1,IDENT_2,IDENT_3,IDENT_4,IDENT_5,


































