testCanCreateTempFiles,createTempDir,
METHOD_0,METHOD_1,

tmp,tmpFs,WebDriverException,os,
IDENT_0,IDENT_1,IDENT_2,IDENT_3,







"TemporaryFilesystem","canCreate",
STRING_0,STRING_1,

























