testShouldReturnEmptyStringWhenTextIsEmpty,findElement,clear,
METHOD_0,METHOD_1,METHOD_2,

qtwebkit,nativetests,WebElement,By,
IDENT_0,IDENT_1,IDENT_2,IDENT_3,







"lineedit",
STRING_0,

























