testShouldConvertCollections,BeanToJsonConverter,BeanWithCollection,
METHOD_0,METHOD_1,METHOD_2,

BeanToJsonConverterTest,converted,JSONArray,allNames,
IDENT_0,IDENT_1,IDENT_2,IDENT_3,







"something",
STRING_0,

























