testGetOrThrowWithoutException,getOrThrow,
METHOD_0,METHOD_1,

annimon,Exceptional,ExceptionalTest,tenSupplier,throwable,
IDENT_0,IDENT_1,IDENT_2,IDENT_3,IDENT_4,


































