test8QueenEqualsHashCode,NQueens,
METHOD_0,METHOD_1,

es,usc,citius,hipster,NQueens,states,
IDENT_0,IDENT_1,IDENT_2,IDENT_3,IDENT_4,IDENT_5,


































