testEdgesOf,edgesOf,union,newHashSet,
METHOD_0,METHOD_1,METHOD_2,METHOD_3,

es,usc,citius,hipster,GraphEdge,UndirectedEdge,V,Sets,graphTable,vertex,
IDENT_0,IDENT_1,IDENT_2,IDENT_3,IDENT_4,IDENT_5,IDENT_6,IDENT_7,IDENT_8,IDENT_9,







"B","D","A","C",
STRING_0,STRING_1,STRING_2,STRING_3,

10.0,4.0,5.0,
FLOAT_0,FLOAT_1,FLOAT_2,






















