testClearWarnings,J4SConnection,clearWarnings,getWarnings,
METHOD_0,METHOD_1,METHOD_2,METHOD_3,

xenei,jdbc4sparql,sqlWarnings,
IDENT_0,IDENT_1,IDENT_2,


































