EntitysWithTheSameIdAreTheSame,isSame,
METHOD_0,METHOD_1,

cleancoderscom,e1,e2,Objects,
IDENT_0,IDENT_1,IDENT_2,IDENT_3,







"e1ID",
STRING_0,

























