Feature,toInstances,
METHOD_0,METHOD_1,

outcomes,cleartk,ml,Feature,features1,features2,features3,featureLists,Instance,Instances,nOutcomes,nFeatureLists,OUTCOME_TYPE,instances,
IDENT_0,IDENT_1,IDENT_2,IDENT_3,IDENT_4,IDENT_5,IDENT_6,IDENT_7,IDENT_8,IDENT_9,IDENT_10,IDENT_11,IDENT_12,IDENT_13,

42,13,
INT_0,INT_1,




"X","Y","Z","c","expected the same number of outcomes (%d) as featureLists (%d)",
STRING_0,STRING_1,STRING_2,STRING_3,STRING_4,

























