testVenuesEdit,getAuthenticatedFoursquareApi,venuesEdit,getMeta,
METHOD_0,METHOD_1,METHOD_2,METHOD_3,

fi,foyt,foursquare,FoursquareApi,foursquareApi,
IDENT_0,IDENT_1,IDENT_2,IDENT_3,IDENT_4,







"4de88f43d22d09215a1f73e1","Apuvlineyksikk / Moision toimipiste","Moisiontie 11 b","Mikkeli","Etel-Savo","50520","0443516511","61.677701,27.272585","4bf58dd8d48988d104941735",
STRING_0,STRING_1,STRING_2,STRING_3,STRING_4,STRING_5,STRING_6,STRING_7,STRING_8,

























