test1True,
METHOD_0,

ru,kfu,itis,issst,uima,morph,TwoTagPredicate,predMock,bs1,bs2,TwoTagPredicateConjunction,conj,BitSet,inner,operands,second,
IDENT_0,IDENT_1,IDENT_2,IDENT_3,IDENT_4,IDENT_5,IDENT_6,IDENT_7,IDENT_8,IDENT_9,IDENT_10,IDENT_11,IDENT_12,IDENT_13,IDENT_14,IDENT_15,


































