testGetNonexistentPathSize,createTempFile,getLocal,getPathSize,
METHOD_0,METHOD_1,METHOD_2,METHOD_3,

tmp,tmpPath,FileSystem,crunch,SourceTargetHelper,
IDENT_0,IDENT_1,IDENT_2,IDENT_3,IDENT_4,







"pathsize",
STRING_0,

























