testContainsIpV4Addr,fromString,forString,checkNotNull,
METHOD_0,METHOD_1,METHOD_2,METHOD_3,

cloudera,director,aws,CidrBlock,InetAddress,addr,InetAddresses,Preconditions,cidr,prefixLen,baseAddress,
IDENT_0,IDENT_1,IDENT_2,IDENT_3,IDENT_4,IDENT_5,IDENT_6,IDENT_7,IDENT_8,IDENT_9,IDENT_10,







"201.98.0.0/16","201.98.155.25",
STRING_0,STRING_1,

























