testGetAddress_4,CloudAddressResolver,compile,getAddress,isInRange,
METHOD_0,METHOD_1,METHOD_2,METHOD_3,METHOD_4,

cloudifysource,esc,provisioning,jclouds,CloudAddressResolver,addresses,backupAddresses,SubnetUtils,SubnetInfo,subnetInfo,Pattern,
IDENT_0,IDENT_1,IDENT_2,IDENT_3,IDENT_4,IDENT_5,IDENT_6,IDENT_7,IDENT_8,IDENT_9,IDENT_10,







"10.4.12.1","10.4.13.12","10.4.13.*",
STRING_0,STRING_1,STRING_2,

























