shouldFindResourcesByTag,JSONException,opt,quote,
METHOD_0,METHOD_1,METHOD_2,METHOD_3,

cloudinary,AbstractSearchTest,SEARCH_TAG,
IDENT_0,IDENT_1,IDENT_2,







"tags:%s","resources","Null key.","JSONObject[","] not found.",
STRING_0,STRING_1,STRING_2,STRING_3,STRING_4,

























