testGetUtilizationOfRam,getUtilizationOfRam,getContainerVmRamProvisioner,getUsedVmRam,
METHOD_0,METHOD_1,METHOD_2,METHOD_3,





































