testDoSmthin,doSmthing,
METHOD_0,METHOD_1,

smthing,bService,cService,
IDENT_0,IDENT_1,IDENT_2,







"===============>","AService doSmthing",
STRING_0,STRING_1,

























