test2,EdgeListGraph,GraphNode,addNode,addDirectedEdge,DagInPatternIterator,
METHOD_0,METHOD_1,METHOD_2,METHOD_3,METHOD_4,METHOD_5,

cmu,tetrad,Graph,DagInPatternIterator,graphs,
IDENT_0,IDENT_1,IDENT_2,IDENT_3,IDENT_4,







"X","Y",
STRING_0,STRING_1,

























