testDetermination,getDataSet,IndTestGSquare,getVariable,setDeterminationP,determines,
METHOD_0,METHOD_1,METHOD_2,METHOD_3,METHOD_4,METHOD_5,

cmu,tetrad,DataSet,dataSet,IndTestGSquare,z,pitt,csb,mgm,
IDENT_0,IDENT_1,IDENT_2,IDENT_3,IDENT_4,IDENT_5,IDENT_6,IDENT_7,IDENT_8,







"X4",
STRING_0,

0.05,0.99,
FLOAT_0,FLOAT_1,






















