testDelete,buildPatient,getEntryId,getAtomEntrySelfLink,
METHOD_0,METHOD_1,METHOD_2,METHOD_3,

hl7,Patient,patientRequest,AtomEntry,OperationOutcome,testClient,success,
IDENT_0,IDENT_1,IDENT_2,IDENT_3,IDENT_4,IDENT_5,IDENT_6,


































