


buffKey,cn,cerc,Redis,buffData,userCode,buff,
IDENT_0,IDENT_1,IDENT_2,IDENT_3,IDENT_4,IDENT_5,IDENT_6,







"OK!"," %d ",
STRING_0,STRING_1,

























