testIsLdh,isLdh,isBlank,deleteLastPoint,validateDomainLength,endsWith,
METHOD_0,METHOD_1,METHOD_2,METHOD_3,METHOD_4,METHOD_5,

restfulwhois,rdap,DomainUtil,domainWithoutLastPoint,splits,hyphen,ldhReg,
IDENT_0,IDENT_1,IDENT_2,IDENT_3,IDENT_4,IDENT_5,IDENT_6,







"ns.ddomain.cn",".","-","^(?!-)(?!.*?-$)([0-9a-zA-Z][0-9a-zA-Z-]{0,62}\\.)+","[0-9a-zA-Z][0-9a-zA-Z-]{0,62}$",
STRING_0,STRING_1,STRING_2,STRING_3,STRING_4,

























