testStreamRangeClosedStartGreaterThanEnd,rangeClosed,LongStream,LongRangeClosed,
METHOD_0,METHOD_1,METHOD_2,METHOD_3,

startInclusive,endInclusive,annimon,LongStream,
IDENT_0,IDENT_1,IDENT_2,IDENT_3,


































