testQueryArpaIpv6_1,generateQueryParam,DomainQueryParam,
METHOD_0,METHOD_1,METHOD_2,

domainName,restfulwhois,rdap,Domain,domainQueryDao,queryparam,DomainQueryParam,punyDomainName,
IDENT_0,IDENT_1,IDENT_2,IDENT_3,IDENT_4,IDENT_5,IDENT_6,IDENT_7,







"2.1.0.0.0.0.0.0.0.0.0.0.0.0.0.0.0.0.0.0.0.0.0.0.0.0.0.0.0.0.0.ip6.arpa",
STRING_0,

























