cookie,
METHOD_0,

Connection,con,HttpConnection,
IDENT_0,IDENT_1,IDENT_2,







"http://example.com/","Name","Val",
STRING_0,STRING_1,STRING_2,

























