testAnyMatchWithTrueResult,anyMatch,remainder,
METHOD_0,METHOD_1,METHOD_2,

annimon,Stream,Functions,Predicate,
IDENT_0,IDENT_1,IDENT_2,IDENT_3,













%,
OP_0,



















