noErrorsByDefault,htmlParser,getErrors,
METHOD_0,METHOD_1,METHOD_2,

Parser,Jsoup,ParseError,contents,
IDENT_0,IDENT_1,IDENT_2,IDENT_3,







"<p>One</p href='no'>&arrgh;<font /><br /><foo","http://example.com",
STRING_0,STRING_1,

























