notAdjacent,
METHOD_0,

h,Jsoup,Elements,sibs,contents,
IDENT_0,IDENT_1,IDENT_2,IDENT_3,IDENT_4,







"<ol><li id=1>One<li id=2>Two<li id=3>Three</ol>","li#1 + li#3",
STRING_0,STRING_1,

























