testRandomShortAccess,capacity,nextInt,setShort,setSeed,getShort,
METHOD_0,METHOD_1,METHOD_2,METHOD_3,METHOD_4,METHOD_5,

seed,
IDENT_0,


































