testSetZero,clear,writable,writeByte,capacity,nextInt,setZero,getByte,
METHOD_0,METHOD_1,METHOD_2,METHOD_3,METHOD_4,METHOD_5,METHOD_6,METHOD_7,




32,
INT_0,































