testFindSingleAfterFilteringToEmptyStream,remainder,findSingle,IsEmptyMatcher,
METHOD_0,METHOD_1,METHOD_2,METHOD_3,

annimon,Stream,Functions,OptionalIntMatcher,
IDENT_0,IDENT_1,IDENT_2,IDENT_3,


































