testReduceWithAnotherType,reduce,
METHOD_0,METHOD_1,

annimon,Stream,BiFunction,streamtests,value1,value2,
IDENT_0,IDENT_1,IDENT_2,IDENT_3,IDENT_4,IDENT_5,







"bb","ccc","dddd",
STRING_0,STRING_1,STRING_2,

























