testCoerceToBoolean01,coerceToBoolean,ELException,
METHOD_0,METHOD_1,METHOD_2,

ELSupport,COERCE_TO_ZERO,primitive,FALSE,MessageFactory,
IDENT_0,IDENT_1,IDENT_2,IDENT_3,IDENT_4,







"error.convert",
STRING_0,

























