testGetValue03,ELProcessor,createValueExpression,bracket,
METHOD_0,METHOD_1,METHOD_2,METHOD_3,

ELProcessor,ValueExpression,ve,expectedType,
IDENT_0,IDENT_1,IDENT_2,IDENT_3,







"1;2 + 3",
STRING_0,

























