testPrivateConstructor,hasOnlyPrivateConstructors,PrivateConstructorsMatcher,
METHOD_0,METHOD_1,METHOD_2,

annimon,CommonMatcher,
IDENT_0,IDENT_1,


































