testReduceLambda01,ELProcessor,
METHOD_0,METHOD_1,

ELProcessor,connectionList,
IDENT_0,IDENT_1,







"[1,2,3,4,5].stream().reduce((x,y)->x+y)",
STRING_0,

























