createInnerNode_elementNonNull_canRetrieveElement,innerNode,getElement,
METHOD_0,METHOD_1,METHOD_2,

codefx,libfx,SimpleTreeNode,
IDENT_0,IDENT_1,IDENT_2,







"element",
STRING_0,

























