create_elementList_containsElementrs,StackTreePath,removeEnd,pop,
METHOD_0,METHOD_1,METHOD_2,METHOD_3,

codefx,libfx,StackTreePath,stackTreePath,lastElement,
IDENT_0,IDENT_1,IDENT_2,IDENT_3,IDENT_4,







"4","3","0",
STRING_0,STRING_1,STRING_2,

























