isBinaryShouldReturnTrueForInputStream,isBinary,
METHOD_0,METHOD_1,

codegist,crest,multipart,MultiPartBinarySerializer,BINARY_SERIALIZERS,paramClass,
IDENT_0,IDENT_1,IDENT_2,IDENT_3,IDENT_4,IDENT_5,


































