nonceShouldGetARandomNumber,nextLong,nonce,
METHOD_0,METHOD_1,METHOD_2,

rdm,mockRandom,currentSeconds,toTest,
IDENT_0,IDENT_1,IDENT_2,IDENT_3,


































