testHasValueThatOnNullValue,hasValueThat,HasValueMatcher,
METHOD_0,METHOD_1,METHOD_2,

Matcher,annimon,OptionalIntMatcher,
IDENT_0,IDENT_1,IDENT_2,


































