testManyNodes,ExponentialProgressiveRateClaculator,getTimeToSleep,ratio,
METHOD_0,METHOD_1,METHOD_2,METHOD_3,

tested,codeine,command_peer,loopTime,
IDENT_0,IDENT_1,IDENT_2,IDENT_3,


































