testStateWhenOneFailure,CollectorOnNodeState,addResult,calcState,
METHOD_0,METHOD_1,METHOD_2,METHOD_3,

codeine,CollectorOnNodeState,tested,
IDENT_0,IDENT_1,IDENT_2,


































