cleanTmp,listFiles,TmpDirFilter,deleteDirectory,
METHOD_0,METHOD_1,METHOD_2,METHOD_3,

baseTmpDir,tmpDirs,ru,codeinside,CleanerTest,FileUtils,
IDENT_0,IDENT_1,IDENT_2,IDENT_3,IDENT_4,IDENT_5,







"java.io.tmpdir",
STRING_0,

























