testForEach,forEach,LongConsumer,
METHOD_0,METHOD_1,METHOD_2,

annimon,LongStream,longstreamtests,currentValue,wrongOrder,
IDENT_0,IDENT_1,IDENT_2,IDENT_3,IDENT_4,

12L,32L,22L,9L,
INT_0,INT_1,INT_2,INT_3,

private,
MOD_0,




























