shouldStillZeroAfterDead,Scores,minesweeperKillOnMine,getScore,
METHOD_0,METHOD_1,METHOD_2,METHOD_3,

scores,codenjoy,dojo,minesweeper,score,
IDENT_0,IDENT_1,IDENT_2,IDENT_3,IDENT_4,


































