shouldResetSnakeLength_whenClearScores_caseEatApple,shouldSnakeIncreaseLength_whenEatApple,up,tick,asrtBrd,clearScore,snake,getLength,
METHOD_0,METHOD_1,METHOD_2,METHOD_3,METHOD_4,METHOD_5,METHOD_6,METHOD_7,

hero,board,growBy,
IDENT_0,IDENT_1,IDENT_2,







"☼☼☼☼☼☼☼☼☼\n","☼ ☼\n","☼ ▲ ☼\n","☼ ║ ☼\n","☼ ╙ ☼\n","☼ ╘►☺ ☼\n","☼ ╘═► ☼\n",
STRING_0,STRING_1,STRING_2,STRING_3,STRING_4,STRING_5,STRING_6,

























