shouldRemoveFilledLineAfterDrop,drop,isBusy,
METHOD_0,METHOD_1,METHOD_2,

glass,glassWidthFigure,codenjoy,dojo,a2048,Numbers,BREAK,
IDENT_0,IDENT_1,IDENT_2,IDENT_3,IDENT_4,IDENT_5,IDENT_6,


































