isNotReadableForTypeNotAnnotatedWithXmlRootElement,isReadable,isAssignableFrom,
METHOD_0,METHOD_1,METHOD_2,

Annotation,MediaType,everrest,sample,book,Book,
IDENT_0,IDENT_1,IDENT_2,IDENT_3,IDENT_4,IDENT_5,


































