testNavigateToFirst,addPage,navigateToFirst,resetNavigationState,navigateToNext,
METHOD_0,METHOD_1,METHOD_2,METHOD_3,METHOD_4,

wizard,page1,
IDENT_0,IDENT_1,


































