testGetChildren_leaf,getChildren,createReverseIterator,
METHOD_0,METHOD_1,METHOD_2,

Iterable,abego,treelayout,StringTreeNode,iter,n1,IteratorUtil,
IDENT_0,IDENT_1,IDENT_2,IDENT_3,IDENT_4,IDENT_5,IDENT_6,


































