shouldEqualsWhenObjectIsSame,
METHOD_0,

che,ide,tabs,Tab,tab,Objects,title,
IDENT_0,IDENT_1,IDENT_2,IDENT_3,IDENT_4,IDENT_5,IDENT_6,


































