scopeShouldBeReturned,getSelectedIndex,getScope,
METHOD_0,METHOD_1,METHOD_2,

scope,che,ide,tabs,panel,SYSTEM,
IDENT_0,IDENT_1,IDENT_2,IDENT_3,IDENT_4,IDENT_5,







"compile",
STRING_0,

























