testInt,Get,returnContent,
METHOD_0,METHOD_1,METHOD_2,

TestUtility,fluent,Content,Request,
IDENT_0,IDENT_1,IDENT_2,IDENT_3,







"count/int/1","Test Utility result = ",
STRING_0,STRING_1,

























