testSelect_Basic,boxed,Hand,cardsAsIntStream,mapToInt,
METHOD_0,METHOD_1,METHOD_2,METHOD_3,METHOD_4,

peidevs,waro,player,cards,IntStream,Hand,hand,
IDENT_0,IDENT_1,IDENT_2,IDENT_3,IDENT_4,IDENT_5,IDENT_6,


































