testInvalidMimeType,FileInputStream,ResourceImpl,Failure,getMimeType,
METHOD_0,METHOD_1,METHOD_2,METHOD_3,METHOD_4,

ResourceImpl,ri,ResourceImplTest,notification,mimeType,
IDENT_0,IDENT_1,IDENT_2,IDENT_3,IDENT_4,







"123467890","IO Failure",
STRING_0,STRING_1,

























