testHashCode,ISO3CountryCodeValidator,
METHOD_0,METHOD_1,

ISO3CountryCodeValidator,validator1,validator2,
IDENT_0,IDENT_1,IDENT_2,


































