testPolygonSpatialFilterWktConversion,PolygonSpatialFilter,getGeometryWkt,
METHOD_0,METHOD_1,METHOD_2,

expectedGeometryWkt,latLon,opensearch,endpoint,PolygonSpatialFilter,term,geometryWkt,OpenSearchQueryTest,
IDENT_0,IDENT_1,IDENT_2,IDENT_3,IDENT_4,IDENT_5,IDENT_6,IDENT_7,







"POLYGON((10 0,30 0,30 20,10 20,10 0))","0,10,0,30,20,30,20,10,0,10","geometryWkt = {}",
STRING_0,STRING_1,STRING_2,

























