testNullResults,filterPluginResponseHelper,getValidMetacard,itemPolicy,
METHOD_0,METHOD_1,METHOD_2,METHOD_3,

PolicyResponse,
IDENT_0,


































