testNullRawData,HtmlMediaModel,copyOf,
METHOD_0,METHOD_1,METHOD_2,

transformer,HtmlMediaModel,mediaModel,
IDENT_0,IDENT_1,IDENT_2,


































