defaults,ToolOptions,setPackageName,
METHOD_0,METHOD_1,METHOD_2,

jknack,antlr4ide,ToolOptions,
IDENT_0,IDENT_1,IDENT_2,







"org.package","-listener","-no-visitor","-encoding","UTF-8",
STRING_0,STRING_1,STRING_2,STRING_3,STRING_4,

























