testEqualsWhenEquals,ExportMigrationEntryImpl,
METHOD_0,METHOD_1,

migration,ExportMigrationEntryImpl,entry2,ExportMigrationEntryImplTest,FILE_PATH,
IDENT_0,IDENT_1,IDENT_2,IDENT_3,IDENT_4,


































