testEqualsWhenIdIsNull,MigrationContextImpl,
METHOD_0,METHOD_1,

migration,MigrationContextImpl,MigrationReport,context2,MIGRATABLE_ID,
IDENT_0,IDENT_1,IDENT_2,IDENT_3,IDENT_4,


































