testNullEquals,ConfigurationContextImpl,Hashtable,
METHOD_0,METHOD_1,METHOD_2,

felix,cm,ConfigurationContextImpl,context1,context2,
IDENT_0,IDENT_1,IDENT_2,IDENT_3,IDENT_4,


































