testGetKeystoreInfo,KeystoreEditor,getKeystore,
METHOD_0,METHOD_1,METHOD_2,

certificate,keystore,editor,KeystoreEditor,keystoreEditor,
IDENT_0,IDENT_1,IDENT_2,IDENT_3,IDENT_4,


































