testHashCode,TreeParser,parseNode,
METHOD_0,METHOD_1,METHOD_2,

cogcomp,datastructures,trees,Tree,INodeReader,treeString,
IDENT_0,IDENT_1,IDENT_2,IDENT_3,IDENT_4,IDENT_5,


































