getContent_NullUsedInConstructor_Null,ResponseObject,getContent,
METHOD_0,METHOD_1,METHOD_2,

responseObject,cognifide,aet,collector,
IDENT_0,IDENT_1,IDENT_2,IDENT_3,


































