shouldEvaluateFalseIfClassIsNull,TestClassPredicate,
METHOD_0,METHOD_1,

oracle,bedrock,testsupport,TestClassPredicate,predicate,Comparable,
IDENT_0,IDENT_1,IDENT_2,IDENT_3,IDENT_4,IDENT_5,


































