testUpdateSplit,openIndex,encodeIntBE,
METHOD_0,METHOD_1,METHOD_2,

cojen,tupl,View,ix,Transaction,BOGUS,mViews,
IDENT_0,IDENT_1,IDENT_2,IDENT_3,IDENT_4,IDENT_5,IDENT_6,







"small","value is much bigger now",
STRING_0,STRING_1,

























