testZ85Unpadded,decodeBytes,encodeBytes,
METHOD_0,METHOD_1,METHOD_2,

Z85,decoder,encoder,remainder,padding,isPadding,divisor,cometd,encodeTable,
IDENT_0,IDENT_1,IDENT_2,IDENT_3,IDENT_4,IDENT_5,IDENT_6,IDENT_7,IDENT_8,

14,256,85,
INT_0,INT_1,INT_2,










%,--,/=,
OP_0,OP_1,OP_2,



















