testTransition2,Variant,isTransition,is_single_nucleotide_variant,
METHOD_0,METHOD_1,METHOD_2,METHOD_3,

chr,exome,Variant,dummyPhred,
IDENT_0,IDENT_1,IDENT_2,IDENT_3,

13,
INT_0,




"A","T",
STRING_0,STRING_1,

























