testExonCount_uc0210lp,getExonCount,
METHOD_0,METHOD_1,

N,TranscriptModelTest,uc0210lp,exonCount,
IDENT_0,IDENT_1,IDENT_2,IDENT_3,


































