testimmediateLeftRecursion,Grammar,getLeftRecursiveRules,ruleNames,
METHOD_0,METHOD_1,METHOD_2,METHOD_3,

Grammar,Rule,leftRecursive,expectedRules,
IDENT_0,IDENT_1,IDENT_2,IDENT_3,







"parser grammar t;\n","s : a ;\n","a : a A | B;",
STRING_0,STRING_1,STRING_2,

























