testChromosome_uc0210lp,getChromosome,
METHOD_0,METHOD_1,

C,TranscriptModelTest,uc0210lp,chromosome,
IDENT_0,IDENT_1,IDENT_2,IDENT_3,


































