testIndirectLeftRecursion,Grammar,getLeftRecursiveRules,ruleNames,
METHOD_0,METHOD_1,METHOD_2,METHOD_3,

Grammar,Rule,leftRecursive,expectedRules,
IDENT_0,IDENT_1,IDENT_2,IDENT_3,







"parser grammar t;\n","s : a ;\n","a : b | A ;\n","b : c ;\n","c : a | C ;\n","c",
STRING_0,STRING_1,STRING_2,STRING_3,STRING_4,STRING_5,

























