parseEncodedNotCatched,StateToken,getEncoded,setEncoded,
METHOD_0,METHOD_1,METHOD_2,METHOD_3,

kune,StateToken,token1,token2,WaveRefKey,waveId,waveletId,
IDENT_0,IDENT_1,IDENT_2,IDENT_3,IDENT_4,IDENT_5,IDENT_6,







"abc.da.1.1","abc.da.1.2",
STRING_0,STRING_1,

























