testReloadUserInfoNotLogged,reloadUserInfo,getUser,
METHOD_0,METHOD_1,METHOD_2,

userService,
IDENT_0,







"AndOldUserHash",
STRING_0,

























