testGetPartitionWithZeroTimestamp,getPartition,
METHOD_0,METHOD_1,

actualResult,linkedin,camus,etl,DateUtils,timestamp,timeGranularityMs,
IDENT_0,IDENT_1,IDENT_2,IDENT_3,IDENT_4,IDENT_5,IDENT_6,

500000L,
INT_0,































