shouldNotMaskAnyCharsIfLengthTooLong,mask,doMask,Masker,
METHOD_0,METHOD_1,METHOD_2,METHOD_3,

udf,confluent,ksql,numChars,
IDENT_0,IDENT_1,IDENT_2,IDENT_3,

999,
INT_0,




"AbCd#$123xy Z",
STRING_0,

























