testEmptyIntersectionSingleElements,
METHOD_0,

misc,IntervalSet,s2,expecting,
IDENT_0,IDENT_1,IDENT_2,IDENT_3,







'a','d',"{}",
STRING_0,STRING_1,STRING_2,

























