testGetDirection,AsyncMsgRecord,getDirection,
METHOD_0,METHOD_1,METHOD_2,

asyncmsgs,AsyncMsgRecord,nhinclib,NhincConstants,AUDIT_LOG_OUTBOUND_DIRECTION,
IDENT_0,IDENT_1,IDENT_2,IDENT_3,IDENT_4,







"testGetDirection",
STRING_0,

























