CSFactory,CS,HL7DataTransformHelper,isNotNullish,setCode,
METHOD_0,METHOD_1,METHOD_2,METHOD_3,METHOD_4,

hl7,v3,CS,subdisc,HL7DataTransformHelper,nhinclib,NullChecker,
IDENT_0,IDENT_1,IDENT_2,IDENT_3,IDENT_4,IDENT_5,IDENT_6,







"CONNECT","Setting the code attribute of CS ",
STRING_0,STRING_1,

























