patientDoesNotExist,II,setRoot,setExtension,build201305,PatientChecker,findPatient,runtimeError,
METHOD_0,METHOD_1,METHOD_2,METHOD_3,METHOD_4,METHOD_5,METHOD_6,METHOD_7,

hl7,v3,II,subjectId,PRPAIN201305UV02,mpi,TestHelper,PatientChecker,checker,PRPAIN201306UV02,
IDENT_0,IDENT_1,IDENT_2,IDENT_3,IDENT_4,IDENT_5,IDENT_6,IDENT_7,IDENT_8,IDENT_9,







"2.16.840.1.113883.3.200","1239","Joe","Anderson","M","19560301","[TEST ERROR]",
STRING_0,STRING_1,STRING_2,STRING_3,STRING_4,STRING_5,STRING_6,

























