testLabeledNotBlockSet,Grammar,checkRule,
METHOD_0,METHOD_1,METHOD_2,

tool,Grammar,expecting,expectingGrammarStr,
IDENT_0,IDENT_1,IDENT_2,IDENT_3,







"lexer grammar P;\n",".s0->.s1\n",".s1->.s2\n",".s2-{\'\\u0000\'..\'2\', \'4\'..\'a\', \'c\'..\'\\uFFFF\'}->.s3\n",".s3->:s4\n",":s4-<EOT>->.s5\n","A","1:7: lexer grammar P;\n","A : t=~ ( \'3\' | \'b\' ) ;\n","Tokens : A ;",
STRING_0,STRING_1,STRING_2,STRING_3,STRING_4,STRING_5,STRING_6,STRING_7,STRING_8,STRING_9,

























