testEmpty,getTags,cloneTagList,
METHOD_0,METHOD_1,METHOD_2,

constretto,PredefinedConfigurationContextResolver,contextResolver,tags,
IDENT_0,IDENT_1,IDENT_2,IDENT_3,


































