getEnvironmentMap,
METHOD_0,

intellij,EnvironmentUtil,ourEnvironment,
IDENT_0,IDENT_1,IDENT_2,







"idea.fix.mac.env","true",
STRING_0,STRING_1,

























