testIterator,MPMCBlockingQueue,offer,signal,
METHOD_0,METHOD_1,METHOD_2,METHOD_3,

cap,BlockingQueue,dbq,conversantmedia,E,queueNotEmptyCondition,
IDENT_0,IDENT_1,IDENT_2,IDENT_3,IDENT_4,IDENT_5,


































