getCandidateTripIndex,setup,
METHOD_0,METHOD_1,

conveyal,r5,otp2,rangeraptor,transit,TripScheduleExactMatchSearchTest,FORWARD,TRIP_TIME,STOP,candidateTripIndex,
IDENT_0,IDENT_1,IDENT_2,IDENT_3,IDENT_4,IDENT_5,IDENT_6,IDENT_7,IDENT_8,IDENT_9,


































