clearEmptyStringSetMap,StringSetMap,clear,
METHOD_0,METHOD_1,METHOD_2,

emc,storageos,StringSetMap,_list,
IDENT_0,IDENT_1,IDENT_2,IDENT_3,


































