removeStringSet,StringSetMap,StringSet,getChangedKeySet,
METHOD_0,METHOD_1,METHOD_2,METHOD_3,

emc,storageos,StringSetMap,StringSet,set1,removed,_list,
IDENT_0,IDENT_1,IDENT_2,IDENT_3,IDENT_4,IDENT_5,IDENT_6,







"RAID0","RAID1","raid_level",
STRING_0,STRING_1,STRING_2,

























