testByteToGig,byteToGig,
METHOD_0,METHOD_1,

emc,storageos,dellsc,scapi,SizeUtil,GB,
IDENT_0,IDENT_1,IDENT_2,IDENT_3,IDENT_4,IDENT_5,

1073741824L,
INT_0,































