testNegPerSec,getRate,
METHOD_0,METHOD_1,

persec,emc,storageos,systemservices,healthmonitor,NodeStatsExtractor,_log,deltaMS,
IDENT_0,IDENT_1,IDENT_2,IDENT_3,IDENT_4,IDENT_5,IDENT_6,IDENT_7,

23,
INT_0,




"Calculating per sec for val: {} with delta: {}",
STRING_0,

























