testGetIndexOfField,buildReflectInfo,getIndexOfField,
METHOD_0,METHOD_1,METHOD_2,

cororok,dq,ReflectInfo,ReflectUtil,names,left,right,middle,diff,fieldName,
IDENT_0,IDENT_1,IDENT_2,IDENT_3,IDENT_4,IDENT_5,IDENT_6,IDENT_7,IDENT_8,IDENT_9,







"error at index i=",
STRING_0,

























