shouldInjectClientId,withContextId,injectParams,
METHOD_0,METHOD_1,METHOD_2,

N1qlParams,JsonObject,regexp,
IDENT_0,IDENT_1,IDENT_2,







"client_context_id","regexp","field",
STRING_0,STRING_1,STRING_2,

























