shouldCutTooLongAgent,generateAgentJson,readValueAsMap,readValue,
METHOD_0,METHOD_1,METHOD_2,METHOD_3,

tooLongAgent,endpoint,kv,KeyValueFeatureHandler,decoded,DefaultObjectMapper,MAP_TYPE,
IDENT_0,IDENT_1,IDENT_2,IDENT_3,IDENT_4,IDENT_5,IDENT_6,

1234,5678,
INT_0,INT_1,




"foobar",
STRING_0,

























