requireNonNullThrowsNullPointerExceptionWithCustomMessage,requireNonNull,
METHOD_0,METHOD_1,

backport,Objects,NullPointerException,
IDENT_0,IDENT_1,IDENT_2,







"oops","didn't throw exception",
STRING_0,STRING_1,

























