testCyclicGraph,addEdge,sort,getToken,getLine,
METHOD_0,METHOD_1,METHOD_2,METHOD_3,METHOD_4,

misc,Graph,expecting,grammar,
IDENT_0,IDENT_1,IDENT_2,IDENT_3,







"A","B","C","D","[D, C, B, A]","[",".",",index=",",line=",
STRING_0,STRING_1,STRING_2,STRING_3,STRING_4,STRING_5,STRING_6,STRING_7,STRING_8,

























