lessAndGreatNoDataTest,mysqlQueryData,andorQueryData,resultsSize,
METHOD_0,METHOD_1,METHOD_2,METHOD_3,

normaltblTableName,rc,
IDENT_0,IDENT_1,







"select * from "," where pk<? and pk>?",
STRING_0,STRING_1,

























