shouldEqualsSameObject,UnicodeString,
METHOD_0,METHOD_1,

nstant,cbor,UnicodeString,unicodeString,
IDENT_0,IDENT_1,IDENT_2,IDENT_3,







"string",
STRING_0,

























