testEquals3,UnsignedInteger,
METHOD_0,METHOD_1,

nstant,cbor,UnsignedInteger,unsignedInteger,ZERO,UnicodeString,
IDENT_0,IDENT_1,IDENT_2,IDENT_3,IDENT_4,IDENT_5,


































