testGetInfo,Eventable,Identification,getSimpleName,
METHOD_0,METHOD_1,METHOD_2,METHOD_3,

crawljax,Eventable,How,xpath,EventType,click,
IDENT_0,IDENT_1,IDENT_2,IDENT_3,IDENT_4,IDENT_5,







"/body/div[3]"," click xpath /body/div[3]",
STRING_0,STRING_1,

























