multipleUrlResultParsing,classpathXmlIS,clicks,
METHOD_0,METHOD_1,METHOD_2,

rosaloves,bitlyj,UrlClicks,clicks,Bitly,bitly,
IDENT_0,IDENT_1,IDENT_2,IDENT_3,IDENT_4,IDENT_5,







"clicks_2_urls.xml","http://tcrn.ch/a4MSUH","http://bit.ly/1YKMfY",
STRING_0,STRING_1,STRING_2,

























