whenUsingGetEntriesShouldReturnAllEntries,parseKeePassXml,getEntries,
METHOD_0,METHOD_1,METHOD_2,

slackspace,openkeepass,KeePassFile,keePassFile,entries,
IDENT_0,IDENT_1,IDENT_2,IDENT_3,IDENT_4,


































