should_instantiate_dsl_query,jpaQuery,JPAQuery,getEntityManager,
METHOD_0,METHOD_1,METHOD_2,METHOD_3,

mysema,JPAQuery,ctp,cdi,QueryDslSupportHandler,
IDENT_0,IDENT_1,IDENT_2,IDENT_3,IDENT_4,


































