should_count_with_no_attributes,createSimple,executeCountQuery,
METHOD_0,METHOD_1,METHOD_2,

ctp,cdi,Simple,metamodel,SingularAttribute,E,
IDENT_0,IDENT_1,IDENT_2,IDENT_3,IDENT_4,IDENT_5,







"testFindAll1","testFindAll2",
STRING_0,STRING_1,

























