testLoad,getDalConfigUrl,
METHOD_0,METHOD_1,

dalconfigUrl,ctrip,configure,DalConfigureFactory,DAL_XML,DAL_CONFIG,
IDENT_0,IDENT_1,IDENT_2,IDENT_3,IDENT_4,IDENT_5,







"Can not find "," or "," to initilize dal configure",
STRING_0,STRING_1,STRING_2,

























