testText,
METHOD_0,

ctrip,sqlbuilder,AbstractFreeSqlBuilder,AbstractFreeSqlBuilderTest,Clause,
IDENT_0,IDENT_1,IDENT_2,IDENT_3,IDENT_4,


































