testCancel,await,Runnable,cancel,isCancelled,isDone,
METHOD_0,METHOD_1,METHOD_2,METHOD_3,METHOD_4,METHOD_5,

jobFuture,MILLISECONDS,ctrip,xpipe,CANCELLED_RESULT,
IDENT_0,IDENT_1,IDENT_2,IDENT_3,IDENT_4,


































