queryChannels,alertChannels,
METHOD_0,METHOD_1,

ctrip,xpipe,console,alert,AlertChannel,channels,policyManager,MAIL,AlertEntity,channelSelector,
IDENT_0,IDENT_1,IDENT_2,IDENT_3,IDENT_4,IDENT_5,IDENT_6,IDENT_7,IDENT_8,IDENT_9,


































