getOutputBytes,SessionTrafficResult,
METHOD_0,METHOD_1,

timestamp,inputRates,outputRates,ctrip,xpipe,outputBytes,
IDENT_0,IDENT_1,IDENT_2,IDENT_3,IDENT_4,IDENT_5,

2000,
INT_0,































