testReplaceAtRight,CommonTree,CommonToken,addChild,replaceChildren,sanityCheckParentAndChildIndexes,toStringTree,isNil,
METHOD_0,METHOD_1,METHOD_2,METHOD_3,METHOD_4,METHOD_5,METHOD_6,METHOD_7,

CommonTree,newChild,expecting,children,Tree,
IDENT_0,IDENT_1,IDENT_2,IDENT_3,IDENT_4,

99,
INT_0,




"c","d","x","(a b c x)","(",' ',")",
STRING_0,STRING_1,STRING_2,STRING_3,STRING_4,STRING_5,STRING_6,

























