test4,Multi,addNode,getArchitectures,
METHOD_0,METHOD_1,METHOD_2,METHOD_3,

packagedrone,Filters,Multi,m1,m2,cfg,arch,
IDENT_0,IDENT_1,IDENT_2,IDENT_3,IDENT_4,IDENT_5,IDENT_6,







"&","|","<li><a href=\"binary-%1$s\">binary-%1$s</a></li>",
STRING_0,STRING_1,STRING_2,

























