testGoodCyShutdownEvent,CyShutdownEvent,abortShutdownReason,
METHOD_0,METHOD_1,METHOD_2,

cytoscape,CyShutdownEvent,reason,
IDENT_0,IDENT_1,IDENT_2,


































