testGetSavePol,getSavePolicy,
METHOD_0,METHOD_1,

cytoscape,SimpleCyProperty,CyProperty,SavePolicy,DO_NOT_SAVE,savePolicy,
IDENT_0,IDENT_1,IDENT_2,IDENT_3,IDENT_4,IDENT_5,


































