testWildcard,Grammar,createATN,getDecoded,getTokenNames,
METHOD_0,METHOD_1,METHOD_2,METHOD_3,METHOD_4,

tool,Grammar,expecting,atn,ATN,ATNSerializer,xpath,XPathLexer,tokenNames,
IDENT_0,IDENT_1,IDENT_2,IDENT_3,IDENT_4,IDENT_5,IDENT_6,IDENT_7,IDENT_8,







"parser grammar T;\n","max type 3\n","a : . ;","1:RULE_STOP 0\n","2:BASIC 0\n","3:BASIC 0\n","4:BASIC 0\n","0->2 EPSILON 0,0,0\n","2->3 WILDCARD 0,0,0\n","3->1 EPSILON 0,0,0\n",
STRING_0,STRING_1,STRING_2,STRING_3,STRING_4,STRING_5,STRING_6,STRING_7,STRING_8,STRING_9,

























