listAll,allInstances,
METHOD_0,METHOD_1,

simpleObjects,SimpleObject,all,Speaker,
IDENT_0,IDENT_1,IDENT_2,IDENT_3,







"Faz",
STRING_0,

























