happyCase,checking,Expectations,oneOf,allInstances,will,returnValue,listAll,
METHOD_0,METHOD_1,METHOD_2,METHOD_3,METHOD_4,METHOD_5,METHOD_6,METHOD_7,

all,jmock,mockContainer,SimpleObject,simpleObjects,Speaker,
IDENT_0,IDENT_1,IDENT_2,IDENT_3,IDENT_4,IDENT_5,


































