testDeleteQueue,Styx,clearStorage,getConnection,getQueue,deleteQueue,getAll,
METHOD_0,METHOD_1,METHOD_2,METHOD_3,METHOD_4,METHOD_5,METHOD_6,

crowdriff,styx,Styx,StyxQueue,clients,jedis,Jedis,all,
IDENT_0,IDENT_1,IDENT_2,IDENT_3,IDENT_4,IDENT_5,IDENT_6,IDENT_7,







"localhost:6700","localhost:6701","localhost:6702","testQ","hello world1","hello world2","hello world3",
STRING_0,STRING_1,STRING_2,STRING_3,STRING_4,STRING_5,STRING_6,

























