testSerialization2,ThermometerPlot,setSubrangePaint,GradientPaint,serialised,getUuid,
METHOD_0,METHOD_1,METHOD_2,METHOD_3,METHOD_4,METHOD_5,

plot,ThermometerPlot,p1,Color,red,blue,p2,TestUtilities,mysql,fabric,Server,
IDENT_0,IDENT_1,IDENT_2,IDENT_3,IDENT_4,IDENT_5,IDENT_6,IDENT_7,IDENT_8,IDENT_9,IDENT_10,










1.0F,2.0F,3.0F,4.0F,
FLOAT_0,FLOAT_1,FLOAT_2,FLOAT_3,






















