testGetSeriesKey,HistogramDataset,addSeries,getSeriesKey,getSeries,
METHOD_0,METHOD_1,METHOD_2,METHOD_3,METHOD_4,

statistics,HistogramDataset,d1,series,
IDENT_0,IDENT_1,IDENT_2,IDENT_3,







"Series 1",
STRING_0,

3.0,4.0,6.0,12.0,5.0,6.3,4.5,
FLOAT_0,FLOAT_1,FLOAT_2,FLOAT_3,FLOAT_4,FLOAT_5,FLOAT_6,






















