testEquals,Quarter,getUuid,
METHOD_0,METHOD_1,METHOD_2,

Quarter,q1,q2,mysql,fabric,Server,
IDENT_0,IDENT_1,IDENT_2,IDENT_3,IDENT_4,IDENT_5,

2002,
INT_0,































