invalidOrderTest,OrderedBuilder,
METHOD_0,METHOD_1,

danieldk,dictomaton,ImmutableStringIntMap,d_size,
IDENT_0,IDENT_1,IDENT_2,IDENT_3,







"The Godfather","Pulp Fiction",
STRING_0,STRING_1,

























