iteratorTest,putAll,keyIterator,keySet,
METHOD_0,METHOD_1,METHOD_2,METHOD_3,

danieldk,dictomaton,ImmutableStringIntMap,d_check1,isiKeys,iter,d_keys,
IDENT_0,IDENT_1,IDENT_2,IDENT_3,IDENT_4,IDENT_5,IDENT_6,


































