equalsTest,putAll,
METHOD_0,METHOD_1,

iss,danieldk,dictomaton,ImmutableStringObjectMap,d_locations,
IDENT_0,IDENT_1,IDENT_2,IDENT_3,IDENT_4,


































