testMultifilter,
METHOD_0,

ds,chronos,TestData,timeline,DataStream,items,DataStreamTest,
IDENT_0,IDENT_1,IDENT_2,IDENT_3,IDENT_4,IDENT_5,IDENT_6,

110,120,
INT_0,INT_1,































