testReduce,reduce,sum,linearSum,
METHOD_0,METHOD_1,METHOD_2,METHOD_3,

ds,chronos,timeline,DataStream,TestData,items,DataStreamTest,
IDENT_0,IDENT_1,IDENT_2,IDENT_3,IDENT_4,IDENT_5,IDENT_6,


































