splitStringsTest,splitStrings,
METHOD_0,METHOD_1,

list1,data4all,SpeechRecognition,PolyElement,
IDENT_0,IDENT_1,IDENT_2,IDENT_3,







"Hello my Name","Hello","my","Name",
STRING_0,STRING_1,STRING_2,STRING_3,

























