testGetRoot,getRoot,ResponseEntity,
METHOD_0,METHOD_1,METHOD_2,

ResponseEntity,metadataApiController,HttpStatus,NO_CONTENT,
IDENT_0,IDENT_1,IDENT_2,IDENT_3,


































