testPrefixNullFile,prependFileUriPrefix,
METHOD_0,METHOD_1,

filePath,dataconservancy,dcs,FilePathUtil,FILE_URL_PREFIX,uriSlash,
IDENT_0,IDENT_1,IDENT_2,IDENT_3,IDENT_4,IDENT_5,







"file:/*((?i)(?s)[A-Z]):.*",'/',"file:/","file:///","file://","((?i)(?s)[A-Z]):.*","//",
STRING_0,STRING_1,STRING_2,STRING_3,STRING_4,STRING_5,STRING_6,

























