testIfUserCanStartDataStream,pylon,fromString,isSuccessful,
METHOD_0,METHOD_1,METHOD_2,METHOD_3,

datasift,DataSiftResult,PylonStream,failed,
IDENT_0,IDENT_1,IDENT_2,IDENT_3,

199,400,
INT_0,INT_1,































