insertLastEmpty,GelinkteLijst,insertLast,getLast,
METHOD_0,METHOD_1,METHOD_2,METHOD_3,

lijst,hr,cmi,infdev226a,last,
IDENT_0,IDENT_1,IDENT_2,IDENT_3,IDENT_4,


































