longHash_5Test,longHash,
METHOD_0,METHOD_1,

greycat,utility,HashHelper,number,
IDENT_0,IDENT_1,IDENT_2,IDENT_3,

156487,10000,
INT_0,INT_1,










%,
OP_0,



















