testToAbsolute_String_String,toAbsolute,
METHOD_0,METHOD_1,

relative,datumbox,parsers,URLParser,baseURL,MalformedURLException,
IDENT_0,IDENT_1,IDENT_2,IDENT_3,IDENT_4,IDENT_5,







"toAbsolute","http://user:password@www.example.com:8080/to/path/document?arg1=val1&arg2=val2#part","../path2/doc2?a=1&b=2#part2","http://user:password@www.example.com:8080/to/path2/doc2?a=1&b=2#part2",
STRING_0,STRING_1,STRING_2,STRING_3,

























