testMt_rand_int_int,mt_rand,getThreadLocalRandom,nextDouble,
METHOD_0,METHOD_1,METHOD_2,METHOD_3,

datumbox,utilities,PHPMethods,RandomGenerator,
IDENT_0,IDENT_1,IDENT_2,IDENT_3,







"mt_rand",
STRING_0,

























