testTest,getPvalue,
METHOD_0,METHOD_1,

n11,n12,n21,n22,aLevel,datumbox,statistics,nonparametrics,independentsamples,Fisher,ndot1,ndot2,n1dot,n2dot,pvalue,rejectH0,
IDENT_0,IDENT_1,IDENT_2,IDENT_3,IDENT_4,IDENT_5,IDENT_6,IDENT_7,IDENT_8,IDENT_9,IDENT_10,IDENT_11,IDENT_12,IDENT_13,IDENT_14,IDENT_15,










0.05,
FLOAT_0,






















