testChainAttr,ST,getDefault,
METHOD_0,METHOD_1,METHOD_2,

stringtemplate,ST,st,
IDENT_0,IDENT_1,IDENT_2,







"<x>:<names>!","names","Ter","Tom","x","1:TerTom!",
STRING_0,STRING_1,STRING_2,STRING_3,STRING_4,STRING_5,

























