testTest,TransposeDataList,FlatDataList,getPvalue,
METHOD_0,METHOD_1,METHOD_2,METHOD_3,

datumbox,dataobjects,TransposeDataList,transposeDataList,is_twoTailed,aLevel,statistics,nonparametrics,relatedsamples,SignRelatedSamples,pvalue,rejectH0,
IDENT_0,IDENT_1,IDENT_2,IDENT_3,IDENT_4,IDENT_5,IDENT_6,IDENT_7,IDENT_8,IDENT_9,IDENT_10,IDENT_11,

136,115,142,140,123,147,133,150,138,151,145,117,141,127,146,135,152,149,148,
INT_0,INT_1,INT_2,INT_3,INT_4,INT_5,INT_6,INT_7,INT_8,INT_9,INT_10,INT_11,INT_12,INT_13,INT_14,INT_15,INT_16,INT_17,INT_18,




"The collection must contain observations from 2 groups.",
STRING_0,

147.0,141.0,0.05,
FLOAT_0,FLOAT_1,FLOAT_2,






















