testTestMean,testMean,sqrt,checkCriticalValue,
METHOD_0,METHOD_1,METHOD_2,METHOD_3,

xbar,H0mean,std,is_twoTailed,aLevel,datumbox,statistics,parametrics,onesample,StudentsOneSample,rejectH0,
IDENT_0,IDENT_1,IDENT_2,IDENT_3,IDENT_4,IDENT_5,IDENT_6,IDENT_7,IDENT_8,IDENT_9,IDENT_10,

28,
INT_0,




"testMean","All the parameters must be positive.",
STRING_0,STRING_1,

7.4,7.0,0.95,0.05,
FLOAT_0,FLOAT_1,FLOAT_2,FLOAT_3,






















