shouldSetPropertyValuePrimitive,aPerson,withAge,getAge,
METHOD_0,METHOD_1,METHOD_2,METHOD_3,

fluentinterface,built,age,
IDENT_0,IDENT_1,IDENT_2,


































