testMapAcrossDictionaryUsesKeys,ST,getDefault,
METHOD_0,METHOD_1,METHOD_2,

stringtemplate,ST,st,LinkedHashMap,
IDENT_0,IDENT_1,IDENT_2,IDENT_3,







"<foo:{f | <f>}>","c","d","ac",
STRING_0,STRING_1,STRING_2,STRING_3,

























