testDepthWith0,createRandomEntries,entries,toBlocking,single,isPresent,
METHOD_0,METHOD_1,METHOD_2,METHOD_3,METHOD_4,METHOD_5,

rtree3d,RTree,Geometry,RTreeTest,entries,deletedTree,head,
IDENT_0,IDENT_1,IDENT_2,IDENT_3,IDENT_4,IDENT_5,IDENT_6,


































