testInequalityWithNull,circle,asClass,isPresent,
METHOD_0,METHOD_1,METHOD_2,METHOD_3,

rtree,Circle,circle,Geometries,guavamini,RectangleDouble,ObjectsHelper,Objects,x1,x2,y1,y2,
IDENT_0,IDENT_1,IDENT_2,IDENT_3,IDENT_4,IDENT_5,IDENT_6,IDENT_7,IDENT_8,IDENT_9,IDENT_10,IDENT_11,


































