insertNullClobAndReadAsString,insertClob,getAs,toBlocking,single,
METHOD_0,METHOD_1,METHOD_2,METHOD_3,METHOD_4,

rx,Database,DatabaseTestBase,Tuples,cls,
IDENT_0,IDENT_1,IDENT_2,IDENT_3,IDENT_4,







"select document from person_clob",
STRING_0,

























