testNamedParametersWithUpdateStatement,toBlocking,single,onNext,onCompleted,
METHOD_0,METHOD_1,METHOD_2,METHOD_3,METHOD_4,

rx,Observable,OnSubscribe,Subscriber,subscriber,
IDENT_0,IDENT_1,IDENT_2,IDENT_3,IDENT_4,

25,24,26,
INT_0,INT_1,INT_2,




"update person set score = :newScore where score >= :min and score <=:max","newScore","min","max",
STRING_0,STRING_1,STRING_2,STRING_3,

























