testDifferentTests,getDifferentMethodsForTests,
METHOD_0,METHOD_1,

data1,testMap1,data2,diffMethods,unisb,st,javalanche,coverage,CoverageTraceUtil,possibilities,
IDENT_0,IDENT_1,IDENT_2,IDENT_3,IDENT_4,IDENT_5,IDENT_6,IDENT_7,IDENT_8,IDENT_9,







"testA","testB",
STRING_0,STRING_1,

























