testRoundRobinMap,STGroup,defineTemplate,getInstanceOf,getDefault,
METHOD_0,METHOD_1,METHOD_2,METHOD_3,METHOD_4,

stringtemplate,STGroup,ST,st,
IDENT_0,IDENT_1,IDENT_2,IDENT_3,







"x","[<x>]","(<x>)","hi <name:a(),b()>!","Ter","Tom",
STRING_0,STRING_1,STRING_2,STRING_3,STRING_4,STRING_5,

























