testSetDate,parseDate,setDate,getDate,
METHOD_0,METHOD_1,METHOD_2,METHOD_3,

newDate,dayatang,DateUtils,
IDENT_0,IDENT_1,IDENT_2,







"2008-05-11","birthday",
STRING_0,STRING_1,

























