testIsSatisfiedByTrueTrue,isSatisfiedBy,
METHOD_0,METHOD_1,

specification1,fact,specification2,spec1,
IDENT_0,IDENT_1,IDENT_2,IDENT_3,


































