testJpqlQueryGetSingleResult,createJpqlQuery,singleResult,getRepository,
METHOD_0,METHOD_1,METHOD_2,METHOD_3,

dayatang,querychannel,MyEntity,
IDENT_0,IDENT_1,IDENT_2,







"select o from MyEntity o where o.id = 1",
STRING_0,

























