testFromExisting,fromExisting,
METHOD_0,METHOD_1,

gradoop,GradoopId,id1,id2,id3,GradoopIdSet,ids,
IDENT_0,IDENT_1,IDENT_2,IDENT_3,IDENT_4,IDENT_5,IDENT_6,


































