testEarlyEvalNoIndent,writeFile,STGroupFile,getInstanceOf,NoIndentWriter,getSimpleName,
METHOD_0,METHOD_1,METHOD_2,METHOD_3,METHOD_4,METHOD_5,

templates,tmpdir,stringtemplate,STGroup,ST,st,sw,NoIndentWriter,w,newline,scope,outputStartChar,outputStopChar,
IDENT_0,IDENT_1,IDENT_2,IDENT_3,IDENT_4,IDENT_5,IDENT_6,IDENT_7,IDENT_8,IDENT_9,IDENT_10,IDENT_11,IDENT_12,







"t() ::= << abc>>\n","main() ::= <<\n","<t()>\n","<(t())>\n"," <t()>\n"," <(t())>\n",">>\n","t.stg","main","abc","{","self=",", start=",", stop=",'}',
STRING_0,STRING_1,STRING_2,STRING_3,STRING_4,STRING_5,STRING_6,STRING_7,STRING_8,STRING_9,STRING_10,STRING_11,STRING_12,STRING_13,STRING_14,

























