testSetTime,PropertyValue,setTime,
METHOD_0,METHOD_1,METHOD_2,

gradoop,PropertyValue,TIME_VAL_c,LocalTime,
IDENT_0,IDENT_1,IDENT_2,IDENT_3,


































