isGVELayout,
METHOD_0,

gradoop,layouts,gve,GVELayoutTest,g0,g1,v0,e0,e1,
IDENT_0,IDENT_1,IDENT_2,IDENT_3,IDENT_4,IDENT_5,IDENT_6,IDENT_7,IDENT_8,


































