shouldAllowOptionalOptions,Command,Option,scan,SUT,Args,reload,
METHOD_0,METHOD_1,METHOD_2,METHOD_3,METHOD_4,METHOD_5,METHOD_6,

SUT,dmg,TestCommand,Callable,bar,CommandExecutor,_scanner,
IDENT_0,IDENT_1,IDENT_2,IDENT_3,IDENT_4,IDENT_5,IDENT_6,


































