shouldNotHaveNextWhenOnlyRid,given,willReturn,getParams,forRequest,
METHOD_0,METHOD_1,METHOD_2,METHOD_3,METHOD_4,

milton,Request,webdav,federation,ReplicaInfo,
IDENT_0,IDENT_1,IDENT_2,IDENT_3,IDENT_4,







"rid","5",
STRING_0,STRING_1,

























