testSimpleLoadWithLeadingSpace,appendDomain,getDomain,
METHOD_0,METHOD_1,METHOD_2,

domainName,_readerSource,boot,Domain,_layout,_domains,
IDENT_0,IDENT_1,IDENT_2,IDENT_3,IDENT_4,IDENT_5,







"domainName",
STRING_0,

























