testWithNoArgs,Scanner,scan,scanWhitespace,isEof,scanWord,
METHOD_0,METHOD_1,METHOD_2,METHOD_3,METHOD_4,METHOD_5,

v5,CheckHealthTask,arguments,
IDENT_0,IDENT_1,IDENT_2,







"command",
STRING_0,

























