shouldReturnNullDigestOnDoubleWrites,rewind,getChecksums,guard,
METHOD_0,METHOD_1,METHOD_2,METHOD_3,

chksumChannel,buffers,vehicles,CHECKSUM,_checksums,
IDENT_0,IDENT_1,IDENT_2,IDENT_3,IDENT_4,


































