testValues,
METHOD_0,

testArray,nfs,xdr,bitmap4,bitmap,bit,SIZE,
IDENT_0,IDENT_1,IDENT_2,IDENT_3,IDENT_4,IDENT_5,IDENT_6,

62,63,129,
INT_0,INT_1,INT_2,




"No values provided",
STRING_0,




%,|=,
OP_0,OP_1,



















