testGetLoggerByName,getLoggerByName,getLogger,
METHOD_0,METHOD_1,METHOD_2,

Logger,loggerByName1,TraceUtilities,loggerByName2,LOGGER_MAP,loggerName,
IDENT_0,IDENT_1,IDENT_2,IDENT_3,IDENT_4,IDENT_5,







"uniqueName",
STRING_0,

























