testGetQueryWithManyValues,getQuery,
METHOD_0,METHOD_1,

fieldName,FIELD_DBID,operator,SolrInformationServer,AND,valueLists,value1,value2,value3,value4,
IDENT_0,IDENT_1,IDENT_2,IDENT_3,IDENT_4,IDENT_5,IDENT_6,IDENT_7,IDENT_8,IDENT_9,







"value1","value2","value3","value4",":",
STRING_0,STRING_1,STRING_2,STRING_3,STRING_4,

























