testRestWithOneAttributeOp,ST,getDefault,
METHOD_0,METHOD_1,METHOD_2,

stringtemplate,ST,expecting,
IDENT_0,IDENT_1,IDENT_2,







"<rest(names)>","names","Ter",
STRING_0,STRING_1,STRING_2,

























