testIncomingLists,ST,getDefault,
METHOD_0,METHOD_1,METHOD_2,

stringtemplate,ST,expecting,
IDENT_0,IDENT_1,IDENT_2,







"<rest(names)>, <rest(names)>","names","Ter","Tom","Tom, Tom",
STRING_0,STRING_1,STRING_2,STRING_3,STRING_4,

























