testEmptyLines_1,NGramTokenizerFactory,DefaultTokenizerFactory,getTokens,
METHOD_0,METHOD_1,METHOD_2,METHOD_3,

lombok,deeplearning4j,tokenization,tokenizerfactory,objects,
IDENT_0,IDENT_1,IDENT_2,IDENT_3,IDENT_4,


































