testSubSubdir,getRandomDir,writeFile,STGroupDir,getInstanceOf,getDefault,
METHOD_0,METHOD_1,METHOD_2,METHOD_3,METHOD_4,METHOD_5,

dir,stringtemplate,STGroup,ST,st1,st2,
IDENT_0,IDENT_1,IDENT_2,IDENT_3,IDENT_4,IDENT_5,







"a.st","a(x) ::= <<foo>>","/sub1/sub2","b.st","b() ::= \"bar\"","/sub1/sub2/b","foobar",
STRING_0,STRING_1,STRING_2,STRING_3,STRING_4,STRING_5,STRING_6,

























