testGroupFileInSubDir,getRandomDir,writeFile,STGroupDir,getInstanceOf,getDefault,
METHOD_0,METHOD_1,METHOD_2,METHOD_3,METHOD_4,METHOD_5,

dir,groupFile,stringtemplate,STGroup,ST,st1,st2,st3,
IDENT_0,IDENT_1,IDENT_2,IDENT_3,IDENT_4,IDENT_5,IDENT_6,IDENT_7,







"a.st","a(x) ::= <<foo>>","b() ::= \"bar\"\n","c() ::= \"duh\"\n","subdir/group.stg","subdir/group/b","subdir/group/c","foobarduh",
STRING_0,STRING_1,STRING_2,STRING_3,STRING_4,STRING_5,STRING_6,STRING_7,

























