testMMul,mmul,transpose,getFailureMessage,ordering,
METHOD_0,METHOD_1,METHOD_2,METHOD_3,METHOD_4,

assertion,
IDENT_0,

14,32,77,
INT_0,INT_1,INT_2,




"Failed with backend "," and ordering ",
STRING_0,STRING_1,

























