testLogDouble,linspace,castTo,checkShapeValues,logCreationIfNecessary,
METHOD_0,METHOD_1,METHOD_2,METHOD_3,METHOD_4,

linspace,DataType,DOUBLE,ops,transforms,Transforms,assertion,DataBuffer,newShape,newStride,ews,ordering,
IDENT_0,IDENT_1,IDENT_2,IDENT_3,IDENT_4,IDENT_5,IDENT_6,IDENT_7,IDENT_8,IDENT_9,IDENT_10,IDENT_11,










0.6931471805599453,1.0986122886681098,1.3862943611198906,1.6094379124341005,1.791759469228055,
FLOAT_0,FLOAT_1,FLOAT_2,FLOAT_3,FLOAT_4,






















