testConcat,linspace,reshape,concat,zeros,shape,
METHOD_0,METHOD_1,METHOD_2,METHOD_3,METHOD_4,METHOD_5,

A,DataType,DOUBLE,B,concat,columnConcat,concatWith,columnWiseConcat,sameDiff,
IDENT_0,IDENT_1,IDENT_2,IDENT_3,IDENT_4,IDENT_5,IDENT_6,IDENT_7,IDENT_8,


































