testLeakyRelu2,linspace,getDouble,getExecutioner,LeakyReLU,asDouble,
METHOD_0,METHOD_1,METHOD_2,METHOD_3,METHOD_4,METHOD_5,

DataType,DOUBLE,ops,scalar,shape,LongShapeDescriptor,descriptor,
IDENT_0,IDENT_1,IDENT_2,IDENT_3,IDENT_4,IDENT_5,IDENT_6,







"Expected: ","Actual: ",
STRING_0,STRING_1,

0.01,
FLOAT_0,






















