testPow1,assign,pow,
METHOD_0,METHOD_1,METHOD_2,

lombok,argX,argY,ops,transforms,Transforms,Number,ndArray,power,
IDENT_0,IDENT_1,IDENT_2,IDENT_3,IDENT_4,IDENT_5,IDENT_6,IDENT_7,IDENT_8,










3.0,4.0,8.0,
FLOAT_0,FLOAT_1,FLOAT_2,






















