testPutSpecifiedIndices2d,indices,rank,SpecifiedIndex,slice,dup,asInt,
METHOD_0,METHOD_1,METHOD_2,METHOD_3,METHOD_4,METHOD_5,METHOD_6,

toPut,INDArrayIndex,indices,NDArrayIndex,realIndices,
IDENT_0,IDENT_1,IDENT_2,IDENT_3,IDENT_4,







'c',
STRING_0,

























