testINDArrayIndexingEqualToRank,linspace,reshape,castTo,
METHOD_0,METHOD_1,METHOD_2,METHOD_3,

DataType,DOUBLE,indexes,assertion,getTest,
IDENT_0,IDENT_1,IDENT_2,IDENT_3,IDENT_4,







'c',
STRING_0,

























