testConvOutWidthAndHeight,outSize,effectiveKernelSize,
METHOD_0,METHOD_1,METHOD_2,

outSize,convolution,Convolution,dilation,coverAll,
IDENT_0,IDENT_1,IDENT_2,IDENT_3,IDENT_4,


































