testVar,var,getFailureMessage,ordering,
METHOD_0,METHOD_1,METHOD_2,METHOD_3,

actualResult,expectedResult,
IDENT_0,IDENT_1,







"Failed with backend "," and ordering ",
STRING_0,STRING_1,

4.0,8.0,
FLOAT_0,FLOAT_1,






















