testMatchConditionAlongDimension2,ones,getRow,assign,putScalar,or,lessThan,
METHOD_0,METHOD_1,METHOD_2,METHOD_3,METHOD_4,METHOD_5,METHOD_6,

BooleanIndexing,conditions,Conditions,comp,
IDENT_0,IDENT_1,IDENT_2,IDENT_3,







"Array: ","Result: ",
STRING_0,STRING_1,

0.9,
FLOAT_0,






















