testWhere,putScalar,getExecutioner,WhereNumpy,
METHOD_0,METHOD_1,METHOD_2,METHOD_3,

mask,DataType,BOOL,resultData,assertion,ops,controlflow,OP_EXECUTIONER_INSTANCE,
IDENT_0,IDENT_1,IDENT_2,IDENT_3,IDENT_4,IDENT_5,IDENT_6,IDENT_7,










5.0,
FLOAT_0,






















