testOtherSoftmax,linspace,dup,reshape,getExecutioner,OldSoftMax,getFunctionalCode,currentThread,acquireGIL,PyRun_SimpleStringFlags,PyErr_Print,releaseGIL,
METHOD_0,METHOD_1,METHOD_2,METHOD_3,METHOD_4,METHOD_5,METHOD_6,METHOD_7,METHOD_8,METHOD_9,METHOD_10,METHOD_11,

vec,DataType,DOUBLE,matrix,ops,transforms,strict,assertion,datavec,python,PythonExecutioner,
IDENT_0,IDENT_1,IDENT_2,IDENT_3,IDENT_4,IDENT_5,IDENT_6,IDENT_7,IDENT_8,IDENT_9,IDENT_10,

18,
INT_0,




'f',"__f_","CPython: PyRun_SimpleStringFlag()","exec failed","Exec done",
STRING_0,STRING_1,STRING_2,STRING_3,STRING_4,

2.9067235E-7,5.8383102E-6,1.1726559E-4,0.0023553425,0.047308315,0.95021296,
FLOAT_0,FLOAT_1,FLOAT_2,FLOAT_3,FLOAT_4,FLOAT_5,






















