testColumnSum,linspace,reshape,sum,getFailureMessage,ordering,
METHOD_0,METHOD_1,METHOD_2,METHOD_3,METHOD_4,METHOD_5,

twoByThree,DataType,FLOAT,columnVar,assertion,
IDENT_0,IDENT_1,IDENT_2,IDENT_3,IDENT_4,

600,150,
INT_0,INT_1,




"Failed with backend "," and ordering ",
STRING_0,STRING_1,

44850.0F,45000.0F,45150.0F,45300.0F,
FLOAT_0,FLOAT_1,FLOAT_2,FLOAT_3,






















