testSlices,linspace,slices,slice,
METHOD_0,METHOD_1,METHOD_2,METHOD_3,

DataType,DOUBLE,slice,lombok,
IDENT_0,IDENT_1,IDENT_2,IDENT_3,

24,
INT_0,































