testCas_2,cas,readLock,lock,unlock,
METHOD_0,METHOD_1,METHOD_2,METHOD_3,METHOD_4,

lombok,v0,primitives,Atomic,lock,
IDENT_0,IDENT_1,IDENT_2,IDENT_3,IDENT_4,







"beta","alpha",
STRING_0,STRING_1,

























