testSoleArg,ErrorBuffer,writeFile,STGroupFile,setListener,getInstanceOf,getSimpleName,
METHOD_0,METHOD_1,METHOD_2,METHOD_3,METHOD_4,METHOD_5,METHOD_6,

stringtemplate,ErrorBuffer,templates,tmpdir,STGroup,ST,st,newline,scope,outputStartChar,outputStopChar,
IDENT_0,IDENT_1,IDENT_2,IDENT_3,IDENT_4,IDENT_5,IDENT_6,IDENT_7,IDENT_8,IDENT_9,IDENT_10,







"t() ::= \"<u({9})>\"\n","u(x,y) ::= \"<x>\"\n","t.stg","t","context [/t] 1:1 passed 1 arg(s) to template /u with 2 declared arg(s)","{","self=",", start=",", stop=",'}',
STRING_0,STRING_1,STRING_2,STRING_3,STRING_4,STRING_5,STRING_6,STRING_7,STRING_8,STRING_9,

























