testArgMin,getRandom,setSeed,rand,var,argmin,execAndEndResult,argMax,neg,dup,negi,
METHOD_0,METHOD_1,METHOD_2,METHOD_3,METHOD_4,METHOD_5,METHOD_6,METHOD_7,METHOD_8,METHOD_9,METHOD_10,

lombok,dim,inArr,autodiff,samediff,SameDiff,sd,SDVariable,argmin,
IDENT_0,IDENT_1,IDENT_2,IDENT_3,IDENT_4,IDENT_5,IDENT_6,IDENT_7,IDENT_8,

12345,
INT_0,




"in","argmin",
STRING_0,STRING_1,

























