testOneTensor,ones,broadcast,createUninitialized,shape,
METHOD_0,METHOD_1,METHOD_2,METHOD_3,METHOD_4,

matrixToBroadcast,shape,
IDENT_0,IDENT_1,


































