testAppendBias,linspace,transpose,appendBias,toFlattened,scalar,logCreationIfNecessary,
METHOD_0,METHOD_1,METHOD_2,METHOD_3,METHOD_4,METHOD_5,METHOD_6,

rand,assertion,Number,
IDENT_0,IDENT_1,IDENT_2,

25,
INT_0,































