testConcat_1,concat,getExecutioner,toUpperCase,
METHOD_0,METHOD_1,METHOD_2,METHOD_3,

arr1,arr2,symbol,Character,TraditionalBinaryPrefix,prefix,
IDENT_0,IDENT_1,IDENT_2,IDENT_3,IDENT_4,IDENT_5,







'c','f',"Unknown symbol '","'",
STRING_0,STRING_1,STRING_2,STRING_3,

























