testAutoDecompression1,linspace,getCompressor,compress,DataInputStream,
METHOD_0,METHOD_1,METHOD_2,METHOD_3,METHOD_4,

compressed,bos,bis,
IDENT_0,IDENT_1,IDENT_2,

250,
INT_0,




"UINT8",
STRING_0,

























