testRowStd,linspace,reshape,std,getFailureMessage,ordering,
METHOD_0,METHOD_1,METHOD_2,METHOD_3,METHOD_4,METHOD_5,

twoByThree,rowStd,assertion,
IDENT_0,IDENT_1,IDENT_2,







"Failed with backend "," and ordering ",
STRING_0,STRING_1,

0.70710677F,
FLOAT_0,






















