TestSeparatorEmittedForEmptyIteratorValu3333e,getRandomDir,writeFile,STGroupFile,getInstanceOf,AutoIndentWriter,getSimpleName,
METHOD_0,METHOD_1,METHOD_2,METHOD_3,METHOD_4,METHOD_5,METHOD_6,

dir,groupFile,stringtemplate,STGroupFile,ST,st,sw,expecting,scope,outputStartChar,outputStopChar,
IDENT_0,IDENT_1,IDENT_2,IDENT_3,IDENT_4,IDENT_5,IDENT_6,IDENT_7,IDENT_8,IDENT_9,IDENT_10,







"filter ::= [\"b\":, default: key]\n","t() ::= <%<[\"a\", \"b\", \"c\", \"b\"]:{it | <filter.(it)>}; separator=\",\">%>\n","group.stg","/group.stg","t","a,,c,","{","self=",", start=",", stop=",'}',
STRING_0,STRING_1,STRING_2,STRING_3,STRING_4,STRING_5,STRING_6,STRING_7,STRING_8,STRING_9,STRING_10,

























