test28,clone,DemoiselleSecurityException,
METHOD_0,METHOD_1,METHOD_2,

demoiselle,jee,DemoiselleUser,CloneNotSupportedException,UNAUTHORIZED,
IDENT_0,IDENT_1,IDENT_2,IDENT_3,IDENT_4,







"Erro ao clonar",
STRING_0,

























