test29,
METHOD_0,

children,
IDENT_0,







"{\"identity\":\"123456789\", \"name\":\"Teste\"}","TreeNodeField [key=",", value=",", children=",
STRING_0,STRING_1,STRING_2,STRING_3,

























