testAddAndRemove,UpdateOp,
METHOD_0,METHOD_1,

NodeDocument,nd,ds,NODES,UpdateOp,up,removeMe,Permutations,
IDENT_0,IDENT_1,IDENT_2,IDENT_3,IDENT_4,IDENT_5,IDENT_6,IDENT_7,







".testAddAndRemove","_id",
STRING_0,STRING_1,

























