testGetVersionHistory2,setupPermission,getTestRoot,getTree,
METHOD_0,METHOD_1,METHOD_2,METHOD_3,

testPrincipal,PrivilegeConstants,JCR_READ,Tree,vs,vhPath,
IDENT_0,IDENT_1,IDENT_2,IDENT_3,IDENT_4,IDENT_5,


































