testCollectionAsArray,singletonMap,getConfigValue,
METHOD_0,METHOD_1,METHOD_2,

testArray,ConfigurationParameters,defaultValue,targetClass,
IDENT_0,IDENT_1,IDENT_2,IDENT_3,







"t",
STRING_0,

























