testGetRestrictionForEmpty,createEntry,emptySet,getRestriction,
METHOD_0,METHOD_1,METHOD_2,METHOD_3,

Value,restriction,Restriction,AccessControlConstants,REP_GLOB,
IDENT_0,IDENT_1,IDENT_2,IDENT_3,IDENT_4,


































