testEquals,PrincipalImpl,TestPrincipal,JackrabbitPrincipal,
METHOD_0,METHOD_1,METHOD_2,METHOD_3,

Principal,principals,principal,PrincipalImplTest,
IDENT_0,IDENT_1,IDENT_2,IDENT_3,


































