testReadFile,createTempFile,FileWriter,flush,readFile,defaultCharset,deleteOnExit,
METHOD_0,METHOD_1,METHOD_2,METHOD_3,METHOD_4,METHOD_5,METHOD_6,

FileWriter,wr,gitlab,charset,Charset,encoding,
IDENT_0,IDENT_1,IDENT_2,IDENT_3,IDENT_4,IDENT_5,







".tmp","Hello World!!!",
STRING_0,STRING_1,

























