testIsRegistered,GitlabCIv1,setToken,isRegistered,isConfigured,
METHOD_0,METHOD_1,METHOD_2,METHOD_3,METHOD_4,

gitlab,GitlabCIv1Test,
IDENT_0,IDENT_1,







"aaabbbccc",
STRING_0,

























