testMissingRegionName,getRandomDir,writeFile,STGroupFile,ErrorBuffer,setListener,getSimpleName,
METHOD_0,METHOD_1,METHOD_2,METHOD_3,METHOD_4,METHOD_5,METHOD_6,

dir,stringtemplate,STGroupFile,misc,ErrorBuffer,newline,scope,st,outputStartChar,outputStopChar,
IDENT_0,IDENT_1,IDENT_2,IDENT_3,IDENT_4,IDENT_5,IDENT_6,IDENT_7,IDENT_8,IDENT_9,







"@t.() ::= \"\"\n","g.stg","/g.stg","g.stg 1:3: missing ID at '('","{","self=",", start=",", stop=",'}',
STRING_0,STRING_1,STRING_2,STRING_3,STRING_4,STRING_5,STRING_6,STRING_7,STRING_8,

























