testGetCriteria,newHashSet,getCriteria,
METHOD_0,METHOD_1,METHOD_2,

Sets,hisp,dhis,sqlview,SqlView,CRITERIA_SEP,
IDENT_0,IDENT_1,IDENT_2,IDENT_3,IDENT_4,IDENT_5,







"type:NUMBER","aggregationType:AVERAGE","type","NUMBER","aggregationType","AVERAGE",
STRING_0,STRING_1,STRING_2,STRING_3,STRING_4,STRING_5,

























