testAddProgramIndicatorGroup,addProgramIndicatorGroup,getUid,
METHOD_0,METHOD_1,METHOD_2,

programIndicatorGroupA,validationRule,
IDENT_0,IDENT_1,


































