testDeleteProgramMessage,getCalendar,toIso,toJdkCalendar,
METHOD_0,METHOD_1,METHOD_2,METHOD_3,

programMessageStore,pmsgA,pmsgAId,hisp,dhis,period,Cal,dateTimeUnit,
IDENT_0,IDENT_1,IDENT_2,IDENT_3,IDENT_4,IDENT_5,IDENT_6,IDENT_7,


































