testNumberRendererWithPrintfFormat,writeFile,STGroupFile,registerRenderer,NumberRenderer,getInstanceOf,getDefault,
METHOD_0,METHOD_1,METHOD_2,METHOD_3,METHOD_4,METHOD_5,METHOD_6,

templates,tmpdir,stringtemplate,STGroup,ST,st,expecting,
IDENT_0,IDENT_1,IDENT_2,IDENT_3,IDENT_4,IDENT_5,IDENT_6,

2100,
INT_0,




"foo(x,y) ::= << <x; format=\"%d\"> <y; format=\"%2.3f\"> >>\n","t.stg","/t.stg","x","y"," -2100 3.142 ",
STRING_0,STRING_1,STRING_2,STRING_3,STRING_4,STRING_5,

3.14159,
FLOAT_0,






















