testParallelAttributeIterationHasI,ST,getDefault,
METHOD_0,METHOD_1,METHOD_2,

stringtemplate,ST,expecting,newline,
IDENT_0,IDENT_1,IDENT_2,IDENT_3,







"<names,phones,salaries:{n,p,s | <i0>. <n>@<p>: <s>\n}>","names","Ter","Tom","phones","big","0. Ter@1: big","1. Tom@2: huge",
STRING_0,STRING_1,STRING_2,STRING_3,STRING_4,STRING_5,STRING_6,STRING_7,

























