testType,
METHOD_0,

candidateURL,aksw,agdistis,Triple,predicate,defaultMaxNumberOfDocsRetrievedFromIndex,
IDENT_0,IDENT_1,IDENT_2,IDENT_3,IDENT_4,IDENT_5,







"http://dbpedia.org/resource/Barack_Obama","http://www.w3.org/1999/02/22-rdf-syntax-ns#type",
STRING_0,STRING_1,

























