testInstanceWithBlankPassword,getPassword,
METHOD_0,METHOD_1,

IRODSUriUserInfo,password,
IDENT_0,IDENT_1,







"user","zone",
STRING_0,STRING_1,

























