testIsIRODSURISchemeTrue,isIRODSURIScheme,getScheme,
METHOD_0,METHOD_1,METHOD_2,

IRODSUriUtils,SCHEME,irodsURI,
IDENT_0,IDENT_1,IDENT_2,







"irods://host",
STRING_0,

























