testGetUserInUserNameWhenHasPoundNoUser,getUserInUserName,
METHOD_0,METHOD_1,

testUser,MiscIRODSUtils,userName,indexOfPound,
IDENT_0,IDENT_1,IDENT_2,IDENT_3,







"#zone",'#',
STRING_0,STRING_1,

























