testDeleteTicket,instanceForDelete,TicketAdminInp,
METHOD_0,METHOD_1,METHOD_2,

ticket,packinstr,TicketAdminInp,pi,ticketId,TICKET_ADMIN_INP_API_NBR,BLANK,
IDENT_0,IDENT_1,IDENT_2,IDENT_3,IDENT_4,IDENT_5,IDENT_6,







"null or empty ticket id","delete",
STRING_0,STRING_1,

























