testIFExpr,ST,getDefault,
METHOD_0,METHOD_1,METHOD_2,

stringtemplate,ST,expecting,newline,
IDENT_0,IDENT_1,IDENT_2,IDENT_3,







"begin\n","<if(x)><endif>\n","end\n","begin","end",
STRING_0,STRING_1,STRING_2,STRING_3,STRING_4,

























