testHTTPMethodEnumStaticAccess,
METHOD_0,

digi,xbee,HTTPMethodEnum,httpMethodEnum,httpMethodValues,lookupTable,
IDENT_0,IDENT_1,IDENT_2,IDENT_3,IDENT_4,IDENT_5,


































