testXBeeDiscoveryStatusValues,
METHOD_0,

digi,xbee,XBeeDiscoveryStatus,XBeeDiscoveryStatusTest,discoveryStatusValues,
IDENT_0,IDENT_1,IDENT_2,IDENT_3,IDENT_4,


































