testBasicDependent,getTestJob,createJob,setParent,getJob,
METHOD_0,METHOD_1,METHOD_2,METHOD_3,METHOD_4,

huffingtonpost,chronos,JobSpec,TestAgent,childJob,
IDENT_0,IDENT_1,IDENT_2,IDENT_3,IDENT_4,







"Mrs Dalloway","A child",
STRING_0,STRING_1,

























