testAtomDate2,AtomDate,getCalendar,
METHOD_0,METHOD_1,METHOD_2,

abdera,AtomDate,atomDate,calendar,
IDENT_0,IDENT_1,IDENT_2,IDENT_3,







"2007-12-13T14:15:16.123Z","abc",
STRING_0,STRING_1,

























