trimLabelsNanoseconds1,trimLabels,calculateGreatestChangingField,DateTrimmer,getCompactForm,greatestRedundancePrecision,
METHOD_0,METHOD_1,METHOD_2,METHOD_3,METHOD_4,METHOD_5,

diirt,graphene,TimeScales,labels,greatestChangingPrecision,rtn,DateTrimmer,firstDate,NO_PRECISION,prevLabel,nextLabel,redundancePrecision,trimmedLabel,
IDENT_0,IDENT_1,IDENT_2,IDENT_3,IDENT_4,IDENT_5,IDENT_6,IDENT_7,IDENT_8,IDENT_9,IDENT_10,IDENT_11,IDENT_12,







"2014/11/26 09:01:00.000000000","2014/11/26 09:02:00.000000002","2014/11/26 09:03:00.000000004","2014/11/26 09:04:00.000000006","2014/11/26 09:05:00.000000008","09:02:00.000000002","09:03:00.000000004","09:04:00.000000006","09:05:00.000000008",
STRING_0,STRING_1,STRING_2,STRING_3,STRING_4,STRING_5,STRING_6,STRING_7,STRING_8,

























