testConcatenation4,ArrayDouble,concatenate,getDouble,doubleValue,
METHOD_0,METHOD_1,METHOD_2,METHOD_3,METHOD_4,

diirt,ArrayDouble,l1,l2,l3,l4,l5,ListDouble,concatenated,expValues,vtype,VNumber,number,NaN,
IDENT_0,IDENT_1,IDENT_2,IDENT_3,IDENT_4,IDENT_5,IDENT_6,IDENT_7,IDENT_8,IDENT_9,IDENT_10,IDENT_11,IDENT_12,IDENT_13,


































