isFinite2,isFinite,isNaN,isInfinite,
METHOD_0,METHOD_1,METHOD_2,METHOD_3,

diirt,stats,Range,range1,Ranges,
IDENT_0,IDENT_1,IDENT_2,IDENT_3,IDENT_4,










5.0,
FLOAT_0,






















