unzipMissing,unzip,closeQuietly,
METHOD_0,METHOD_1,METHOD_2,

testee,IOUtils,closeable,SQLException,
IDENT_0,IDENT_1,IDENT_2,IDENT_3,







"runtime/JDBCPools1.txt",
STRING_0,

























