testDelete_4,getSimpleName,
METHOD_0,METHOD_1,

bottomRef,baseString,bottom,
IDENT_0,IDENT_1,IDENT_2,







"[%s] %s","<unknown>",
STRING_0,STRING_1,

























