testCreateFromString,createFromString,getWord,
METHOD_0,METHOD_1,METHOD_2,

tudarmstadt,ukp,dkpro,decompounding,splitter,Fragment,fragm,word,
IDENT_0,IDENT_1,IDENT_2,IDENT_3,IDENT_4,IDENT_5,IDENT_6,IDENT_7,







"(",
STRING_0,

























