returns_null_for_Void,createA,isAssignableFrom,createBigDecimal,createEnum,createObject,lastResort,
METHOD_0,METHOD_1,METHOD_2,METHOD_3,METHOD_4,METHOD_5,METHOD_6,

oneeyedmen,fakir,Enum,Void,
IDENT_0,IDENT_1,IDENT_2,IDENT_3,


































