compactShouldHandleEmptySetOfRanges,compactRanges,takeNextRangeAndMergeOverlappingRanges,sort,
METHOD_0,METHOD_1,METHOD_2,METHOD_3,

versioning,Range,ranges,
IDENT_0,IDENT_1,IDENT_2,


































