intersectShouldGiveIdentityForSameRange,intersect,Range,
METHOD_0,METHOD_1,METHOD_2,

versioning,Range,NIL,newFrom,newTo,
IDENT_0,IDENT_1,IDENT_2,IDENT_3,IDENT_4,


































