fakes_accessors_by_name,fakeA,
METHOD_0,METHOD_1,

oneeyedmen,fakir,FakerTest,ClassToBeFaked,fake,Faker,
IDENT_0,IDENT_1,IDENT_2,IDENT_3,IDENT_4,IDENT_5,


































