showsSeasonsTest,showSeasons,commandData,Season,
METHOD_0,METHOD_1,METHOD_2,METHOD_3,

sickbeard,Season,sick,tvdbid,season,SeasonsJson,TypeToken,JsonResponse,
IDENT_0,IDENT_1,IDENT_2,IDENT_3,IDENT_4,IDENT_5,IDENT_6,IDENT_7,







"71256","show.seasons","&tvdbid=","&season=",
STRING_0,STRING_1,STRING_2,STRING_3,

























