testSimple,Simpler,getValues,
METHOD_0,METHOD_1,METHOD_2,

dozermapper,functional_tests,MapMappingTest,Simpler,srcObj,destClass,
IDENT_0,IDENT_1,IDENT_2,IDENT_3,IDENT_4,IDENT_5,







"f",
STRING_0,

























