testCombinationsStatic,combinations,
METHOD_0,METHOD_1,

subItems,items,combinationsExpected,combinatorial,Combination,sub,
IDENT_0,IDENT_1,IDENT_2,IDENT_3,IDENT_4,IDENT_5,







"combinations static: subItems:",", items: ",", ExpectedResult: ",
STRING_0,STRING_1,STRING_2,

























