fullUrlStillValidWithoutWWW,setFullUrl,
METHOD_0,METHOD_1,

shortUrl,constraintViolations,repaskys,ShortUrlTest,fullUrl,
IDENT_0,IDENT_1,IDENT_2,IDENT_3,IDENT_4,







"http://google.com",
STRING_0,

























