testAsOrderedSet,asOrderedSet,
METHOD_0,METHOD_1,

dresdenocl,codegen,ocl2java,OclOrderedSet,set1,set2,object1,object2,object3,object4,metamodels,xsd,XSDModel,
IDENT_0,IDENT_1,IDENT_2,IDENT_3,IDENT_4,IDENT_5,IDENT_6,IDENT_7,IDENT_8,IDENT_9,IDENT_10,IDENT_11,IDENT_12,







"4","3",
STRING_0,STRING_1,

























