testIsExtended2,fromLogFileNotation,getFrame,isExtended,
METHOD_0,METHOD_1,METHOD_2,METHOD_3,

kayak,Frame,extended,
IDENT_0,IDENT_1,IDENT_2,







"isExtendedIdentifier2","(1244101432.830624) vcan2 7D3#6C00082E36560100",
STRING_0,STRING_1,

























