testGetConfig,getConfig,
METHOD_0,METHOD_1,

dspace,CacheConfig,cacheConfig,caching,EhcacheCacheTest,
IDENT_0,IDENT_1,IDENT_2,IDENT_3,IDENT_4,


































