testGet_InParent,getRoot,
METHOD_0,METHOD_1,

Property,INSTANCE_SECRET,zc,fate,zookeeper,ZooUtil,iid,ZNAMESPACES,NamespaceConfigurationTest,NSID,ZNAMESPACE_CONF,
IDENT_0,IDENT_1,IDENT_2,IDENT_3,IDENT_4,IDENT_5,IDENT_6,IDENT_7,IDENT_8,IDENT_9,IDENT_10,







"sekrit",
STRING_0,

























