testAddCRS,addCrsToGeoJSON,isNullOrEmpty,readValue,InvalidParameterException,writeValueAsString,BaleenException,
METHOD_0,METHOD_1,METHOD_2,METHOD_3,METHOD_4,METHOD_5,METHOD_6,

orig,Strings,geoJson,geoJsonObj,dstl,baleen,consumers,Postgres,MAPPER,MAP_LIKE_TYPE,crs,srid,
IDENT_0,IDENT_1,IDENT_2,IDENT_3,IDENT_4,IDENT_5,IDENT_6,IDENT_7,IDENT_8,IDENT_9,IDENT_10,IDENT_11,







"{\"type\":\"Polygon\",\"coordinates\":[[[1.0, 1.0],[2.0, 2.0],[3.0, 1.0],[1.0, 1.0]]]}","{\"type\":\"Polygon\",\"coordinates\":[[[1.0,1.0],[2.0,2.0],[3.0,1.0],[1.0,1.0]]],\"crs\":{\"type\":\"name\",\"properties\":{\"name\":\"EPSG:4326\"}}}","Mapper returned null","crs","type","EPSG:4326","properties","Unable to parse GeoJSON",
STRING_0,STRING_1,STRING_2,STRING_3,STRING_4,STRING_5,STRING_6,STRING_7,

























