testClone,clone,TIntObjectHashMap,THashMap,
METHOD_0,METHOD_1,METHOD_2,METHOD_3,

gnu,trove,THashMap,t2,tHashMap,TIntObjectHashMap,V,
IDENT_0,IDENT_1,IDENT_2,IDENT_3,IDENT_4,IDENT_5,IDENT_6,


































