testDocumentTests,newDocumentKey,DocumentPartKey,getDistributionStrategy,getDistributionHash,
METHOD_0,METHOD_1,METHOD_2,METHOD_3,METHOD_4,

bagri,DocumentKey,dk1,dk2,hazelcast,documentUri,revision,
IDENT_0,IDENT_1,IDENT_2,IDENT_3,IDENT_4,IDENT_5,IDENT_6,







"user5916344658280979961","user9077967451922481423",
STRING_0,STRING_1,

























