testPrint,PetType,print,
METHOD_0,METHOD_1,METHOD_2,

samples,petclinic,owner,PetType,petType,petTypeName,petTypeFormatter,ENGLISH,
IDENT_0,IDENT_1,IDENT_2,IDENT_3,IDENT_4,IDENT_5,IDENT_6,IDENT_7,







"Hamster",
STRING_0,

























