testIsEmptyAfterRemoval,runTask,TestAbstractKernelRunnable,offer,
METHOD_0,METHOD_1,METHOD_2,METHOD_3,

sgs,TestScalableDeque,txnScheduler,ScalableDeque,taskOwner,headRef,
IDENT_0,IDENT_1,IDENT_2,IDENT_3,IDENT_4,IDENT_5,


































