testGetBindingFoundWriteNext,setBinding,newTransaction,Runner,GetBinding,getResult,
METHOD_0,METHOD_1,METHOD_2,METHOD_3,METHOD_4,METHOD_5,

sgs,BasicTxnIsolationTest,txn,Runner,done,
IDENT_0,IDENT_1,IDENT_2,IDENT_3,IDENT_4,







"not done",
STRING_0,

























