testGetTransactionOtherThread,getTransaction,
METHOD_0,METHOD_1,

AtomicReference,thread,sgs,Transaction,handle,txn,
IDENT_0,IDENT_1,IDENT_2,IDENT_3,IDENT_4,IDENT_5,







"Expected ",", got ",
STRING_0,STRING_1,

























