testVisitStringValue,StringValue,visit,getSqlString,
METHOD_0,METHOD_1,METHOD_2,METHOD_3,

es,ieci,tecdoc,fwktd,StringValue,expressionRenderer,sqlString,
IDENT_0,IDENT_1,IDENT_2,IDENT_3,IDENT_4,IDENT_5,IDENT_6,







"String con ' simple",
STRING_0,

























