testVisitDoubleValue,DoubleValue,visit,getSqlString,
METHOD_0,METHOD_1,METHOD_2,METHOD_3,

es,ieci,tecdoc,fwktd,DoubleValue,expressionRenderer,sqlString,
IDENT_0,IDENT_1,IDENT_2,IDENT_3,IDENT_4,IDENT_5,IDENT_6,










122345.3434,
FLOAT_0,






















