testJoinAllNullElements,
METHOD_0,

LinkedHashSet,separator,ebaysf,cors,CORSFilter,joinSeparator,isFirst,
IDENT_0,IDENT_1,IDENT_2,IDENT_3,IDENT_4,IDENT_5,IDENT_6,







",",
STRING_0,

























