decodeTest,nvDecode,nativeToAscii,toCharArray,toHexString,toUpperCase,
METHOD_0,METHOD_1,METHOD_2,METHOD_3,METHOD_4,METHOD_5,

nvDecoded,ebayopensource,turmeric,nv,UTF8DecodingTest,ENCODED,javaDecoded,URLDecoder,ENCODING,UNENCODED,hexValue,
IDENT_0,IDENT_1,IDENT_2,IDENT_3,IDENT_4,IDENT_5,IDENT_6,IDENT_7,IDENT_8,IDENT_9,IDENT_10,

32,126,
INT_0,INT_1,




"Starting decodeTest","Decode Test"," Original: "," NV Decode: "," URLDecoder: "," Expected: ","Finishing decodeTest",'\\',"\\\\",'\t',"\\t",'\n',"\\n",'\r',"\\r",'\f',"\\f","0","\\u",
STRING_0,STRING_1,STRING_2,STRING_3,STRING_4,STRING_5,STRING_6,STRING_7,STRING_8,STRING_9,STRING_10,STRING_11,STRING_12,STRING_13,STRING_14,STRING_15,STRING_16,STRING_17,STRING_18,

























