testGetAllSimpleTypes,getAllSimpleTypes,
METHOD_0,METHOD_1,

ebayopensource,turmeric,annoparser,SimpleType,simpleTypes,xsdIntf,noOfSimpleTypes,
IDENT_0,IDENT_1,IDENT_2,IDENT_3,IDENT_4,IDENT_5,IDENT_6,


































