test10SuffixSearch1,getEntities,
METHOD_0,METHOD_1,

ebay,cms,IQueryResult,queryService,raptorContext,
IDENT_0,IDENT_1,IDENT_2,IDENT_3,IDENT_4,







"ServiceInstance<@https>[@https=false]{ @https, $max(@port), $min(@port), $count()}.runsOn[@name=\"compute-00010\"]",
STRING_0,

























