test_all_properties,containsExactly,getProperties,
METHOD_0,METHOD_1,METHOD_2,

ebean,FetchPath,PathProperties,Props,pathMap,
IDENT_0,IDENT_1,IDENT_2,IDENT_3,IDENT_4,







"*",
STRING_0,

























