testConvertDb,convertToDbString,convertFromDbString,
METHOD_0,METHOD_1,METHOD_2,

OffsetTime,offsetTime,Period,dbValue,
IDENT_0,IDENT_1,IDENT_2,IDENT_3,


































