testConvertFromTimestamp,Timestamp,convertFromTimestamp,convertToTimestamp,toInstant,
METHOD_0,METHOD_1,METHOD_2,METHOD_3,METHOD_4,

Timestamp,ZonedDateTime,val1,timestamp,
IDENT_0,IDENT_1,IDENT_2,IDENT_3,


































