testLoadAll,loadAll,getHibernateTemplate,
METHOD_0,METHOD_1,METHOD_2,

excilys,ebi,spring,dbunit,MyEntity,myEntityDao,
IDENT_0,IDENT_1,IDENT_2,IDENT_3,IDENT_4,IDENT_5,


































