testOverwrite,createTempFile,copy,readString,readBytes,
METHOD_0,METHOD_1,METHOD_2,METHOD_3,METHOD_4,

aether,TestFileUtils,targetDir,fileProcessor,
IDENT_0,IDENT_1,IDENT_2,IDENT_3,







"testCopy\nasdf","testCopy.txt","UTF-8",
STRING_0,STRING_1,STRING_2,

























