testConstants1,checkConstantExpression,compile,
METHOD_0,METHOD_1,METHOD_2,

birt,CompiledExpression,m_compiler,exprStr,m_registry,ConstantExpression,
IDENT_0,IDENT_1,IDENT_2,IDENT_3,IDENT_4,IDENT_5,







"null",
STRING_0,

























