testWarmup,runAndRenderReport,runAndRenderReportCustomTask,
METHOD_0,METHOD_1,METHOD_2,

inputStream,filename,outputFormat,
IDENT_0,IDENT_1,IDENT_2,







"MegaSize.rptdesign","xlsx",
STRING_0,STRING_1,

























