getBundle,
METHOD_0,

Bundle,bundle,Platform,birt,symbolicName,
IDENT_0,IDENT_1,IDENT_2,IDENT_3,IDENT_4,







"uk.co.spudsoft.birt.emitters.excel",
STRING_0,

























