testInstanceToString,hasEmptyToken,getOptions,asSortedList,getPayloadSize,getPayloadString,getToken,getMID,
METHOD_0,METHOD_1,METHOD_2,METHOD_3,METHOD_4,METHOD_5,METHOD_6,METHOD_7,

appendix,
IDENT_0,

24,
INT_0,




"no payload","\"",".. "," bytes"," NON-EMPTY: Token=",", ","%s MID=%5d%s",
STRING_0,STRING_1,STRING_2,STRING_3,STRING_4,STRING_5,STRING_6,

























