shouldGetReturnElementsAccordingToAddOrder,
METHOD_0,

ConcurrentAppendOnlyChunkedListTest,ELEMENTS,chunkedList,cachedElements,federations,
IDENT_0,IDENT_1,IDENT_2,IDENT_3,IDENT_4,


































