sumInteger,newWith,injectInto,sumOfInt,
METHOD_0,METHOD_1,METHOD_2,METHOD_3,

RichIterable,objects,AddFunction,INTEGER_TO_LONG,integer,primitive,IntFunction,
IDENT_0,IDENT_1,IDENT_2,IDENT_3,IDENT_4,IDENT_5,IDENT_6,


































