toMapOfItemToCount,newWith,newWithKeysValues,withKeysValues,
METHOD_0,METHOD_1,METHOD_2,METHOD_3,

bag,MutableBagIterable,K,V,UnifiedMap,key1,value1,key2,value2,key3,value3,
IDENT_0,IDENT_1,IDENT_2,IDENT_3,IDENT_4,IDENT_5,IDENT_6,IDENT_7,IDENT_8,IDENT_9,IDENT_10,


































