toSortedListBy,classUnderTest,
METHOD_0,METHOD_1,

bag,sorted,ImmutableSortedBag,integers,MutableList,
IDENT_0,IDENT_1,IDENT_2,IDENT_3,IDENT_4,


































