pair,newListWith,sortThisBy,
METHOD_0,METHOD_1,METHOD_2,

john,jane,johnDoe,MutableList,people,FastList,sorted,Functions,TO_LAST,TO_FIRST,immutable,ImmutableArrayList,one,two,three,
IDENT_0,IDENT_1,IDENT_2,IDENT_3,IDENT_4,IDENT_5,IDENT_6,IDENT_7,IDENT_8,IDENT_9,IDENT_10,IDENT_11,IDENT_12,IDENT_13,IDENT_14,







"John","Smith","Jane","Doe",
STRING_0,STRING_1,STRING_2,STRING_3,

























