testIf,IfFunction,greaterThan,fromTo,
METHOD_0,METHOD_1,METHOD_2,METHOD_3,

IfFunction,Predicates,ignored,Interval,
IDENT_0,IDENT_1,IDENT_2,IDENT_3,


































