basicCase,CaseFunction,addCase,getIntegerPassThru,fromTo,
METHOD_0,METHOD_1,METHOD_2,METHOD_3,METHOD_4,

CaseFunction,ignored,Functions,fortyTwo,Interval,
IDENT_0,IDENT_1,IDENT_2,IDENT_3,IDENT_4,

42,
INT_0,































