basicCase,BooleanCaseFunction,addCase,
METHOD_0,METHOD_1,METHOD_2,

primitive,BooleanCaseFunction,K,multimap,
IDENT_0,IDENT_1,IDENT_2,IDENT_3,


































