sumInterval,oneTo,injectInto,getMutableCollection,
METHOD_0,METHOD_1,METHOD_2,METHOD_3,

sum,Interval,AddFunction,INTEGER_TO_INT,IV,Function2,injectedValue,
IDENT_0,IDENT_1,IDENT_2,IDENT_3,IDENT_4,IDENT_5,IDENT_6,


































