forEachWith,classUnderTest,
METHOD_0,METHOD_1,

MutableCollection,argument1,argument2,SortedBags,immutable,
IDENT_0,IDENT_1,IDENT_2,IDENT_3,IDENT_4,


































