newMapWithKeysValues,containsValue,
METHOD_0,METHOD_1,

MapIterable,
IDENT_0,







"One","Two","3","Three",
STRING_0,STRING_1,STRING_2,STRING_3,

























