batchForEach,IntegerSum,classUnderTest,
METHOD_0,METHOD_1,METHOD_2,

Sum,sum,parallel,BatchIterable,integerBatchIterable,each,
IDENT_0,IDENT_1,IDENT_2,IDENT_3,IDENT_4,IDENT_5,


































