forEachWithIndex,newSet,classUnderTest,
METHOD_0,METHOD_1,METHOD_2,

MutableCollection,UnifiedSet,SortedBags,immutable,
IDENT_0,IDENT_1,IDENT_2,IDENT_3,


































