notEmpty,newWith,newBag,assertNotEquals,sizeDistinct,
METHOD_0,METHOD_1,METHOD_2,METHOD_3,METHOD_4,

bag,ImmutableBag,newBag2,
IDENT_0,IDENT_1,IDENT_2,







"5",
STRING_0,

























