reject,newLittleMap,greaterThanOrEqualTo,newListWith,
METHOD_0,METHOD_1,METHOD_2,METHOD_3,

MutableList,utility,MapIterate,MapIterateTest,Predicates,E,FastList,
IDENT_0,IDENT_1,IDENT_2,IDENT_3,IDENT_4,IDENT_5,IDENT_6,


































