testUnmatchedRange,findModel,VersionRange,getMax,findModels,
METHOD_0,METHOD_1,METHOD_2,METHOD_3,METHOD_4,

pde,IPluginModelBase,PluginRegistry,PluginRegistry$PluginFilter,
IDENT_0,IDENT_1,IDENT_2,IDENT_3,







"org.eclipse.pde.core","[1.0.0,2.0.0)",
STRING_0,STRING_1,

























