testGroupBy,getValuesAs,groupingBy,toJson,createReader,StringReader,readValue,
METHOD_0,METHOD_1,METHOD_2,METHOD_3,METHOD_4,METHOD_5,METHOD_6,

JsonObject,JsonCollectorTest,contacts,JsonCollectors,JsonValue,JsonUtil,single_context,jsonString,JsonReader,Json,
IDENT_0,IDENT_1,IDENT_2,IDENT_3,IDENT_4,IDENT_5,IDENT_6,IDENT_7,IDENT_8,IDENT_9,







" 'gender': 'M', "," 'gender': 'F', "," 'phones': { "," 'mobile': '707-999-5555'}},"," { 'name': 'Joanna', "," 'mobile': '505-333-4444'}} ","'M': "," { 'name': 'Duke', "," 'home': '650-123-4567', "," ] ",'\'','"',
STRING_0,STRING_1,STRING_2,STRING_3,STRING_4,STRING_5,STRING_6,STRING_7,STRING_8,STRING_9,STRING_10,STRING_11,

























