testUnicode,SimpleString,getData,getJMSMessageID,isDurable,
METHOD_0,METHOD_1,METHOD_2,METHOD_3,METHOD_4,

myString,SimpleString,
IDENT_0,IDENT_1,







"abcdef&^*&!^ghijkl뗢쫇늻럝럇뎣볤떥","ActiveMQMessage[","]:","PERSISTENT","NON-PERSISTENT",
STRING_0,STRING_1,STRING_2,STRING_3,STRING_4,

























