BinaryIndexedTree,
METHOD_0,

elk,alg,layered,p3order,counting,BinaryIndexedTree,ft,currentSize,
IDENT_0,IDENT_1,IDENT_2,IDENT_3,IDENT_4,IDENT_5,IDENT_6,IDENT_7,


































