testValidLayouter,TagCloudViewer,DefaultLayouter,setLayouter,getLayouter,
METHOD_0,METHOD_1,METHOD_2,METHOD_3,METHOD_4,

gef,cloudio,TagCloudViewer,viewer,DefaultLayouter,layouter,
IDENT_0,IDENT_1,IDENT_2,IDENT_3,IDENT_4,IDENT_5,


































