test_getAdded,fromDeg,Angle,getAdded,Vector3D,
METHOD_0,METHOD_1,METHOD_2,METHOD_3,METHOD_4,

gef,euclidean,Angle,alpha,beta,PI,projective,Vector3D,z,
IDENT_0,IDENT_1,IDENT_2,IDENT_3,IDENT_4,IDENT_5,IDENT_6,IDENT_7,IDENT_8,

180,
INT_0,































