test_getBounds,CurvedPolygon,Line,Rectangle,Point,getBounds,getP1,getP2,
METHOD_0,METHOD_1,METHOD_2,METHOD_3,METHOD_4,METHOD_5,METHOD_6,METHOD_7,

gef,planar,CurvedPolygon,curvedPolygon,Rectangle,expectation,reality,
IDENT_0,IDENT_1,IDENT_2,IDENT_3,IDENT_4,IDENT_5,IDENT_6,


































