test_contains_imprecision,Polygon,Point,createGeometry,
METHOD_0,METHOD_1,METHOD_2,METHOD_3,

gef,planar,Polygon,poly,
IDENT_0,IDENT_1,IDENT_2,IDENT_3,










0.16384889386958243,0.5199137157713366,0.16388083282075672,0.5199518598437528,0.1639056804775328,0.5199687901987595,0.16381011945655763,0.5198551130149273,0.16383865075635337,0.5198962222767928,
FLOAT_0,FLOAT_1,FLOAT_2,FLOAT_3,FLOAT_4,FLOAT_5,FLOAT_6,FLOAT_7,FLOAT_8,FLOAT_9,






















