no_line,triangulate,getCause,
METHOD_0,METHOD_1,METHOD_2,

cause,gef,dot,language,terminals,ID,
IDENT_0,IDENT_1,IDENT_2,IDENT_3,IDENT_4,IDENT_5,


































