testGetElementBooleanAbs,createFromObject,getElementBooleanAbs,
METHOD_0,METHOD_1,METHOD_2,

january,Dataset,class1,classType,DatasetFactory,actualResult,
IDENT_0,IDENT_1,IDENT_2,IDENT_3,IDENT_4,IDENT_5,










4.2,2.9,6.1,
FLOAT_0,FLOAT_1,FLOAT_2,






















