test001_toString,fromString,formatHexChar,
METHOD_0,METHOD_1,METHOD_2,

lfs,LongObjectId,oid,OBJECT_ID_STRING_LENGTH,AnyObjectId,w1,nibbles,w2,w3,w4,w5,
IDENT_0,IDENT_1,IDENT_2,IDENT_3,IDENT_4,IDENT_5,IDENT_6,IDENT_7,IDENT_8,IDENT_9,IDENT_10,

24,32,
INT_0,INT_1,




"8367b0edc81df80e6b42eb1b71f783111224e058cb3da37894d065d2deb7ab0a",
STRING_0,

























