testCopyRawToOutputStream,copyRawTo,fromRaw,decodeInt64,LongObjectId,
METHOD_0,METHOD_1,METHOD_2,METHOD_3,METHOD_4,

lfs,AnyLongObjectId,id1,LongObjectIdTestUtils,os,NB,bs,
IDENT_0,IDENT_1,IDENT_2,IDENT_3,IDENT_4,IDENT_5,IDENT_6,

32,24,
INT_0,INT_1,































