test3,LinkedList,getSegments,
METHOD_0,METHOD_1,METHOD_2,

kapua,gateway,Topic,topic,segments,
IDENT_0,IDENT_1,IDENT_2,IDENT_3,IDENT_4,


































