testEncodeEmpty1,emptyMap,requireNonNull,Payload,
METHOD_0,METHOD_1,METHOD_2,METHOD_3,

kapua,gateway,Payload,Objects,Instant,
IDENT_0,IDENT_1,IDENT_2,IDENT_3,IDENT_4,


































