semanticParts,setSemanticParts,getSemanticParts,
METHOD_0,METHOD_1,METHOD_2,

kapuaDataChannel,getSemanticParts,packageResource,
IDENT_0,IDENT_1,IDENT_2,







"part1","part2","part3",
STRING_0,STRING_1,STRING_2,

























