newChannel,KuraRequestChannel,
METHOD_0,METHOD_1,

kapua,KapuaChannel,kapuaMessageFactory,kura,
IDENT_0,IDENT_1,IDENT_2,IDENT_3,


































