semanticPartsToStringEmpty,setSemanticParts,getTagName,
METHOD_0,METHOD_1,METHOD_2,

semanticParts,kapuaDataChannel,
IDENT_0,IDENT_1,


































