displayStringEmpty,KapuaPayloadImpl,toDisplayString,getUptime,getDisplayName,
METHOD_0,METHOD_1,METHOD_2,METHOD_3,METHOD_4,

kapua,KapuaPayload,kapuaPayload,
IDENT_0,IDENT_1,IDENT_2,







"[ getUptime()=",", getDisplayName()=",
STRING_0,STRING_1,

























