fromIntArray_null,fromIntArray,checkArgument,Token,
METHOD_0,METHOD_1,METHOD_2,METHOD_3,

inputLength,Preconditions,lsp4j,SemanticHighlightingTokens,Token,
IDENT_0,IDENT_1,IDENT_2,IDENT_3,IDENT_4,







"Invalid input. 'input.length % 3 != 0' Input length was: ",".",
STRING_0,STRING_1,




%,
OP_0,



















