testHashCodeSameEquals,Link,
METHOD_0,METHOD_1,

lyo,oslc4j,Link,linkA,LinkTest,URI_A,LABEL_A,linkB,
IDENT_0,IDENT_1,IDENT_2,IDENT_3,IDENT_4,IDENT_5,IDENT_6,IDENT_7,


































