testUpdateCompletedFileNames,updateCompletedFiles,getCompletedFileNames,
METHOD_0,METHOD_1,METHOD_2,

fileNames,progressCollector,
IDENT_0,IDENT_1,


































