testGetInstance_returnsInstance,getUniqueInstance,getApplicationContext,
METHOD_0,METHOD_1,METHOD_2,

fileupload,FileUploadHandlerStore,RWT,
IDENT_0,IDENT_1,IDENT_2,


































