testGetImage,GridItem,loadImage,setImage,getImage,checkWidget,
METHOD_0,METHOD_1,METHOD_2,METHOD_3,METHOD_4,METHOD_5,

nebula,GridItem,SWT,NONE,graphics,Image,GridTestUtil,display,Fixture,IMAGE1,
IDENT_0,IDENT_1,IDENT_2,IDENT_3,IDENT_4,IDENT_5,IDENT_6,IDENT_7,IDENT_8,IDENT_9,


































