testGetSelectionIndex_WithoutSelection,getSelectionIndex,checkWidget,
METHOD_0,METHOD_1,METHOD_2,

cellSelectionEnabled,selectedCells,selectedItems,items,
IDENT_0,IDENT_1,IDENT_2,IDENT_3,


































