testResolvedItems,setSize,setItemCount,doFakeRedraw,countResolvedGridItems,getVisitedItems,
METHOD_0,METHOD_1,METHOD_2,METHOD_3,METHOD_4,METHOD_5,

counter,Item,nebula,GridItem,
IDENT_0,IDENT_1,IDENT_2,IDENT_3,


































