testGetResource_failsWithDirectory,isDirectory,toURI,toURL,
METHOD_0,METHOD_1,METHOD_2,METHOD_3,

directoryName,contextWrapper,bundle,MalformedURLException,shouldNotHappen,
IDENT_0,IDENT_1,IDENT_2,IDENT_3,IDENT_4,


































