member_equals_falseForSubclass,Member,
METHOD_0,METHOD_1,

JsonObject,Member,member,JsonValue,TRUE,leftArray,rightArray,left,right,
IDENT_0,IDENT_1,IDENT_2,IDENT_3,IDENT_4,IDENT_5,IDENT_6,IDENT_7,IDENT_8,


































