testGetApplicationContext_afterStart,getApplicationContext,checkContext,
METHOD_0,METHOD_1,METHOD_2,

applicationRunner,ApplicationContext,RWT,ContextProvider,
IDENT_0,IDENT_1,IDENT_2,IDENT_3,


































