testGetId_isUnique,UISessionImpl,
METHOD_0,METHOD_1,

uiSession,id2,e4,RAPEventObjectSupplier,Subscriber,requestor,topic,
IDENT_0,IDENT_1,IDENT_2,IDENT_3,IDENT_4,IDENT_5,IDENT_6,


































