testDefaultString,toDefaultString,isCustomCursor,
METHOD_0,METHOD_1,METHOD_2,

theme,CssFont,qxFont,
IDENT_0,IDENT_1,IDENT_2,







"bold 16 \"Bitstream Vera Sans\" , \'Helvetica\',sans-serif","bold 16px \"Bitstream Vera Sans\", Helvetica, sans-serif",
STRING_0,STRING_1,

























