testHashCode,CssIdentifier,
METHOD_0,METHOD_1,

theme,CssIdentifier,identifier1,identifier2,prime,requestor,topic,
IDENT_0,IDENT_1,IDENT_2,IDENT_3,IDENT_4,IDENT_5,IDENT_6,

31,
INT_0,




"line-through",
STRING_0,

























