testRemoveAttributeUnknownKey,removeAttribute,getAttribute,notNull,
METHOD_0,METHOD_1,METHOD_2,METHOD_3,

ParamCheck,
IDENT_0,







"key_does_not_exist",
STRING_0,

























