testSetBindingIndex_acceptsZero,TestCell,setBindingIndex,getBindingIndex,
METHOD_0,METHOD_1,METHOD_2,METHOD_3,

Cell,cell,bindingIndex,
IDENT_0,IDENT_1,IDENT_2,


































