testSetWrap_withTrue,TextCell,setWrap,isWrap,
METHOD_0,METHOD_1,METHOD_2,METHOD_3,

TextCell,cell,wrap,
IDENT_0,IDENT_1,IDENT_2,


































