testCellsArrayIsASafeCopy,Template,getCells,addCell,ControlSizeProperty,
METHOD_0,METHOD_1,METHOD_2,METHOD_3,METHOD_4,

Template,Cell,cells,jface,databinding,
IDENT_0,IDENT_1,IDENT_2,IDENT_3,IDENT_4,


































