testGetId,getAdapter,
METHOD_0,METHOD_1,

lifecycle,RemoteAdapter,Widget,widget,WidgetUtil,
IDENT_0,IDENT_1,IDENT_2,IDENT_3,IDENT_4,







"test.id",
STRING_0,

























