testGetControl,Display,Shell,DragSourceEffect,getControl,
METHOD_0,METHOD_1,METHOD_2,METHOD_3,METHOD_4,

Display,display,Control,dnd,DragSourceEffect,dragSourceEffect,
IDENT_0,IDENT_1,IDENT_2,IDENT_3,IDENT_4,IDENT_5,


































