testFillArcWithZeroHeight,fillArc,getGCAdapter,getGCOperations,
METHOD_0,METHOD_1,METHOD_2,METHOD_3,

gc,graphics,GCAdapter,ControlGC_Test,GCOperation,gcOperations,
IDENT_0,IDENT_1,IDENT_2,IDENT_3,IDENT_4,IDENT_5,


































