testSetLineJoin,setLineJoin,getLineJoin,checkDisposed,
METHOD_0,METHOD_1,METHOD_2,METHOD_3,

gc,SWT,JOIN_ROUND,
IDENT_0,IDENT_1,IDENT_2,


































