testJsonToJava_nestedArray,JsonArray,jsonToJava,
METHOD_0,METHOD_1,METHOD_2,

JsonArray,browser,browserkit,BrowserOperationHandler,TRUE,FALSE,
IDENT_0,IDENT_1,IDENT_2,IDENT_3,IDENT_4,IDENT_5,


































