testCreateId_usesStringParameterAsPrefix,createId,getPrefix,incrementAndGet,
METHOD_0,METHOD_1,METHOD_2,METHOD_3,

idGenerator,Display,sequence,
IDENT_0,IDENT_1,IDENT_2,







"w1",
STRING_0,

























