testIsValidationDisabledFor,getData,isValidationDisabledFor,
METHOD_0,METHOD_1,METHOD_2,

Widget,widget,MarkupValidator,MARKUP_VALIDATION_DISABLED,TRUE,
IDENT_0,IDENT_1,IDENT_2,IDENT_3,IDENT_4,


































