testHandleSetChecked,handleSet,JsonObject,getChecked,checkWidget,
METHOD_0,METHOD_1,METHOD_2,METHOD_3,METHOD_4,










"checked",
STRING_0,

























