testGetChildren_returnsSafeCopy,Button,getChildren,
METHOD_0,METHOD_1,METHOD_2,

Button,button,composite,SWT,PUSH,Control,children,childCollections,
IDENT_0,IDENT_1,IDENT_2,IDENT_3,IDENT_4,IDENT_5,IDENT_6,IDENT_7,


































