testSetText,TestDialog,setText,
METHOD_0,METHOD_1,METHOD_2,

Dialog,dialog,Dialog_Test,
IDENT_0,IDENT_1,IDENT_2,







"Test",
STRING_0,

























