testIsSerializable,setText,serializeAndDeserialize,checkWidget,
METHOD_0,METHOD_1,METHOD_2,METHOD_3,

label,Label,deserializedLabel,
IDENT_0,IDENT_1,IDENT_2,







"labelText",
STRING_0,

























