testCloseChildShells,open,Shell,isDisposed,getMessageControl,
METHOD_0,METHOD_1,METHOD_2,METHOD_3,METHOD_4,

Shell,childShell,Control,
IDENT_0,IDENT_1,IDENT_2,


































