testInvalidBounds,TableColumn,setText,getBounds,Rectangle,
METHOD_0,METHOD_1,METHOD_2,METHOD_3,METHOD_4,

SWT,NONE,ToolItem,graphics,Rectangle,bounds,height,
IDENT_0,IDENT_1,IDENT_2,IDENT_3,IDENT_4,IDENT_5,IDENT_6,







"col1","col2",
STRING_0,STRING_1,

























