testEmptyQueryResult,matchBindingSets,
METHOD_0,METHOD_1,

tqr1,rdf4j,EmptyBindingSet,tqr2,tqr3,TupleQueryResult,BindingSet,list1,iteration,Iterations,list2,QueryResults,
IDENT_0,IDENT_1,IDENT_2,IDENT_3,IDENT_4,IDENT_5,IDENT_6,IDENT_7,IDENT_8,IDENT_9,IDENT_10,IDENT_11,


































