testRemove,
METHOD_0,

smarthome,ExpiringCacheMapTest,FIRST_TEST_KEY,CACHE_ACTION,value1,typeUID,
IDENT_0,IDENT_1,IDENT_2,IDENT_3,IDENT_4,IDENT_5,


































