testGetIntsBiggerArray,executeArrayScript,getIntegers,
METHOD_0,METHOD_1,METHOD_2,

v8,V8Array,
IDENT_0,IDENT_1,

40,
INT_0,




"[1,2,3,4]",
STRING_0,

























