testIntFunctionCallOnObject,executeVoidScript,getObject,V8Array,push,executeIntegerFunction,isReleased,
METHOD_0,METHOD_1,METHOD_2,METHOD_3,METHOD_4,METHOD_5,METHOD_6,

v8,V8Object,V8Array,v8Array,
IDENT_0,IDENT_1,IDENT_2,IDENT_3,







"function add(x, y) {return x + y;}","adder = {};","adder.addFuction = add;","adder","addFuction",
STRING_0,STRING_1,STRING_2,STRING_3,STRING_4,

























