testAddString,V8Object,UnsupportedOperationException,
METHOD_0,METHOD_1,METHOD_2,

v8,V8Object,v8Object,
IDENT_0,IDENT_1,IDENT_2,







"hello","world",
STRING_0,STRING_1,

























