testHashStable,executeObjectScript,
METHOD_0,METHOD_1,

v8,V8Object,hash1,hash2,
IDENT_0,IDENT_1,IDENT_2,IDENT_3,

123,919,
INT_0,INT_1,




"a = []; a","3",
STRING_0,STRING_1,

























