testGetTypedArrayType16BitValue,executeScript,checkThread,checkReleased,
METHOD_0,METHOD_1,METHOD_2,METHOD_3,

v8,V8Array,byteBuffer,dst,
IDENT_0,IDENT_1,IDENT_2,IDENT_3,







"var buf = new ArrayBuffer(4); var ints = new Int16Array(buf); ints[0] = 255; ints",
STRING_0,

























