testContainsKey,executeVoidScript,getObject,
METHOD_0,METHOD_1,METHOD_2,

v8,V8Map,V8Object,v8Object,
IDENT_0,IDENT_1,IDENT_2,IDENT_3,







"var x = {}","x",
STRING_0,STRING_1,

























