testPushV8ObjectToArray,V8Array,V8Object,pushValue,checkThread,checkReleased,
METHOD_0,METHOD_1,METHOD_2,METHOD_3,METHOD_4,METHOD_5,

v8,V8Array,V8Object,V8ObjectUtils,byteBuffer,dst,
IDENT_0,IDENT_1,IDENT_2,IDENT_3,IDENT_4,IDENT_5,


































