testArrayBufferAsProperty,executeObjectScript,getV8ArrayBuffer,limit,checkThread,checkReleased,
METHOD_0,METHOD_1,METHOD_2,METHOD_3,METHOD_4,METHOD_5,

v8,V8Object,V8ArrayBuffer,ArrayBuffer,V8ObjectUtils,byteBuffer,
IDENT_0,IDENT_1,IDENT_2,IDENT_3,IDENT_4,IDENT_5,







"var buf = new ArrayBuffer(100);\n","var root = { \'items\' : buf };\n","root;\n","items",
STRING_0,STRING_1,STRING_2,STRING_3,

























