testHasHeight,Bounds,getHeight,
METHOD_0,METHOD_1,METHOD_2,

tabris,passepartout,Bounds,bounds,height,
IDENT_0,IDENT_1,IDENT_2,IDENT_3,IDENT_4,

23,42,123,142,
INT_0,INT_1,INT_2,INT_3,































