testSetsSaveToAlbum,CameraOptions,setSaveToAlbum,savesToAlbum,
METHOD_0,METHOD_1,METHOD_2,METHOD_3,

tabris,camera,CameraOptions,cameraOptions,saveToAlbum,
IDENT_0,IDENT_1,IDENT_2,IDENT_3,IDENT_4,


































