testConvertsStringArray,createJsonArray,JsonArray,
METHOD_0,METHOD_1,METHOD_2,

JsonArray,jsonArray,tabris,JsonUtil,rendering,PageRenderer,renderers,
IDENT_0,IDENT_1,IDENT_2,IDENT_3,IDENT_4,IDENT_5,IDENT_6,


































