testGetItemAfterRemoveReturnsNull,addItem,removeItem,getItem,
METHOD_0,METHOD_1,METHOD_2,METHOD_3,

tabris,swipe,SwipeItem,swipeItemHolder,actualItem,items,
IDENT_0,IDENT_1,IDENT_2,IDENT_3,IDENT_4,IDENT_5,


































