testHasTitle,PageConfiguration,setTitle,getTitle,
METHOD_0,METHOD_1,METHOD_2,METHOD_3,

tabris,PageConfiguration,TestPage,title,
IDENT_0,IDENT_1,IDENT_2,IDENT_3,


































