testShouldBeEqual,PageData,
METHOD_0,METHOD_1,

tabris,PageData,pageData1,pageData2,passepartout,Bounds,height,width,
IDENT_0,IDENT_1,IDENT_2,IDENT_3,IDENT_4,IDENT_5,IDENT_6,IDENT_7,


































