testCacheSizeDefaultsToZero,Video,getCacheSize,
METHOD_0,METHOD_1,METHOD_2,

video,tabris,cacheSizeMb,
IDENT_0,IDENT_1,IDENT_2,







"http://localhost/video.mp4",
STRING_0,

























