testHasMessage,RefreshHandler,setMessage,
METHOD_0,METHOD_1,METHOD_2,

tabris,enhancement,RefreshHandler,
IDENT_0,IDENT_1,IDENT_2,


































