testSetSKUReturnsItem,OrderItem,setSKU,whenNull,throwIllegalArgument,
METHOD_0,METHOD_1,METHOD_2,METHOD_3,METHOD_4,

tabris,tracking,OrderItem,actualItem,sku,
IDENT_0,IDENT_1,IDENT_2,IDENT_3,IDENT_4,







"sku","SKU must not be null","SKU must not be empty",
STRING_0,STRING_1,STRING_2,

























