test2_ClosesAllMessageWindows,viewByTitle,viewCount,views,
METHOD_0,METHOD_1,METHOD_2,METHOD_3,

rcpmail,MessageCreateTest,bot,
IDENT_0,IDENT_1,IDENT_2,







"Message",
STRING_0,

























