canGetLineText,getTableItem,
METHOD_0,METHOD_1,

swtbot,finder,SWTBotTableItem,SWTUtils,widget,
IDENT_0,IDENT_1,IDENT_2,IDENT_3,IDENT_4,







"Index:2",
STRING_0,

























