testIncludes,createDirectoryAndScanForTests,
METHOD_0,METHOD_1,

includes,surefire,ScanResult,
IDENT_0,IDENT_1,IDENT_2,







"*Another*",
STRING_0,

























