testToJsonArray,JsonArray,randomAlphaString,toJsonObject,toJsonArray,
METHOD_0,METHOD_1,METHOD_2,METHOD_3,METHOD_4,

JsonArray,Buffer,buff,DecodeException,ignore,
IDENT_0,IDENT_1,IDENT_2,IDENT_3,IDENT_4,







"wibble",
STRING_0,

























