testToJsonObject,JsonObject,randomAlphaString,toJsonObject,
METHOD_0,METHOD_1,METHOD_2,METHOD_3,

JsonObject,Buffer,buff,DecodeException,ignore,
IDENT_0,IDENT_1,IDENT_2,IDENT_3,IDENT_4,







"wibble","wibble_value",
STRING_0,STRING_1,

























