testGetPluralName,SimpleResourceDefinition,getPluralName,
METHOD_0,METHOD_1,METHOD_2,

ResourceDefinition,resourceDefinition,Resource,Stage,Task,pluralName,
IDENT_0,IDENT_1,IDENT_2,IDENT_3,IDENT_4,IDENT_5,







"stage","stages",
STRING_0,STRING_1,

























