testGetUnknownValue,createEFactory,
METHOD_0,METHOD_1,

emf,ecore,EFactory,fact,nameResolver,K,EObject,valueCache,
IDENT_0,IDENT_1,IDENT_2,IDENT_3,IDENT_4,IDENT_5,IDENT_6,IDENT_7,


































