testGetPluralName,ViewPermissionResourceDefinition,getPluralName,
METHOD_0,METHOD_1,METHOD_2,

ViewPermissionResourceDefinition,
IDENT_0,







"permissions",
STRING_0,

























