testGetRootNode,createNode,newRootNode,addChild,getRootNode,
METHOD_0,METHOD_1,METHOD_2,METHOD_3,METHOD_4,

nodemodel,AbstractNode,ICompositeNode,rootNode,
IDENT_0,IDENT_1,IDENT_2,IDENT_3,







"My input",
STRING_0,

























