testSimpleToObject,toValue,
METHOD_0,METHOD_1,

bd,valueConverter,nodemodel,INode,
IDENT_0,IDENT_1,IDENT_2,IDENT_3,







"123",
STRING_0,

























