getRestartRequiredServicesNames,getSource,getTargets,
METHOD_0,METHOD_1,METHOD_2,

AmbariMetaInfoTest,metaInfo,STACK_NAME_HDP,eventdb,WorkflowDag,WorkflowDagEntry,entries,
IDENT_0,IDENT_1,IDENT_2,IDENT_3,IDENT_4,IDENT_5,IDENT_6,







"2.0.7",
STRING_0,

























