stableOrderOfAttributes_1,newManifest,BufferedWriter,OutputStreamWriter,
METHOD_0,METHOD_1,METHOD_2,METHOD_3,

MergeableManifest2,manifest,MergeableManifest2Test,NL,OutputStream,
IDENT_0,IDENT_1,IDENT_2,IDENT_3,IDENT_4,







"Name: a","a0: 0","a1: 1","a2: 2",
STRING_0,STRING_1,STRING_2,STRING_3,

























