hashCode_same,newManifest,
METHOD_0,METHOD_1,

MergeableManifest2,manifest0,MergeableManifest2Test,NL,manifest1,prime,contents,
IDENT_0,IDENT_1,IDENT_2,IDENT_3,IDENT_4,IDENT_5,IDENT_6,

31,
INT_0,




"Manifest-Version: 1.0","Bundle-Activator: test",
STRING_0,STRING_1,

























