testDoubleFragment,StringConcatenation,newLine,toPda,on,getList,
METHOD_0,METHOD_1,METHOD_2,METHOD_3,METHOD_4,METHOD_5,

xtend2,StringConcatenation,_builder_1,Joiner,
IDENT_0,IDENT_1,IDENT_2,IDENT_3,







"R: F1 F2;","fragment F1: f1=ID; ","fragment F2: f2=ID; ","R:","\t","start -> >>F1","<<F2 -> stop",">>F1 -> f1=ID",">>F2 -> f2=ID","f1=ID -> <<F1",
STRING_0,STRING_1,STRING_2,STRING_3,STRING_4,STRING_5,STRING_6,STRING_7,STRING_8,STRING_9,

























