testHashCode,NamedPropertySet,
METHOD_0,METHOD_1,

mapProps,NamedPropertySet,propertySet,propertySet2,Objects,role,cmd,
IDENT_0,IDENT_1,IDENT_2,IDENT_3,IDENT_4,IDENT_5,IDENT_6,


































