testAddPosition_03,addPosition,getPositions,checkPosition,
METHOD_0,METHOD_1,METHOD_2,METHOD_3,

acceptor,ide,editor,syntaxcoloring,LightweightPosition,positions,
IDENT_0,IDENT_1,IDENT_2,IDENT_3,IDENT_4,IDENT_5,







"3","4",
STRING_0,STRING_1,

























