testInvalidUnicode,toValue,sneakyThrow,
METHOD_0,METHOD_1,METHOD_2,

valueConverterService,_t,conversion,ValueConverterWithValueException,_value,xbase,Exceptions,
IDENT_0,IDENT_1,IDENT_2,IDENT_3,IDENT_4,IDENT_5,IDENT_6,







"a\\u0060","ID",
STRING_0,STRING_1,

























