testEncoding,getBundle,addDetailMessage,
METHOD_0,METHOD_1,METHOD_2,

ResourceBundle,resourceBundle,testMessage,be,fedict,eid,applet,MessagesTest,
IDENT_0,IDENT_1,IDENT_2,IDENT_3,IDENT_4,IDENT_5,IDENT_6,IDENT_7,







"test message: ",
STRING_0,

























