testMax,Cauchy,
METHOD_0,METHOD_1,

jsat,distributions,Cauchy,POSITIVE_INFINITY,
IDENT_0,IDENT_1,IDENT_2,IDENT_3,







"max",
STRING_0,

























