testMin,Cauchy,
METHOD_0,METHOD_1,

jsat,distributions,Cauchy,NEGATIVE_INFINITY,
IDENT_0,IDENT_1,IDENT_2,IDENT_3,







"min",
STRING_0,

























