testSortD,IndexTable,IndexOutOfBoundsException,
METHOD_0,METHOD_1,METHOD_2,

jsat,IndexTable,idt,IndexTableTest,prevSize,
IDENT_0,IDENT_1,IDENT_2,IDENT_3,IDENT_4,







"The size of the previously sorted array/list is "," so index "," is not valid",
STRING_0,STRING_1,STRING_2,

























