testEquals,Unit,setResource,
METHOD_0,METHOD_1,METHOD_2,

jqudt,Unit,unit1,resource1,unit2,resource2,
IDENT_0,IDENT_1,IDENT_2,IDENT_3,IDENT_4,IDENT_5,







"http://qudt.org/vocab/unit#Kelvin",
STRING_0,

























