updatePosition,samplePosition,setPostOutsourced,isPostOutsourced,
METHOD_0,METHOD_1,METHOD_2,METHOD_3,

positionMasterService,postOutsourced,
IDENT_0,IDENT_1,


































