shouldGiveErrorsIfBillDetailsEmpty,getBillDetails,clear,getBillPayeeDetails,validateBillRegister,
METHOD_0,METHOD_1,METHOD_2,METHOD_3,METHOD_4,

billRegister,billService,
IDENT_0,IDENT_1,


































