testDateFormat,SimpleDateFormat,setTimeZone,getTimeZone,setEditTimestamp,getEditTimestamp,
METHOD_0,METHOD_1,METHOD_2,METHOD_3,METHOD_4,METHOD_5,

SimpleDateFormat,sdf,TimeZone,dateString,article,editTimestamp,
IDENT_0,IDENT_1,IDENT_2,IDENT_3,IDENT_4,IDENT_5,







"yyyy-MM-dd'T'HH:mm:ss'Z'","UTC","2007-01-08T15:12:55Z",
STRING_0,STRING_1,STRING_2,

























