testParseArticleTitles,parseElements,emptyXml,
METHOD_0,METHOD_1,METHOD_2,

testee,jwbf,mediawiki,actions,queries,BaseQueryTest,
IDENT_0,IDENT_1,IDENT_2,IDENT_3,IDENT_4,IDENT_5,


































