testDynamicQuery,dynamicQuery,getContent,
METHOD_0,METHOD_1,METHOD_2,

emailtohl,building,Pager,site,userRepository,PersistenceData,foo,pageable,UserRepositoryTest,
IDENT_0,IDENT_1,IDENT_2,IDENT_3,IDENT_4,IDENT_5,IDENT_6,IDENT_7,IDENT_8,


































