shouldRetrieveSubject,childText,getXML,getSubject,getChildText,
METHOD_0,METHOD_1,METHOD_2,METHOD_3,METHOD_4,

calclab,emite,stanzas,XMLBuilder,
IDENT_0,IDENT_1,IDENT_2,IDENT_3,







"message","subject","the subject",
STRING_0,STRING_1,STRING_2,

























