shouldParseNull,isNullOrEmpty,
METHOD_0,METHOD_1,

Strings,calclab,emite,XmppURI,atIndex,barIndex,
IDENT_0,IDENT_1,IDENT_2,IDENT_3,IDENT_4,IDENT_5,







'@','/',
STRING_0,STRING_1,

























