testHashCode,getDefaultInstance,forName,ClassMirror,
METHOD_0,METHOD_1,METHOD_2,METHOD_3,

laytonsmith,PureUtilities,ClassLoading,ClassMirror,c1,ClassDiscovery,GeneralTest,c2,
IDENT_0,IDENT_1,IDENT_2,IDENT_3,IDENT_4,IDENT_5,IDENT_6,IDENT_7,


































