viewProperty_asTriple_TransposesSubjectAndObject,asTriple,getViewProperty,
METHOD_0,METHOD_1,METHOD_2,

epimorphics,lda,rdfq,Any,VarSupply,vars,RDFQ,Triple,triple,vp,
IDENT_0,IDENT_1,IDENT_2,IDENT_3,IDENT_4,IDENT_5,IDENT_6,IDENT_7,IDENT_8,IDENT_9,


































