viewProperty_shortName_ReturnsShortName,getNameForURI,getViewProperty,shortName,
METHOD_0,METHOD_1,METHOD_2,METHOD_3,

epimorphics,jsonrdf,vp,
IDENT_0,IDENT_1,IDENT_2,







"defn","~",
STRING_0,STRING_1,

























