testStartIndex,startIndex,getInt,
METHOD_0,METHOD_1,METHOD_2,

OpenSearch,epimorphics,lda,renderers,Page,NO_VALUE,
IDENT_0,IDENT_1,IDENT_2,IDENT_3,IDENT_4,IDENT_5,


































