testRetainsMediaType,FeedRenderer,getMediaType,
METHOD_0,METHOD_1,METHOD_2,

epimorphics,lda,renderers,feed,FeedRenderer,retains_fr,fakeMediaType,sns,bindings,Bindings,mt,
IDENT_0,IDENT_1,IDENT_2,IDENT_3,IDENT_4,IDENT_5,IDENT_6,IDENT_7,IDENT_8,IDENT_9,IDENT_10,


































