checkOffsetByCodepointBug,stringToCodePoints,arity,
METHOD_0,METHOD_1,METHOD_2,

ss,cps,ericsson,otp,erlang,OtpErlangString,elems,lastTail,
IDENT_0,IDENT_1,IDENT_2,IDENT_3,IDENT_4,IDENT_5,IDENT_6,IDENT_7,

101,102,
INT_0,INT_1,




"abcdefg","[",",","|",
STRING_0,STRING_1,STRING_2,STRING_3,

























