decode_4,decodeDigit,
METHOD_0,METHOD_1,

arg,lastRealDataIndex,erlide,Base64,EQUAL_SIGN,padBytes,byteLength,dataIndex,resultIndex,allBits,resultChunks,
IDENT_0,IDENT_1,IDENT_2,IDENT_3,IDENT_4,IDENT_5,IDENT_6,IDENT_7,IDENT_8,IDENT_9,IDENT_10,







"Zm9v",
STRING_0,




--,
OP_0,



















