testFormatParser_simple_2,
METHOD_0,

ericsson,otp,erlang,OtpErlangObject,erlide,OtpErlang,TERM_PARSER,
IDENT_0,IDENT_1,IDENT_2,IDENT_3,IDENT_4,IDENT_5,IDENT_6,







"~s","hej","\"hej\"",
STRING_0,STRING_1,STRING_2,

























