commonPrefixTest_1,getLongestPrefix,checkCharAt,
METHOD_0,METHOD_1,METHOD_2,

erlide,Character,
IDENT_0,IDENT_1,







"alfabeta","alfagamma","alfadelta","alfa",
STRING_0,STRING_1,STRING_2,STRING_3,

























