testGetProperties,Feed,getProperties,
METHOD_0,METHOD_1,METHOD_2,

ivory,Feed,feed,
IDENT_0,IDENT_1,IDENT_2,







"d","v1","Feed1","s","sch","source","st","end","l","sa",
STRING_0,STRING_1,STRING_2,STRING_3,STRING_4,STRING_5,STRING_6,STRING_7,STRING_8,STRING_9,

























