testGetValidHappyPath,canonicalize,getValid,safelyParse,
METHOD_0,METHOD_1,METHOD_2,METHOD_3,

mockEncoder,dateString,canonDateString,testDate,testFormat,uit,contextStr,
IDENT_0,IDENT_1,IDENT_2,IDENT_3,IDENT_4,IDENT_5,IDENT_6,


































