testGetPort,createTestling,getPort,
METHOD_0,METHOD_1,METHOD_2,

espirit,moddev,AbstractServerCommand,
IDENT_0,IDENT_1,IDENT_2,

8000,
INT_0,




"getPort",
STRING_0,

























