testTokenizerString,Tokenizer,FileReader,getNextToken,
METHOD_0,METHOD_1,METHOD_2,METHOD_3,

tokenizer_iter,esotericsoftware,yamlbeans,tokenizer,tokenizer_string_iter,
IDENT_0,IDENT_1,IDENT_2,IDENT_3,IDENT_4,







"test/test1.yml","12: 13",
STRING_0,STRING_1,

























