testEncodeElementZero,encodeElement,copyOf,arraycopy,
METHOD_0,METHOD_1,METHOD_2,METHOD_3,

actuals,ethereum,RLP,srcData,OFFSET_SHORT_ITEM,SIZE_THRESHOLD,tmpLength,byteNum,lenBytes,OFFSET_LONG_ITEM,
IDENT_0,IDENT_1,IDENT_2,IDENT_3,IDENT_4,IDENT_5,IDENT_6,IDENT_7,IDENT_8,IDENT_9,

128,
INT_0,































