testAllocateMemory8,allocate,allocateMemory,getMemSize,limit,
METHOD_0,METHOD_1,METHOD_2,METHOD_3,METHOD_4,

program,memory,
IDENT_0,IDENT_1,

64,96,
INT_0,INT_1,































