whenRetunedArticle_thenCorrect,getHttpPort,newCall,open,
METHOD_0,METHOD_1,METHOD_2,METHOD_3,

okhttp3,Request,meecrowave,ArticleEndpointsUnitTest,textFile,
IDENT_0,IDENT_1,IDENT_2,IDENT_3,IDENT_4,







"http://localhost:","/article",
STRING_0,STRING_1,

























