whenStreamBadIndex_thenException,
METHOD_0,

arrays,ArrayIndexOutOfBoundsException,intro,employeeList,
IDENT_0,IDENT_1,IDENT_2,IDENT_3,


































