whenPop_removesLast,ArrayDeque,push,pop,
METHOD_0,METHOD_1,METHOD_2,METHOD_3,

Deque,deque,E,datum,stackContent,total,
IDENT_0,IDENT_1,IDENT_2,IDENT_3,IDENT_4,IDENT_5,







"first","second",
STRING_0,STRING_1,




--,
OP_0,



















