whenClearingTreeSet_shouldClearTreeSet,TreeSet,clear,
METHOD_0,METHOD_1,METHOD_2,

clearTreeSet,total,
IDENT_0,IDENT_1,







"String Added",
STRING_0,

























