removingElementUsingIteratorAPI,
METHOD_0,

originalList,Objects,listIterator,
IDENT_0,IDENT_1,IDENT_2,







"zero","one","two","three",
STRING_0,STRING_1,STRING_2,STRING_3,

























