givenInexistentFile_whenDeleteFails_thenCorrect,
METHOD_0,

nio2,Paths,FileIntegrationTest,TEMP_DIR,Files,bucket,
IDENT_0,IDENT_1,IDENT_2,IDENT_3,IDENT_4,IDENT_5,







"/inexistentFile.txt",
STRING_0,

























