whenLocatebyLabel_thenReturnCorrectValue,valueOfLabel,
METHOD_0,METHOD_1,

enums,Element3,e3,BY_LABEL,label,
IDENT_0,IDENT_1,IDENT_2,IDENT_3,IDENT_4,


































