givenCorrectMessageAndHash_whenAuthenticated_checkAuthenticationSucceeds,toCharArray,checkPassword,
METHOD_0,METHOD_1,METHOD_2,

message1,hash1,mPBKDF2Hasher,
IDENT_0,IDENT_1,IDENT_2,







"password123",
STRING_0,

























