givenText_whenMatchesWithDotMetach_thenCorrect,runTest,compile,
METHOD_0,METHOD_1,METHOD_2,

RegexUnitTest,Pattern,
IDENT_0,IDENT_1,







".",
STRING_0,

























