givenElementsOnStack_whenRemoveAllElementsIsInvoked_thenAllElementsAreRemoved,Stack,push,removeAllElements,
METHOD_0,METHOD_1,METHOD_2,METHOD_3,

Stack,intStack,total,
IDENT_0,IDENT_1,IDENT_2,


































