givenABinaryTree_WhenAddingElements_ThenTreeNotEmpty,createBinaryTree,
METHOD_0,METHOD_1,

BinaryTree,bt,total,
IDENT_0,IDENT_1,IDENT_2,


































