whenTransformingWithIterables_thenTransformed,
METHOD_0,

Function,guava,names,Iterable,Iterables,
IDENT_0,IDENT_1,IDENT_2,IDENT_3,IDENT_4,







"John","Jane","Adam","Tom",
STRING_0,STRING_1,STRING_2,STRING_3,

























