whenCreatingFluentIterableFromArray_shouldContainAllUsers,
METHOD_0,

guava,usersArray,FluentIterable,users,
IDENT_0,IDENT_1,IDENT_2,IDENT_3,

45,2L,
INT_0,INT_1,




"John","Max",
STRING_0,STRING_1,

























