whenFactorailLong_shouldFactorialThemAndReturnIntMaxIfNotInIntRange,factorial,
METHOD_0,METHOD_1,

LongMath,algorithms,AnalysisRunnerLiveTest,
IDENT_0,IDENT_1,IDENT_2,


































