whenMultipleResultsVersionCalledForNonExistingTitle_aCollectionWithNoValuesIsReturned,
METHOD_0,

isbnCodes,books,Collectors,total,
IDENT_0,IDENT_1,IDENT_2,IDENT_3,







"Spring",
STRING_0,

























