whenConvertedToLong_thenCorrect,
METHOD_0,

beforeConvStr,afterConvLong,resttemplate,Employee,employee,Objects,
IDENT_0,IDENT_1,IDENT_2,IDENT_3,IDENT_4,IDENT_5,

14567L,
INT_0,




"14567",
STRING_0,

























