whenConvertedToDouble_thenCorrect,
METHOD_0,

beforeConvStr,afterConvDouble,resttemplate,Employee,employee,Objects,
IDENT_0,IDENT_1,IDENT_2,IDENT_3,IDENT_4,IDENT_5,







"145.67",
STRING_0,

145.67,
FLOAT_0,






















