givenFullQueue_whenClearQueue_getIsEmpty,CircularFifoQueue,offer,clear,
METHOD_0,METHOD_1,METHOD_2,METHOD_3,

collections4,CircularFifoQueue,colors,total,
IDENT_0,IDENT_1,IDENT_2,IDENT_3,







"Red","Blue","Green","White","Black",
STRING_0,STRING_1,STRING_2,STRING_3,STRING_4,

























