givenList_whenAddIgnoreNull_thenNoNullAdded,addIgnoreNull,containsValue,
METHOD_0,METHOD_1,METHOD_2,

collections4,CollectionUtils,list1,cookieMap,Cookie,
IDENT_0,IDENT_1,IDENT_2,IDENT_3,IDENT_4,


































