whenPrefixIsNull_thenMapAppenderDoesNotLog,setPrefix,getEventMap,
METHOD_0,METHOD_1,METHOD_2,

mapAppender,eventMap,
IDENT_0,IDENT_1,


































