givenTwoUsers_whenFindByNameUsr00_ThenNoUsers,findAllByName,
METHOD_0,METHOD_1,

usr01,LocalDate,usr02,userRepository,Stream,users,
IDENT_0,IDENT_1,IDENT_2,IDENT_3,IDENT_4,IDENT_5,

2L,
INT_0,




"usr01","usr01@baeldung.com","usr02","usr02@baeldung.com","usr00",
STRING_0,STRING_1,STRING_2,STRING_3,STRING_4,

























