givenUsersExist_whenFindingUserWithNameStartWithA_thenUsersAreFound,setAge,addCriteria,where,
METHOD_0,METHOD_1,METHOD_2,METHOD_3,

mongoTemplate,Criteria,users,
IDENT_0,IDENT_1,IDENT_2,

45,33,35,
INT_0,INT_1,INT_2,




"Eric","Antony","Alice","^A",
STRING_0,STRING_1,STRING_2,STRING_3,

























