givenUsersExist_whenFindingUserWithNameEndWithC_thenUsersAreFound,setAge,findUsersByRegexpName,
METHOD_0,METHOD_1,METHOD_2,

mongoOps,users,userRepository,
IDENT_0,IDENT_1,IDENT_2,

45,33,35,
INT_0,INT_1,INT_2,




"Eric","Antony","Alice","c$",
STRING_0,STRING_1,STRING_2,STRING_3,

























