givenUserExists_whenFindingUser_thenUserIsFound,findOne,where,findById,
METHOD_0,METHOD_1,METHOD_2,METHOD_3,

mongoOps,Criteria,foundUser,userRepository,
IDENT_0,IDENT_1,IDENT_2,IDENT_3,







"Chris",
STRING_0,

























