whenSavePersistent_thenNothingHappens,unwrap,getCurrentSession,saveOrUpdate,
METHOD_0,METHOD_1,METHOD_2,METHOD_3,

id1,id2,demo,Foo,emf,SessionFactory,foo,
IDENT_0,IDENT_1,IDENT_2,IDENT_3,IDENT_4,IDENT_5,IDENT_6,







"John",
STRING_0,

























