validUri,Hook,
METHOD_0,METHOD_1,

eftp,ftpserver,hooks,Hook,cut,FtpEventName,EVERYTHING,MalformedURLException,
IDENT_0,IDENT_1,IDENT_2,IDENT_3,IDENT_4,IDENT_5,IDENT_6,IDENT_7,







"http://localhost",
STRING_0,

























