givenUserService_whenSearchForUserByEmailEndsWith_thenFound,findByEmail,endsWith,
METHOD_0,METHOD_1,METHOD_2,

userService,
IDENT_0,







".com","test@example.com",
STRING_0,STRING_1,

























