givenJava8Function_whenWorks_thenCorrect,multiply,
METHOD_0,METHOD_1,

Function,square,num,amount,
IDENT_0,IDENT_1,IDENT_2,IDENT_3,










0.5,
FLOAT_0,






















