presentWithNullGetsNull,Present,
METHOD_0,METHOD_1,

evelio,carbonite,Present,present,mWrapped,
IDENT_0,IDENT_1,IDENT_2,IDENT_3,IDENT_4,


































