requireObjectSuccess,requireObject,identity,
METHOD_0,METHOD_1,METHOD_2,

everit,JsonObject,JsonValueTest,OBJ,JsonValue,
IDENT_0,IDENT_1,IDENT_2,IDENT_3,IDENT_4,


































