defaultFetchModeCriteria,persistBooks,Book,getCurrentSession,createCriteria,
METHOD_0,METHOD_1,METHOD_2,METHOD_3,METHOD_4,

books,sessionFactory,
IDENT_0,IDENT_1,







"Default FetchMode Criteria API",
STRING_0,

























