preCalculated1,CounterString,
METHOD_0,METHOD_1,

compendiumdev,javafortesters,counterstrings,
IDENT_0,IDENT_1,IDENT_2,







"*",
STRING_0,

























