shouldProperlyCalculateNextPositionInDirectionToTarget,on,inDirectionTo,Position,
METHOD_0,METHOD_1,METHOD_2,METHOD_3,

evlikat,siberian,geo,Position,PositionTest,ALL,
IDENT_0,IDENT_1,IDENT_2,IDENT_3,IDENT_4,IDENT_5,


































