testEmpty,StringIsEmpty,
METHOD_0,METHOD_1,

instrumentation,testability,StringHelper,BooleanHelper,K,
IDENT_0,IDENT_1,IDENT_2,IDENT_3,IDENT_4,


































