test3,Euclidean,gcd,createArithmeticException,abs,
METHOD_0,METHOD_1,METHOD_2,METHOD_3,METHOD_4,

different,packagename,Euclidean,euclidean0,int0,u,MIN_VALUE,concolic,MathRuntimeException,
IDENT_0,IDENT_1,IDENT_2,IDENT_3,IDENT_4,IDENT_5,IDENT_6,IDENT_7,IDENT_8,

2762,
INT_0,




"overflow: gcd({0}, {1}) is 2^31",
STRING_0,




/=,
OP_0,



















