test2,ConcreteSubClassWithFields,testMe,
METHOD_0,METHOD_1,METHOD_2,

different,packagename,testcarver,ConcreteSubClassWithFields,foo,
IDENT_0,IDENT_1,IDENT_2,IDENT_3,IDENT_4,

42,
INT_0,































