testBigData,BerTlvBuilder,addBytes,BerTag,buildTlvs,BerTlvLoggerSlf4j,getList,
METHOD_0,METHOD_1,METHOD_2,METHOD_3,METHOD_4,METHOD_5,METHOD_6,

bigData,payneteasy,tlv,BerTlvBuilder,BerTlvs,berTlvs,BerTlvLogger,tlvs,
IDENT_0,IDENT_1,IDENT_2,IDENT_3,IDENT_4,IDENT_5,IDENT_6,IDENT_7,

1024,216,
INT_0,INT_1,































