testGetFileName,getProvider,getFileName,
METHOD_0,METHOD_1,METHOD_2,

scom,ClusterDefinitionProvider,ClusterDefinitionProviderTest,fileName,
IDENT_0,IDENT_1,IDENT_2,IDENT_3,







"myFile","myCluster","myVersion",
STRING_0,STRING_1,STRING_2,

























