nullRow,StringValueFiller,forEach,changeDataType,getColumnByIndex,
METHOD_0,METHOD_1,METHOD_2,METHOD_3,METHOD_4,

airhacks,enhydrator,functions,StringValueFiller,filler,Row,mappings,
IDENT_0,IDENT_1,IDENT_2,IDENT_3,IDENT_4,IDENT_5,IDENT_6,


































