iterate_loop,mockNewArrayNodeSet,iterate,nextItem,
METHOD_0,METHOD_1,METHOD_2,METHOD_3,

persistent,NewArrayNodeSet,newArrayNodeSet,NewArrayNodeSetTest,xquery,SequenceIterator,
IDENT_0,IDENT_1,IDENT_2,IDENT_3,IDENT_4,IDENT_5,

99,
INT_0,































