isSameNode_differentText,createMock,TextImpl,setOwnerDocument,setNodeId,DLN,isSameNode,getDocId,
METHOD_0,METHOD_1,METHOD_2,METHOD_3,METHOD_4,METHOD_5,METHOD_6,METHOD_7,

persistent,DocumentImpl,TextImpl,numbering,text2,docId,
IDENT_0,IDENT_1,IDENT_2,IDENT_3,IDENT_4,IDENT_5,







"hello","1.2.1","1.7.9",
STRING_0,STRING_1,STRING_2,

























