sequencedMap2,SequencedLongHashMap,removeFirst,getFirstEntry,getNext,
METHOD_0,METHOD_1,METHOD_2,METHOD_3,METHOD_4,

hashtable,SequencedLongHashMap,
IDENT_0,IDENT_1,

250,35,65,45,80,90,70,100000,
INT_0,INT_1,INT_2,INT_3,INT_4,INT_5,INT_6,INT_7,




"k",
STRING_0,

























