convert1,DayTimeDurationValue,convertTo,getStringValue,
METHOD_0,METHOD_1,METHOD_2,METHOD_3,

xquery,DayTimeDurationValue,dtdv,DurationValue,dv,DURATION,prefix,QName,COLON,localPart,
IDENT_0,IDENT_1,IDENT_2,IDENT_3,IDENT_4,IDENT_5,IDENT_6,IDENT_7,IDENT_8,IDENT_9,







"P3DT1H2M3S",
STRING_0,

























