iterate_loop,iterate,nextItem,
METHOD_0,METHOD_1,METHOD_2,

xquery,EmptySequence,emptySequence,Sequence,EMPTY_SEQUENCE,SequenceIterator,
IDENT_0,IDENT_1,IDENT_2,IDENT_3,IDENT_4,IDENT_5,


































