testSimple,setTofile,setFile,
METHOD_0,METHOD_1,METHOD_2,

prop,
IDENT_0,







"build/test-artifact-report.xml","test/java/org/apache/ivy/ant/ivy-simple.xml",
STRING_0,STRING_1,

























