ServletInputStream1,
METHOD_0,

ServletInputStream,cruzeira,BufferUnderflowException,be,
IDENT_0,IDENT_1,IDENT_2,IDENT_3,







"foo bar!",
STRING_0,

























