BuildOptions,getOptions,
METHOD_0,METHOD_1,

fabric8,docker,access,BuildOptions,opts,
IDENT_0,IDENT_1,IDENT_2,IDENT_3,IDENT_4,


































