testAddPortToList,extractFromFile,getSimpleName,def,
METHOD_0,METHOD_1,METHOD_2,METHOD_3,

testData,fabric8,Configs$Key,
IDENT_0,IDENT_1,IDENT_2,

8080,443,22,
INT_0,INT_1,INT_2,




"vertx.config","-pattern-values.yml","http.port","https.port","ssh.port","ssl.enabled",
STRING_0,STRING_1,STRING_2,STRING_3,STRING_4,STRING_5,

























