testMultipleEviction,getResolveOptions,hasError,getUnresolvedDependencies,getFailedArtifactsReports,
METHOD_0,METHOD_1,METHOD_2,METHOD_3,METHOD_4,

ivy,ResolveReport,
IDENT_0,IDENT_1,







"test/repositories/1/IVY-644/M1/ivys/ivy-1.0.xml","runtime",
STRING_0,STRING_1,

























