testInvalidRegexpSyntaxAsNormalCharacter,getMatcher,NullPointerException,Perl5Matcher,
METHOD_0,METHOD_1,METHOD_2,METHOD_3,

ivy,Matcher,patternMatcher,oro,
IDENT_0,IDENT_1,IDENT_2,IDENT_3,







"(",
STRING_0,

























