loadArray,pullContent,eval,
METHOD_0,METHOD_1,METHOD_2,

cut,nashorn,rows,airhacks,enhydrator,Row,
IDENT_0,IDENT_1,IDENT_2,IDENT_3,IDENT_4,IDENT_5,







"result = ","INPUT","ROWS",
STRING_0,STRING_1,STRING_2,

























