testValueEqualsSuffixWithDot,executeTarget,getProject,
METHOD_0,METHOD_1,METHOD_2,

buildRule,checkprop,
IDENT_0,IDENT_1,







"testValueEqualsSuffixWithDot","file.wo.suf",
STRING_0,STRING_1,

























