testDefaultGetMaxWorkers,createWorkerToolWithDefaultSettings,getMaxWorkers,
METHOD_0,METHOD_1,METHOD_2,

WorkerTool,workerTool,WorkerToolDescriptionTest,
IDENT_0,IDENT_1,IDENT_2,


































