closesWithoutGet,AtomicInteger,makeCloseable,
METHOD_0,METHOD_1,METHOD_2,

AtomicInteger,wrapper,closeableFactory,CloseableWrapperTest,closer,
IDENT_0,IDENT_1,IDENT_2,IDENT_3,IDENT_4,


































