columnList,getEntries,Row,addColumn,
METHOD_0,METHOD_1,METHOD_2,METHOD_3,

columns,airhacks,enhydrator,JDBCSink,Row,
IDENT_0,IDENT_1,IDENT_2,IDENT_3,IDENT_4,







"a,b","java","tengah",
STRING_0,STRING_1,STRING_2,

























