testAddingPrivateMethod,PrivateMethodClass,getResult,
METHOD_0,METHOD_1,METHOD_2,

fakereplace,replacement,privatemethod,PrivateMethodClass,
IDENT_0,IDENT_1,IDENT_2,IDENT_3,


































