cnpjInvalido,isCNPJ,
METHOD_0,METHOD_1,

cpfInvalido,resultado,ValidadorUtils,CNPJ,dig13,dig14,sm,num,peso,InputMismatchException,erro,
IDENT_0,IDENT_1,IDENT_2,IDENT_3,IDENT_4,IDENT_5,IDENT_6,IDENT_7,IDENT_8,IDENT_9,IDENT_10,

14,11,48,13,
INT_0,INT_1,INT_2,INT_3,




"60562266000654","00000000000000","11111111111111","22222222222222","33333333333333","44444444444444","55555555555555","66666666666666","77777777777777","88888888888888","99999999999999",'0',
STRING_0,STRING_1,STRING_2,STRING_3,STRING_4,STRING_5,STRING_6,STRING_7,STRING_8,STRING_9,STRING_10,STRING_11,




--,%,
OP_0,OP_1,



















