initialState,createTimeline,getFetchCount,
METHOD_0,METHOD_1,METHOD_2,

book,twju,chapter_2,Timeline,timeline,Listing_3_DelegateSetup_TimelineTest,fetchCount,
IDENT_0,IDENT_1,IDENT_2,IDENT_3,IDENT_4,IDENT_5,IDENT_6,


































