fetchItems,addItems,getInput,setFetchCount,getFetchCount,getItems,getOutput,
METHOD_0,METHOD_1,METHOD_2,METHOD_3,METHOD_4,METHOD_5,METHOD_6,

book,twju,chapter_5,FetchItemsData,itemProvider,timeline,Item,
IDENT_0,IDENT_1,IDENT_2,IDENT_3,IDENT_4,IDENT_5,IDENT_6,


































