testRemove,RunEtl,UncheckedProcessorException,
METHOD_0,METHOD_1,METHOD_2,

loghub,Event,ev,Action,ISEMPTY,ProcessorException,
IDENT_0,IDENT_1,IDENT_2,IDENT_3,IDENT_4,IDENT_5,







"[a]-",
STRING_0,

























