doubleMapping,Row,addColumn,processRow,getDeveloper,getWeight,
METHOD_0,METHOD_1,METHOD_2,METHOD_3,METHOD_4,METHOD_5,

airhacks,enhydrator,Row,cut,Developer,dev,weight,
IDENT_0,IDENT_1,IDENT_2,IDENT_3,IDENT_4,IDENT_5,IDENT_6,







"weight",
STRING_0,

1.5,
FLOAT_0,






















