isValidConfiguration5,DefaultFormat,IsValidMethod,
METHOD_0,METHOD_1,METHOD_2,

ovgu,featureide,fm,FM_test_1,DefaultFormat,ConfigurationPropagator,
IDENT_0,IDENT_1,IDENT_2,IDENT_3,IDENT_4,IDENT_5,







"C# \njute \n \"Bash script \" \"Python Ruby\"",
STRING_0,

























