testAbstract3,loadXML,number,
METHOD_0,METHOD_1,METHOD_2,

ovgu,featureide,fm,IFeatureModel,
IDENT_0,IDENT_1,IDENT_2,IDENT_3,

250,
INT_0,




"<and mandatory=\"true\" name=\"S\"><feature abstract=\"true\" name=\"A\"/><feature name=\"B\"/><feature name=\"C\"/></and>",
STRING_0,

























