testDependendHidden,loadXML,number,
METHOD_0,METHOD_1,METHOD_2,

ovgu,featureide,fm,IFeatureModel,
IDENT_0,IDENT_1,IDENT_2,IDENT_3,

250,
INT_0,




"<and mandatory=\"true\" name=\"S\"</eq>","<feature name=\"A\"/>","<feature hidden=\"true\" name=\"B\"/>","</and>","</eq>","<var>A</var>","<var>B</var>","</rule>",
STRING_0,STRING_1,STRING_2,STRING_3,STRING_4,STRING_5,STRING_6,STRING_7,

























