testAddOperatorToUndeploy,addOperatorToUndeploy,getOperatorsToUndeploy,
METHOD_0,METHOD_1,METHOD_2,

operatorId,underTest,operatorsToUndeploy,
IDENT_0,IDENT_1,IDENT_2,


































