testAddFormulaOr,addFormula,Or,LinkedList,getClauses,
METHOD_0,METHOD_1,METHOD_2,METHOD_3,METHOD_4,

prop4j,explain,solvers,SatProblem,clauses,
IDENT_0,IDENT_1,IDENT_2,IDENT_3,IDENT_4,







"A","B",
STRING_0,STRING_1,

























