testPut,GuardedQueue,
METHOD_0,METHOD_1,

iluwatar,guarded,suspension,GuardedQueue,heavyInstance,
IDENT_0,IDENT_1,IDENT_2,IDENT_3,IDENT_4,


































