testSelectAlbum,selectAlbum,navigateToPage,isAt,getTitleText,
METHOD_0,METHOD_1,METHOD_2,METHOD_3,METHOD_4,

iluwatar,pageobject,pages,AlbumPage,albumPage,albumListPage,
IDENT_0,IDENT_1,IDENT_2,IDENT_3,IDENT_4,IDENT_5,







"21","Album Page",
STRING_0,STRING_1,

























