testBoolean,getJsonFor,getBooleanFromJson,isJsonNull,getAsBoolean,
METHOD_0,METHOD_1,METHOD_2,METHOD_3,METHOD_4,

JsonElement,pt,ist,fenixframework,JsonConverter,
IDENT_0,IDENT_1,IDENT_2,IDENT_3,IDENT_4,







"Boolean: ",
STRING_0,

























