testNestedIncrementBeforeOuterIncrement,incTopLevelAfterNestedInc,getCounterValue,
METHOD_0,METHOD_1,METHOD_2,

counter,jvstm,Counter,
IDENT_0,IDENT_1,IDENT_2,


































