testSerialize,Pojo,
METHOD_0,METHOD_1,

yawp,basic,Pojo,pojo,LazyJson,lazyJson,JsonUtils,jsonUtils,
IDENT_0,IDENT_1,IDENT_2,IDENT_3,IDENT_4,IDENT_5,IDENT_6,IDENT_7,







"xpto",
STRING_0,

























