testAfterDestroy,HookedObject,destroy,yawp,where,
METHOD_0,METHOD_1,METHOD_2,METHOD_3,METHOD_4,

yawp,basic,HookedObject,objectToDelete,BasicObject,objects,
IDENT_0,IDENT_1,IDENT_2,IDENT_3,IDENT_4,IDENT_5,







"stringValue","=","afterDestroy test: ",
STRING_0,STRING_1,STRING_2,

























