testFindByIdUsingWhere,BasicObject,yawp,where,getStringValue,
METHOD_0,METHOD_1,METHOD_2,METHOD_3,METHOD_4,

yawp,basic,BasicObject,retrievedObject,stringValue,
IDENT_0,IDENT_1,IDENT_2,IDENT_3,IDENT_4,







"xpto","id","=",
STRING_0,STRING_1,STRING_2,

























