testQueryRefWithPreFilter,BasicObject,yawp,where,only,getStringValue,
METHOD_0,METHOD_1,METHOD_2,METHOD_3,METHOD_4,METHOD_5,

yawp,basic,BasicObject,ref1,ref2,stringValue,
IDENT_0,IDENT_1,IDENT_2,IDENT_3,IDENT_4,IDENT_5,







"right","objectId->stringValue","=","stringValue",
STRING_0,STRING_1,STRING_2,STRING_3,

























