testFullToStringImpl,Feature,PonderationStrategy,toJson,
METHOD_0,METHOD_1,METHOD_2,METHOD_3,

auths,ff4j,Feature,
IDENT_0,IDENT_1,IDENT_2,







"something","ok","grp1","description",
STRING_0,STRING_1,STRING_2,STRING_3,

























