testGetRootDirTraduzidoUserDir,Configuracao,getRootDirTraduzido,
METHOD_0,METHOD_1,METHOD_2,

senacrs,alp,aulas,trabalho12,Configuracao,esperado,obtido,PWD,resultado,parcial,rootDir,separator,
IDENT_0,IDENT_1,IDENT_2,IDENT_3,IDENT_4,IDENT_5,IDENT_6,IDENT_7,IDENT_8,IDENT_9,IDENT_10,IDENT_11,

123,
INT_0,




"./",
STRING_0,

























