testReadAllWithSmallSize,randomBytes,readAll,copyOf,
METHOD_0,METHOD_1,METHOD_2,METHOD_3,

umd,findbugs,IO,sz,nextByte,
IDENT_0,IDENT_1,IDENT_2,IDENT_3,IDENT_4,

10000,500,
INT_0,INT_1,










*=,
OP_0,



















