testVerify_allowed_host_session,verifyNoMoreInteractions,
METHOD_0,METHOD_1,

ssl,SSLSession,wrappedVerifier,cert,X509Certificate,allowedHosts,verifier,
IDENT_0,IDENT_1,IDENT_2,IDENT_3,IDENT_4,IDENT_5,IDENT_6,







"one",
STRING_0,

























