testEqualsSameObject,MPDOutput,getGenre,compareArtists,compareDates,
METHOD_0,METHOD_1,METHOD_2,METHOD_3,METHOD_4,

bff,javampd,MPDOutput,album,MPDAlbum,
IDENT_0,IDENT_1,IDENT_2,IDENT_3,IDENT_4,


































