testHashCode,MPDSavedPlaylist,
METHOD_0,METHOD_1,

bff,javampd,playlist,MPDSavedPlaylist,playlist1,playlist2,artistName,genre,
IDENT_0,IDENT_1,IDENT_2,IDENT_3,IDENT_4,IDENT_5,IDENT_6,IDENT_7,

31,
INT_0,




"playlist1",
STRING_0,

























