testExceptionMessageConstructor,UserException,
METHOD_0,METHOD_1,

UserException,UserExceptionTest,TEST_MESSAGE_1,MockSpotPrice,availabilityZone,
IDENT_0,IDENT_1,IDENT_2,IDENT_3,IDENT_4,


































