testShiftRangeNullInt,shift,isArray,getLength,swap,
METHOD_0,METHOD_1,METHOD_2,METHOD_3,METHOD_4,

fintx,startIndexInclusive,endIndexExclusive,n_offset,
IDENT_0,IDENT_1,IDENT_2,IDENT_3,







"Argument array is not a Array!",
STRING_0,




%=,-=,
OP_0,OP_1,



















