testUrlOnly,setUrl,getProperties,
METHOD_0,METHOD_1,METHOD_2,

firebase,ActionCodeSettings,settings,
IDENT_0,IDENT_1,IDENT_2,







"https://example.com","continueUrl","canHandleCodeInApp",
STRING_0,STRING_1,STRING_2,

























