testGetRoles,getRoles,getEffective,
METHOD_0,METHOD_1,METHOD_2,

useradmin,user1,Role,USER,userAdmin,roles,mbean,Annotation,ann,methodName,RolesAllowed,
IDENT_0,IDENT_1,IDENT_2,IDENT_3,IDENT_4,IDENT_5,IDENT_6,IDENT_7,IDENT_8,IDENT_9,IDENT_10,







"user1","name=user1",
STRING_0,STRING_1,

























