testRemoveRole,removeRole,
METHOD_0,METHOD_1,

userAdmin,isRemoved,mbean,
IDENT_0,IDENT_1,IDENT_2,







"role1","Role name cannot be null",
STRING_0,STRING_1,

























