testLong2int,cast,sD,
METHOD_0,METHOD_1,METHOD_2,

nutz,castor,Castors,Times,src,
IDENT_0,IDENT_1,IDENT_2,IDENT_3,IDENT_4,

59,
INT_0,































