test_insert_by_fieldfilter,setNickName,Atom,fetch,getNickName,
METHOD_0,METHOD_1,METHOD_2,METHOD_3,METHOD_4,

nutz,Pet,pet,FieldFilter,trans,xb,nickName,
IDENT_0,IDENT_1,IDENT_2,IDENT_3,IDENT_4,IDENT_5,IDENT_6,







"xb","xiaobai","^id|name$",
STRING_0,STRING_1,STRING_2,

























