check_PersonTestSQLs,FileSqlManager,keySet,
METHOD_0,METHOD_1,METHOD_2,

nutz,SqlManager,sqls,items,
IDENT_0,IDENT_1,IDENT_2,IDENT_3,







"org/nutz/dao/test/sqls/sqls.sqls",".abc.drop",".abc.create",".abc.update","abc.fetch","abc.query",".student.drop",".student.create",".student2.drop",".student2.create",
STRING_0,STRING_1,STRING_2,STRING_3,STRING_4,STRING_5,STRING_6,STRING_7,STRING_8,STRING_9,

























