update_with_null_links,initData,fetch,setLeaderName,updateWith,getLeaderName,
METHOD_0,METHOD_1,METHOD_2,METHOD_3,METHOD_4,METHOD_5,

pojos,nutz,Platoon,leaderName,
IDENT_0,IDENT_1,IDENT_2,IDENT_3,







"sF","xyz",
STRING_0,STRING_1,

























