test_update_self_plus,setAge,fetch,makeSpecial,getAge,
METHOD_0,METHOD_1,METHOD_2,METHOD_3,METHOD_4,

nutz,Pet,pet,Cnd,Chain,age,
IDENT_0,IDENT_1,IDENT_2,IDENT_3,IDENT_4,IDENT_5,

98,
INT_0,




"Xy","age","+1",
STRING_0,STRING_1,STRING_2,

























