test_trout_in_map,Trout,setColor,setWeight,toJson,compact,setQuoteName,
METHOD_0,METHOD_1,METHOD_2,METHOD_3,METHOD_4,METHOD_5,METHOD_6,

nutz,Trout,COLOR,RED,Json,JsonFormat,quoteName,qn,
IDENT_0,IDENT_1,IDENT_2,IDENT_3,IDENT_4,IDENT_5,IDENT_6,IDENT_7,







"t1","{t1:\"Trout[RED](8.78)\"}",
STRING_0,STRING_1,

8.78F,
FLOAT_0,






















