test_duplicate_method_for_getAllDeclareMethods,getAllDeclaredMethodsWithoutTop,getAllDeclaredMethods,
METHOD_0,METHOD_1,METHOD_2,

ms,nutz,Mirror,MirrorTest,TDMFGADMII,
IDENT_0,IDENT_1,IDENT_2,IDENT_3,IDENT_4,


































