testBornByDynamicArgsNull,born,CharSegment,getOrginalString,
METHOD_0,METHOD_1,METHOD_2,METHOD_3,

nutz,MirrorTest,DDD,Mirror,segment,
IDENT_0,IDENT_1,IDENT_2,IDENT_3,IDENT_4,


































