test_enum,isSimple,isAssignableFrom,isArray,getLength,
METHOD_0,METHOD_1,METHOD_2,METHOD_3,METHOD_4,

nutz,Random,EnumRandomTest,Color,EnumRandom,re,a0,a1,Mirror,mi,Pattern,m1,m2,Lang,Array,c0,c1,it0,it1,o0,o1,
IDENT_0,IDENT_1,IDENT_2,IDENT_3,IDENT_4,IDENT_5,IDENT_6,IDENT_7,IDENT_8,IDENT_9,IDENT_10,IDENT_11,IDENT_12,IDENT_13,IDENT_14,IDENT_15,IDENT_16,IDENT_17,IDENT_18,IDENT_19,IDENT_20,


































