test_NotPublicClass,setPathInfo,getAsString,getWriter,flush,wrapThrow,
METHOD_0,METHOD_1,METHOD_2,METHOD_3,METHOD_4,METHOD_5,

characterEncoding,UnsupportedEncodingException,nutz,Lang,
IDENT_0,IDENT_1,IDENT_2,IDENT_3,







"/here",
STRING_0,

























