test_dest_path,fullRequest,JspView,getDispatcherTarget,
METHOD_0,METHOD_1,METHOD_2,METHOD_3,

nutz,MockHttpServletRequest,Mock,mvc,JspView,fv,dispatcherTarget,
IDENT_0,IDENT_1,IDENT_2,IDENT_3,IDENT_4,IDENT_5,IDENT_6,







"/abc/bcd.jsp",
STRING_0,

























