testListImagesString,listImages,getTotalCount,
METHOD_0,METHOD_1,METHOD_2,

fit2cloud,aliyun,ecs,ListImagesResponse,TotalCount,
IDENT_0,IDENT_1,IDENT_2,IDENT_3,IDENT_4,







"cn-beijing","testListImagesString :: ",
STRING_0,STRING_1,

























