testBucketSort,testSpeed,BucketSort,testCorrectness,Random,nextInt,print,sort,
METHOD_0,METHOD_1,METHOD_2,METHOD_3,METHOD_4,METHOD_5,METHOD_6,METHOD_7,

kanzi,sort,IntSorter,sortName,ii,iters,Random,sorter,
IDENT_0,IDENT_1,IDENT_2,IDENT_3,IDENT_4,IDENT_5,IDENT_6,IDENT_7,

50000,65535,64,
INT_0,INT_1,INT_2,




"BucketSort","\n\nTest","\n\nCorrectness test ","Error at position ",
STRING_0,STRING_1,STRING_2,STRING_3,

























