get_shouldReturnValueForOverriddenKey,setDefault,TypedProperty,
METHOD_0,METHOD_1,METHOD_2,

expectedValue,flapdoodle,embed,TypedProperty,actualValue,
IDENT_0,IDENT_1,IDENT_2,IDENT_3,IDENT_4,

2L,
INT_0,




"TEST_PROPERTY1",
STRING_0,

























