get_shouldReturnValueForExistingKey,TypedProperty,
METHOD_0,METHOD_1,

expectedValue,flapdoodle,embed,TypedProperty,actualValue,
IDENT_0,IDENT_1,IDENT_2,IDENT_3,IDENT_4,

2L,3L,
INT_0,INT_1,




"TEST_PROPERTY1","TEST_PROPERTY2","TEST_PROPERTY3",
STRING_0,STRING_1,STRING_2,

























