hasChildren_withHierarchy,TreeSet,TreeFacetField,hasChildren,
METHOD_0,METHOD_1,METHOD_2,METHOD_3,

SortedSet,flax,biosolr,TreeFacetField,hierarchy,
IDENT_0,IDENT_1,IDENT_2,IDENT_3,IDENT_4,







"label",
STRING_0,

























