list_returned_from_multiple_request_is_copied_to_array,
METHOD_0,

mockSpecimenContext,flextrade,jfixture,requests,MultipleRequest,arrayRelay,utility,SpecimenType,
IDENT_0,IDENT_1,IDENT_2,IDENT_3,IDENT_4,IDENT_5,IDENT_6,IDENT_7,


































