default_filter_does_allow_type_requests,onlyDefault,allow,
METHOD_0,METHOD_1,METHOD_2,

flextrade,jfixture,utility,RequestFilter,allow,SpecimenType,
IDENT_0,IDENT_1,IDENT_2,IDENT_3,IDENT_4,IDENT_5,


































