populates_setters_with_simple_generic_type,getValueT,
METHOD_0,METHOD_1,

testtypes,generic,TypeWithGenericMethod,flextrade,jfixture,utility,SpecimenType,valueT,
IDENT_0,IDENT_1,IDENT_2,IDENT_3,IDENT_4,IDENT_5,IDENT_6,IDENT_7,


































