testDeserialize,IPv6,deserialize,setParent,wrap,putLong,
METHOD_0,METHOD_1,METHOD_2,METHOD_3,METHOD_4,METHOD_5,

spudPacket,floodlightcontroller,IPv6,packetSerialized,payloadData,SPUD,HEADER_LENGTH,bb,MAGIC_CONSTANT,tubeID,adecBit,adec,pdecBit,pdec,lastByte,reserved,
IDENT_0,IDENT_1,IDENT_2,IDENT_3,IDENT_4,IDENT_5,IDENT_6,IDENT_7,IDENT_8,IDENT_9,IDENT_10,IDENT_11,IDENT_12,IDENT_13,IDENT_14,IDENT_15,

43,22,149,21,17,225,254,128,122,197,46,119,53,93,194,48,253,210,246,216,74,195,242,68,117,151,105,64,
INT_0,INT_1,INT_2,INT_3,INT_4,INT_5,INT_6,INT_7,INT_8,INT_9,INT_10,INT_11,INT_12,INT_13,INT_14,INT_15,INT_16,INT_17,INT_18,INT_19,INT_20,INT_21,INT_22,INT_23,INT_24,INT_25,INT_26,INT_27,































