should_raise_exception_when_delete_readonly_env,newHashSet,isReadonly,
METHOD_0,METHOD_1,METHOD_2,

envService,Sets,FlowEnvs,FLOW_STATUS,readonly,
IDENT_0,IDENT_1,IDENT_2,IDENT_3,IDENT_4,







"flow",
STRING_0,

























