testCreate,ProfileBuilder,ProfileImpl,
METHOD_0,METHOD_1,METHOD_2,

forge,addon,profiles,ProfileBuilder,profileBuilder,
IDENT_0,IDENT_1,IDENT_2,IDENT_3,IDENT_4,


































