testEnableCache,enableCache,isCacheDisabled,
METHOD_0,METHOD_1,METHOD_2,

forge,addon,projects,Projects,cacheDisabledFlag,
IDENT_0,IDENT_1,IDENT_2,IDENT_3,IDENT_4,


































