push,
METHOD_0,

para,xmlSb,statDate,targetUser,
IDENT_0,IDENT_1,IDENT_2,IDENT_3,







"?signature=d919cc8a6361597afa536e906156262cc9cd93df&timestamp=1433903433&nonce=518016546","<xml>","<ToUserName><![CDATA[toUser]]></ToUserName>","<FromUserName><![CDATA[fromUser]]></FromUserName>","<CreateTime>1348831860</CreateTime>","<MsgType><![CDATA[text]]></MsgType>","<Content><![CDATA[this is a test]]></Content>","<MsgId>1234567890123456</MsgId>","</xml>","statDate=",", targetUser=",", ",
STRING_0,STRING_1,STRING_2,STRING_3,STRING_4,STRING_5,STRING_6,STRING_7,STRING_8,STRING_9,STRING_10,STRING_11,

























