testSentenceText,Sentence,setText,sentenceText,
METHOD_0,METHOD_1,METHOD_2,METHOD_3,

llnl,ontology,Sentence,sent,
IDENT_0,IDENT_1,IDENT_2,IDENT_3,







"abcdefghijlkmop",
STRING_0,

























