testNumDimensions,StringBasisMapping,getDimension,numDimensions,
METHOD_0,METHOD_1,METHOD_2,METHOD_3,

ucla,sspace,basis,StringBasisMapping,
IDENT_0,IDENT_1,IDENT_2,IDENT_3,







"cat","c","at",
STRING_0,STRING_1,STRING_2,

























