testNotEqualsPos,SimpleDependencyTreeNode,
METHOD_0,METHOD_1,

ucla,sspace,dependency,DependencyTreeNode,node1,node2,tartarus,snowball,portugueseStemmer,
IDENT_0,IDENT_1,IDENT_2,IDENT_3,IDENT_4,IDENT_5,IDENT_6,IDENT_7,IDENT_8,







"cat","n","c","v",
STRING_0,STRING_1,STRING_2,STRING_3,

























