convertUrlTest,DocumentPreprocessor,
METHOD_0,METHOD_1,

wordList,testDocument,expectedResult,ucla,sspace,DocumentPreprocessor,testProcessor,
IDENT_0,IDENT_1,IDENT_2,IDENT_3,IDENT_4,IDENT_5,IDENT_6,







"word","can","be","c","d","e","or","can a word <emote> be <url> a b c d e f g or a <num>",
STRING_0,STRING_1,STRING_2,STRING_3,STRING_4,STRING_5,STRING_6,STRING_7,

























