testPut,SuppressWarnings,getCount,
METHOD_0,METHOD_1,METHOD_2,

ucla,sspace,HashMultiMap,Pair,
IDENT_0,IDENT_1,IDENT_2,IDENT_3,







"unchecked",
STRING_0,

























