testWrite,Parser,Record,GenericDatumWriter,jsonEncoder,flush,jsonDecoder,JsonDecoder,
METHOD_0,METHOD_1,METHOD_2,METHOD_3,METHOD_4,METHOD_5,METHOD_6,METHOD_7,

generic,GenericRecord,GenericData,bao,GenericDatumWriter,w,Encoder,EncoderFactory,GenericDatumReader,DecoderFactory,
IDENT_0,IDENT_1,IDENT_2,IDENT_3,IDENT_4,IDENT_5,IDENT_6,IDENT_7,IDENT_8,IDENT_9,

100L,
INT_0,




"{\"type\": \"record\", \"name\": \"r\", \"fields\": [","{ \"name\": \"f1\", \"type\": \"long\" }","]}","f1",
STRING_0,STRING_1,STRING_2,STRING_3,

























