equalsInputNotNullOutputFalse5,GraphEdge,
METHOD_0,METHOD_1,

freedomotic,environment,GraphEdge,objectUnderTest,retval,darkprograms,speech,Complex,re,im,
IDENT_0,IDENT_1,IDENT_2,IDENT_3,IDENT_4,IDENT_5,IDENT_6,IDENT_7,IDENT_8,IDENT_9,

536870913,
INT_0,































