testTranslate,FreedomPolygon,FreedomPoint,translate,
METHOD_0,METHOD_1,METHOD_2,METHOD_3,

freedomotic,FreedomPolygon,xoffset,yoffset,TopologyUtils,languageCode,
IDENT_0,IDENT_1,IDENT_2,IDENT_3,IDENT_4,IDENT_5,

150,
INT_0,




"Translate a polygon",
STRING_0,

























