checkSucceeds,runTestMethod,
METHOD_0,METHOD_1,

collector,Callable,experimental,
IDENT_0,IDENT_1,IDENT_2,







"first!","second!",
STRING_0,STRING_1,

























