whatHappensWhenASuiteHasAForkingCycle,runClasses,getFailureCount,
METHOD_0,METHOD_1,METHOD_2,

JUnitCore,running,SuiteTest,BiInfiniteLoop,failures,
IDENT_0,IDENT_1,IDENT_2,IDENT_3,IDENT_4,


































