firstSegmentWithTwoSegments,firstSegment,isSimpleName,
METHOD_0,METHOD_1,METHOD_2,

tomassetti,turin,QualifiedName,qualifiedName,
IDENT_0,IDENT_1,IDENT_2,IDENT_3,







"hello","turin",
STRING_0,STRING_1,

























