testEnterAndExit,MyContext,enterContext,exitContext,
METHOD_0,METHOD_1,METHOD_2,METHOD_3,

turin,ContextTest,MyContext,Stack,V,
IDENT_0,IDENT_1,IDENT_2,IDENT_3,IDENT_4,


































