validateXDcRequestKey,
METHOD_0,

cell,EventResource,requestKey,REQEUST_KEY_DEFAULT_FORMAT,MAXREQUEST_KEY_LENGTH,ctl,Event,X_DC_REQUESTKEY_INVALID,REQUEST_KEY_PATTERN,
IDENT_0,IDENT_1,IDENT_2,IDENT_3,IDENT_4,IDENT_5,IDENT_6,IDENT_7,IDENT_8,


































