URLnull,getRelationFromRelationClassUrl,compile,
METHOD_0,METHOD_1,METHOD_2,

relationName,relationClassUrl,Pattern,Matcher,
IDENT_0,IDENT_1,IDENT_2,IDENT_3,







"https://example.com/test0110/__relation/box/","RequestRelation URI = [%s]",".+/([^/]+)/__relation/([^/]+)/([^/]+)/?","RequestRelation URI if not relationClassUrl format. [%s]","$3","RequestRelation URI Path = [%s]",
STRING_0,STRING_1,STRING_2,STRING_3,STRING_4,STRING_5,

























