testNull,writeRead,AMQPLong,
METHOD_0,METHOD_1,METHOD_2,

fusesource,amqp,TestSupport,AMQPType,
IDENT_0,IDENT_1,IDENT_2,IDENT_3,


































