testString8,writeRead,AMQPString,
METHOD_0,METHOD_1,METHOD_2,

fusesource,amqp,TestSupport,AMQPType,
IDENT_0,IDENT_1,IDENT_2,IDENT_3,







"Hello world!",
STRING_0,

























