testVBin8,Buffer,writeRead,AMQPBinary,
METHOD_0,METHOD_1,METHOD_2,METHOD_3,

fusesource,hawtbuf,Buffer,amqp,TestSupport,AMQPType,
IDENT_0,IDENT_1,IDENT_2,IDENT_3,IDENT_4,IDENT_5,







"Hello World!",
STRING_0,

























