testSqlId,contextWith,sqlId,getSqlId,
METHOD_0,METHOD_1,METHOD_2,METHOD_3,

jp,uroborosql,SqlContext,SqlContextImplTest,
IDENT_0,IDENT_1,IDENT_2,IDENT_3,







"TEST_SQL_ID","select * from test",
STRING_0,STRING_1,

























