getSegment1,Point3f,Triangle3f,Segment3f,
METHOD_0,METHOD_1,METHOD_2,METHOD_3,

arakhne,afc,d3,continuous,Point3f,p1,p2,p3,Triangle3f,t1,AbstractSegment3F,segment,
IDENT_0,IDENT_1,IDENT_2,IDENT_3,IDENT_4,IDENT_5,IDENT_6,IDENT_7,IDENT_8,IDENT_9,IDENT_10,IDENT_11,


































