scaleAddDoubleVector3D,Vector3f,nextDouble,getX,getY,getZ,scaleAdd,
METHOD_0,METHOD_1,METHOD_2,METHOD_3,METHOD_4,METHOD_5,METHOD_6,

arakhne,afc,d3,continuous,Vector3f,scalarSum,vmutil,MACNumber,bao,
IDENT_0,IDENT_1,IDENT_2,IDENT_3,IDENT_4,IDENT_5,IDENT_6,IDENT_7,IDENT_8,


































