testSimpleImage,getBaseUrl,newClient,getProxyPort,
METHOD_0,METHOD_1,METHOD_2,METHOD_3,

littleshoot,mitm,LittleProxyMitmTest,IMAGE_PATH,direct,proxied,ganskef,IProxy,
IDENT_0,IDENT_1,IDENT_2,IDENT_3,IDENT_4,IDENT_5,IDENT_6,IDENT_7,


































