test1,Heartbeat,
METHOD_0,METHOD_1,

Heartbeat,hb,recon,dateFormat,timestamp,
IDENT_0,IDENT_1,IDENT_2,IDENT_3,IDENT_4,







"Heartbeat@",
STRING_0,

























