createStub,Add,setArg1,setArg2,
METHOD_0,METHOD_1,METHOD_2,METHOD_3,

foo,wsns,axis2,test01,Test01,stub,jaxbri,Test01Test,clientHelper,Test01Stub,xmlns,Add,datatype,Duration,
IDENT_0,IDENT_1,IDENT_2,IDENT_3,IDENT_4,IDENT_5,IDENT_6,IDENT_7,IDENT_8,IDENT_9,IDENT_10,IDENT_11,IDENT_12,IDENT_13,







"Test01",
STRING_0,

























