testEquals,Distribution,setCountry,setStartDayOfYear,
METHOD_0,METHOD_1,METHOD_2,METHOD_3,

gbif,checklistbank,Distribution,d1,Country,DENMARK,d2,startDayOfYear,
IDENT_0,IDENT_1,IDENT_2,IDENT_3,IDENT_4,IDENT_5,IDENT_6,IDENT_7,


































