shouldReadFromCache,deserialise,
METHOD_0,METHOD_1,

K,V,useJavaSerialisation,HashMapCache,JAVA_SERIALISER,SerialisationException,
IDENT_0,IDENT_1,IDENT_2,IDENT_3,IDENT_4,IDENT_5,







"key",
STRING_0,

























