shouldReturnFalseWhenAnyMissingCalledWhenTheCollectionContainsAllValues,newHashSet,anyMissing,
METHOD_0,METHOD_1,METHOD_2,

Sets,commonutil,CollectionUtil,objects,
IDENT_0,IDENT_1,IDENT_2,IDENT_3,

30,
INT_0,































