shouldReturnTrueWhenDistinctCalledWithCollectionOfUniqueValues,distinct,
METHOD_0,METHOD_1,

commonutil,CollectionUtil,
IDENT_0,IDENT_1,


































