shouldReturnTrueWhenAnyMissingCalledWithNullCollectionAndSomeValues,anyMissing,
METHOD_0,METHOD_1,

commonutil,CollectionUtil,objects,
IDENT_0,IDENT_1,IDENT_2,


































