shouldConsumeGraph,addSchema,addStoreProperties,StoreProperties,
METHOD_0,METHOD_1,METHOD_2,METHOD_3,

Graph,GraphSerialisable,userId,dataAuths,opAuths,
IDENT_0,IDENT_1,IDENT_2,IDENT_3,IDENT_4,


































