shouldGetOutputClass,getTestObject,getOutputClass,SplitStoreFromIterable,
METHOD_0,METHOD_1,METHOD_2,METHOD_3,

outputClass,
IDENT_0,


































