shouldSetInputFromVerticesAndEntityIds,EntitySeed,getInput,
METHOD_0,METHOD_1,METHOD_2,

GetAdjacentIds,
IDENT_0,







"group1","3",
STRING_0,STRING_1,

























