shouldBeAbleToHandleATreeSet,canHandle,isAssignableFrom,
METHOD_0,METHOD_1,METHOD_2,

testClass,TreeSet,canHandle,serialiser,GroupedProperties,
IDENT_0,IDENT_1,IDENT_2,IDENT_3,IDENT_4,


































