skipLastSlashWithoutExistingSlash,skipLastSlash,endsWith,lastIndexOf,
METHOD_0,METHOD_1,METHOD_2,METHOD_3,

origin,cut,
IDENT_0,IDENT_1,







"hey",
STRING_0,

























