shouldDefaultToSingletonGraph,DefaultGraphFactory,isSingletonGraph,
METHOD_0,METHOD_1,METHOD_2,

DefaultGraphFactory,isSingleton,singletonGraph,
IDENT_0,IDENT_1,IDENT_2,


































