testWriteTo,RandomAccessData,asOutputStream,writeTo,
METHOD_0,METHOD_1,METHOD_2,METHOD_3,

baos,dataflow,RandomAccessData,RandomAccessDataTest,TEST_DATA_B,isFallback,
IDENT_0,IDENT_1,IDENT_2,IDENT_3,IDENT_4,IDENT_5,


































