testOnErrorConsumerIsCalled,withOnNext,withOnError,onError,
METHOD_0,METHOD_1,METHOD_2,METHOD_3,

throwable,onErrorWasCalled,dataflow,harness,TestStreams,PCollectionView,
IDENT_0,IDENT_1,IDENT_2,IDENT_3,IDENT_4,IDENT_5,


































