shouldStartNotStarted,CountDownTimer,isRunning,
METHOD_0,METHOD_1,METHOD_2,

gemserk,componentsengine,timers,CountDownTimer,countDownTimer,
IDENT_0,IDENT_1,IDENT_2,IDENT_3,IDENT_4,


































