testIsLinux,getOperatingSystemMXBean,isLinux,
METHOD_0,METHOD_1,METHOD_2,

ManagementFactory,SystemUtils,LINUX_OS_NAME,os,gemstone,gemfire,
IDENT_0,IDENT_1,IDENT_2,IDENT_3,IDENT_4,IDENT_5,







"os.name",
STRING_0,

























