testLog2Floor_zero,OrderedCode,log2Floor,log2,
METHOD_0,METHOD_1,METHOD_2,METHOD_3,

dataflow,worker,OrderedCode,orderedCode,vendor,guava,v20_0,LongMath,RoundingMode,FLOOR,
IDENT_0,IDENT_1,IDENT_2,IDENT_3,IDENT_4,IDENT_5,IDENT_6,IDENT_7,IDENT_8,IDENT_9,







"must be non-negative",
STRING_0,

























