testMyBinarySearchNotFound,myBinarySearch,
METHOD_0,METHOD_1,

begin,genemania,matricks,indices,mid,
IDENT_0,IDENT_1,IDENT_2,IDENT_3,IDENT_4,

13,17,19,
INT_0,INT_1,INT_2,




"binarySearch",
STRING_0,




--,
OP_0,



















