testUpdate,role,
METHOD_0,METHOD_1,

syncleus,ferma,Tx,gentics,mesh,Role,role,
IDENT_0,IDENT_1,IDENT_2,IDENT_3,IDENT_4,IDENT_5,IDENT_6,







"newName",
STRING_0,

























