testEmptyResult,createUser,getESText,searchUsers,getData,
METHOD_0,METHOD_1,METHOD_2,METHOD_3,METHOD_4,

username,syncleus,ferma,Tx,gentics,mesh,UserListResponse,
IDENT_0,IDENT_1,IDENT_2,IDENT_3,IDENT_4,IDENT_5,IDENT_6,







"testuser42a","userBogusName.es",
STRING_0,STRING_1,

























