testReuseInstance,getExponents,getItems,
METHOD_0,METHOD_1,METHOD_2,

variableReplacerAlgorithm,powerOfX,Base,
IDENT_0,IDENT_1,IDENT_2,







"x",
STRING_0,

























