testEvaluate,NumberConstant,getLeft,getRight,
METHOD_0,METHOD_1,METHOD_2,METHOD_3,

geolatte,NumberConstant,numberConstant,
IDENT_0,IDENT_1,IDENT_2,


































