testSetCalendarDate,getCalendarDate,setCalendarDate,
METHOD_0,METHOD_1,METHOD_2,

calendarDate1,caldate,geotoolkit,temporal,DefaultCalendarDate,calendarDate,
IDENT_0,IDENT_1,IDENT_2,IDENT_3,IDENT_4,IDENT_5,

1995,
INT_0,































