testReadWithNull,
METHOD_0,

ga,earthsci,color,ColorMap,classUnderTest,Reader,readBuffer,rd,
IDENT_0,IDENT_1,IDENT_2,IDENT_3,IDENT_4,IDENT_5,IDENT_6,IDENT_7,

2048,
INT_0,































