testUrlToFileWithHttpUrl,urlToFile,isFileUrl,toURI,
METHOD_0,METHOD_1,METHOD_2,METHOD_3,

ga,worldwind,URLUtil,e1,e2,
IDENT_0,IDENT_1,IDENT_2,IDENT_3,IDENT_4,







"http://this/is/not/a/file.html",
STRING_0,

























