testFromObjectWithNull,fromObject,toURI,toURL,fromString,
METHOD_0,METHOD_1,METHOD_2,METHOD_3,METHOD_4,

MalformedURLException,ga,worldwind,URLUtil,
IDENT_0,IDENT_1,IDENT_2,IDENT_3,


































