testNullEquals,
METHOD_0,

coders,SerializableCoder,SerializableCoderTest,MyRecord,coder,CustomCoderTest,MyCustomCoder,
IDENT_0,IDENT_1,IDENT_2,IDENT_3,IDENT_4,IDENT_5,IDENT_6,


































