testModifyLogging,getLogging,setLevel,
METHOD_0,METHOD_1,METHOD_2,

geoserver,LoggingInfo,geoServer,ModificationProxy,
IDENT_0,IDENT_1,IDENT_2,IDENT_3,







"VERBOSE_LOGGING.properties",
STRING_0,

























