testNoProxyBaseURL,createAppContext,mangleURL,
METHOD_0,METHOD_1,METHOD_2,

baseURL,mangler,URLMangler,URLType,SERVICE,
IDENT_0,IDENT_1,IDENT_2,IDENT_3,IDENT_4,







"StyleWriterConverter [version=",", handler=",
STRING_0,STRING_1,

























