testInvalid,SLDValidator,validateSLD,
METHOD_0,METHOD_1,METHOD_2,

vfny,geoserver,SLDValidator,
IDENT_0,IDENT_1,IDENT_2,







"invalid.sld",
STRING_0,

























