testUpload,getDataDirectory,copy,
METHOD_0,METHOD_1,METHOD_2,

geoserver,RestBaseController,ROOT_PATH,STR_MY_NEW_TEST,Resource,newRes,IOUtils,
IDENT_0,IDENT_1,IDENT_2,IDENT_3,IDENT_4,IDENT_5,IDENT_6,







"/resource/mydir/mynewres","/mydir/mynewres",
STRING_0,STRING_1,

























