testAddUser,putUser,SimpleGrantedAuthority,loadUserByUsername,
METHOD_0,METHOD_1,METHOD_2,METHOD_3,

userdetails,geoserver,GrantedAuthority,authority,username,
IDENT_0,IDENT_1,IDENT_2,IDENT_3,IDENT_4,







"newuser","pwd","ROLE_WFS_ALL",
STRING_0,STRING_1,STRING_2,

























