testTitle,Param,SimpleInternationalString,ParamInfo,getTitle,
METHOD_0,METHOD_1,METHOD_2,METHOD_3,METHOD_4,

DataAccessFactory,Param,geoserver,ParamInfo,pi,queryDef,
IDENT_0,IDENT_1,IDENT_2,IDENT_3,IDENT_4,IDENT_5,







"abc","the title","the description",
STRING_0,STRING_1,STRING_2,

























