testConstructor,createZoomLevel,ZoomLevel,calculateMaxTilePerRowNumber,calculateMaxTilePerColNumber,
METHOD_0,METHOD_1,METHOD_2,METHOD_3,METHOD_4,

tile,z,zoomLevel,
IDENT_0,IDENT_1,IDENT_2,

14,
INT_0,































