cacheTest,Layer,setParent,getLayerChildren,
METHOD_0,METHOD_1,METHOD_2,METHOD_3,

ows,wms,Layer,AbstractList,children,replaced,removed,
IDENT_0,IDENT_1,IDENT_2,IDENT_3,IDENT_4,IDENT_5,IDENT_6,







"parent","child",
STRING_0,STRING_1,

























