testAfterList,ListZoomContext,getScaleDenominator,
METHOD_0,METHOD_1,METHOD_2,

ysld,ListZoomContext,ctxt,level,initial,POSITIVE_INFINITY,scales,
IDENT_0,IDENT_1,IDENT_2,IDENT_3,IDENT_4,IDENT_5,IDENT_6,










5000000.0,
FLOAT_0,






















