testClearGlobal,setGlobalValue,clearGlobalValues,literal,
METHOD_0,METHOD_1,METHOD_2,METHOD_3,

varName,varValue,EnvFunction,ff,Point,
IDENT_0,IDENT_1,IDENT_2,IDENT_3,IDENT_4,







"clearGlobal","env",
STRING_0,STRING_1,

























