testEvaluateNull,literal,
METHOD_0,METHOD_1,

FilterFunction_listMultiply,func,ff,Point,
IDENT_0,IDENT_1,IDENT_2,IDENT_3,







"listMultiply",
STRING_0,

2.5,
FLOAT_0,






















