testCrossingCircle,getExteriorRing,clip,showResult,getNumGeometries,
METHOD_0,METHOD_1,METHOD_2,METHOD_3,METHOD_4,

Point,wkt,LineString,ls,Polygon,MultiLineString,clipped,clipper,
IDENT_0,IDENT_1,IDENT_2,IDENT_3,IDENT_4,IDENT_5,IDENT_6,IDENT_7,







"POINT(5 5)","Circle around",
STRING_0,STRING_1,

























