testDefaultPopulateDisplayDataImplementation,items,
METHOD_0,METHOD_1,

transforms,DoFn,fn,display,DisplayData,displayData,entries,
IDENT_0,IDENT_1,IDENT_2,IDENT_3,IDENT_4,IDENT_5,IDENT_6,


































