testSetPosition,getPosition,DefaultPosition,setPosition,
METHOD_0,METHOD_1,METHOD_2,METHOD_3,

temporal,Position,instant1,DefaultInstant,
IDENT_0,IDENT_1,IDENT_2,IDENT_3,


































