testPrimeNumber,primeNumber,IndexOutOfBoundsException,resize,
METHOD_0,METHOD_1,METHOD_2,METHOD_3,

primes,XMath,MAX_PRIMES_LENGTH,XArray,
IDENT_0,IDENT_1,IDENT_2,IDENT_3,

11,13,17,19,23,29,31,37,41,43,47,53,59,61,67,71,73,79,83,89,97,101,103,107,109,113,65535,
INT_0,INT_1,INT_2,INT_3,INT_4,INT_5,INT_6,INT_7,INT_8,INT_9,INT_10,INT_11,INT_12,INT_13,INT_14,INT_15,INT_16,INT_17,INT_18,INT_19,INT_20,INT_21,INT_22,INT_23,INT_24,INT_25,INT_26,










%,
OP_0,



















