testLoadArgument,loadArguments,
METHOD_0,METHOD_1,

arguments,intelligentsia,keystone,boot,Arguments,ArgumentsTest,STRINGS,argv,option,equalPos,paramName,TRUE,
IDENT_0,IDENT_1,IDENT_2,IDENT_3,IDENT_4,IDENT_5,IDENT_6,IDENT_7,IDENT_8,IDENT_9,IDENT_10,IDENT_11,







"--",'=',
STRING_0,STRING_1,

























