testFullNameLookup,ofType,fromClassName,fromFactoryMethod,withArg,
METHOD_0,METHOD_1,METHOD_2,METHOD_3,METHOD_4,

TupleTag,tag,InstanceBuilder,InstanceBuilderTest,
IDENT_0,IDENT_1,IDENT_2,IDENT_3,







"createTag","hello world!","bundle-id",
STRING_0,STRING_1,STRING_2,

























