testGetName,
METHOD_0,

nameParam,valueParam,gisgraphy,valueobject,NameValueDTO,nv,
IDENT_0,IDENT_1,IDENT_2,IDENT_3,IDENT_4,IDENT_5,







"nameX","val",
STRING_0,STRING_1,

























