testOrderByKey,compareInt,
METHOD_0,METHOD_1,

Comparator,KV,orderByKey,OrderByKey,key1,KVTest,TEST_VALUES,val1,key2,val2,
IDENT_0,IDENT_1,IDENT_2,IDENT_3,IDENT_4,IDENT_5,IDENT_6,IDENT_7,IDENT_8,IDENT_9,


































