testByteBufferEquality,withSchema,addValue,wrap,
METHOD_0,METHOD_1,METHOD_2,METHOD_3,

a0,b0,schemas,FieldType,BYTES,Row,observer,
IDENT_0,IDENT_1,IDENT_2,IDENT_3,IDENT_4,IDENT_5,IDENT_6,







"bytes",
STRING_0,

























