testStableChildren,ObjectNodeImpl,parseJson,getChild,getChildren,JsonException,
METHOD_0,METHOD_1,METHOD_2,METHOD_3,METHOD_4,METHOD_5,

gistlabs,mechanize,ObjectNodeImpl,JsonNode,
IDENT_0,IDENT_1,IDENT_2,IDENT_3,







"{ \"one\" : 2, \"b\" : 2.2 }","More than one result",
STRING_0,STRING_1,

























