testGetNamesReturnsTheParametersInTheOrderTheyWhereFirstAdded,Parameters,getNames,keySet,
METHOD_0,METHOD_1,METHOD_2,METHOD_3,

gistlabs,mechanize,Parameters,
IDENT_0,IDENT_1,IDENT_2,







"name2",
STRING_0,

























