getNeedle,getField,setAccessible,
METHOD_0,METHOD_1,METHOD_2,

testValue,testClass,testFilter,NoSuchFieldException,IllegalAccessException,needle,
IDENT_0,IDENT_1,IDENT_2,IDENT_3,IDENT_4,IDENT_5,







"TestNeedle","needle",
STRING_0,STRING_1,

























