setActionPayloadTest,DashboardWidget,setActionPayload,getActionPayload,
METHOD_0,METHOD_1,METHOD_2,METHOD_3,

haskins,cloudtrailviewer,DashboardWidget,da,actionPayload,
IDENT_0,IDENT_1,IDENT_2,IDENT_3,IDENT_4,


































