heterogeneousTest,rrb,concat,IndexOutOfBoundsException,
METHOD_0,METHOD_1,METHOD_2,METHOD_3,

organicdesign,fp,RrbTree,rrb,StaticImports,elem,idx,
IDENT_0,IDENT_1,IDENT_2,IDENT_3,IDENT_4,IDENT_5,IDENT_6,







"Index "," was outside the size of this range: "," to ",
STRING_0,STRING_1,STRING_2,

























