testOwnedProjects,getProjectApi,getOwnedProjects,getDefaultPerPage,all,
METHOD_0,METHOD_1,METHOD_2,METHOD_3,METHOD_4,

gitlab4j,Project,projects,TestProjectApi,gitLabApi,
IDENT_0,IDENT_1,IDENT_2,IDENT_3,IDENT_4,


































