containsAllArray,classUnderTest,containsAllArguments,
METHOD_0,METHOD_1,METHOD_2,

bag,sorted,ImmutableSortedBag,bag1,
IDENT_0,IDENT_1,IDENT_2,IDENT_3,


































