appendString_throws,classUnderTest,appendString,Appendable,getCause,
METHOD_0,METHOD_1,METHOD_2,METHOD_3,METHOD_4,

lazy,parallel,CharSequence,csq,cause,
IDENT_0,IDENT_1,IDENT_2,IDENT_3,IDENT_4,







"Test exception",
STRING_0,

























