nextAfterEmptyIterable,TapIterator,
METHOD_0,METHOD_1,

lazy,TapIterator,fixedSize,procedure,
IDENT_0,IDENT_1,IDENT_2,IDENT_3,


































