forEach,newListWith,asReversed,
METHOD_0,METHOD_1,METHOD_2,

BooleanIterable,iterable,primitive,BooleanArrayList,each,procedure,Procedure,
IDENT_0,IDENT_1,IDENT_2,IDENT_3,IDENT_4,IDENT_5,IDENT_6,













&=,
OP_0,



















