forEachFromTo,Counter,forEach,increment,getCount,
METHOD_0,METHOD_1,METHOD_2,METHOD_3,METHOD_4,

Counter,counter,unmodifiableList,band,
IDENT_0,IDENT_1,IDENT_2,IDENT_3,


































