injectIntoInt,newSetWith,injectInto,
METHOD_0,METHOD_1,METHOD_2,

ImmutableSet,objects,AddFunction,INTEGER_TO_INT,primitive,DoubleObjectToDoubleFunction,
IDENT_0,IDENT_1,IDENT_2,IDENT_3,IDENT_4,IDENT_5,


































