construction,getDeclaredField,setAccessible,BooleanHashSet,
METHOD_0,METHOD_1,METHOD_2,METHOD_3,

primitive,BooleanHashSet,
IDENT_0,IDENT_1,







"state",
STRING_0,

























