stringBuilder,adapt,
METHOD_0,METHOD_1,

immutable,CharAdapter,adapt,CharAdapterTest,UNICODE_STRING,
IDENT_0,IDENT_1,IDENT_2,IDENT_3,IDENT_4,


































