count2CodePoint,countChar,CharPredicate,
METHOD_0,METHOD_1,METHOD_2,

utility,StringIterate,CodePointPredicate,IS_UNDEFINED,predicate,primitive,CharPredicate,
IDENT_0,IDENT_1,IDENT_2,IDENT_3,IDENT_4,IDENT_5,IDENT_6,







"1a2a3",
STRING_0,

























