forEachCodePoint,forEach,
METHOD_0,METHOD_1,

utility,StringIterate,procedure,primitive,CodePointProcedure,appendCodePoint,appendable,
IDENT_0,IDENT_1,IDENT_2,IDENT_3,IDENT_4,IDENT_5,IDENT_6,







"1a2b3c",
STRING_0,

























