testBuildQuery_pqlTable,where,orderBy,limit,buildQuery,
METHOD_0,METHOD_1,METHOD_2,METHOD_3,METHOD_4,

expectedQuery,ads,admanager,QueryBuilder,queryBuilder,
IDENT_0,IDENT_1,IDENT_2,IDENT_3,IDENT_4,







"SELECT * FROM table WHERE a = b AND b = c ORDER BY a ASC, b DESC LIMIT 200 OFFSET 0","*","table","a = b AND b = c","a ASC, b DESC",
STRING_0,STRING_1,STRING_2,STRING_3,STRING_4,

























