EmbeddedEntity,createTestEntity,
METHOD_0,METHOD_1,

appengine,EmbeddedEntity,embedded,Key,storedEntity,storedEmbedded,tck,modules,LibHelper,ds,
IDENT_0,IDENT_1,IDENT_2,IDENT_3,IDENT_4,IDENT_5,IDENT_6,IDENT_7,IDENT_8,IDENT_9,







"string","embedded",
STRING_0,STRING_1,

























