testPutAll,putAll,
METHOD_0,METHOD_1,

memcache,appengine,Key,tck,modules,LibHelper,ds,
IDENT_0,IDENT_1,IDENT_2,IDENT_3,IDENT_4,IDENT_5,IDENT_6,







"key1","value1","key2","value2",
STRING_0,STRING_1,STRING_2,STRING_3,

























