testAsyncGetRegions,newTestTableName,createTable,asyncGetRegions,getConnection,getAdmin,getRegions,
METHOD_0,METHOD_1,METHOD_2,METHOD_3,METHOD_4,METHOD_5,METHOD_6,

TableName,sharedTestEnv,
IDENT_0,IDENT_1,


































