test_simple,calculateTheClosestNextRowKeyForPrefix,copyOfRange,
METHOD_0,METHOD_1,METHOD_2,

nextKey,bigtable,RowKeyUtil,rowKeyPrefix,EMPTY_KEY,newStopRow,
IDENT_0,IDENT_1,IDENT_2,IDENT_3,IDENT_4,IDENT_5,













--,
OP_0,



















