testContains_nullArg,
METHOD_0,

appengine,AppEngineWebProblems,DEPRECATED_ELEMENTS,elementName,
IDENT_0,IDENT_1,IDENT_2,IDENT_3,


































