testLoadAppEngine16,appEngine,getIcon,
METHOD_0,METHOD_1,METHOD_2,

imageFilePath,appengine,AppEngineImages,
IDENT_0,IDENT_1,IDENT_2,







"icons/gae-","x",".png",
STRING_0,STRING_1,STRING_2,

























