testSetAppEngine,GcpProject,setAppEngine,withId,getAppEngine,
METHOD_0,METHOD_1,METHOD_2,METHOD_3,METHOD_4,

projectselector,GcpProject,gcpProject,AppEngine,appEngine,
IDENT_0,IDENT_1,IDENT_2,IDENT_3,IDENT_4,







"id",
STRING_0,

























