testGetNonExistentField,getDatastore,newKeyFactory,setKind,newKey,
METHOD_0,METHOD_1,METHOD_2,METHOD_3,METHOD_4,

fieldValues,Datastore,Key,keyName,
IDENT_0,IDENT_1,IDENT_2,IDENT_3,







"nonexistent","MyKind",
STRING_0,STRING_1,

























