testDeleteTrue,initializeExpectedTable,getOptions,getTableId,initializeTable,
METHOD_0,METHOD_1,METHOD_2,METHOD_3,METHOD_4,

bigquery,mockOptions,TableTest,TABLE_INFO,deleted,sink,
IDENT_0,IDENT_1,IDENT_2,IDENT_3,IDENT_4,IDENT_5,


































