testToBuilder,toBuilder,
METHOD_0,METHOD_1,

StructuredQuery,queries,StructuredQueryTest,ENTITY_QUERY,KEY_QUERY,PROJECTION_QUERY,bigquery,v1beta1,BigQueryStorageSettings,
IDENT_0,IDENT_1,IDENT_2,IDENT_3,IDENT_4,IDENT_5,IDENT_6,IDENT_7,IDENT_8,


































