testGetProject,getProject,toPb,getService,
METHOD_0,METHOD_1,METHOD_2,METHOD_3,

dnsRpcMock,dns,DnsImplTest,EMPTY_RPC_OPTIONS,PROJECT_INFO,ProjectInfo,projectInfo,
IDENT_0,IDENT_1,IDENT_2,IDENT_3,IDENT_4,IDENT_5,IDENT_6,


































