testCreate,open,toPb,BlobWriteChannel,isOpen,
METHOD_0,METHOD_1,METHOD_2,METHOD_3,METHOD_4,

storageRpcMock,BlobWriteChannelTest,BLOB_INFO,EMPTY_RPC_OPTIONS,UPLOAD_ID,
IDENT_0,IDENT_1,IDENT_2,IDENT_3,IDENT_4,


































