moveBytesBetweenBuffersShareSegment,moveBytesBetweenBuffers,repeat,
METHOD_0,METHOD_1,METHOD_2,

Segment,SIZE,segmentSizes,okio,TestUtil,
IDENT_0,IDENT_1,IDENT_2,IDENT_3,IDENT_4,







'a','b',
STRING_0,STRING_1,

























