writeSourcePropagatesEof,Buffer,writeUtf8,flush,readUtf8,writeAll,
METHOD_0,METHOD_1,METHOD_2,METHOD_3,METHOD_4,METHOD_5,

okio,Source,sink,EOFException,
IDENT_0,IDENT_1,IDENT_2,IDENT_3,







"abcd",
STRING_0,

























