copyToOffSegmentBoundary,repeat,Buffer,writeUtf8,copyTo,readUtf8,writeAll,
METHOD_0,METHOD_1,METHOD_2,METHOD_3,METHOD_4,METHOD_5,METHOD_6,

okio,TestUtil,Segment,SIZE,bs,ds,Buffer,
IDENT_0,IDENT_1,IDENT_2,IDENT_3,IDENT_4,IDENT_5,IDENT_6,







'a','b','c','d',
STRING_0,STRING_1,STRING_2,STRING_3,

























