test_plusWeeks_noChange_same,plusWeeks,plusDays,multiplyExact,
METHOD_0,METHOD_1,METHOD_2,METHOD_3,

LocalDate,TEST_2007_07_15,weeksToAdd,
IDENT_0,IDENT_1,IDENT_2,


































