test_getDate,toLocalDate,
METHOD_0,METHOD_1,

LocalDate,year,month,day,LocalDateTime,dt,LocalTime,MIDNIGHT,dateTime,
IDENT_0,IDENT_1,IDENT_2,IDENT_3,IDENT_4,IDENT_5,IDENT_6,IDENT_7,IDENT_8,


































