test_parsed_toString_resolvedTime,ofPattern,
METHOD_0,METHOD_1,

DateTimeFormatter,temporal,TemporalAccessor,m_firstFree,m_map,
IDENT_0,IDENT_1,IDENT_2,IDENT_3,IDENT_4,







"HH:mm:ss","11:30:56",
STRING_0,STRING_1,

























