testStartEndBeforeFind,compile,Frag,
METHOD_0,METHOD_1,METHOD_2,

re2j,Matcher,Pattern,ise,Compiler,
IDENT_0,IDENT_1,IDENT_2,IDENT_3,IDENT_4,







"abaca",
STRING_0,

























