testInvalidGroupOutOfRange,testInvalidGroup,Frag,
METHOD_0,METHOD_1,METHOD_2,

re2j,ApiTestUtils,IndexOutOfBoundsException,Compiler,
IDENT_0,IDENT_1,IDENT_2,IDENT_3,







"abc",
STRING_0,

























