testFindContentChildren,AssignCookies,findContentChildren,sort,
METHOD_0,METHOD_1,METHOD_2,METHOD_3,

javapractice,leetcode,AssignCookies,children,cookies,gi,si,
IDENT_0,IDENT_1,IDENT_2,IDENT_3,IDENT_4,IDENT_5,IDENT_6,













--,
OP_0,



















