testEscapeSet,RegExpPatternStep,
METHOD_0,METHOD_1,

testChars,gradle,RegExpPatternStep,step,openjdk,jmc,IItem,eventNames,
IDENT_0,IDENT_1,IDENT_2,IDENT_3,IDENT_4,IDENT_5,IDENT_6,IDENT_7,







"`~!@#$%^&*()-_=+[]{}\\|;:\'\"<>,/",
STRING_0,

























