newDatabaseShouldHaveNoNodes,beginTx,countNodes,getAllNodes,
METHOD_0,METHOD_1,METHOD_2,METHOD_3,

graphdb,Transaction,GraphDatabaseService,graphaware,IterableUtils,
IDENT_0,IDENT_1,IDENT_2,IDENT_3,IDENT_4,


































