testMoscow,OneRun,runAlgo,
METHOD_0,METHOD_1,METHOD_2,

routing,TestAlgoCollector,OneRun,testCollector,GraphHopperIT,DIR,
IDENT_0,IDENT_1,IDENT_2,IDENT_3,IDENT_4,IDENT_5,

1052,14,24,1114,23,
INT_0,INT_1,INT_2,INT_3,INT_4,




"/moscow.osm.gz","target/moscow-gh","car","fastest","OSM File header:",
STRING_0,STRING_1,STRING_2,STRING_3,STRING_4,

55.818994,37.595354,55.819175,37.596931,55.818898,37.59661,55.819066,37.596374,
FLOAT_0,FLOAT_1,FLOAT_2,FLOAT_3,FLOAT_4,FLOAT_5,FLOAT_6,FLOAT_7,






















