testMonacoMixed,createMonacoCar,setLocs,runAlgo,
METHOD_0,METHOD_1,METHOD_2,METHOD_3,

routing,TestAlgoCollector,OneRun,testCollector,GraphHopperIT,DIR,
IDENT_0,IDENT_1,IDENT_2,IDENT_3,IDENT_4,IDENT_5,

110,170,132,137,116,
INT_0,INT_1,INT_2,INT_3,INT_4,




"/monaco.osm.gz","target/monaco-gh","car,foot","car","shortest","OSM File header:",
STRING_0,STRING_1,STRING_2,STRING_3,STRING_4,STRING_5,

























