testBug1014,OneRun,runAlgo,
METHOD_0,METHOD_1,METHOD_2,

routing,TestAlgoCollector,OneRun,testCollector,GraphHopperIT,DIR,
IDENT_0,IDENT_1,IDENT_2,IDENT_3,IDENT_4,IDENT_5,

6777,175,
INT_0,INT_1,




"/north-bayreuth.osm.gz","target/north-bayreuth-gh","bike","fastest","OSM File header:",
STRING_0,STRING_1,STRING_2,STRING_3,STRING_4,

50.015861,11.51041,50.019129,11.500325,50.023623,11.56929,
FLOAT_0,FLOAT_1,FLOAT_2,FLOAT_3,FLOAT_4,FLOAT_5,






















