whenSettingPriorities_itShouldBeSetCorrectly,setLocation,setPriority,getPriority,
METHOD_0,METHOD_1,METHOD_2,METHOD_3,

Delivery,Location,priority,
IDENT_0,IDENT_1,IDENT_2,







"s","loc",
STRING_0,STRING_1,

























