whenSettingMaxVelocity_itShouldBeSetCorrectly,setMaxVelocity,getMaxVelocity,
METHOD_0,METHOD_1,METHOD_2,

vehicle,VehicleTypeImpl,maxVelocity,
IDENT_0,IDENT_1,IDENT_2,







"type",
STRING_0,

























