whenAddingProfile_itShouldBeCorrect,setProfile,getProfile,
METHOD_0,METHOD_1,METHOD_2,

vehicle,VehicleTypeImpl,profile,
IDENT_0,IDENT_1,IDENT_2,







"type","car",
STRING_0,STRING_1,

























