whenHavingTwoTypesWithTheSameId_theyShouldBeEqual,setCostPerTime,
METHOD_0,METHOD_1,

vehicle,VehicleTypeImpl,type2,StateFactory,StateIdImpl,
IDENT_0,IDENT_1,IDENT_2,IDENT_3,IDENT_4,







"type",
STRING_0,

























