whenReadingJobs_nuOfJobsIsReadThemCorrectly,VrpXMLReader,getJobs,unmodifiableSet,
METHOD_0,METHOD_1,METHOD_2,METHOD_3,

VehicleRoutingProblem,inputStream,vrp,activity,jobs,
IDENT_0,IDENT_1,IDENT_2,IDENT_3,IDENT_4,


































