testDoImport2,readValue,getEntries,Observation,GHPoint3D,
METHOD_0,METHOD_1,METHOD_2,METHOD_3,METHOD_4,

matching,gpx,Gpx,xmlMapper,GPXEntry,gpxEntries,trk,Observation,Trkseg,trkseg,Trkpt,trkpt,shapes,lat,lon,ele,
IDENT_0,IDENT_1,IDENT_2,IDENT_3,IDENT_4,IDENT_5,IDENT_6,IDENT_7,IDENT_8,IDENT_9,IDENT_10,IDENT_11,IDENT_12,IDENT_13,IDENT_14,IDENT_15,







"/test2.gpx",
STRING_0,

























