testEncodeLong,encodeLong,rewind,decodeLong,decodeVarint,
METHOD_0,METHOD_1,METHOD_2,METHOD_3,METHOD_4,

graphstream,netstream,NetStreamUtils,bb,
IDENT_0,IDENT_1,IDENT_2,IDENT_3,

314L,
INT_0,































