shouldHandleRequest,canHandle,
METHOD_0,METHOD_1,

gravitee,gateway,Request,handle,authenticationHandler,Plugin,PluginType,REPOSITORY,
IDENT_0,IDENT_1,IDENT_2,IDENT_3,IDENT_4,IDENT_5,IDENT_6,IDENT_7,


































