shouldBeValidWithLabel,getLabels,getViews,
METHOD_0,METHOD_1,METHOD_2,

gravitee,ApiEntity,valid,srv,
IDENT_0,IDENT_1,IDENT_2,IDENT_3,







"view",
STRING_0,

























