testSaveFirstRecord,publishChange,
METHOD_0,METHOD_1,

graylog,sidecar,Sidecar,NodeDetails,sidecarService,graylog2,Persisted,resultId,system,inputs,responses,InputCreated,
IDENT_0,IDENT_1,IDENT_2,IDENT_3,IDENT_4,IDENT_5,IDENT_6,IDENT_7,IDENT_8,IDENT_9,IDENT_10,IDENT_11,







"nodeId","nodeName","DummyOS 1.0","0.0.1",
STRING_0,STRING_1,STRING_2,STRING_3,

























