test004_DeleteStream,getAnyBookie,runCommand,
METHOD_0,METHOD_1,METHOD_2,

bookie,bookkeeper,BookKeeperClusterUtils,DockerUtils,docker,dlogCLI,dlogUri,ledgersMap,
IDENT_0,IDENT_1,IDENT_2,IDENT_3,IDENT_4,IDENT_5,IDENT_6,IDENT_7,







"tool","delete","--uri","--stream","stream-99","-f",
STRING_0,STRING_1,STRING_2,STRING_3,STRING_4,STRING_5,

























