testHeaderParse,getDefaultSerializer,makeBlock,cloneAsHeader,bitcoinSerialize,
METHOD_0,METHOD_1,METHOD_2,METHOD_3,METHOD_4,

bitcoinj,Block,BlockTest,PARAMS,blockBytes,reparsed,
IDENT_0,IDENT_1,IDENT_2,IDENT_3,IDENT_4,IDENT_5,


































