testFormatPath,ChildNumber,formatPath,concat,singleton,
METHOD_0,METHOD_1,METHOD_2,METHOD_3,METHOD_4,

tv,bitcoinj,expectedStrPath,generatedStrPath,HDUtils,PATH_JOINER,Iterables,
IDENT_0,IDENT_1,IDENT_2,IDENT_3,IDENT_4,IDENT_5,IDENT_6,

44,
INT_0,




"M/44H/0H/0H/1/1","M/7H/3/3/1H","M/1H/2H/3H","M/1/2/3","M",
STRING_0,STRING_1,STRING_2,STRING_3,STRING_4,

























