testExpectedHashVariableLength,Random,nextBytes,murmurhash3_x86_32,reset,
METHOD_0,METHOD_1,METHOD_2,METHOD_3,METHOD_4,

greenrobot,essentials,otherhashes,MurmurHash3Yonik,checksum,
IDENT_0,IDENT_1,IDENT_2,IDENT_3,IDENT_4,

512,23,4294967295L,
INT_0,INT_1,INT_2,































