testDeseralize,readValue,getThrowable,
METHOD_0,METHOD_1,METHOD_2,

greghaines,jesque,JobFailure,jobFailure,ObjectMapperFactory,throwable,
IDENT_0,IDENT_1,IDENT_2,IDENT_3,IDENT_4,IDENT_5,







"{\"worker\":\"test5:12385-1:JAVA_DYNAMIC_QUEUES,SomeQueue\",\"queue\":\"audioTranscode\",\"payload\":{\"class\":\"SomeClass\",\"args\":[1234]},\"exception\":\"groovy.lang.MissingMethodException\",\"error\":\"SomeError\",\"backtrace\":[\"\\tat sompackage.someclass(somefile.java:42)\"],\"failed_at\":\"2011-10-17T18:01:33.185+0000\",\"retried_at\":null}",
STRING_0,

























