testArrayResizing,nextArraySize,
METHOD_0,METHOD_1,

avatica,UnsynchronizedBuffer,
IDENT_0,IDENT_1,

64,128,30,
INT_0,INT_1,INT_2,










*=,--,|=,
OP_0,OP_1,OP_2,



















