testGetSources,getSources,getFiles,
METHOD_0,METHOD_1,METHOD_2,

sources,testMojo,codehaus,gmavenplus,mojo,AbstractGroovySourcesMojo,MAIN,
IDENT_0,IDENT_1,IDENT_2,IDENT_3,IDENT_4,IDENT_5,IDENT_6,


































