to_array,create_tsdata_,create_file,readonly,
METHOD_0,METHOD_1,METHOD_2,METHOD_3,

groupon,lex,timeseries,TimeSeriesCollection,tsdata,Collectors,file_support,tmpfile,history,TSData,fd,Stream,
IDENT_0,IDENT_1,IDENT_2,IDENT_3,IDENT_4,IDENT_5,IDENT_6,IDENT_7,IDENT_8,IDENT_9,IDENT_10,IDENT_11,


































