


groupon,lex,GroupName,group_name,GroupNameTest,PATH,key_,value_,
IDENT_0,IDENT_1,IDENT_2,IDENT_3,IDENT_4,IDENT_5,IDENT_6,IDENT_7,







"SimpleMapEntry{"," => ",'}',
STRING_0,STRING_1,STRING_2,

























