unquoted,maybeQuoteIdentifier,
METHOD_0,METHOD_1,

identifier,groupon,lex,ConfigSupport,timestamps,
IDENT_0,IDENT_1,IDENT_2,IDENT_3,IDENT_4,







"this_wont_need_any_quotes_999","ChainingTSCPair[",
STRING_0,STRING_1,

























