testUnparseIn2,relBuilder,scan,literal,toSql,isLinux,compose,toLinux,
METHOD_0,METHOD_1,METHOD_2,METHOD_3,METHOD_4,METHOD_5,METHOD_6,METHOD_7,

RelBuilder,rel,rel2sql,RelToSqlConverterTest,RelNode,SqlStdOperatorTable,IN,expectedSql,Util,
IDENT_0,IDENT_1,IDENT_2,IDENT_3,IDENT_4,IDENT_5,IDENT_6,IDENT_7,IDENT_8,

21,
INT_0,




"EMP","DEPTNO","SELECT *\n","FROM \"scott\".\"EMP\"\n","WHERE \"DEPTNO\" IN (20, 21)",
STRING_0,STRING_1,STRING_2,STRING_3,STRING_4,

























