iteration,blockingStream,
METHOD_0,METHOD_1,

visited,groupon,lex,BufferedIteratorTest,Stream,Collectors,Collector,collector,
IDENT_0,IDENT_1,IDENT_2,IDENT_3,IDENT_4,IDENT_5,IDENT_6,IDENT_7,

11,13,14,17,18,19,
INT_0,INT_1,INT_2,INT_3,INT_4,INT_5,































