immediateDeadlineIsExpired,after,isExpired,
METHOD_0,METHOD_1,METHOD_2,

Deadline,deadline,SECONDS,ticker,expired,deadlineNanos,
IDENT_0,IDENT_1,IDENT_2,IDENT_3,IDENT_4,IDENT_5,


































