testUnnestItemsInMap,getConnection,createStatement,executeQuery,ResultSetFormatter,resultSet,
METHOD_0,METHOD_1,METHOD_2,METHOD_3,METHOD_4,METHOD_5,

Connection,DriverManager,resultSet,CalciteAssert,
IDENT_0,IDENT_1,IDENT_2,IDENT_3,







"jdbc:calcite:","select * from unnest(MAP['a', 1, 'b', 2]) as um(k, v)","K=a; V=1\n","K=b; V=2\n",
STRING_0,STRING_1,STRING_2,STRING_3,

























