testModelWithComment,returns,not,makeUnary,
METHOD_0,METHOD_1,METHOD_2,METHOD_3,

JdbcTest,FOODMART_MODEL,CalciteAssert,Expression,Expressions,ExpressionType,Not,
IDENT_0,IDENT_1,IDENT_2,IDENT_3,IDENT_4,IDENT_5,IDENT_6,







"schemas:","/* comment */ schemas:","select count(*) as c from \"foodmart\".\"time_by_day\"","C=730\n",
STRING_0,STRING_1,STRING_2,STRING_3,

























