testDistinct,scan,distinct,joining,
METHOD_0,METHOD_1,METHOD_2,METHOD_3,

PigRelBuilder,PigRelBuilderTest,rel,RelNode,objects,Collectors,
IDENT_0,IDENT_1,IDENT_2,IDENT_3,IDENT_4,IDENT_5,







"EMP","DEPTNO","LogicalAggregate(group=[{0}])\n"," LogicalProject(DEPTNO=[$7])\n"," LogicalTableScan(table=[[scott, EMP]])\n",
STRING_0,STRING_1,STRING_2,STRING_3,STRING_4,

























