testFindPluginFeature,lookupFeature,gst_registry_lookup_feature,
METHOD_0,METHOD_1,METHOD_2,

freedesktop,gstreamer,PluginFeature,Registry,GSTREGISTRY_API,
IDENT_0,IDENT_1,IDENT_2,IDENT_3,IDENT_4,







"decodebin",
STRING_0,

























