testGroup,scan,groupKey,alias,joining,
METHOD_0,METHOD_1,METHOD_2,METHOD_3,METHOD_4,

PigRelBuilder,PigRelBuilderTest,rel,RelNode,objects,Collectors,
IDENT_0,IDENT_1,IDENT_2,IDENT_3,IDENT_4,IDENT_5,







"EMP","DEPTNO","JOB","e","LogicalAggregate(group=[{2, 7}], EMP=[COLLECT($8)])\n"," LogicalProject(EMPNO=[$0], ENAME=[$1], JOB=[$2], MGR=[$3], HIREDATE=[$4], SAL=[$5], COMM=[$6], DEPTNO=[$7], $f8=[ROW($0, $1, $2, $3, $4, $5, $6, $7)])\n"," LogicalTableScan(table=[[scott, EMP]])\n",
STRING_0,STRING_1,STRING_2,STRING_3,STRING_4,STRING_5,STRING_6,

























