getMinimumLatency,LatencyQuery,fromMillis,setLatency,
METHOD_0,METHOD_1,METHOD_2,METHOD_3,

gstreamer,LatencyQuery,ClockTime,MIN,SECONDS,
IDENT_0,IDENT_1,IDENT_2,IDENT_3,IDENT_4,

13000,
INT_0,




"Min latency not set",
STRING_0,




~,
OP_0,



















