getMaximumLatency,LatencyQuery,fromMillis,setLatency,
METHOD_0,METHOD_1,METHOD_2,METHOD_3,

gstreamer,LatencyQuery,ClockTime,MAX,ZERO,
IDENT_0,IDENT_1,IDENT_2,IDENT_3,IDENT_4,

123000,
INT_0,




"Min latency not set",
STRING_0,

























