testMethod,finish,TestAwait0,async,
METHOD_0,METHOD_1,METHOD_2,METHOD_3,

rice,pcdp,PCDP,await,acc0,acc1,acc2,acc3,
IDENT_0,IDENT_1,IDENT_2,IDENT_3,IDENT_4,IDENT_5,IDENT_6,IDENT_7,


































