getAttributeName,
METHOD_0,

namespace,QName,hajdbc,TriggerSupport,TriggerEventEnum,
IDENT_0,IDENT_1,IDENT_2,IDENT_3,IDENT_4,







"expected",
STRING_0,

























