nullQuery,processToModel,
METHOD_0,METHOD_1,

hal,ballroom,autocomplete,ReadChildrenResult,resultProcessor,compositeResult,
IDENT_0,IDENT_1,IDENT_2,IDENT_3,IDENT_4,IDENT_5,


































