testIp,Script,isSentToRawPubKey,equalsOpCode,
METHOD_0,METHOD_1,METHOD_2,METHOD_3,

spongycastle,encoders,Hex,litecoin,Script,ScriptTest,chunks,OP_CHECKSIG,isOpCode,
IDENT_0,IDENT_1,IDENT_2,IDENT_3,IDENT_4,IDENT_5,IDENT_6,IDENT_7,IDENT_8,







"41043e96222332ea7848323c08116dddafbfa917b8e37f0bdf63841628267148588a09a43540942d58d49717ad3fabfe14978cf4f0a8b84d2435dad16e9aa4d7f935ac",
STRING_0,

























