testPeerAddressRoundtrip,PeerAddress,prodNet,bytesToHexString,litecoinSerialize,
METHOD_0,METHOD_1,METHOD_2,METHOD_3,METHOD_4,

fromSpec,litecoin,PeerAddress,pa,NetworkParameters,spongycastle,encoders,Hex,reserialized,
IDENT_0,IDENT_1,IDENT_2,IDENT_3,IDENT_4,IDENT_5,IDENT_6,IDENT_7,IDENT_8,







"010000000000000000000000000000000000ffff0a000001208d",
STRING_0,

























