testGetStandardFont,Font,getStandardFont,
METHOD_0,METHOD_1,METHOD_2,

hansolo,steelseries,Util,Font,STANDARD_FONT,
IDENT_0,IDENT_1,IDENT_2,IDENT_3,IDENT_4,

24,
INT_0,




"getStandardFont","Verdana",
STRING_0,STRING_1,

























