chunkRemove,Parser,
METHOD_0,METHOD_1,

analyze,parsing,Parser,SequentialData,userData,chunkedData,
IDENT_0,IDENT_1,IDENT_2,IDENT_3,IDENT_4,IDENT_5,







"CHUNK PER 7 DAYS\nCHUNK REMOVE",
STRING_0,

























