testAdd,RecentFilesController,getFiles,
METHOD_0,METHOD_1,METHOD_2,

rfc,files,
IDENT_0,IDENT_1,







"src/test/resources/test1.xml",
STRING_0,

























