equalsTest,DataFieldBoolean,
METHOD_0,METHOD_1,

datafield,DataFieldBoolean,DataFieldDouble,DataFieldInt,
IDENT_0,IDENT_1,IDENT_2,IDENT_3,


































