getBooleanValueTest1,getBooleanValue,UnsupportedFormatException,
METHOD_0,METHOD_1,METHOD_2,










"Double cannot be converted to an boolean",
STRING_0,

























