notEqualTest,DataFieldDouble,
METHOD_0,METHOD_1,

datafield,DataFieldDouble,DataFieldInt,
IDENT_0,IDENT_1,IDENT_2,










4.0,
FLOAT_0,






















