testFlushAfterClose,makeObject,flush,
METHOD_0,METHOD_1,METHOD_2,

OutputStream,os,pByte,bytesWritten,
IDENT_0,IDENT_1,IDENT_2,IDENT_3,







"Inconsistent write/flush after close",
STRING_0,

























