testNotEmptyCharSequenceNullWithParameter,notEmpty,
METHOD_0,METHOD_1,

twelvemonkeys,Validate,CharSequence,
IDENT_0,IDENT_1,IDENT_2,







"xyzzy",
STRING_0,

























