testUnionAlias,scan,literal,union,hasTree,compose,toLinux,
METHOD_0,METHOD_1,METHOD_2,METHOD_3,METHOD_4,METHOD_5,METHOD_6,

RelBuilder,RelBuilderTest,rel,RelNode,SqlStdOperatorTable,CONCAT,Util,RelOptUtil,
IDENT_0,IDENT_1,IDENT_2,IDENT_3,IDENT_4,IDENT_5,IDENT_6,IDENT_7,







"EMP","e1","EMPNO","ENAME","-1","e2","-2","LogicalProject($f1=[$1], EMPNO=[$0])\n"," LogicalProject(EMPNO=[$0], $f1=[||($1, \'-1\')])\n",
STRING_0,STRING_1,STRING_2,STRING_3,STRING_4,STRING_5,STRING_6,STRING_7,STRING_8,

























