testNoNullValuesEmpty,emptyMap,noNullValues,
METHOD_0,METHOD_1,METHOD_2,

twelvemonkeys,Validate,pParameter,
IDENT_0,IDENT_1,IDENT_2,


































