testNoNullKeysEmptyParameter,noNullKeys,notNull,keySet,
METHOD_0,METHOD_1,METHOD_2,METHOD_3,

twelvemonkeys,Validate,pParameter,pParamName,K,UNSPECIFIED_PARAM_NAME,
IDENT_0,IDENT_1,IDENT_2,IDENT_3,IDENT_4,IDENT_5,







"%s may not contain null keys",
STRING_0,

























