generateMetrics,MetricsAdapter,getItemCount,
METHOD_0,METHOD_1,METHOD_2,

hawkular,Metric,MetricsAdapter,metricsAdapter,
IDENT_0,IDENT_1,IDENT_2,IDENT_3,


































