testInitInBuffer,FragmentBuilder,initInBuffer,isInBufferActive,collector,getRuleName,
METHOD_0,METHOD_1,METHOD_2,METHOD_3,METHOD_4,METHOD_5,

hawkular,apm,collector,FragmentBuilder,
IDENT_0,IDENT_1,IDENT_2,IDENT_3,


































