testCount,asEnumerable,getThis,
METHOD_0,METHOD_1,METHOD_2,

Linq4j,Linq4jTest,depts,EnumerableDefaults,
IDENT_0,IDENT_1,IDENT_2,IDENT_3,


































