testJoinCartesianProduct,asEnumerable,getThis,
METHOD_0,METHOD_1,METHOD_2,

Linq4j,Linq4jTest,emps,Department,depts,Function1,ONE_SELECTOR,Function2,PAIR_SELECTOR,EnumerableDefaults,
IDENT_0,IDENT_1,IDENT_2,IDENT_3,IDENT_4,IDENT_5,IDENT_6,IDENT_7,IDENT_8,IDENT_9,


































