testGetOne,Span,storeOne,getOne,
METHOD_0,METHOD_1,METHOD_2,METHOD_3,

hawkular,apm,zipkin,Span,span,spanCache,SpanCache,
IDENT_0,IDENT_1,IDENT_2,IDENT_3,IDENT_4,IDENT_5,IDENT_6,







"parent","id2",
STRING_0,STRING_1,

























