when_unequalTuples_thenEqualsFalse,tuple2,
METHOD_0,METHOD_1,

hazelcast,jet,Tuple2,t_b,ReadHdfsP,IndexedInputSplit,Objects,
IDENT_0,IDENT_1,IDENT_2,IDENT_3,IDENT_4,IDENT_5,IDENT_6,







"xb",
STRING_0,

























