testGetWorkerAddress,getWorkerAddress,fromString,
METHOD_0,METHOD_1,METHOD_2,

workerAddress,hazelcast,simulator,SimulatorAddress,
IDENT_0,IDENT_1,IDENT_2,IDENT_3,


































