agentAddresses,WorkerData,newParameters,WorkerQuery,setAgentAddresses,
METHOD_0,METHOD_1,METHOD_2,METHOD_3,METHOD_4,

hazelcast,simulator,coordinator,agent1,agent2,
IDENT_0,IDENT_1,IDENT_2,IDENT_3,IDENT_4,







"javaclient","maven=3.6","member","maven=3.7","litemember","maven=3.8",
STRING_0,STRING_1,STRING_2,STRING_3,STRING_4,STRING_5,

























