testGetSimulatorPath,getSimulatorPath,getJarDir,getParentFile,
METHOD_0,METHOD_1,METHOD_2,METHOD_3,

simulatorPath,hazelcast,simulator,wizard,WizardUtils,
IDENT_0,IDENT_1,IDENT_2,IDENT_3,IDENT_4,


































