findOneByFirstname,setFirstname,
METHOD_0,METHOD_1,

firstname,personRepository,Future,
IDENT_0,IDENT_1,IDENT_2,







"Porter","porterId",
STRING_0,STRING_1,

























