shouldApplyFlatMapToAllItems,flatMap,flatMapTo,
METHOD_0,METHOD_1,METHOD_2,

Function,Iterable,B,bs,pitest,functional,FCollection,
IDENT_0,IDENT_1,IDENT_2,IDENT_3,IDENT_4,IDENT_5,IDENT_6,


































