assertSingleton,CouchDbEndpoint,CouchDbComponent,isSingleton,
METHOD_0,METHOD_1,METHOD_2,METHOD_3,

couchdb,CouchDbEndpoint,endpoint,
IDENT_0,IDENT_1,IDENT_2,







"couchdb:http://localhost/db","http://localhost/db",
STRING_0,STRING_1,

























