testParseCount,Reddit,parseCount,compile,getInt,
METHOD_0,METHOD_1,METHOD_2,METHOD_3,METHOD_4,

headissue,sharecount,ShareCountProvider,Pattern,Matcher,
IDENT_0,IDENT_1,IDENT_2,IDENT_3,IDENT_4,







"{\"kind\": \"Listing\", \"data\": {\"modhash\": \"\", \"children\": [1,2,3], \"after\": null, \"before\": null}}","\\{.*\\}","count",
STRING_0,STRING_1,STRING_2,

























