testDescribeRing,describeRing,
METHOD_0,METHOD_1,

thrift,TokenRange,ring,cassandraCluster,
IDENT_0,IDENT_1,IDENT_2,IDENT_3,







"Keyspace1",
STRING_0,

























