test_empty_result_from_reduced_view,success,
METHOD_0,METHOD_1,

ektorp,EmbeddedDocViewResponseHandlerTest,TestDoc,ResponseOnFileStub,
IDENT_0,IDENT_1,IDENT_2,IDENT_3,

202,
INT_0,




"empty_reduced_view_result.json",
STRING_0,

























