null_revision_should_be_considered_new,setRevision,isNew,getRevision,
METHOD_0,METHOD_1,METHOD_2,METHOD_3,

testDoc_1,ektorp,Documents,
IDENT_0,IDENT_1,IDENT_2,


































