listAll,findAll,print,
METHOD_0,METHOD_1,METHOD_2,

hhc,sample,fullstackspringhibernate,Student,studentDao,student,
IDENT_0,IDENT_1,IDENT_2,IDENT_3,IDENT_4,IDENT_5,


































