testClear,addItem,clear,getSize,
METHOD_0,METHOD_1,METHOD_2,METHOD_3,

swing,DnDListModel,
IDENT_0,IDENT_1,







"one","two",
STRING_0,STRING_1,

























