testSearchByDate,findMessageByTime,getDate,getDefault,
METHOD_0,METHOD_1,METHOD_2,METHOD_3,

demo,post,aug1990mar1991,messageRepo,AUGUST,MARCH,genMar1991,JANUARY,cal,TimeZone,year,month,
IDENT_0,IDENT_1,IDENT_2,IDENT_3,IDENT_4,IDENT_5,IDENT_6,IDENT_7,IDENT_8,IDENT_9,IDENT_10,IDENT_11,

1990,1991,
INT_0,INT_1,




"Wrong message list. Expected 2. Actual {}",
STRING_0,

























