testClusterCenterEqualsPoints,DoublePoint,
METHOD_0,METHOD_1,

clustering,DoublePoint,points,FuzzyKMeansClusterer,transformer,CentroidCluster,clusters,
IDENT_0,IDENT_1,IDENT_2,IDENT_3,IDENT_4,IDENT_5,IDENT_6,










1.00001,
FLOAT_0,






















