testRunTimeClass,DSFactory,constant,getField,getRuntimeClass,
METHOD_0,METHOD_1,METHOD_2,METHOD_3,METHOD_4,

differentiation,DerivativeStructure,fraction,BigFraction,
IDENT_0,IDENT_1,IDENT_2,IDENT_3,


































