testSimpleNoDecimals,Complex,FieldPosition,
METHOD_0,METHOD_1,METHOD_2,

complex,Complex,complexFormat,Vector,vector,
IDENT_0,IDENT_1,IDENT_2,IDENT_3,IDENT_4,







"1 + 2i",
STRING_0,

























