testDifferentImaginaryChar,Complex,FieldPosition,
METHOD_0,METHOD_1,METHOD_2,

complex,Complex,complexFormatJ,Vector,vector,
IDENT_0,IDENT_1,IDENT_2,IDENT_3,IDENT_4,







"1 + j",
STRING_0,

























