testParseNegativeBoth,getDecimalCharacter,Complex,ParsePosition,getIndex,MathIllegalStateException,getErrorIndex,
METHOD_0,METHOD_1,METHOD_2,METHOD_3,METHOD_4,METHOD_5,METHOD_6,

complex,Complex,complexFormat,ParsePosition,parsePosition,euclidean,twod,Vector2D,LocalizedCoreFormats,CANNOT_PARSE_AS_TYPE,
IDENT_0,IDENT_1,IDENT_2,IDENT_3,IDENT_4,IDENT_5,IDENT_6,IDENT_7,IDENT_8,IDENT_9,







"-1","232323232323 - 1","434343434343i",
STRING_0,STRING_1,STRING_2,

1.232323232323,1.434343434343,
FLOAT_0,FLOAT_1,






















