testEqualsTrue,Complex,
METHOD_0,METHOD_1,

complex,Complex,stat,fitting,MultivariateNormalMixtureExpectationMaximization,DataRow,MathArrays,
IDENT_0,IDENT_1,IDENT_2,IDENT_3,IDENT_4,IDENT_5,IDENT_6,










3.0,4.0,
FLOAT_0,FLOAT_1,






















