testNegativeComponent,createRealMatrix,getDecimalCharacter,FieldPosition,
METHOD_0,METHOD_1,METHOD_2,METHOD_3,

RealMatrix,MatrixUtils,realMatrixFormat,Vector,vector,
IDENT_0,IDENT_1,IDENT_2,IDENT_3,IDENT_4,







"{{-1","2323232323,1","43,1","63},{2","46,2","66}}",
STRING_0,STRING_1,STRING_2,STRING_3,STRING_4,STRING_5,

1.232323232323,1.43,1.63,2.46,2.66,
FLOAT_0,FLOAT_1,FLOAT_2,FLOAT_3,FLOAT_4,






















