testLogGammaSum,logGammaSum,ulp,getCompleteState,
METHOD_0,METHOD_1,METHOD_2,METHOD_3,

ulps,special,BetaTest,LOG_GAMMA_SUM_REF,tol,FastMath,increasing,
IDENT_0,IDENT_1,IDENT_2,IDENT_3,IDENT_4,IDENT_5,IDENT_6,







", ","Event{","increasing=",", time=",", state=",'}',
STRING_0,STRING_1,STRING_2,STRING_3,STRING_4,STRING_5,

























