testDefaultFormatVector1D,getDefault,setDefault,getLocale,Vector1D,getDecimalCharacter,Vector1DFormat,
METHOD_0,METHOD_1,METHOD_2,METHOD_3,METHOD_4,METHOD_5,METHOD_6,

defaultLocal,euclidean,oned,Vector1D,
IDENT_0,IDENT_1,IDENT_2,IDENT_3,







"{232","2222222222}","Double.NaN,","+","d,",
STRING_0,STRING_1,STRING_2,STRING_3,STRING_4,

232.22222222222,
FLOAT_0,






















