testParseNegativeAll,getDecimalCharacter,Vector3D,ParsePosition,getIndex,MathIllegalStateException,getErrorIndex,
METHOD_0,METHOD_1,METHOD_2,METHOD_3,METHOD_4,METHOD_5,METHOD_6,

euclidean,threed,Vector3D,vector3DFormat,ParsePosition,parsePosition,twod,Vector2D,LocalizedCoreFormats,CANNOT_PARSE_AS_TYPE,
IDENT_0,IDENT_1,IDENT_2,IDENT_3,IDENT_4,IDENT_5,IDENT_6,IDENT_7,IDENT_8,IDENT_9,







"{-1","2323; -1","4343; -1","6333}",
STRING_0,STRING_1,STRING_2,STRING_3,

1.2323,1.4343,1.6333,
FLOAT_0,FLOAT_1,FLOAT_2,






















