test20090720,DescriptiveStatistics,addValue,clear,getN,
METHOD_0,METHOD_1,METHOD_2,METHOD_3,METHOD_4,

stat,descriptive,DescriptiveStatistics,descriptiveStatistics,points,
IDENT_0,IDENT_1,IDENT_2,IDENT_3,IDENT_4,

161,
INT_0,







1.2,
FLOAT_0,






















