testToStringHumanWithQuota,fileAndDirectoryCount,quota,spaceConsumed,spaceQuota,getSimpleName,byteArray2PathString,
METHOD_0,METHOD_1,METHOD_2,METHOD_3,METHOD_4,METHOD_5,METHOD_6,

fileAndDirCount,quota,spaceConsumed,spaceQuota,QuotaUsage,quotaUsage,vaildateObject,DFSUtil,inodes,namenode,INodesInPath,
IDENT_0,IDENT_1,IDENT_2,IDENT_3,IDENT_4,IDENT_5,IDENT_6,IDENT_7,IDENT_8,IDENT_9,IDENT_10,

222255555,222256578,1073741825,
INT_0,INT_1,INT_2,




" 212.0 M 1023 1 "," -1 G ",": path = ","\n inodes = ","null","[]","[",", ","], length=",
STRING_0,STRING_1,STRING_2,STRING_3,STRING_4,STRING_5,STRING_6,STRING_7,STRING_8,

























