testTwoByteTextFil,readUsingTextCommand,
METHOD_0,METHOD_1,

twoByteContents,TestTextCommand,TEXT_FILENAME,timeline,TimelineEvent,timestamp,eventType,eventInfo,
IDENT_0,IDENT_1,IDENT_2,IDENT_3,IDENT_4,IDENT_5,IDENT_6,IDENT_7,







'x','y',
STRING_0,STRING_1,

























