getterShouldReturnTheSetValues,SmppConfiguration,setConfiguration,getConfiguration,
METHOD_0,METHOD_1,METHOD_2,METHOD_3,

smpp,SmppConfiguration,
IDENT_0,IDENT_1,


































