testCommandLine,fullyDelete,getAbsoluteFile,createInput,StreamJob,genArgs,go,slurp,
METHOD_0,METHOD_1,METHOD_2,METHOD_3,METHOD_4,METHOD_5,METHOD_6,METHOD_7,

FileUtil,OUTPUT_DIR,mayExit,outFile,StreamUtil,outputExpect,INPUT_FILE,
IDENT_0,IDENT_1,IDENT_2,IDENT_3,IDENT_4,IDENT_5,IDENT_6,







"part-00000","outEx1="," out1=",
STRING_0,STRING_1,STRING_2,

























