testList_NonexistentNameSpace_StorageException,getStorageManager,
METHOD_0,METHOD_1,

hortonworks,registries,Storable,storageMap,namespace,
IDENT_0,IDENT_1,IDENT_2,IDENT_3,IDENT_4,







"NONEXISTENT_NAME_SPACE",
STRING_0,

























