checkDifferent,newEventId,
METHOD_0,METHOD_1,

id1,EventIdFactory,DEFAULT,id2,hotels,bdp,circustrain,comparator,BaseDiff,Objects,left,right,
IDENT_0,IDENT_1,IDENT_2,IDENT_3,IDENT_4,IDENT_5,IDENT_6,IDENT_7,IDENT_8,IDENT_9,IDENT_10,IDENT_11,







"X",
STRING_0,

























