testCreateContext,createContext,getConnectors,
METHOD_0,METHOD_1,METHOD_2,

jetty,ServletContextHandler,websocket,WebsocketComponent,CONNECTORS,
IDENT_0,IDENT_1,IDENT_2,IDENT_3,IDENT_4,


































