isReadable,CommonVFSResource,
METHOD_0,METHOD_1,

hotels,bdp,waggledance,spring,testResource,
IDENT_0,IDENT_1,IDENT_2,IDENT_3,IDENT_4,


































