testConvertFalse,
METHOD_0,

underTest,Size,TINY,NORMAL,HUGE,
IDENT_0,IDENT_1,IDENT_2,IDENT_3,IDENT_4,







"false","S","M","L",
STRING_0,STRING_1,STRING_2,STRING_3,

























