testConvertEmpty,TestableDateConverter,
METHOD_0,METHOD_1,

underTest,pehl,piriti,Size,TINY,NORMAL,HUGE,
IDENT_0,IDENT_1,IDENT_2,IDENT_3,IDENT_4,IDENT_5,IDENT_6,







"S","M","L",
STRING_0,STRING_1,STRING_2,

























