testDbRoundtrip,clear,Algorithm,retrieve,
METHOD_0,METHOD_1,METHOD_2,METHOD_3,

metanome,results_db,HibernateUtil,Algorithm,expectedAlgorithm,actualAlgorithm,
IDENT_0,IDENT_1,IDENT_2,IDENT_3,IDENT_4,IDENT_5,







"example_ind_algorithm.jar",
STRING_0,

























