testGetResourcesIsSaveCopy,addResource,getSingletons,removeResource,
METHOD_0,METHOD_1,METHOD_2,METHOD_3,

resource1,resource2,
IDENT_0,IDENT_1,


































