testFind,mockServiceReference,getService,
METHOD_0,METHOD_1,METHOD_2,

serviceReference,publisher,ServiceContainer,ServiceHolder,holder,
IDENT_0,IDENT_1,IDENT_2,IDENT_3,IDENT_4,


































