testHeadersEquals,Headers,
METHOD_0,METHOD_1,

codehaus,httpcache4j,Headers,h,HeaderConstants,ACCEPT,AGE,h2,
IDENT_0,IDENT_1,IDENT_2,IDENT_3,IDENT_4,IDENT_5,IDENT_6,IDENT_7,







"application/xhtml","Foo","Bar","23",
STRING_0,STRING_1,STRING_2,STRING_3,

























