makeSureWeCanParseToString,Headers,MutableHeaders,toHeaders,
METHOD_0,METHOD_1,METHOD_2,METHOD_3,

codehaus,httpcache4j,Headers,h,HeaderConstants,AGE,ACCEPT,h2,MutableHeaders,Header,
IDENT_0,IDENT_1,IDENT_2,IDENT_3,IDENT_4,IDENT_5,IDENT_6,IDENT_7,IDENT_8,IDENT_9,







"Foo","Bar","23","application/xhtml","\r\n",
STRING_0,STRING_1,STRING_2,STRING_3,STRING_4,

























