testAggregateDistinctValueFilter,AggregateDistinctValueFilter,
METHOD_0,METHOD_1,

agg,huawei,aggregator,SupportHelper,
IDENT_0,IDENT_1,IDENT_2,IDENT_3,


































