testTimeSlideWindow,TimeSlideWindow,
METHOD_0,METHOD_1,

myView,huawei,window,TimeSlideWindowTest,SILDE_INTERVAL,SupportHelper,
IDENT_0,IDENT_1,IDENT_2,IDENT_3,IDENT_4,IDENT_5,


































