withAllFeasibleCells,findPath,Point,
METHOD_0,METHOD_1,METHOD_2,

recursivedp,rows,cols,Point,failed,
IDENT_0,IDENT_1,IDENT_2,IDENT_3,IDENT_4,


































