withOneElement,BinaryTreeNode,LinkedList,dfs,
METHOD_0,METHOD_1,METHOD_2,METHOD_3,

treegraph,LinkedList,linkedLists,
IDENT_0,IDENT_1,IDENT_2,


































