withOneNode,findInOrderSuccessor,leftMost,ParentAwareBinaryTreeNode,
METHOD_0,METHOD_1,METHOD_2,METHOD_3,

treegraph,ParentAwareBinaryTreeNode,right,left,
IDENT_0,IDENT_1,IDENT_2,IDENT_3,


































