testPush2BuyOrder,push,createLOBuy,getLastMatches,
METHOD_0,METHOD_1,METHOD_2,METHOD_3,

sm,vn,vndirect,exchangesimulator,matching,OrderFactory,ExecutionReport,rps,
IDENT_0,IDENT_1,IDENT_2,IDENT_3,IDENT_4,IDENT_5,IDENT_6,IDENT_7,

16000,
INT_0,































