testNoObjectForPK,createOneArtist,objectForPK,buildId,
METHOD_0,METHOD_1,METHOD_2,METHOD_3,

cayenne,Cayenne,testdo,testmap,Artist,ObjectContext,dataObjectClass,pk,
IDENT_0,IDENT_1,IDENT_2,IDENT_3,IDENT_4,IDENT_5,IDENT_6,IDENT_7,

44001,
INT_0,































