testNewWorkspace,createWorkspace,getCurrentWorkspace,
METHOD_0,METHOD_1,METHOD_2,

workspaceController,currentWorkspace,
IDENT_0,IDENT_1,







"JUnitTestWorkspace",
STRING_0,

























