test_loadProperties_oneFile_allowMulti,loadProperties,rehash,
METHOD_0,METHOD_1,METHOD_2,

ConfigUtils,IntHashMap,tab,old,threshold,
IDENT_0,IDENT_1,IDENT_2,IDENT_3,IDENT_4,

2147483647,
INT_0,




"properties.load","12","34","c","56",
STRING_0,STRING_1,STRING_2,STRING_3,STRING_4,




%,
OP_0,



















