testRevertRegister2,revertRegister,rehash,
METHOD_0,METHOD_1,METHOD_2,

register,newRegister,UrlUtils,expectedRegister,IntHashMap,tab,old,threshold,
IDENT_0,IDENT_1,IDENT_2,IDENT_3,IDENT_4,IDENT_5,IDENT_6,IDENT_7,

2147483647,
INT_0,




"dubbo.test.api.HelloService","dubbo://127.0.0.1:20880/com.xxx.XxxService",
STRING_0,STRING_1,




%,
OP_0,



















