testGroupByFlattenedRelationship,createFt123,EJBQLQuery,performQuery,
METHOD_0,METHOD_1,METHOD_2,METHOD_3,

ejbql,cayenne,EJBQLQuery,objects,neighbors,
IDENT_0,IDENT_1,IDENT_2,IDENT_3,IDENT_4,







"SELECT COUNT(ft3), ft3.toFT1 FROM FlattenedTest3 ft3 GROUP BY ft3.toFT1 ",
STRING_0,

























