testGroupByIdVariable,createFivePaintings,EJBQLQuery,performQuery,
METHOD_0,METHOD_1,METHOD_2,METHOD_3,

ejbql,cayenne,EJBQLQuery,neighbors,
IDENT_0,IDENT_1,IDENT_2,IDENT_3,







"SELECT count(p), p FROM Painting p GROUP BY p",
STRING_0,

























