testIsNull3,JsonStringReader,isNull,mark,readAndSkipBlank,reset,isEndFlag,
METHOD_0,METHOD_1,METHOD_2,METHOD_3,METHOD_4,METHOD_5,METHOD_6,

firefly,JsonReader,limit,
IDENT_0,IDENT_1,IDENT_2,

1024,
INT_0,




" nul",'n','u','l',
STRING_0,STRING_1,STRING_2,STRING_3,




--,
OP_0,



















