ordinal,mapToObj,arraycopy,
METHOD_0,METHOD_1,METHOD_2,

states,TestViterbi,Weather,RAINY,SUNNY,observations,Activity,WALK,SHOP,CLEAN,startProb,transProb,emitProb,firefly,Viterbi,hiddenStates,Collectors,obs,newPath,prob,y0,newProb,
IDENT_0,IDENT_1,IDENT_2,IDENT_3,IDENT_4,IDENT_5,IDENT_6,IDENT_7,IDENT_8,IDENT_9,IDENT_10,IDENT_11,IDENT_12,IDENT_13,IDENT_14,IDENT_15,IDENT_16,IDENT_17,IDENT_18,IDENT_19,IDENT_20,IDENT_21,










0.6,0.4,0.7,0.3,0.1,0.5,
FLOAT_0,FLOAT_1,FLOAT_2,FLOAT_3,FLOAT_4,FLOAT_5,






















