testNewChannel,newChannel,
METHOD_0,METHOD_1,

hyperledger,fabric,Channel,testChannel,ClientTest,hfclient,CHANNEL_NAME,
IDENT_0,IDENT_1,IDENT_2,IDENT_3,IDENT_4,IDENT_5,IDENT_6,







"Unexpected Exception ",
STRING_0,

























