testSetParent,Cf,setParent,getParent,
METHOD_0,METHOD_1,METHOD_2,METHOD_3,

pb,x12,Cf,cf1,cf2,
IDENT_0,IDENT_1,IDENT_2,IDENT_3,IDENT_4,







"ST","1000A","NM1","41",
STRING_0,STRING_1,STRING_2,STRING_3,

























