testSetSegmentIntString,X12Simple,addSegment,setSegment,getSegment,
METHOD_0,METHOD_1,METHOD_2,METHOD_3,METHOD_4,

pb,x12,X12Simple,segments,
IDENT_0,IDENT_1,IDENT_2,IDENT_3,







'~','*',':',"ISA*ISA01*ISA02*ISA03","ST*ST01*ST02*ST03","GS*GS01*GS02*GS03",
STRING_0,STRING_1,STRING_2,STRING_3,STRING_4,STRING_5,

























