testConvert,abs,
METHOD_0,METHOD_1,

num,numbers,NumberToWordsConverter,MAX,hun,ten,tens,lowNums,
IDENT_0,IDENT_1,IDENT_2,IDENT_3,IDENT_4,IDENT_5,IDENT_6,IDENT_7,







"minus "," hundred",
STRING_0,STRING_1,




%,
OP_0,



















