testIsEncodingVideo,isEncodingVideo,
METHOD_0,METHOD_1,

bixly,pastevid,screencap,RecorderPanelTest,isProcessingVideo,
IDENT_0,IDENT_1,IDENT_2,IDENT_3,IDENT_4,







"isEncodingVideo",
STRING_0,

























