testConvert,JobType,setAbbrName,JobTypeResource,AdminUnitResource,
METHOD_0,METHOD_1,METHOD_2,METHOD_3,METHOD_4,

abbrName,JobType,JobTypeResource,AdminUnit,adminunit,
IDENT_0,IDENT_1,IDENT_2,IDENT_3,IDENT_4,







"Lightman","Lman",
STRING_0,STRING_1,

























