testLabel,ColumnDescriptor,setDataRowKey,getDataRowKey,
METHOD_0,METHOD_1,METHOD_2,METHOD_3,

cayenne,access,ColumnDescriptor,dataRowKey,
IDENT_0,IDENT_1,IDENT_2,IDENT_3,







"abc",
STRING_0,

























