testSetRootInfoDbEntity,DataMap,DbEntity,addDbEntity,setRoot,getRoot,
METHOD_0,METHOD_1,METHOD_2,METHOD_3,METHOD_4,METHOD_5,

cayenne,DataMap,DbEntity,QueryDescriptor,DB_ENTITY_ROOT,
IDENT_0,IDENT_1,IDENT_2,IDENT_3,IDENT_4,







"map","DB1",
STRING_0,STRING_1,

























