testPeek,TestObj,push,peek,elementAt,
METHOD_0,METHOD_1,METHOD_2,METHOD_3,METHOD_4,

bixly,pastevid,structs,QueueTest,TestObj,vector,
IDENT_0,IDENT_1,IDENT_2,IDENT_3,IDENT_4,IDENT_5,







"peek","Dellaramo",
STRING_0,STRING_1,

























