test1,makeGeOxygene,clf,plot,holdon,setWeight,axisSquare,
METHOD_0,METHOD_1,METHOD_2,METHOD_3,METHOD_4,METHOD_5,METHOD_6,

wkt,ign,cogit,geoxygene,spatial,coordgeom,GM_Polygon,poly,conversion,WktGeOxygene,ParseException,contrib,algorithms,Matlab,Equarissage,poly_out,
IDENT_0,IDENT_1,IDENT_2,IDENT_3,IDENT_4,IDENT_5,IDENT_6,IDENT_7,IDENT_8,IDENT_9,IDENT_10,IDENT_11,IDENT_12,IDENT_13,IDENT_14,IDENT_15,







"0.703125 73.58810386080637,","8.4375 -10.971390694675893,","129.375 -10.28032720607631,","129.375 46.21937355921822,","88.2421875 62.365920983566596,","130.78125 73.08407648774843,","0.3515625 19.841128871326855,","-70.3125 59.46294364366465))","r","g","axis('square');",
STRING_0,STRING_1,STRING_2,STRING_3,STRING_4,STRING_5,STRING_6,STRING_7,STRING_8,STRING_9,STRING_10,

























