testCaseInsensitive4,Ordering,isCaseInsensitive,isCaseSensitive,
METHOD_0,METHOD_1,METHOD_2,METHOD_3,

cayenne,Ordering,ord,SortOrder,ASCENDING,
IDENT_0,IDENT_1,IDENT_2,IDENT_3,IDENT_4,







"N",
STRING_0,

























