testGetDescription,setDescription,getDescription,elementTextTrim,
METHOD_0,METHOD_1,METHOD_2,METHOD_3,










"a description","desc",
STRING_0,STRING_1,

























