testSetGetUpdateServerPath,setUpdateServerPath,getUpdateServerPath,getUpdateSettings,
METHOD_0,METHOD_1,METHOD_2,METHOD_3,

classUnderTest,
IDENT_0,


































