testGetQualifier,replayAll,setQualifier,getQualifier,
METHOD_0,METHOD_1,METHOD_2,METHOD_3,

mockHelper,classUnderTest,qualifier,
IDENT_0,IDENT_1,IDENT_2,







"aTestString",
STRING_0,

























