testGetColumnClassInt,getColumnCount,getColumnClass,forName,getClassName,
METHOD_0,METHOD_1,METHOD_2,METHOD_3,METHOD_4,

classUnderTest,_colDefs,col,
IDENT_0,IDENT_1,IDENT_2,


































