fromString,getGrammar,IguanaParser,getParserTree,
METHOD_0,METHOD_1,METHOD_2,METHOD_3,

iguana,Input,grammar,Grammar,LayoutTest3,IguanaParser,parsetree,ParseTreeNode,ParseOptions,
IDENT_0,IDENT_1,IDENT_2,IDENT_3,IDENT_4,IDENT_5,IDENT_6,IDENT_7,IDENT_8,







"a b b b b c",
STRING_0,

























