testMsgSendSummaryWeekly,msgSendSummaryWeekly,loadAccessToken,
METHOD_0,METHOD_1,METHOD_2,

hao0,wechat,MsgSendSummary,summaries,accessToken,summary,Callback,startDate,endDate,
IDENT_0,IDENT_1,IDENT_2,IDENT_3,IDENT_4,IDENT_5,IDENT_6,IDENT_7,IDENT_8,







"2015-10-01","2015-10-30",
STRING_0,STRING_1,

























