testMultiLevel,buildElements,
METHOD_0,METHOD_1,

hao0,wechat,XmlWriters,xmlWriters,
IDENT_0,IDENT_1,IDENT_2,IDENT_3,







"ToUserName","123456","FromUserName","me","CreateTime","TransInfo","KfAccount","test1@test","MsgType","transfer_customer_service",
STRING_0,STRING_1,STRING_2,STRING_3,STRING_4,STRING_5,STRING_6,STRING_7,STRING_8,STRING_9,

























