testMsgSendSummaryByHour,msgSendSummaryHourly,loadAccessToken,
METHOD_0,METHOD_1,METHOD_2,

hao0,wechat,MsgSendSummaryHour,summaries,accessToken,Callback,
IDENT_0,IDENT_1,IDENT_2,IDENT_3,IDENT_4,IDENT_5,







"2015-11-19",
STRING_0,

























