test_get_all_configuration_service_clients_success,getAllConfigurationServiceClients,
METHOD_0,METHOD_1,

ikasan,ConfigurationServiceClient,xaMappingManagementService,
IDENT_0,IDENT_1,IDENT_2,

15000,
INT_0,




"Size! ",
STRING_0,

























