test_get_all_policies,getAllPolicies,
METHOD_0,METHOD_1,

ikasan,Policy,policies,xaSecurityDao,
IDENT_0,IDENT_1,IDENT_2,IDENT_3,

15000,
INT_0,




"Size! ",
STRING_0,

























