testCopyTo,generateTempFile,copyTo,appendBinary,
METHOD_0,METHOD_1,METHOD_2,METHOD_3,

bixly,pastevid,FileUtilTest,SAMPLE_MP4,FileUtil,
IDENT_0,IDENT_1,IDENT_2,IDENT_3,IDENT_4,







"copyTo","Please provide a sample MP4 vidoe for testing","FADD ",
STRING_0,STRING_1,STRING_2,

























