copyLabelingWithoutOutputTest,getLabels,setPosition,
METHOD_0,METHOD_1,METHOD_2,

imglib2,roi,labeling,LabelingMapping,ops,imagej,copy,CopyLabelingMapping,outIt,access,dim,
IDENT_0,IDENT_1,IDENT_2,IDENT_3,IDENT_4,IDENT_5,IDENT_6,IDENT_7,IDENT_8,IDENT_9,IDENT_10,


































