testMinWithLongs,
METHOD_0,

interval,bins,tailBins,NEGATIVE_INFINITY,maxVal,minVal,
IDENT_0,IDENT_1,IDENT_2,IDENT_3,IDENT_4,IDENT_5,







"invalid bin position specified",
STRING_0,

























