testNumDimensions,Point,numDimensions,
METHOD_0,METHOD_1,METHOD_2,

initial,imglib2,Point,sourceInterval,
IDENT_0,IDENT_1,IDENT_2,IDENT_3,

532,632,987421,
INT_0,INT_1,INT_2,































