testLocalizeLongArray,Point,localize,getLongPosition,
METHOD_0,METHOD_1,METHOD_2,METHOD_3,

initial,imglib2,Point,
IDENT_0,IDENT_1,IDENT_2,

532,632,987421,
INT_0,INT_1,INT_2,































