testAttribute,DbAttribute,AttributeEvent,setAttribute,getAttribute,
METHOD_0,METHOD_1,METHOD_2,METHOD_3,METHOD_4,

src,cayenne,Attribute,AttributeEvent,attribute,
IDENT_0,IDENT_1,IDENT_2,IDENT_3,IDENT_4,







"xyz",
STRING_0,

























