testDataMap,DataMap,DataMapEvent,setDataMap,getDataMap,
METHOD_0,METHOD_1,METHOD_2,METHOD_3,METHOD_4,

src,cayenne,DataMap,DataMapEvent,
IDENT_0,IDENT_1,IDENT_2,IDENT_3,







"abc",
STRING_0,

























