testUnsignedVariableBits7,unsignedVariableBitLengths,getCurrentStorageArray,
METHOD_0,METHOD_1,METHOD_2,

imglib2,img,ArrayImg,numeric,integer,UnsignedVariableBitLengthType,basictypeaccess,LongArray,ArrayImgs,previous,current,
IDENT_0,IDENT_1,IDENT_2,IDENT_3,IDENT_4,IDENT_5,IDENT_6,IDENT_7,IDENT_8,IDENT_9,IDENT_10,

128,5240971258541063935L,7681024881548141612L,54024305571931L,
INT_0,INT_1,INT_2,INT_3,










%,
OP_0,



















