testGetAndSetBigInteger,zero,toBigInteger,getMaxValue,setBigInteger,getBigInteger,
METHOD_0,METHOD_1,METHOD_2,METHOD_3,METHOD_4,METHOD_5,

ONE,ZERO,
IDENT_0,IDENT_1,










0.9,
FLOAT_0,






















