testDivByZero,ShortType,div,mul,getDoublePosition,numDimensions,
METHOD_0,METHOD_1,METHOD_2,METHOD_3,METHOD_4,METHOD_5,

imglib2,numeric,integer,ShortType,
IDENT_0,IDENT_1,IDENT_2,IDENT_3,

17,
INT_0,































