testSetRealDouble,zero,setReal,doubleValue,getRealDouble,unsignedLongToDouble,
METHOD_0,METHOD_1,METHOD_2,METHOD_3,METHOD_4,METHOD_5,

variable,imglib2,numeric,integer,UnsignedLongType,
IDENT_0,IDENT_1,IDENT_2,IDENT_3,IDENT_4,


































