testAsLongArray,Point,asLongArray,numDimensions,localize,
METHOD_0,METHOD_1,METHOD_2,METHOD_3,METHOD_4,

imglib2,Localizable,Localizables,localizable,
IDENT_0,IDENT_1,IDENT_2,IDENT_3,


































