testValidate_2,compile,
METHOD_0,METHOD_1,

ip,impetus,ankush,IPAddressValidator,Pattern,IPADDRESS_PATTERN,
IDENT_0,IDENT_1,IDENT_2,IDENT_3,IDENT_4,IDENT_5,


































