testWarningsAreCleared,createStatement,executeQuery,getWarnings,
METHOD_0,METHOD_1,METHOD_2,METHOD_3,

Statement,con,delegator,
IDENT_0,IDENT_1,IDENT_2,







"CREATE TEMP TABLE unused (a int primary key)","SELECT 1",
STRING_0,STRING_1,

























