testSetLocalTimeWithoutType,insertThenReadWithoutType,
METHOD_0,METHOD_1,

LocalTime,Time,impossibl,postgres,PGType,pgType,oid,
IDENT_0,IDENT_1,IDENT_2,IDENT_3,IDENT_4,IDENT_5,IDENT_6,







"16:21:51","time_without_time_zone_column","PostgreSQL Type:"," is not a valid PGType value.",
STRING_0,STRING_1,STRING_2,STRING_3,

























