testParentsOfSea,setCurrentRequestId,getParentEdOrgs,
METHOD_0,METHOD_1,METHOD_2,

RequestUtil,edorgs,sea1,
IDENT_0,IDENT_1,IDENT_2,


































