testUnzip_String,unzip,
METHOD_0,METHOD_1,

SAMPLE_ZIP,bixly,pastevid,LibraryUtil,
IDENT_0,IDENT_1,IDENT_2,IDENT_3,







"unzip","This test requires a sample zip file. Just compress/zip a few zip files",
STRING_0,STRING_1,

























