getBulkExtractAppsTest,findAll,NeutralQuery,buildAppEntity,getBulkExtractApps,removeAll,
METHOD_0,METHOD_1,METHOD_2,METHOD_3,METHOD_4,METHOD_5,

bulkExtractApps,
IDENT_0,







"application","3","4","5",
STRING_0,STRING_1,STRING_2,STRING_3,

























