testMain,main,
METHOD_0,METHOD_1,

modeling,docgen,DocGenTest,OUTPUT_DIRECTORY,OUTPUT_FILENAME,DocGen,DOC_GEN_TEST_MAIN_ARGS,
IDENT_0,IDENT_1,IDENT_2,IDENT_3,IDENT_4,IDENT_5,IDENT_6,


































