testMain,main,
METHOD_0,METHOD_1,

inputFilename,outputFilename,modeling,wadl2Doc,Wadl2Doc,
IDENT_0,IDENT_1,IDENT_2,IDENT_3,IDENT_4,







"src/test/resources/scaffold_eapplication.wadl","cleaned_domain_SLI.wadl",
STRING_0,STRING_1,

























