testMain,main,
METHOD_0,METHOD_1,

inputFilename,outputFilename,modeling,xmi2Psm,cmdline,PsmCreator,
IDENT_0,IDENT_1,IDENT_2,IDENT_3,IDENT_4,IDENT_5,







"src/test/resources/psm_sli.xmi","PsmCreatorOutput.xml",
STRING_0,STRING_1,

























