testGetAccountTypeByRole,getRoleType,getAccountTypeByRole,getAccountType,
METHOD_0,METHOD_1,METHOD_2,METHOD_3,

cloudstack,acl,Role,role,RoleType,Admin,Short,accountType,
IDENT_0,IDENT_1,IDENT_2,IDENT_3,IDENT_4,IDENT_5,IDENT_6,IDENT_7,

100L,
INT_0,































