testSmsGetByID,_setupTestSms,getByID,_checksmsIntoDb,getSmsId,
METHOD_0,METHOD_1,METHOD_2,METHOD_3,METHOD_4,

isf,sms,Sms,foundSms,smsIoOperation,smsId,
IDENT_0,IDENT_1,IDENT_2,IDENT_3,IDENT_4,IDENT_5,


































