testBumpUpCommand,BumpUpPriorityCommand,executeRequest,getResult,
METHOD_0,METHOD_1,METHOD_2,METHOD_3,

agent,BumpUpPriorityCommand,cmd,Answer,answer,_resource,
IDENT_0,IDENT_1,IDENT_2,IDENT_3,IDENT_4,IDENT_5,


































