testCmdletString,keySet,parseCmdletString,nextInt,
METHOD_0,METHOD_1,METHOD_2,METHOD_3,

strs,items,smartdata,StringUtil,Array,cmdlet,TestCompressionReadWrite,BytesGenerator,CACHE,rnd,
IDENT_0,IDENT_1,IDENT_2,IDENT_3,IDENT_4,IDENT_5,IDENT_6,IDENT_7,IDENT_8,IDENT_9,







"int a b -c d -e f \"gg \' kk \' ff\" \" mn \"","cat /dir/file "," -> ",
STRING_0,STRING_1,STRING_2,

























