testBuilderWithId,getID,
METHOD_0,METHOD_1,

intuit,wasabi,experimentobjects,PrioritizedExperiment,prioExp,
IDENT_0,IDENT_1,IDENT_2,IDENT_3,IDENT_4,


































