normalHashWorks,trits,Curl,absorb,squeeze,trytes,
METHOD_0,METHOD_1,METHOD_2,METHOD_3,METHOD_4,METHOD_5,

in_trits,iota,iri,Converter,trytes,hash_trits,Curl,HASH_LENGTH,Sponge,curl,SpongeFactory,Mode,CURLP81,out_trytes,
IDENT_0,IDENT_1,IDENT_2,IDENT_3,IDENT_4,IDENT_5,IDENT_6,IDENT_7,IDENT_8,IDENT_9,IDENT_10,IDENT_11,IDENT_12,IDENT_13,

8019,
INT_0,































