testGenerateUniformDistribution,generateUniformDistribution,
METHOD_0,METHOD_1,

objects,LinkedList,datascience,ProbabilityDistributions,jobStorage,
IDENT_0,IDENT_1,IDENT_2,IDENT_3,IDENT_4,


































