testSetAndGetId,RoleAssignment,
METHOD_0,METHOD_1,

roleAssignment,harvard,iq,dataverse,dataverseRole,roleAssignee,privateUrlToken,
IDENT_0,IDENT_1,IDENT_2,IDENT_3,IDENT_4,IDENT_5,IDENT_6,

12345L,
INT_0,































