testGetUserIdentifier,getUserIdentifier,
METHOD_0,METHOD_1,

harvard,iq,dataverse,users,AuthenticatedUserTest,testUser,userIdentifier,
IDENT_0,IDENT_1,IDENT_2,IDENT_3,IDENT_4,IDENT_5,IDENT_6,







"getUserIdentifier",
STRING_0,

























