testUnset,fullSet,allIndices,unset,isSet,
METHOD_0,METHOD_1,METHOD_2,METHOD_3,METHOD_4,

sut,harvard,iq,dataverse,BitSet,idx,
IDENT_0,IDENT_1,IDENT_2,IDENT_3,IDENT_4,IDENT_5,


































