testUpdateQueue,QueueModel,setMessageTimeout,getMessageTimeout,
METHOD_0,METHOD_1,METHOD_2,METHOD_3,

iron,ironmq,QueueModel,messageTimeout,
IDENT_0,IDENT_1,IDENT_2,IDENT_3,

69,
INT_0,































