testThatColorCanBeConvertedFromHexToRgb,hexStringToARGB,
METHOD_0,METHOD_1,

colors,itarray,automotion,general,SystemHelper,hexARGB,
IDENT_0,IDENT_1,IDENT_2,IDENT_3,IDENT_4,IDENT_5,







"rgb(0,0,0)","#000000","rgb(255,255,255)","#FFFFFF","rgba(255,255,255,1.0)","#FFFFFFFF","rgb(251,220,220)","#00FFFFFF","rgba(255,255,255,0.2)","rgba(255,255,255,0.5)",
STRING_0,STRING_1,STRING_2,STRING_3,STRING_4,STRING_5,STRING_6,STRING_7,STRING_8,STRING_9,

























