testGetMVS,FTPParserSelector,getParser,preParse,parseFTPEntry,
METHOD_0,METHOD_1,METHOD_2,METHOD_3,METHOD_4,

ftp,CompositeFileEntryParser,typeStr,usr,grp,filesize,datestr,endtoken,
IDENT_0,IDENT_1,IDENT_2,IDENT_3,IDENT_4,IDENT_5,IDENT_6,IDENT_7,

17,21,22,23,24,
INT_0,INT_1,INT_2,INT_3,INT_4,




"MVS is the operating system of this server. FTP Server is running on z/OS.","drwxr-xr-x 6 START2 SYS1 8192 Oct 28 2008 ADCD","total 66",
STRING_0,STRING_1,STRING_2,

























