testParse,parseFTPEntry,
METHOD_0,METHOD_1,

sample,ftp,NTFTPEntryParserTest,samples,typeStr,usr,grp,filesize,datestr,endtoken,
IDENT_0,IDENT_1,IDENT_2,IDENT_3,IDENT_4,IDENT_5,IDENT_6,IDENT_7,IDENT_8,IDENT_9,

17,21,22,23,24,
INT_0,INT_1,INT_2,INT_3,INT_4,































