rotateTest,getRotateInstance,AffineTransform,setToRotation,
METHOD_0,METHOD_1,METHOD_2,METHOD_3,

AffineTransform,rotateOne,PI,angle,
IDENT_0,IDENT_1,IDENT_2,IDENT_3,


































