getIntersectionTest03,Rectangle,getIntersection,equalsWithEpsilon,
METHOD_0,METHOD_1,METHOD_2,METHOD_3,

Rectangle,main,second,areEqual,EPS,
IDENT_0,IDENT_1,IDENT_2,IDENT_3,IDENT_4,


































