testRandomSimpleFF,isEqual,getDimensions,getElements,abs,
METHOD_0,METHOD_1,METHOD_2,METHOD_3,METHOD_4,

seed,neuralnetworks,tensor,Tensor,seqResult,Runtime,CPU_SEQ,openclResult,OPENCL,t1,t2,TensorIterator,it1,it2,
IDENT_0,IDENT_1,IDENT_2,IDENT_3,IDENT_4,IDENT_5,IDENT_6,IDENT_7,IDENT_8,IDENT_9,IDENT_10,IDENT_11,IDENT_12,IDENT_13,

123456789,
INT_0,







1.0E-6,
FLOAT_0,






















