testCreate,createDao,One,setDao,checkForDao,SuppressWarnings,
METHOD_0,METHOD_1,METHOD_2,METHOD_3,METHOD_4,METHOD_5,

j256,ormlite,Dao,misc,BaseDaoEnabledTest,One,one,stuff,
IDENT_0,IDENT_1,IDENT_2,IDENT_3,IDENT_4,IDENT_5,IDENT_6,IDENT_7,







"fewpfjewfew","unchecked",
STRING_0,STRING_1,

























