testSetNumber,SelectArg,setMetaInfo,getSqlArgValue,
METHOD_0,METHOD_1,METHOD_2,METHOD_3,

j256,ormlite,SelectArg,selectArg,numberFieldType,
IDENT_0,IDENT_1,IDENT_2,IDENT_3,IDENT_4,







"val",
STRING_0,

























