testGetBytes,createMock,getMetaData,JdbcDatabaseResults,
METHOD_0,METHOD_1,METHOD_2,METHOD_3,

PreparedStatement,preparedStatement,resultSet,colN,j256,ormlite,JdbcDatabaseResults,columnIndex,
IDENT_0,IDENT_1,IDENT_2,IDENT_3,IDENT_4,IDENT_5,IDENT_6,IDENT_7,

120,23,17,
INT_0,INT_1,INT_2,































