testSetAttributeToString,setAttribute,getAttribute,checkClientConnected,
METHOD_0,METHOD_1,METHOD_2,METHOD_3,

j256,simplejmx,JmxClientTest,objectName,ObjectName,mbeanConn,attributeName,
IDENT_0,IDENT_1,IDENT_2,IDENT_3,IDENT_4,IDENT_5,IDENT_6,

2131231231,
INT_0,




"x",
STRING_0,

























