testInvokeOperationStrings,invokeOperation,
METHOD_0,METHOD_1,

val1,val2,j256,simplejmx,JmxClientTest,objectName,Short,ObjectName,mbeanConn,operName,paramTypes,
IDENT_0,IDENT_1,IDENT_2,IDENT_3,IDENT_4,IDENT_5,IDENT_6,IDENT_7,IDENT_8,IDENT_9,IDENT_10,

231,524,
INT_0,INT_1,




"times",
STRING_0,

























