testControlledDescEmpty,ControlledMetricAccum,getDescription,
METHOD_0,METHOD_1,METHOD_2,

j256,simplemetrics,metric,ControlledMetricAccum,
IDENT_0,IDENT_1,IDENT_2,IDENT_3,







"c","m","n",
STRING_0,STRING_1,STRING_2,

























