testGetPackageName1,ClassCoverageImpl,getPackageName,
METHOD_0,METHOD_1,METHOD_2,

jacoco,ClassCoverageImpl,packagename,
IDENT_0,IDENT_1,IDENT_2,







"ClassInDefaultPackage",
STRING_0,

























