testHashCode3,
METHOD_0,

jacoco,ICounter,c1,CounterImpl,c2,printer,
IDENT_0,IDENT_1,IDENT_2,IDENT_3,IDENT_4,IDENT_5,

300,123,124,
INT_0,INT_1,INT_2,































