testSetInstruction,Instruction,setInstruction,getInstruction,
METHOD_0,METHOD_1,METHOD_2,METHOD_3,

jacoco,Instruction,instruction,LabelInfo,label,objectweb,asm,Label,
IDENT_0,IDENT_1,IDENT_2,IDENT_3,IDENT_4,IDENT_5,IDENT_6,IDENT_7,

123,
INT_0,































