testVisitProbe,visitProbe,visitLdcInsn,
METHOD_0,METHOD_1,METHOD_2,

instrumenter,expectedVisitor,successor,
IDENT_0,IDENT_1,IDENT_2,

33,
INT_0,




"Probe 33",
STRING_0,

























