testGetAppendFalse,AgentOptions,getAppend,getOption,
METHOD_0,METHOD_1,METHOD_2,METHOD_3,

jacoco,AgentOptions,APPEND,
IDENT_0,IDENT_1,IDENT_2,







"append=false",
STRING_0,

























