testSetAddress,AgentOptions,setAddress,getAddress,getOption,
METHOD_0,METHOD_1,METHOD_2,METHOD_3,METHOD_4,

jacoco,AgentOptions,ADDRESS,DEFAULT_ADDRESS,
IDENT_0,IDENT_1,IDENT_2,IDENT_3,







"remotehost",
STRING_0,

























