testSetLimits,Limit,setLimits,getLimits,
METHOD_0,METHOD_1,METHOD_2,METHOD_3,

jacoco,check,Limit,l1,l2,l3,limits,
IDENT_0,IDENT_1,IDENT_2,IDENT_3,IDENT_4,IDENT_5,IDENT_6,


































