test_pass_null,getClientOrb,create_any,TestStruct,extract,
METHOD_0,METHOD_1,METHOD_2,METHOD_3,METHOD_4,

omg,CORBA,Any,setup,jacorb,bugs,bug387,TestStruct,TestStructHelper,testStruct,
IDENT_0,IDENT_1,IDENT_2,IDENT_3,IDENT_4,IDENT_5,IDENT_6,IDENT_7,IDENT_8,IDENT_9,


































