testAvailable,create_output_stream,write_long,create_input_stream,read_octet,available,
METHOD_0,METHOD_1,METHOD_2,METHOD_3,METHOD_4,METHOD_5,

omg,CORBA,portable,OutputStream,orb,
IDENT_0,IDENT_1,IDENT_2,IDENT_3,IDENT_4,

1234,
INT_0,































