test_alias2,getClientOrb,create_any,insert_string,ObjectInvalid,check_object,
METHOD_0,METHOD_1,METHOD_2,METHOD_3,METHOD_4,METHOD_5,

testValue,omg,CORBA,Any,outAny,setup,jacorb,orb,MyStringAliasHelper,inAny,obj1,current,ops,
IDENT_0,IDENT_1,IDENT_2,IDENT_3,IDENT_4,IDENT_5,IDENT_6,IDENT_7,IDENT_8,IDENT_9,IDENT_10,IDENT_11,IDENT_12,


































