parametersInQuery,requestURI,KeyValues,getParameters,
METHOD_0,METHOD_1,METHOD_2,METHOD_3,

jadler,Request,RequestTest,METHOD,PARAM1_NAME,PARAM1_VALUE1,PARAM1_VALUE2,PARAM2_NAME,PARAM2_VALUE,KeyValues,
IDENT_0,IDENT_1,IDENT_2,IDENT_3,IDENT_4,IDENT_5,IDENT_6,IDENT_7,IDENT_8,IDENT_9,







"http://localhost/?%s=%s&%s=%s&%s=%s",
STRING_0,

























