sameIdentifierSize,FairQueue,Q,
METHOD_0,METHOD_1,METHOD_2,

jagrosh,jmusicbot,FairQueue,FairQueueTest,Q,
IDENT_0,IDENT_1,IDENT_2,IDENT_3,IDENT_4,


































