testCategoriesRoot,getCategoriesRoot,getCurrentUser,
METHOD_0,METHOD_1,METHOD_2,

rootCategory,jahia,categories,Category,JCRSessionFactory,
IDENT_0,IDENT_1,IDENT_2,IDENT_3,IDENT_4,


































