assocAsa1000v,assignAsa1000v,isEncrypted,decrypt,
METHOD_0,METHOD_1,METHOD_2,METHOD_3,

cisco,CiscoVnmcConnectionTest,tenantName,fwDns,crypt,DBEncryptionUtil,
IDENT_0,IDENT_1,IDENT_2,IDENT_3,IDENT_4,IDENT_5,


































