shouldEqualGivenSameContents,
METHOD_0,

webamoeba,LinkedSortedSet,otherSet,
IDENT_0,IDENT_1,IDENT_2,







"One","Two",
STRING_0,STRING_1,

























