testBigString,clone,clonePojo,
METHOD_0,METHOD_1,METHOD_2,

bigString,l2,mapdb,elsa,ElsaSerializerBaseTest,E,
IDENT_0,IDENT_1,IDENT_2,IDENT_3,IDENT_4,IDENT_5,










10000.0,
FLOAT_0,

%,
OP_0,



















