testFloatArray,clone,clonePojo,
METHOD_0,METHOD_1,METHOD_2,

deserialize,mapdb,elsa,ElsaSerializerBaseTest,E,
IDENT_0,IDENT_1,IDENT_2,IDENT_3,IDENT_4,










1.0F,1.234235F,
FLOAT_0,FLOAT_1,






















