should_not_say_anything_if_it_doesnt_know_how_long_the_next_build_is_supposed_to_take,jobView,estimatedDuration,formatted,lastBuild,
METHOD_0,METHOD_1,METHOD_2,METHOD_3,METHOD_4,





































