no_max_length,_split,
METHOD_0,METHOD_1,

oakbot,chat,SplitStrategy,maxLength,
IDENT_0,IDENT_1,IDENT_2,IDENT_3,







"message",
STRING_0,

























