shouldParseMultipleHostAndPorts,ElasticSearchSink,configure,InetSocketTransportAddress,getServerAddresses,
METHOD_0,METHOD_1,METHOD_2,METHOD_3,METHOD_4,

flume,sink,ElasticSearchSinkConstants,HOSTNAMES,InetSocketTransportAddress,serverAddresses,
IDENT_0,IDENT_1,IDENT_2,IDENT_3,IDENT_4,IDENT_5,

9300,9301,9302,
INT_0,INT_1,INT_2,




"10.5.5.27:9300,10.5.5.28:9301,10.5.5.29:9302","10.5.5.27","10.5.5.28","10.5.5.29",
STRING_0,STRING_1,STRING_2,STRING_3,

























