chain8,chain,getDeclaredMethods,reject,uniq,sort,U,
METHOD_0,METHOD_1,METHOD_2,METHOD_3,METHOD_4,METHOD_5,METHOD_6,

Comparable,underscore,U,Function,Predicate,Character,resultObj,resultChain,Iterable,iterable,
IDENT_0,IDENT_1,IDENT_2,IDENT_3,IDENT_4,IDENT_5,IDENT_6,IDENT_7,IDENT_8,IDENT_9,




private,
MOD_0,

"$",
STRING_0,

























