testMapToBean2,Bean1,mapToBean,getSetter,
METHOD_0,METHOD_1,METHOD_2,METHOD_3,

enterprise,BeanUtilsTest,Bean1,BeanUtils,mtd,ignoreNotExistingSetter,IllegalAccessException,
IDENT_0,IDENT_1,IDENT_2,IDENT_3,IDENT_4,IDENT_5,IDENT_6,







"one","hello","two","some",
STRING_0,STRING_1,STRING_2,STRING_3,

























