testGuiceHK2GuiceHK2,check,
METHOD_0,METHOD_1,

jvnet,hk2,guice,bridge,bidirectional,GuiceService1_3,guice3,injector,beanMap,
IDENT_0,IDENT_1,IDENT_2,IDENT_3,IDENT_4,IDENT_5,IDENT_6,IDENT_7,IDENT_8,


































