testGetTailExample3a,CollectorFormatter,LogRecord,setEpochMilli,getMillis,getTail,
METHOD_0,METHOD_1,METHOD_2,METHOD_3,METHOD_4,METHOD_5,

CollectorFormatter,cf,LogRecord,Level,SEVERE,mid,Handler,h,footer,
IDENT_0,IDENT_1,IDENT_2,IDENT_3,IDENT_4,IDENT_5,IDENT_6,IDENT_7,IDENT_8,

1248203502449L,71,110500,
INT_0,INT_1,INT_2,




"These {3} messages occurred between\n","{7,date,EEE, MMM dd HH:mm:ss:S ZZZ yyyy}"," and {8,time,EEE, MMM dd HH:mm:ss:S ZZZ yyyy}\n",
STRING_0,STRING_1,STRING_2,

























