test2,ClosedInputStream,take,InterruptedIOException,currentThread,interrupt,
METHOD_0,METHOD_1,METHOD_2,METHOD_3,METHOD_4,METHOD_5,

InterruptedException,interruptible,
IDENT_0,IDENT_1,


































