testChildrenPath,getChildren,
METHOD_0,METHOD_1,

curatorClient,children,mData,
IDENT_0,IDENT_1,IDENT_2,







"/dubbo/org.apache.dubbo.demo.DemoService/providers","/provider1","/provider2",
STRING_0,STRING_1,STRING_2,

























