tokenPassedThrough,getToken,
METHOD_0,METHOD_1,

javaswift,joss,identity,access,KeystoneV3Access,
IDENT_0,IDENT_1,IDENT_2,IDENT_3,IDENT_4,







"token","/sample-v3-auth-response.json",
STRING_0,STRING_1,

























