testGetDescriptionOk,getDescription,
METHOD_0,METHOD_1,

sump,logicsniffer,profile,DeviceProfile,DEVICE_DESCRIPTION,
IDENT_0,IDENT_1,IDENT_2,IDENT_3,IDENT_4,


































