testGetLowestRanked,addValue,getLowestRanked,
METHOD_0,METHOD_1,METHOD_2,

lxtreme,ols,Frequency,TYPE,rank,distribution,
IDENT_0,IDENT_1,IDENT_2,IDENT_3,IDENT_4,IDENT_5,


































