prefixOf1,createHKey,valueAt,putInt32,prefixOf,rowType,getGroup,
METHOD_0,METHOD_1,METHOD_2,METHOD_3,METHOD_4,METHOD_5,METHOD_6,

foundationdb,qp,ValuesHKey,customerKey,HKey,hKey,hKeySegments,cmp,
IDENT_0,IDENT_1,IDENT_2,IDENT_3,IDENT_4,IDENT_5,IDENT_6,IDENT_7,

42,51,
INT_0,INT_1,




"item","customer","Wrong HKey Type for prefixOf",
STRING_0,STRING_1,STRING_2,

























