testCleanUpTokenReferral,cleanUpTokenReferral,substituteVars,getProps,
METHOD_0,METHOD_1,METHOD_2,METHOD_3,

TokenCache,MAPREDUCE_JOB_CREDENTIALS_BINARY,
IDENT_0,IDENT_1,


































