testMissingResource,
METHOD_0,

modules,Resource,servicesMap,
IDENT_0,IDENT_1,IDENT_2,







"/test-bogus.txt","META-INF/services/",
STRING_0,STRING_1,

























