stringValue,
METHOD_0,

msc,Value,DefaultValue,ImmediateValue,
IDENT_0,IDENT_1,IDENT_2,IDENT_3,







"someText","default",
STRING_0,STRING_1,

























