stringValue,
METHOD_0,

msc,ImmediateValue,immediateValue,injector,
IDENT_0,IDENT_1,IDENT_2,IDENT_3,




synchronized,
MOD_0,

"someText","Service is not installed",
STRING_0,STRING_1,

























