plainObjectValue,
METHOD_0,

someObject,msc,ImmediateValue,immediateValue,injector,
IDENT_0,IDENT_1,IDENT_2,IDENT_3,IDENT_4,




synchronized,
MOD_0,

"Service is not installed",
STRING_0,

























