userNamePropertyWithAccessController,SystemPropertyValue,getContext,
METHOD_0,METHOD_1,METHOD_2,

msc,Value,AccessController,
IDENT_0,IDENT_1,IDENT_2,







"user.name",
STRING_0,

























