checkIfConnectionIsClosedWithoutTheConnection,isClosed,getConnectionToTest,ConnectionImple,
METHOD_0,METHOD_1,METHOD_2,METHOD_3,

arjuna,ats,xaDataSource,
IDENT_0,IDENT_1,IDENT_2,


































