Vector,XidImple,Uid,getXANodeName,
METHOD_0,METHOD_1,METHOD_2,METHOD_3,

Vector,xaRecoveryNodes,arjuna,ats,jta,xa,XidImple,xid,nodeName,XAUtils,Xid,xidImple,_whenFirstSeen,
IDENT_0,IDENT_1,IDENT_2,IDENT_3,IDENT_4,IDENT_5,IDENT_6,IDENT_7,IDENT_8,IDENT_9,IDENT_10,IDENT_11,IDENT_12,







"Bogus XA node name: ","XA node name: ","Xid to recover: ",
STRING_0,STRING_1,STRING_2,

























