testEncodeDecode,Msg,setTitle,setContent,setSize,decodeHex,toCharArray,
METHOD_0,METHOD_1,METHOD_2,METHOD_3,METHOD_4,METHOD_5,METHOD_6,

nabalive,TokenTest,Msg,encoded,TokenUtil,decoded,binary,Hex,
IDENT_0,IDENT_1,IDENT_2,IDENT_3,IDENT_4,IDENT_5,IDENT_6,IDENT_7,







"toto","cool ca marche?","encoded: ",
STRING_0,STRING_1,STRING_2,

























