checkPositiveOrZeroMustPassIfArgumentIsGreaterThanZero,checkPositiveOrZero,
METHOD_0,METHOD_1,

jctools,RangeUtil,
IDENT_0,IDENT_1,







"var",": "," (expected: >= 0)",
STRING_0,STRING_1,STRING_2,

























