artistSearch,buildQuery,sanitise,
METHOD_0,METHOD_1,METHOD_2,

musicbrainz,webservice,QueryBuilder,SEARCH_ARTIST,WebServiceUtils,searchTerm,
IDENT_0,IDENT_1,IDENT_2,IDENT_3,IDENT_4,IDENT_5,







"http://musicbrainz.org/ws/2/artist?query=owen","owen",
STRING_0,STRING_1,

























