testTwoPointersToSameInstanceArray,clone,getIdFetcher,
METHOD_0,METHOD_1,METHOD_2,

cedarsoftware,TestGraphComparator,X,Y,B,C,D,A,Acopy,deltas,GraphComparator,
IDENT_0,IDENT_1,IDENT_2,IDENT_3,IDENT_4,IDENT_5,IDENT_6,IDENT_7,IDENT_8,IDENT_9,IDENT_10,







"X","Y","B","C","D",
STRING_0,STRING_1,STRING_2,STRING_3,STRING_4,

























