testCrea,Colegio,setNombre,setStatus,crea,
METHOD_0,METHOD_1,METHOD_2,METHOD_3,METHOD_4,

mx,um,mateo,rh,ColegioDaoTest,Colegio,colegio,colegioDao,
IDENT_0,IDENT_1,IDENT_2,IDENT_3,IDENT_4,IDENT_5,IDENT_6,IDENT_7,







"crea","Test","A",
STRING_0,STRING_1,STRING_2,

























