testCreateTodoList,getCurrentUser,persist,createTodoList,getTodoLists,
METHOD_0,METHOD_1,METHOD_2,METHOD_3,METHOD_4,

userService,todoList,todoListsService,todoLists,
IDENT_0,IDENT_1,IDENT_2,IDENT_3,


































