testPriorityFromAnnotation,Rule,then,MyRule,asRule,getPriority,
METHOD_0,METHOD_1,METHOD_2,METHOD_3,METHOD_4,METHOD_5,

jeasy,priority,MyRule,Condition,Action,RuleProxy,
IDENT_0,IDENT_1,IDENT_2,IDENT_3,IDENT_4,IDENT_5,


































