testBackwardClosure,DirectedGraph,addEdge,sourcesClosure,
METHOD_0,METHOD_1,METHOD_2,METHOD_3,

addthis,hydra,DirectedGraph,resultArray,retval,workSet,sourceEdges,sourceNode,
IDENT_0,IDENT_1,IDENT_2,IDENT_3,IDENT_4,IDENT_5,IDENT_6,IDENT_7,







"D","F","G","H","A","B",
STRING_0,STRING_1,STRING_2,STRING_3,STRING_4,STRING_5,

























