testToQueryUri_EmptyPath,toJsonApiUri,
METHOD_0,METHOD_1,

suri,offbytwo,UrlUtils,literalVersion,
IDENT_0,IDENT_1,IDENT_2,IDENT_3,







"http://localhost/jenkins","jenkins","http://localhost/jenkins/api/json",
STRING_0,STRING_1,STRING_2,

























