testToNoQueryUri_EmptyPath,toNoApiUri,
METHOD_0,METHOD_1,

suri,offbytwo,UrlUtils,literalVersion,
IDENT_0,IDENT_1,IDENT_2,IDENT_3,







"http://localhost/jenkins","jenkins",
STRING_0,STRING_1,

























