testParsedDate,parsedDate,SimpleDateFormat,
METHOD_0,METHOD_1,METHOD_2,

timeStamp,jobConfigHistory,PluginUtils,JobConfigHistoryConsts,ID_FORMATTER,ParseException,
IDENT_0,IDENT_1,IDENT_2,IDENT_3,IDENT_4,IDENT_5,

112,21,11,29,
INT_0,INT_1,INT_2,INT_3,




"2012-11-21_11-29-12","Could not parse Date",
STRING_0,STRING_1,

























