testSetListItemB,setIndexedProperty,getStringList,
METHOD_0,METHOD_1,METHOD_2,

propertyUtilsBean,stringList,
IDENT_0,IDENT_1,







"stringList","modified-1",
STRING_0,STRING_1,

























