containsScript,Script,singleton,getContent,
METHOD_0,METHOD_1,METHOD_2,METHOD_3,

jenkinsci,postbuildscript,Script,ScriptTest,RESULT,CONTENT,
IDENT_0,IDENT_1,IDENT_2,IDENT_3,IDENT_4,IDENT_5,


































