putNewReadWriteProperty,getReadMethod,readProperty,
METHOD_0,METHOD_1,METHOD_2,

descriptors,PropertyDescriptor,descriptor,
IDENT_0,IDENT_1,IDENT_2,







"readWrite","new readWrite",
STRING_0,STRING_1,

























