testContent,setYaml,getYaml,
METHOD_0,METHOD_1,METHOD_2,

dsl,YamlAction,YamlActionTest,CONTENT,yaml,
IDENT_0,IDENT_1,IDENT_2,IDENT_3,IDENT_4,


































