testIsOpen,isOpen,
METHOD_0,METHOD_1,

owasp,dependencycheck,cpe,CpeMemoryIndexTest,CpeMemoryIndex,usageCount,
IDENT_0,IDENT_1,IDENT_2,IDENT_3,IDENT_4,IDENT_5,


































