testCreateValueFile,createValue,
METHOD_0,METHOD_1,

TypeHandler,PatternOptionBuilder,FILE_VALUE,
IDENT_0,IDENT_1,IDENT_2,







"some-file.txt",
STRING_0,

























