testParsePreVersion,parsePreVersion,parseVersion,
METHOD_0,METHOD_1,METHOD_2,

owasp,dependencycheck,DependencyVersionUtil,Matcher,RX_PRE_VERSION,
IDENT_0,IDENT_1,IDENT_2,IDENT_3,IDENT_4,







"library-name-1.4.1r2-release.jar","library-name",
STRING_0,STRING_1,

























