testSetName,Model,
METHOD_0,METHOD_1,

owasp,dependencycheck,pom,Model,
IDENT_0,IDENT_1,IDENT_2,IDENT_3,







"test-project",
STRING_0,

























