testGetDescription,Model,setDescription,getDescription,
METHOD_0,METHOD_1,METHOD_2,METHOD_3,

owasp,dependencycheck,pom,Model,
IDENT_0,IDENT_1,IDENT_2,IDENT_3,


































