testGetIntDefault,getSettings,setString,getInt,parseInt,
METHOD_0,METHOD_1,METHOD_2,METHOD_3,METHOD_4,

NumberFormatException,owasp,dependencycheck,Settings,defaultValue,
IDENT_0,IDENT_1,IDENT_2,IDENT_3,IDENT_4,

85,
INT_0,




"SomeKey","blue","Could not convert property '{}={}' to an int; using {} instead.",
STRING_0,STRING_1,STRING_2,

























