test_bs_float,BitString,
METHOD_0,METHOD_1,

jerlang,BitString,bitString,Tuple,nil,Term,erts,Erlang,Atom,ISO_8859_1,
IDENT_0,IDENT_1,IDENT_2,IDENT_3,IDENT_4,IDENT_5,IDENT_6,IDENT_7,IDENT_8,IDENT_9,

17,160,
INT_0,INT_1,




"bs_get_binary2",
STRING_0,

























