test_bs_get_utf32,Binary,
METHOD_0,METHOD_1,

jerlang,Term,erts,Erlang,Atom,ISO_8859_1,
IDENT_0,IDENT_1,IDENT_2,IDENT_3,IDENT_4,IDENT_5,

65,
INT_0,




'A','B',"bs_get_utf","test32",
STRING_0,STRING_1,STRING_2,STRING_3,

























