test_bs_match_string2,Binary,
METHOD_0,METHOD_1,

jerlang,Binary,Term,erts,Erlang,Atom,ISO_8859_1,
IDENT_0,IDENT_1,IDENT_2,IDENT_3,IDENT_4,IDENT_5,IDENT_6,







"bs_match_string",
STRING_0,

























