test_bs_put_string,
METHOD_0,

jerlang,Atom,nil,Term,erts,Erlang,ISO_8859_1,
IDENT_0,IDENT_1,IDENT_2,IDENT_3,IDENT_4,IDENT_5,IDENT_6,







"ok","bs_put_string",
STRING_0,STRING_1,

























