test_bs_restore2_2,Binary,
METHOD_0,METHOD_1,

jerlang,Atom,Term,erts,Erlang,ISO_8859_1,
IDENT_0,IDENT_1,IDENT_2,IDENT_3,IDENT_4,IDENT_5,







"halfbyte","bs_restore2",
STRING_0,STRING_1,

























