test_bs_skip_utf8,Binary,
METHOD_0,METHOD_1,

jerlang,Binary,Term,erts,Erlang,Atom,ISO_8859_1,
IDENT_0,IDENT_1,IDENT_2,IDENT_3,IDENT_4,IDENT_5,IDENT_6,







'B','A',"bs_skip_utf","test8",
STRING_0,STRING_1,STRING_2,STRING_3,

























