test_tuple,
METHOD_0,

jerlang,one,Tuple,nil,Term,erts,Erlang,Atom,ISO_8859_1,
IDENT_0,IDENT_1,IDENT_2,IDENT_3,IDENT_4,IDENT_5,IDENT_6,IDENT_7,IDENT_8,







"tuple",
STRING_0,

























