ltTypeAndBackspaceReturnsFocus,createTestCell,backspace,focused,
METHOD_0,METHOD_1,METHOD_2,METHOD_3,

jetbrains,jetpad,cell,TextCell,peer,
IDENT_0,IDENT_1,IDENT_2,IDENT_3,IDENT_4,







"x",
STRING_0,

























