completionShouldntBeShownTwice,complete,bottomPopup,getProp,
METHOD_0,METHOD_1,METHOD_2,METHOD_3,

jetbrains,jetpad,cell,Cell,popup,BOTTOM_POPUP,
IDENT_0,IDENT_1,IDENT_2,IDENT_3,IDENT_4,IDENT_5,


































