saveRestore,TreePath,IndexOutOfBoundsException,
METHOD_0,METHOD_1,METHOD_2,

jetbrains,jetpad,composite,TreePath,TestComposite,path1,child1,myEmpty,myItem,
IDENT_0,IDENT_1,IDENT_2,IDENT_3,IDENT_4,IDENT_5,IDENT_6,IDENT_7,IDENT_8,


































