exceptionInFailureHandler,onFailure,throwingHandler,failure,hasFailed,
METHOD_0,METHOD_1,METHOD_2,METHOD_3,METHOD_4,

async,myFailed,
IDENT_0,IDENT_1,


































