mapFailure,constant,failed,failure,
METHOD_0,METHOD_1,METHOD_2,METHOD_3,

jetbrains,jetpad,Async,Asyncs,mapped,Function,AsyncMatchers,IsAnything,
IDENT_0,IDENT_1,IDENT_2,IDENT_3,IDENT_4,IDENT_5,IDENT_6,IDENT_7,


































