oneInsideOfAnother,DoubleRectangle,DoubleVector,intersect,subtract,
METHOD_0,METHOD_1,METHOD_2,METHOD_3,METHOD_4,

jetbrains,jetpad,DoubleRectangle,r1,r2,t1,origin,t2,dimension,res1,res2,dim,
IDENT_0,IDENT_1,IDENT_2,IDENT_3,IDENT_4,IDENT_5,IDENT_6,IDENT_7,IDENT_8,IDENT_9,IDENT_10,IDENT_11,


































