addPass,notNullBuilder,createPredicatedList,
METHOD_0,METHOD_1,METHOD_2,

collections4,PredicatedCollection,E,
IDENT_0,IDENT_1,IDENT_2,


































