testEquals,DateTickUnit,
METHOD_0,METHOD_1,

axis,DateTickUnit,t1,DateTickUnitType,DAY,t2,xy,YWithXInterval,xLow,xHigh,
IDENT_0,IDENT_1,IDENT_2,IDENT_3,IDENT_4,IDENT_5,IDENT_6,IDENT_7,IDENT_8,IDENT_9,


































