testGetUnpackSizeTwo,Folder,getUnpackSize,findBindPairForOutStream,
METHOD_0,METHOD_1,METHOD_2,METHOD_3,

compress,archivers,sevenz,Folder,folder,totalOutputStreams,unpackSizes,
IDENT_0,IDENT_1,IDENT_2,IDENT_3,IDENT_4,IDENT_5,IDENT_6,













--,
OP_0,



















