testDropScript,clean,relaxed,Whitelist,addTags,addAttributes,addProtocols,
METHOD_0,METHOD_1,METHOD_2,METHOD_3,METHOD_4,METHOD_5,METHOD_6,

h,cleanHtml,Jsoup,safety,Whitelist,
IDENT_0,IDENT_1,IDENT_2,IDENT_3,IDENT_4,







"<SCRIPT SRC=//ha.ckers.org/.j><SCRIPT>alert(/XSS/.source)</SCRIPT>","p","tfoot","q","strike","dt","tbody","h5","sub","abbr",
STRING_0,STRING_1,STRING_2,STRING_3,STRING_4,STRING_5,STRING_6,STRING_7,STRING_8,STRING_9,

























