testSetBitMultiByte,sizeBytes,
METHOD_0,METHOD_1,

jitsi,neomedia,fec,FlexFec03BitSet,bitSet,currBitPos,numBits,bytePos,relativeBitPos,
IDENT_0,IDENT_1,IDENT_2,IDENT_3,IDENT_4,IDENT_5,IDENT_6,IDENT_7,IDENT_8,

112,128,
INT_0,INT_1,










|=,%,
OP_0,OP_1,



















