testUint24,nextInt,writeUint24,readUint24AsInt,
METHOD_0,METHOD_1,METHOD_2,METHOD_3,

jitsi,RTPUtilsTest,RTPUtils,b1,off,b2,b3,
IDENT_0,IDENT_1,IDENT_2,IDENT_3,IDENT_4,IDENT_5,IDENT_6,

10000,16777215,
INT_0,INT_1,































