qualifiedListAccess,Handlebars,compileInline,
METHOD_0,METHOD_1,METHOD_2,

jknack,handlebars,Handlebars,Template,blog,
IDENT_0,IDENT_1,IDENT_2,IDENT_3,IDENT_4,







"{{list.[0].title}}","title","First Post!","list",
STRING_0,STRING_1,STRING_2,STRING_3,

























