testSettingMissingProperty,addConfiguration,makePath,
METHOD_0,METHOD_1,METHOD_2,

conf1,xmlConf,
IDENT_0,IDENT_1,







"my.new.property","supernew",
STRING_0,STRING_1,

























