testFindAll,findAll,createQuery,getResultList,
METHOD_0,METHOD_1,METHOD_2,METHOD_3,

entityManager,
IDENT_0,







"SELECT img FROM Image img ORDER BY img.date desc",
STRING_0,

























