mockFileOutputStreamInstantiation,Expectations,FileOutputStream,
METHOD_0,METHOD_1,METHOD_2,

fileName,mockit,FileOutputStream,OutputStream,os,
IDENT_0,IDENT_1,IDENT_2,IDENT_3,IDENT_4,

123,
INT_0,




"test.txt",
STRING_0,

























