mockClassExtendingAGenericBaseClassHavingTypeArgumentOfArrayType,doSomething,
METHOD_0,METHOD_1,

mockit,GenericMockedTypesTest$DerivedClass,Number,
IDENT_0,IDENT_1,IDENT_2,


































