testGetCuts,getMaxSize,SuppressWarnings,getCuts,SAXException,
METHOD_0,METHOD_1,METHOD_2,METHOD_3,METHOD_4,

seninp,jmotif,sax,SAXException,dd,alphabet,NormalAlphabet,case2,case3,case4,case5,case6,case7,case8,case9,case10,case11,case12,case13,case14,case15,case16,case17,case18,case19,case20,
IDENT_0,IDENT_1,IDENT_2,IDENT_3,IDENT_4,IDENT_5,IDENT_6,IDENT_7,IDENT_8,IDENT_9,IDENT_10,IDENT_11,IDENT_12,IDENT_13,IDENT_14,IDENT_15,IDENT_16,IDENT_17,IDENT_18,IDENT_19,IDENT_20,IDENT_21,IDENT_22,IDENT_23,IDENT_24,IDENT_25,

21,11,13,14,17,18,19,
INT_0,INT_1,INT_2,INT_3,INT_4,INT_5,INT_6,




"Should not throw exception","unused","Should throw an exception","Invalid alphabet size.",
STRING_0,STRING_1,STRING_2,STRING_3,

























