test_plus_BigDecimal_zero,plus,
METHOD_0,METHOD_1,

money,BigMoney,TestBigMoney,GBP_2_34,ZERO,amountToAdd,RoundingMode,UNNECESSARY,
IDENT_0,IDENT_1,IDENT_2,IDENT_3,IDENT_4,IDENT_5,IDENT_6,IDENT_7,


































