test_multipliedBy_doubleRoundingMode_one,multipliedBy,multiplyRetainScale,
METHOD_0,METHOD_1,METHOD_2,

money,Money,TestMoney,GBP_2_34,RoundingMode,DOWN,valueToMultiplyBy,roundingMode,
IDENT_0,IDENT_1,IDENT_2,IDENT_3,IDENT_4,IDENT_5,IDENT_6,IDENT_7,


































