testIsRepeatDescription,isRepeatDescription,
METHOD_0,METHOD_1,

isRepeatDescription,productDao,idProduct,
IDENT_0,IDENT_1,IDENT_2,







" iPad Touch 32Gb ",
STRING_0,

























