testAppend,PackageClass,getCanonicalName,
METHOD_0,METHOD_1,METHOD_2,

androidtransfuse,PackageClass,packageClass,PackageClassTest,FULLY_QUALIFIED_NAME,TEST_NAME,pkg,fileName,
IDENT_0,IDENT_1,IDENT_2,IDENT_3,IDENT_4,IDENT_5,IDENT_6,IDENT_7,







".",
STRING_0,

























