sseId,Sse,closeInternal,send,handshake,fromString,ofNullable,
METHOD_0,METHOD_1,METHOD_2,METHOD_3,METHOD_4,METHOD_5,METHOD_6,

jooby,Sse,sse,CompletableFuture,Runnable,
IDENT_0,IDENT_1,IDENT_2,IDENT_3,IDENT_4,




protected,
MOD_0,




























