testSingle1,singleExpression01,full,
METHOD_0,METHOD_1,METHOD_2,

jparsec,SingleExpression,FirstTest,TOKENIZER,IGNORED,Parser,FullExpression,grammar,GrammarTest,
IDENT_0,IDENT_1,IDENT_2,IDENT_3,IDENT_4,IDENT_5,IDENT_6,IDENT_7,IDENT_8,







"readonly",
STRING_0,

























