testHasExactThrowsExceptionWhenNIsNegative,hasExact,checkNonNegative,Pattern,
METHOD_0,METHOD_1,METHOD_2,METHOD_3,

jparsec,Patterns,Checks,CharSequence,src,begin,MISMATCH,
IDENT_0,IDENT_1,IDENT_2,IDENT_3,IDENT_4,IDENT_5,IDENT_6,







"n < 0",".{","}",
STRING_0,STRING_1,STRING_2,

























