giveBlackFromCache,giveBlack,giveTuple,getBlack,
METHOD_0,METHOD_1,METHOD_2,METHOD_3,

pv,jqno,equalsverifier,prefabvalues,PrefabValuesTest,STRING_TAG,TypeTag,tag,
IDENT_0,IDENT_1,IDENT_2,IDENT_3,IDENT_4,IDENT_5,IDENT_6,IDENT_7,


































