putNullAndGetNothingBack,
METHOD_0,

jqno,equalsverifier,prefabvalues,FactoryCacheTest,STRING_FACTORY,factories,PrefabValueFactory,
IDENT_0,IDENT_1,IDENT_2,IDENT_3,IDENT_4,IDENT_5,IDENT_6,


































