testTestWhenTrue,intValue,
METHOD_0,METHOD_1,

functor,Predicate,BinaryPredicatePredicate,IsSame,Float,
IDENT_0,IDENT_1,IDENT_2,IDENT_3,IDENT_4,













%,
OP_0,



















