testJIT_Sync6,AtomicBoolean,runIntoJITSync,currentThread,isJIT,
METHOD_0,METHOD_1,METHOD_2,METHOD_3,METHOD_4,

AtomicBoolean,ok,jrebirth,af,JRebirth,PriorityLevel,Highest,ThreadTest,
IDENT_0,IDENT_1,IDENT_2,IDENT_3,IDENT_4,IDENT_5,IDENT_6,IDENT_7,







"JIT_Sync test 6","Running into ",
STRING_0,STRING_1,

























