testEmptyResponse,getCallback,setIn,handle,isVerified,
METHOD_0,METHOD_1,METHOD_2,METHOD_3,METHOD_4,

jscep,CertificateVerificationCallback,callback,Charsets,US_ASCII,Callback,verified,
IDENT_0,IDENT_1,IDENT_2,IDENT_3,IDENT_4,IDENT_5,IDENT_6,







"%n",
STRING_0,

























