testContains,Capabilities,
METHOD_0,METHOD_1,

jscep,Capabilities,caps,Capability,GET_NEXT_CA_CERT,capability,
IDENT_0,IDENT_1,IDENT_2,IDENT_3,IDENT_4,IDENT_5,


































