shouldNotBeEqualWithDifferentTimeUnitAndAmount,Duration,
METHOD_0,METHOD_1,

expiry,Duration,duration1,DAYS,duration2,MINUTES,Identifier2,
IDENT_0,IDENT_1,IDENT_2,IDENT_3,IDENT_4,IDENT_5,IDENT_6,


































