testAddE,getModel,invokeLater,Runnable,addElement,
METHOD_0,METHOD_1,METHOD_2,METHOD_3,METHOD_4,

swing,DefaultComboBoxModel,comboBox,SwingUtilities,jtrfp,trcl,
IDENT_0,IDENT_1,IDENT_2,IDENT_3,IDENT_4,IDENT_5,


































