testConfigureGridAtNotNull_1_15_1_15,getSubject,configureGridAt,getGrid,getDiameterInTiles,
METHOD_0,METHOD_1,METHOD_2,METHOD_3,METHOD_4,

jtrfp,trcl,MiniMap,mm,diameterInTiles,gpu,SettableTexture,
IDENT_0,IDENT_1,IDENT_2,IDENT_3,IDENT_4,IDENT_5,IDENT_6,


































