testCountPredicate,asEnumerable,
METHOD_0,METHOD_1,

hydromatic,Linq4j,Linq4jTest,depts,Predicate1,Department,employees,
IDENT_0,IDENT_1,IDENT_2,IDENT_3,IDENT_4,IDENT_5,IDENT_6,


































