testList,Employee,asEnumerable,groupBy,into,
METHOD_0,METHOD_1,METHOD_2,METHOD_3,METHOD_4,

hydromatic,Linq4jTest,Employee,employees,Department,empDepts,employee,depts,deptno,Grouping,Linq4j,Function1,
IDENT_0,IDENT_1,IDENT_2,IDENT_3,IDENT_4,IDENT_5,IDENT_6,IDENT_7,IDENT_8,IDENT_9,IDENT_10,IDENT_11,

110,30,120,130,
INT_0,INT_1,INT_2,INT_3,




"Fred","Bill","Eric","Janet","Queryable(expr=",")",
STRING_0,STRING_1,STRING_2,STRING_3,STRING_4,STRING_5,

























