testRemoveAll,UnsupportedOperationException,
METHOD_0,METHOD_1,

functor,FilteredIterable,
IDENT_0,IDENT_1,







"Left as an exercise for the reader.",
STRING_0,

























