testRemoveAll,truePredicate,UnsupportedOperationException,
METHOD_0,METHOD_1,METHOD_2,

functor,FilteredIterator,Constant,
IDENT_0,IDENT_1,IDENT_2,







"Left as an exercise for the reader.",
STRING_0,

























