testSize,checkAll,
METHOD_0,METHOD_1,

expiryCache,
IDENT_0,







"key1","value1","key2","value2","key3","value3","value4",
STRING_0,STRING_1,STRING_2,STRING_3,STRING_4,STRING_5,STRING_6,

























