testCustItemReader,CreditBill,CustomCreditBillItemWriter,getResult,
METHOD_0,METHOD_1,METHOD_2,METHOD_3,

juxtapose,ch07,CreditBill,cust,itemwriter,CustomCreditBillItemWriter,
IDENT_0,IDENT_1,IDENT_2,IDENT_3,IDENT_4,IDENT_5,

320,
INT_0,




"tom","2013-2-2 12:00:08","Lu Jia Zui road","2013-2-3 10:35:21","3","2013-2-11 11:12:38","Longyang road",
STRING_0,STRING_1,STRING_2,STRING_3,STRING_4,STRING_5,STRING_6,

100.0,360.0,
FLOAT_0,FLOAT_1,






















