findByAppIdAndName,generateEndpointGroup,getApplicationId,
METHOD_0,METHOD_1,METHOD_2,

kaaproject,kaa,EndpointGroup,endpointGroup,endpointGroupDao,
IDENT_0,IDENT_1,IDENT_2,IDENT_3,IDENT_4,


































