findByAppIdBlankIdTest,generateUserVerifier,findByAppId,
METHOD_0,METHOD_1,METHOD_2,

kaaproject,kaa,UserVerifier,verifier,verifierDao,rawSchema,
IDENT_0,IDENT_1,IDENT_2,IDENT_3,IDENT_4,IDENT_5,


































