testFindCTLSchemaById,findCtlSchemaById,
METHOD_0,METHOD_1,

kaaproject,kaa,ctl,CTLSchemaDto,ctlService,firstSchema,
IDENT_0,IDENT_1,IDENT_2,IDENT_3,IDENT_4,IDENT_5,


































