testForURLSafeToken,SdkProfileDto,generateSdkToken,getToken,
METHOD_0,METHOD_1,METHOD_2,METHOD_3,

aefMapIdsList,kaaproject,kaa,SdkProfileDto,sdkProfileDto,SdkTokenGenerator,
IDENT_0,IDENT_1,IDENT_2,IDENT_3,IDENT_4,IDENT_5,

100000L,
INT_0,




"290","113","someVerifierToken","15643220456970528206","devuser",
STRING_0,STRING_1,STRING_2,STRING_3,STRING_4,

























