testSaveServerProfileSchema,generateServerProfileSchema,
METHOD_0,METHOD_1,

kaaproject,kaa,ServerProfileSchemaDto,schemaDto,
IDENT_0,IDENT_1,IDENT_2,IDENT_3,


































