testOpenOpenDescending,doubleRange,adapt,toCollection,
METHOD_0,METHOD_1,METHOD_2,METHOD_3,

functor,DoubleRange,Ranges,BoundType,OPEN,loop,IteratorToGeneratorAdapter,CollectionTransformer,E,
IDENT_0,IDENT_1,IDENT_2,IDENT_3,IDENT_4,IDENT_5,IDENT_6,IDENT_7,IDENT_8,










5.0,3.0,4.0,
FLOAT_0,FLOAT_1,FLOAT_2,






















