getLogAppendersByIdTest,createLogAppender,getLogAppender,
METHOD_0,METHOD_1,METHOD_2,

kaaproject,kaa,logs,LogAppenderDto,appenderDto,
IDENT_0,IDENT_1,IDENT_2,IDENT_3,IDENT_4,


































