testClear,addLast,EventOrderTestFilter,clear,getAll,
METHOD_0,METHOD_1,METHOD_2,METHOD_3,METHOD_4,

chain,mina,IoFilterChainTest,IoHandlerChain,head,nextEntry,tail,
IDENT_0,IDENT_1,IDENT_2,IDENT_3,IDENT_4,IDENT_5,IDENT_6,







"A",'A',"B","C","D","E",
STRING_0,STRING_1,STRING_2,STRING_3,STRING_4,STRING_5,

























